<?xml version="1.0" encoding="UTF-8" standalone="no"?>
<!-- Created with Inkscape (http://www.inkscape.org/) -->

<svg
   id="svg2"
   version="1.1"
   inkscape:version="1.2.1 (9c6d41e410, 2022-07-14)"
   width="2481"
   height="3503"
   sodipodi:docname="E14P05.svg"
   xmlns:inkscape="http://www.inkscape.org/namespaces/inkscape"
   xmlns:sodipodi="http://sodipodi.sourceforge.net/DTD/sodipodi-0.dtd"
   xmlns:xlink="http://www.w3.org/1999/xlink"
   xmlns="http://www.w3.org/2000/svg"
   xmlns:svg="http://www.w3.org/2000/svg"
   xmlns:rdf="http://www.w3.org/1999/02/22-rdf-syntax-ns#"
   xmlns:cc="http://creativecommons.org/ns#"
   xmlns:dc="http://purl.org/dc/elements/1.1/">
  <metadata
     id="metadata8">
    <rdf:RDF>
      <cc:Work
         rdf:about="">
        <dc:format>image/svg+xml</dc:format>
        <dc:type
           rdf:resource="http://purl.org/dc/dcmitype/StillImage" />
        <dc:title />
      </cc:Work>
    </rdf:RDF>
  </metadata>
  <defs
     id="defs6">
    <linearGradient
       inkscape:collect="always"
       id="linearGradient4232">
      <stop
         style="stop-color:#2b0000;stop-opacity:1"
         offset="0"
         id="stop4234" />
      <stop
         style="stop-color:#800000;stop-opacity:1"
         offset="1"
         id="stop4236" />
    </linearGradient>
    <filter
       style="color-interpolation-filters:sRGB"
       id="filter5561-7"
       inkscape:label="Roughen">
      <feFlood
         id="feFlood5563-4"
         flood-opacity="1"
         flood-color="rgb(196,140,139)"
         result="flood" />
      <feComposite
         id="feComposite5565-6"
         in2="SourceGraphic"
         in="flood"
         operator="in"
         result="composite1" />
      <feMorphology
         id="feMorphology5567-3"
         operator="dilate"
         radius="2"
         result="result3" />
      <feComposite
         id="feComposite5569-6"
         in2="result3"
         in="SourceGraphic"
         operator="over"
         result="fbSourceGraphic"
         radius="3.3999999999999999" />
      <feColorMatrix
         result="fbSourceGraphicAlpha"
         in="fbSourceGraphic"
         values="0 0 0 -1 0 0 0 0 -1 0 0 0 0 -1 0 0 0 0 1 0"
         id="feColorMatrix4681" />
      <feTurbulence
         id="feTurbulence4683"
         type="fractalNoise"
         numOctaves="1"
         seed="20"
         baseFrequency="0.0030000000000000001 0.044999999999999998"
         result="turbulence" />
      <feDisplacementMap
         id="feDisplacementMap4685"
         in2="turbulence"
         in="fbSourceGraphic"
         scale="37.8"
         yChannelSelector="G"
         xChannelSelector="R" />
    </filter>
    <linearGradient
       inkscape:collect="always"
       xlink:href="#linearGradient4232"
       id="linearGradient4238-1"
       x1="1956.4867"
       y1="1758.8628"
       x2="1955.2883"
       y2="1705.3795"
       gradientUnits="userSpaceOnUse" />
    <filter
       style="color-interpolation-filters:sRGB"
       id="filter5561-7-0"
       inkscape:label="Roughen">
      <feFlood
         id="feFlood5563-4-4"
         flood-opacity="1"
         flood-color="rgb(196,140,139)"
         result="flood" />
      <feComposite
         id="feComposite5565-6-8"
         in2="SourceGraphic"
         in="flood"
         operator="in"
         result="composite1" />
      <feMorphology
         id="feMorphology5567-3-1"
         operator="dilate"
         radius="2"
         result="result3" />
      <feComposite
         id="feComposite5569-6-9"
         in2="result3"
         in="SourceGraphic"
         operator="over"
         result="fbSourceGraphic"
         radius="3.3999999999999999" />
      <feColorMatrix
         result="fbSourceGraphicAlpha"
         in="fbSourceGraphic"
         values="0 0 0 -1 0 0 0 0 -1 0 0 0 0 -1 0 0 0 0 1 0"
         id="feColorMatrix4681-7" />
      <feTurbulence
         id="feTurbulence4683-1"
         type="fractalNoise"
         numOctaves="1"
         seed="20"
         baseFrequency="0.0030000000000000001 0.044999999999999998"
         result="turbulence" />
      <feDisplacementMap
         id="feDisplacementMap4685-9"
         in2="turbulence"
         in="fbSourceGraphic"
         scale="37.8"
         yChannelSelector="G"
         xChannelSelector="R" />
    </filter>
    <linearGradient
       inkscape:collect="always"
       xlink:href="#linearGradient4232"
       id="linearGradient4328"
       x1="1956.4867"
       y1="1758.8628"
       x2="1955.2883"
       y2="1705.3795"
       gradientUnits="userSpaceOnUse" />
    <linearGradient
       inkscape:collect="always"
       xlink:href="#linearGradient4232"
       id="linearGradient4336"
       x1="1956.4867"
       y1="1758.8628"
       x2="1955.2883"
       y2="1705.3795"
       gradientUnits="userSpaceOnUse" />
    <linearGradient
       inkscape:collect="always"
       xlink:href="#linearGradient4232"
       id="linearGradient4344"
       x1="1956.4867"
       y1="1758.8628"
       x2="1955.2883"
       y2="1705.3795"
       gradientUnits="userSpaceOnUse" />
    <linearGradient
       inkscape:collect="always"
       xlink:href="#linearGradient4232"
       id="linearGradient4352"
       x1="1956.4867"
       y1="1758.8628"
       x2="1955.2883"
       y2="1705.3795"
       gradientUnits="userSpaceOnUse" />
    <filter
       style="color-interpolation-filters:sRGB"
       id="filter5561-7-4"
       inkscape:label="Roughen"
       x="-6.6682446e-05"
       y="-0.00049707264"
       width="1.0001334"
       height="1.0009941">
      <feFlood
         id="feFlood5563-4-2"
         flood-opacity="1"
         flood-color="rgb(135,2,0)"
         result="flood" />
      <feComposite
         id="feComposite5565-6-3"
         in2="SourceGraphic"
         in="flood"
         operator="in"
         result="composite1" />
      <feMorphology
         id="feMorphology5567-3-5"
         operator="dilate"
         radius="1.3"
         result="result3"
         scale="33.299999999999997" />
      <feComposite
         id="feComposite5569-6-6"
         in2="result3"
         in="SourceGraphic"
         operator="over"
         result="fbSourceGraphic"
         radius="3.3999999999999999" />
      <feColorMatrix
         result="fbSourceGraphicAlpha"
         in="fbSourceGraphic"
         values="0 0 0 -1 0 0 0 0 -1 0 0 0 0 -1 0 0 0 0 1 0"
         id="feColorMatrix4681-0" />
      <feTurbulence
         id="feTurbulence4683-0"
         type="fractalNoise"
         numOctaves="1"
         seed="311"
         baseFrequency="0.002 0.032999999999999988"
         result="turbulence" />
      <feDisplacementMap
         id="feDisplacementMap4685-7"
         in2="turbulence"
         in="fbSourceGraphic"
         scale="33.292831"
         yChannelSelector="G"
         xChannelSelector="R" />
    </filter>
    <linearGradient
       inkscape:collect="always"
       xlink:href="#linearGradient4232"
       id="linearGradient4210"
       x1="1956.4867"
       y1="1758.8628"
       x2="1955.2883"
       y2="1705.3795"
       gradientUnits="userSpaceOnUse" />
    <linearGradient
       inkscape:collect="always"
       xlink:href="#linearGradient4232"
       id="linearGradient4218"
       x1="1956.4867"
       y1="1758.8628"
       x2="1955.2883"
       y2="1705.3795"
       gradientUnits="userSpaceOnUse" />
    <linearGradient
       inkscape:collect="always"
       xlink:href="#linearGradient4232"
       id="linearGradient4226"
       x1="1956.4867"
       y1="1758.8628"
       x2="1955.2883"
       y2="1705.3795"
       gradientUnits="userSpaceOnUse" />
    <linearGradient
       inkscape:collect="always"
       xlink:href="#linearGradient4232"
       id="linearGradient4234"
       x1="1956.4867"
       y1="1758.8628"
       x2="1955.2883"
       y2="1705.3795"
       gradientUnits="userSpaceOnUse" />
    <linearGradient
       inkscape:collect="always"
       xlink:href="#linearGradient26380"
       id="linearGradient26394"
       x1="68.00209"
       y1="930.16895"
       x2="26.563494"
       y2="930.16888"
       gradientUnits="userSpaceOnUse"
       gradientTransform="matrix(2.0020918,0,0,2.0020918,28.314874,11.429923)" />
    <linearGradient
       id="linearGradient26380">
      <stop
         style="stop-color:#805c0f;stop-opacity:1;"
         offset="0"
         id="stop26382" />
      <stop
         style="stop-color:#a9803a;stop-opacity:1;"
         offset="1"
         id="stop26384" />
    </linearGradient>
    <linearGradient
       inkscape:collect="always"
       xlink:href="#linearGradient26380"
       id="linearGradient26386"
       x1="232.96008"
       y1="938.31647"
       x2="286.6489"
       y2="935.84161"
       gradientUnits="userSpaceOnUse"
       gradientTransform="matrix(2.0020918,0,0,2.0020918,28.314874,11.429923)" />
    <linearGradient
       inkscape:collect="always"
       xlink:href="#linearGradient26396"
       id="linearGradient26402"
       x1="233.46777"
       y1="934.40686"
       x2="239.41138"
       y2="934.15686"
       gradientUnits="userSpaceOnUse"
       gradientTransform="matrix(2.0020918,0,0,2.0020918,28.314874,11.429923)" />
    <linearGradient
       id="linearGradient26396">
      <stop
         style="stop-color:#fff4e3;stop-opacity:1;"
         offset="0"
         id="stop26398" />
      <stop
         style="stop-color:#c28738;stop-opacity:1;"
         offset="1"
         id="stop26400" />
    </linearGradient>
    <linearGradient
       inkscape:collect="always"
       xlink:href="#linearGradient26396"
       id="linearGradient26410"
       x1="70.592049"
       y1="934.34155"
       x2="59.77636"
       y2="934.96655"
       gradientUnits="userSpaceOnUse"
       gradientTransform="matrix(2.0020918,0,0,2.0020918,28.314874,11.429923)" />
    <linearGradient
       inkscape:collect="always"
       xlink:href="#linearGradient26328"
       id="linearGradient26334"
       x1="58.732285"
       y1="993.0177"
       x2="239.88524"
       y2="993.0177"
       gradientUnits="userSpaceOnUse"
       gradientTransform="matrix(2.0020918,0,0,2.0020918,28.314874,-116.70395)" />
    <linearGradient
       id="linearGradient26328">
      <stop
         style="stop-color:#dcc0a6;stop-opacity:1;"
         offset="0"
         id="stop26330" />
      <stop
         id="stop26336"
         offset="0.15000001"
         style="stop-color:#9c7b65;stop-opacity:1;" />
      <stop
         style="stop-color:#a88d5e;stop-opacity:1;"
         offset="0.85000002"
         id="stop26338" />
      <stop
         style="stop-color:#dac2aa;stop-opacity:1;"
         offset="1"
         id="stop26332" />
    </linearGradient>
  </defs>
  <sodipodi:namedview
     pagecolor="#ffffff"
     bordercolor="#666666"
     borderopacity="1"
     objecttolerance="10"
     gridtolerance="10"
     guidetolerance="10"
     inkscape:pageopacity="0"
     inkscape:pageshadow="2"
     inkscape:window-width="1920"
     inkscape:window-height="1001"
     id="namedview4"
     showgrid="false"
     inkscape:zoom="0.65053825"
     inkscape:cx="692.50347"
     inkscape:cy="2072.8989"
     inkscape:window-x="-9"
     inkscape:window-y="-9"
     inkscape:window-maximized="1"
     inkscape:current-layer="layer1"
     inkscape:showpageshadow="0"
     inkscape:pagecheckerboard="0"
     inkscape:deskcolor="#d1d1d1" />
  <g
     inkscape:groupmode="layer"
     id="layer2"
     inkscape:label="artwork"
     sodipodi:insensitive="true">
    <image
       xlink:href="../gfx_Pepper-and-Carrot_by-David-Revoy_E14P05.png"
       width="2481"
       height="3503"
       id="image10"
       x="0"
       y="0" />
  </g>
  <g
     inkscape:groupmode="layer"
     id="layer3"
     inkscape:label="speechbubbles">
    <g
       id="g169">
      <path
         style="color:#000000;display:inline;overflow:visible;visibility:visible;fill:#fbe489;fill-opacity:1;fill-rule:nonzero;stroke:none;stroke-width:6.00628;marker:none;enable-background:accumulate"
         d="m 59.5486,1851.6306 c -0.936905,1.6066 -0.01101,3.5219 1.371454,5.2204 11.928254,14.6542 35.758016,25.2809 49.642706,32.2021 1.33135,-0.956 2.2522,-2.9161 2.33975,-3.0476 -15.025475,-9.4586 -53.250199,-32.1614 -53.35391,-34.3749 z"
         id="path26444"
         inkscape:connector-curvature="0"
         sodipodi:nodetypes="csccc" />
      <path
         style="color:#000000;display:inline;overflow:visible;visibility:visible;fill:#fbe489;fill-opacity:1;stroke:none;stroke-width:6.00628;marker:none;enable-background:accumulate"
         d="m 549.6615,1889.8683 c 25.79089,-2.4681 49.93181,-13.4425 64.60357,-29.4615 4.72328,-5.157 5.55808,-14.7063 -0.56126,-9.2626 -19.87785,17.6827 -34.53494,22.2307 -63.35225,31.499 -6.99863,2.251 -6.68907,7.7992 -0.69006,7.2251 z"
         id="path26412"
         inkscape:connector-curvature="0"
         sodipodi:nodetypes="sssss" />
      <path
         style="color:#000000;display:inline;overflow:visible;visibility:visible;fill:url(#linearGradient26394);fill-opacity:1;stroke:none;stroke-width:6.00628;marker:none;enable-background:accumulate"
         d="m 164.74313,1854.2587 c -24.43484,4.9622 -79.083061,2.6034 -98.286278,-2.2076 -9.862705,-2.4708 -7.470564,-0.2118 -3.257173,4.662 11.284512,13.0535 36.53615,23.4482 47.701481,29.8294 -11.528871,11.5319 -35.261016,15.5703 -55.772549,15.3731 -13.180229,-0.1261 -7.639901,6.1514 6.792813,11.4406 28.653273,10.5004 106.508886,29.3192 107.254916,7.8654 0.85765,-24.6642 -4.43321,-66.9629 -4.43321,-66.9629 z"
         id="path25801"
         inkscape:connector-curvature="0"
         sodipodi:nodetypes="csscsssc" />
      <path
         style="color:#000000;display:inline;overflow:visible;visibility:visible;fill:url(#linearGradient26386);fill-opacity:1;fill-rule:nonzero;stroke:none;stroke-width:6.00628;marker:none;enable-background:accumulate"
         d="m 494.72238,1853.7091 c 29.41389,5.6562 75.81976,12.7795 114.06682,-2.7884 10.45871,-4.2573 11.60659,0.2967 2.68622,9.2646 -18.54635,18.6452 -43.481,23.6401 -57.62799,27.139 18.22233,6.8756 51.26026,10.1184 77.91391,9.8772 11.27977,-0.1024 1.28889,8.5158 -4.43907,10.814 -39.99811,16.0485 -121.74217,32.6276 -126.77274,15.4668 -10e-4,-23.5444 -5.62331,-60.6804 -5.82715,-69.7732 z"
         id="path25799"
         inkscape:connector-curvature="0"
         sodipodi:nodetypes="csscsscc" />
      <path
         style="color:#000000;display:inline;overflow:visible;visibility:visible;fill:url(#linearGradient26402);fill-opacity:1;stroke:none;stroke-width:6.00628;marker:none;enable-background:accumulate"
         d="m 497.80281,1923.9701 c -0.0772,-28.2615 -3.17411,-50.6223 -3.00053,-74.967 0.0378,-5.3177 7.26616,-1.5017 9.08091,-9.5099 -3.56025,13.877 0.50551,32.5861 2.76081,50.3641 1.18661,9.3539 1.25984,21.2609 0.4926,27.1455 -0.59179,4.5389 -9.12703,2.5564 -9.33379,6.9673 z"
         id="path26340"
         inkscape:connector-curvature="0"
         sodipodi:nodetypes="cscssc" />
      <path
         style="color:#000000;display:inline;overflow:visible;visibility:visible;fill:url(#linearGradient26410);fill-opacity:1;fill-rule:nonzero;stroke:none;stroke-width:6.00628;marker:none;enable-background:accumulate"
         d="m 149.19223,1832.6364 c 0.84845,11.0097 12.02862,9.378 13.29204,14.6648 6.09887,25.5206 10.68366,62.7406 8.4313,74.7491 -3.60087,-6.9826 -14.55197,-0.7661 -17.39776,-7.8471 -7.85838,-19.5538 -7.98016,-63.2939 -4.32558,-81.5668 z"
         id="path26353"
         inkscape:connector-curvature="0"
         sodipodi:nodetypes="cscsc" />
      <path
         style="color:#000000;display:inline;overflow:visible;visibility:visible;fill:url(#linearGradient26334);fill-opacity:1;stroke:none;stroke-width:6.00628;marker:none;enable-background:accumulate"
         d="m 506.61678,1918.4264 c 7.59503,-22.7854 -9.76283,-53.33 -2.02243,-79.8857 0.31815,-10.4205 -24.53818,-13.1863 -46.33127,-13.3041 -40.94607,-0.2213 -98.46548,10.672 -139.63829,9.4327 -45.14406,-1.3586 -92.87206,-12.2909 -144.70385,-9.9505 -18.13963,0.8194 -24.30457,3.5136 -25.69104,10.0119 -4.44179,20.8188 -1.8697,69.2213 5.38307,80.2311 -0.34383,-5.8607 7.52796,-8.5231 16.65664,-9.0141 53.04218,-2.8536 97.55878,8.3128 158.10796,9.0262 33.35583,0.3929 81.34891,-7.5041 121.80464,-7.2416 22.36324,0.1441 56.92058,2.8195 56.43457,10.6941 z"
         id="path25797"
         inkscape:connector-curvature="0"
         sodipodi:nodetypes="ccsssscsssc" />
      <path
         style="color:#000000;display:inline;overflow:visible;visibility:visible;fill:#fbe489;fill-opacity:1;fill-rule:nonzero;stroke:none;stroke-width:6.00628;marker:none;enable-background:accumulate"
         d="m 450.63113,1909.5129 c 13.06248,0.628 51.76989,0.9951 51.43241,8.0272 -0.0487,1.0177 -0.66202,2.3286 -1.67452,3.0226 -1.1921,0.8173 -2.80109,1.7604 -2.69438,3.6548 0.29041,5.1595 8.42165,7.3595 18.96886,7.633 35.80121,0.9288 81.06151,-8.165 115.53234,-24.2145 8.11409,-3.7779 5.8457,-9.8653 2.75287,-9.8854 0.74391,1.0087 0.38251,5.0088 -3.72767,6.9107 -31.81516,14.7223 -76.03376,26.3355 -114.83486,24.8037 -2.10727,-0.084 -14.07399,-1.0912 -13.77063,-6.2453 0.16497,-2.8023 3.96127,-3.1104 3.91143,-5.225 -0.21895,-9.277 -43.7475,-11.0319 -56.52151,-11.3597 -37.88917,-0.9729 -70.02105,6.8743 -121.12656,7.5077 -43.52826,0.5395 -98.35985,-10.1001 -146.90349,-10.5109 -13.72845,-0.1162 -30.15466,3.6003 -28.59053,10.8041 0.71851,3.3093 5.26147,2.6296 8.06388,3.6502 4.19793,1.5292 5.24062,4.9739 4.07379,6.4425 -2.3282,2.9302 -9.69674,5.0883 -16.58166,5.1303 -27.81976,0.1702 -74.432421,-8.9436 -98.04495,-22.5805 -0.928486,-0.5362 -2.28082,-0.8343 -3.179516,-2.8575 0.284715,3.1259 3.685634,5.7961 5.978518,6.9794 25.381026,13.0968 59.986408,20.3661 90.814538,21.0498 15.44337,0.3423 26.81374,-2.0104 26.45442,-10.2153 -0.0991,-2.2647 -4.17766,-5.7804 -7.27536,-6.067 -2.14183,-0.1981 -5.46393,-0.441 -5.94186,-2.878 -0.96802,-4.9357 17.54883,-7.2948 23.72821,-7.2056 50.63455,0.7291 98.27892,9.698 147.65427,10.2607 33.67708,0.3835 87.00254,-8.2909 121.50196,-6.632 z"
         id="path26425"
         inkscape:connector-curvature="0"
         sodipodi:nodetypes="ssssssssssssssssssscssssssss" />
    </g>
    <path
       style="fill:#ffffff;fill-rule:evenodd;stroke:none;stroke-width:1px;stroke-linecap:butt;stroke-linejoin:miter;stroke-opacity:1"
       d="m 363.71908,254.90407 c 0,-45.11245 -5.63906,-78.94678 22.55622,-82.70615 28.19528,-3.75937 90.22489,-6.5789 105.26237,0 19.73669,-3.75937 60.14992,4.69921 67.66866,9.39842 7.51875,4.69922 16.91717,70.4882 15.03749,86.46552 -1.87969,15.97732 -10.33827,36.65386 -25.37575,39.47339 -15.03749,2.81953 -62.02961,4.69921 -74.24757,5.63905 -12.21795,0.93985 -60.14992,3.75937 -74.24756,-3.75937 -14.09764,-7.51874 -17.85701,-20.67653 -17.85701,-20.67653 0,0 -21.61638,-7.51874 -18.79685,-33.83433 z"
       id="path4440"
       inkscape:connector-curvature="0" />
    <path
       style="fill:#ffffff;fill-rule:evenodd;stroke:none;stroke-width:1px;stroke-linecap:butt;stroke-linejoin:miter;stroke-opacity:1"
       d="m 575.24967,346.06879 c 2.32993,-22.39656 2.83238,-44.71358 61.18491,-69.54835 28.53804,-7.1297 60.62727,-12.40475 117.57098,-4.69921 29.56281,-2.02462 35.21492,5.31653 46.78844,10.33827 35.66742,-2.58584 62.53534,4.01964 88.7781,11.27811 28.88658,-3.2062 39.1032,8.21355 52.78696,16.91716 22.87403,9.05395 30.97467,23.89459 34.79142,40.41323 -2.14471,17.43557 -2.79663,35.33893 -20.39498,47.93198 -20.01955,34.87803 -54.05911,39.55227 -86.37866,47.93197 -26.79241,12.46912 -62.53042,20.03267 -121.17009,15.03748 -103.74455,4.10041 -104.91336,-8.54029 -137.96596,-15.97733 -21.01222,-11.2386 -41.44371,-22.75017 -46.78846,-41.35307 -17.20599,-20.90511 -6.91124,-39.85167 10.79734,-58.27024 z"
       id="path4442"
       inkscape:connector-curvature="0"
       sodipodi:nodetypes="ccccccccccccc" />
    <path
       style="color:#000000;display:inline;overflow:visible;visibility:visible;fill:#ffffff;fill-opacity:1;fill-rule:nonzero;stroke:none;stroke-width:1px;marker:none;enable-background:accumulate"
       d="m 1000.82,397.0401 c 16.6624,-20.18866 51.7108,-37.16548 97.6761,-44.04798 45.9652,-6.88251 131.001,-5.0472 145.9397,-2.753 14.9387,2.29416 97.1015,10.55313 114.913,22.02397 17.8117,11.47085 41.9433,25.69469 47.1144,40.37731 5.1712,14.68268 0.5746,50.01285 -16.0878,57.81304 -16.6624,7.80017 -92.505,24.777 -136.7467,25.69463 -44.2415,0.91768 -147.0887,-6.42367 -176.3916,-11.4708 -29.3028,-5.04719 -60.3294,-11.47085 -69.5223,-27.52999 -9.19309,-16.05921 -26.43009,-37.16554 -6.8948,-60.10718 z"
       id="path3533"
       inkscape:connector-curvature="0" />
    <path
       style="fill:#ffffff;fill-rule:evenodd;stroke:none;stroke-width:1px;stroke-linecap:butt;stroke-linejoin:miter;stroke-opacity:1"
       d="m 538.5298,282.1595 c 108.46432,85.46643 201.45864,107.77733 422.76207,131.26148 70.44463,7.47541 458.14913,11.44158 478.07033,12.23835 22.2085,0.88825 103.2041,19.66336 135.2856,37.49051 -29.2751,-29.03069 -97.2656,-42.24132 -118.8317,-47.5327 -61.2168,-15.01995 -418.6614,-9.54779 -500.96632,-15.56754 -40.70969,-2.97749 -260.83615,-55.14213 -294.54908,-70.46092 -37.82328,-17.18649 -126.81478,-74.9138 -126.81478,-74.9138 z"
       id="path4460"
       inkscape:connector-curvature="0"
       sodipodi:nodetypes="csscssscc" />
    <path
       style="fill:#ffffff;fill-opacity:1;stroke:none"
       d="m 444.42034,1165.1675 c 30.18372,7.0151 41.79277,13.5291 36.37508,17.5379 12.38312,2.0043 17.02683,54.1168 5.41769,63.6373 -0.77397,1.0024 -6.19156,4.0088 -3.86975,4.5099 2.32181,0.501 16.25277,-1.0022 18.57458,1.002 2.32181,2.0045 -20.89639,30.5661 -17.80071,31.5684 3.09588,1.0021 74.2984,-18.039 84.35951,-13.5293 10.06121,4.5098 4.64371,16.0346 7.73949,16.5358 3.09559,0.5011 31.73156,-2.5054 35.60131,-2.0044 3.86955,0.5011 10.83489,15.5335 14.70463,16.0346 3.86975,0.5011 21.67045,-6.514 24.76623,-6.013 3.09578,0.5011 1.54775,13.0283 5.41749,13.5292 3.86975,0.5011 20.89639,-10.5226 23.21829,-10.0216 2.32172,0.5011 10.83518,25.5554 14.70483,27.0584 3.86975,1.5033 28.63578,-27.5594 30.95769,-28.0605 2.32171,-0.5012 17.02654,34.0736 20.12241,34.5747 3.09578,0.5011 18.57446,-23.551 20.89637,-23.0499 2.32181,0.501 17.02663,14.5315 20.12232,15.5336 3.09578,1.0021 23.21829,-31.0671 26.31397,-31.0671 3.09587,0 29.40975,13.5292 31.73166,16.0345 2.32181,2.5055 4.64352,-13.028 7.7393,-13.028 3.09578,0 38.69699,9.0195 39.47105,8.5185 0.77387,-0.5012 -5.41768,-10.0218 -3.09587,-10.0218 2.32181,0 38.69699,12.5271 40.24502,10.0218 1.54775,-2.5055 78.94187,12.527 84.35947,10.5227 5.4176,-2.0044 -34.82739,-41.0888 -30.95784,-44.0953 3.86975,-3.0066 17.80093,0.501 18.57484,-1.0022 0.7739,-1.5032 -8.51345,-8.0173 -6.19171,-10.0216 2.322,-2.0043 28.63591,-10.0217 30.95761,-12.527 2.3219,-2.5055 -11.609,-9.0196 -8.5133,-10.5229 3.0958,-1.5032 48.7585,-11.0238 49.5323,-13.5292 0.7739,-2.5054 -23.2182,-14.5313 -20.1225,-18.0389 3.0958,-3.5076 11.6092,-5.0108 10.8352,-7.5162 -0.774,-2.5054 -15.4789,-5.512 -14.7049,-8.0175 0.774,-2.5053 8.5133,-15.0324 10.8351,-17.0366 2.3219,-2.0044 -16.2527,-1.0023 -16.2527,-3.0066 0,-2.0043 1.3669,-32.1019 28.8631,-50.3125 -48.0926,12.063 -68.33411,6.2172 -93.87405,2.2086 -25.54021,-4.0088 -15.47881,-29.0627 -19.34846,-30.5661 -3.86975,-1.5032 -32.50562,8.5185 -36.37537,5.0109 -3.86965,-3.5075 -5.41749,-10.0216 -8.51337,-10.0216 -3.09558,0 -20.89638,14.0302 -24.76594,13.5292 -3.86974,-0.5011 -40.24492,-22.5487 -45.66261,-23.0498 -5.41749,-0.501 -26.31387,8.5184 -30.95759,9.0195 -4.64362,0.5011 -8.51327,-12.026 -12.38301,-11.0237 -3.86975,1.0019 -28.63579,10.0215 -32.50534,9.0194 -3.86975,-1.0023 -6.96553,-5.0108 -10.06138,-4.0086 -3.09559,1.002 -17.02664,5.0107 -17.02664,5.0107 0,0 -10.06121,-3.0065 -14.70483,-3.0065 -4.64362,0 -36.37508,16.5358 -40.24483,17.5379 -3.86974,1.0021 -43.59745,-17.0789 -41.27564,-20.0854 -4.93102,13.1575 -28.75775,21.4306 -33.79662,22.0898 -5.41749,1.5031 -21.67035,-3.0065 -23.2181,-1.5033 -1.54794,1.5033 -6.19156,9.5205 -10.83527,10.0217 -4.64362,0.501 -15.4788,2.5053 -15.4788,2.5053 l 1.54784,3.0065 c 0,0 -32.50543,-8.0173 -36.37518,-11.0238 -3.86965,-3.0064 2.32191,13.0281 4.64372,17.0368 -13.93086,-4.0087 -54.94975,-12.5271 -58.04534,-15.0325 -3.09588,-2.5054 5.41739,9.0195 10.06101,12.5272 -6.19146,-1.5034 -11.60914,-2.0045 -11.60914,-2.0045 l 17.8007,12.026 -5.41768,1.0023 c 0,0 11.60914,5.5119 11.60914,8.0173 0,2.5054 -30.18353,5.5119 -30.18353,5.5119 0,0 12.38302,4.5096 9.28724,7.015 -3.09587,2.5055 -10.83527,4.0088 -10.83527,4.0088 l -1.54774,6.514 z"
       id="path5888"
       inkscape:connector-curvature="0"
       sodipodi:nodetypes="cccsccsscccccccsccscscsccsccccccsccscscssccsccscscccccccsccccccsccccc" />
    <path
       style="color:#000000;display:inline;overflow:visible;visibility:visible;fill:#ffffff;fill-opacity:1;fill-rule:nonzero;stroke:none;stroke-width:1px;marker:none;enable-background:accumulate"
       d="m 1001.5954,1236.5662 c 42.6212,26.8313 96.2172,54.3217 109.5529,59.8583 -0.1257,-15.4 8.674,-28.8272 10.9088,-39.3494 23.8311,12.087 139.6406,63.2512 157.7592,86.2438 -42.1379,-58.18 -134.076,-99.2843 -174.7203,-116.5248 -5.904,13.2622 -7.3093,22.0583 -10.6283,28.9634 -20.7371,-7.757 -81.7976,-45.1678 -81.7976,-45.1678 z"
       id="path5066"
       inkscape:connector-curvature="0"
       sodipodi:nodetypes="cccccccc" />
    <path
       style="color:#000000;display:inline;overflow:visible;visibility:visible;fill:#ffffff;fill-opacity:1;fill-rule:nonzero;stroke:none;stroke-width:1px;marker:none;enable-background:accumulate"
       d="m 635.86075,2911.9919 c -39.55156,-35.0668 -85.65988,-65.0712 -117.59331,-106.0199 l 4.0885,44.3251 c -20.1647,-9.0852 -31.88657,-27.8044 -46.47536,-43.2525 l -2.66904,27.7953 c -47.28802,-21.9682 -76.79877,-57.0987 -114.9018,-85.8672 l -0.23637,48.752 c 42.45277,24.9963 89.04879,43.4727 126.84109,75.803 l 5.77292,-26.9299 c 14.83868,9.5053 29.26651,19.5611 41.85939,32.0767 l 3.81661,-34.3598 z"
       id="path4032"
       inkscape:connector-curvature="0"
       sodipodi:nodetypes="cccccccccccc" />
    <path
       style="fill:#ffffff;fill-rule:evenodd;stroke:none;stroke-width:1px;stroke-linecap:butt;stroke-linejoin:miter;stroke-opacity:1"
       d="m 286.50841,2585.2233 c 13.03029,32.4716 28.73554,45.4659 52.21539,1.8512 19.15297,10.5401 19.02366,43.2221 81.77129,3.7024 -36.01371,49.8843 -20.90754,53.9235 0,52.7599 -30.37387,64.6255 -4.47171,54.6074 6.89638,63.8672 -37.22481,39.0355 -32.34722,57.3512 -14.77795,69.4209 -12.55102,23.6475 -21.31949,46.5842 4.92598,62.9416 -20.52564,6.4528 -49.58875,3.5476 -40.39304,42.5781 -32.59209,-24.6937 -55.33843,-17.9364 -74.87491,-0.9257 -16.85587,-22.6296 -30.54373,-51.2121 -77.83049,-16.661 26.18803,-38.2833 15.82682,-57.4897 -4.92599,-71.2721 38.98809,-37.0612 8.55242,-49.9651 -21.67432,-62.9416 54.64617,-4.4562 39.11554,-45.5417 24.6299,-86.0817 25.58653,8.1425 51.26369,16.8812 64.03776,-59.2392 z"
       id="path4489"
       inkscape:connector-curvature="0"
       sodipodi:nodetypes="cccccccccccccc" />
  </g>
  <g
     inkscape:groupmode="layer"
     id="layer1"
     inkscape:label="txt">
    <text
       xml:space="preserve"
       style="font-style:normal;font-variant:normal;font-weight:normal;font-stretch:normal;line-height:0%;font-family:Lavi;-inkscape-font-specification:Lavi;text-align:center;letter-spacing:0px;word-spacing:0px;text-anchor:middle;fill:#000000;fill-opacity:1;stroke:none"
       x="473.69452"
       y="261.18845"
       id="text4246"><tspan
         sodipodi:role="line"
         style="font-size:63.4465px;line-height:1.25"
         x="473.69452"
         y="261.18845"
         id="tspan4252">Val.</tspan></text>
    <text
       xml:space="preserve"
       style="font-style:normal;font-variant:normal;font-weight:normal;font-stretch:normal;line-height:0%;font-family:Lavi;-inkscape-font-specification:Lavi;text-align:center;letter-spacing:0px;word-spacing:0px;text-anchor:middle;fill:#000000;fill-opacity:1;stroke:none"
       x="773.52966"
       y="352.78668"
       id="text4246-4"><tspan
         sodipodi:role="line"
         style="font-size:45px;line-height:1.25"
         x="773.52966"
         y="352.78668"
         id="tspan4252-6">Esto ye demasiao</tspan><tspan
         sodipodi:role="line"
         style="font-size:45px;line-height:1.25"
         x="773.52966"
         y="409.03668"
         id="tspan4162">difícil...</tspan></text>
    <text
       xml:space="preserve"
       style="font-style:normal;font-variant:normal;font-weight:normal;font-stretch:normal;line-height:0%;font-family:Lavi;-inkscape-font-specification:Lavi;text-align:center;letter-spacing:0px;word-spacing:0px;text-anchor:middle;fill:#000000;fill-opacity:1;stroke:none"
       x="1200.1364"
       y="433.05008"
       id="text4246-4-9"><tspan
         sodipodi:role="line"
         style="font-size:45px;line-height:1.25"
         x="1200.1364"
         y="433.05008"
         id="tspan4162-1">... rindo.</tspan></text>
    <text
       xml:space="preserve"
       style="font-style:normal;font-variant:normal;font-weight:normal;font-stretch:normal;line-height:0%;font-family:Lavi;-inkscape-font-specification:Lavi;text-align:center;letter-spacing:0px;word-spacing:0px;text-anchor:middle;fill:#000000;fill-opacity:1;stroke:none"
       x="777.4093"
       y="1212.4401"
       id="text4246-4-9-8"><tspan
         sodipodi:role="line"
         style="font-size:45px;line-height:1.25"
         x="777.4093"
         y="1212.4401"
         id="tspan4162-1-2">¡Pepper nun rinde</tspan><tspan
         sodipodi:role="line"
         style="font-size:45px;line-height:1.25"
         x="777.4093"
         y="1268.6901"
         id="tspan4205">xamás!</tspan></text>
    <text
       xml:space="preserve"
       style="font-style:normal;font-variant:normal;font-weight:normal;font-stretch:normal;line-height:0%;font-family:Lavi;-inkscape-font-specification:Lavi;text-align:center;letter-spacing:0px;word-spacing:0px;text-anchor:middle;fill:#000000;fill-opacity:1;stroke:none;stroke-width:2.5;stroke-miterlimit:4;stroke-dasharray:none"
       x="767.7915"
       y="1158.7135"
       id="text4246-5"><tspan
         sodipodi:role="line"
         style="font-size:55.4416px;line-height:1.25;stroke:#000000;stroke-width:2.18458;stroke-miterlimit:4;stroke-dasharray:none;stroke-opacity:1"
         x="767.7915"
         y="1158.7135"
         id="tspan4252-1">¡Non!</tspan></text>
    <text
       xml:space="preserve"
       style="font-style:normal;font-variant:normal;font-weight:normal;font-stretch:normal;line-height:0%;font-family:Lavi;-inkscape-font-specification:Lavi;text-align:center;letter-spacing:0px;word-spacing:0px;text-anchor:middle;fill:#000000;fill-opacity:1;stroke:none"
       x="325.8533"
       y="1883.4036"
       id="text4246-4-9-8-0"><tspan
         sodipodi:role="line"
         style="font-size:45px;line-height:1.25"
         x="325.8533"
         y="1883.4036"
         id="tspan4205-3">Pel día viniente</tspan></text>
    <text
       xml:space="preserve"
       style="font-style:normal;font-variant:normal;font-weight:normal;font-stretch:normal;line-height:0%;font-family:Lavi;-inkscape-font-specification:Lavi;text-align:center;letter-spacing:0px;word-spacing:0px;text-anchor:middle;fill:#000000;fill-opacity:1;stroke:none"
       x="-376.50845"
       y="2795.0046"
       id="text4246-4-9-8-0-3"
       transform="matrix(0.9106769,-0.80340828,0.24287987,0.88381324,0,0)"><tspan
         sodipodi:role="line"
         style="font-size:141.043px;line-height:1.25"
         x="-376.50845"
         y="2795.0046"
         id="tspan4205-3-3"><tspan
   style="font-size:121.453px"
   id="tspan4438">¡¡!</tspan>!</tspan></text>
    <text
       xml:space="preserve"
       style="color:#000000;font-style:normal;font-variant:normal;font-weight:normal;font-stretch:normal;line-height:0%;font-family:Arial;-inkscape-font-specification:Arial;letter-spacing:0.0273496px;word-spacing:0px;display:inline;overflow:visible;visibility:visible;opacity:0.7;fill:url(#linearGradient4238-1);fill-opacity:1;fill-rule:nonzero;stroke:#854611;stroke-width:0.071215;stroke-linecap:butt;stroke-linejoin:miter;stroke-miterlimit:4;stroke-dasharray:none;stroke-dashoffset:0;stroke-opacity:1;marker:none;filter:url(#filter5561-7-4);enable-background:accumulate"
       x="1705.2566"
       y="1742.2045"
       id="text4251"
       transform="matrix(1.0496631,-0.00680912,-0.72183224,1.8831671,499.77495,-1332.9519)"><tspan
         sodipodi:role="line"
         id="tspan4253"
         x="1705.2566"
         y="1742.2045"
         style="font-style:normal;font-variant:normal;font-weight:normal;font-stretch:normal;font-size:160.12px;line-height:1.25;font-family:Lavi;-inkscape-font-specification:Lavi;fill:url(#linearGradient4238-1);fill-opacity:1;stroke:#854611;stroke-width:0.071215;stroke-miterlimit:4;stroke-dasharray:none;stroke-opacity:1"><tspan
           id="tspan4365"
           style="font-size:45.5771px;fill:url(#linearGradient4238-1);fill-opacity:1;stroke:#854611;stroke-width:0.071215;stroke-miterlimit:4;stroke-dasharray:none;stroke-opacity:1"><tspan
   style="font-size:89.0187px"
   id="tspan3403">¡</tspan><tspan
   style="font-size:71.215px"
   id="tspan3407"> ¡</tspan><tspan
   style="font-size:55.1916px"
   id="tspan3415"> ¡</tspan> KIKIRIKKIIIIII ! </tspan><tspan
           id="tspan4311"
           style="font-size:55.844px;fill:url(#linearGradient4238-1);fill-opacity:1;stroke:#854611;stroke-width:0.071215;stroke-miterlimit:4;stroke-dasharray:none;stroke-opacity:1">! </tspan><tspan
           id="tspan4369"
           style="font-size:72.5136px;fill:url(#linearGradient4238-1);fill-opacity:1;stroke:#854611;stroke-width:0.071215;stroke-miterlimit:4;stroke-dasharray:none;stroke-opacity:1">!</tspan></tspan></text>
  </g>
</svg>
