<?xml version="1.0" encoding="UTF-8" standalone="no"?>
<!-- Created with Inkscape (http://www.inkscape.org/) -->

<svg
   id="svg2"
   version="1.1"
   inkscape:version="1.3 (1:1.3+202307231459+0e150ed6c4)"
   width="2481"
   height="3503"
   sodipodi:docname="E36P07.svg"
   xmlns:inkscape="http://www.inkscape.org/namespaces/inkscape"
   xmlns:sodipodi="http://sodipodi.sourceforge.net/DTD/sodipodi-0.dtd"
   xmlns:xlink="http://www.w3.org/1999/xlink"
   xmlns="http://www.w3.org/2000/svg"
   xmlns:svg="http://www.w3.org/2000/svg"
   xmlns:rdf="http://www.w3.org/1999/02/22-rdf-syntax-ns#"
   xmlns:cc="http://creativecommons.org/ns#"
   xmlns:dc="http://purl.org/dc/elements/1.1/">
  <metadata
     id="metadata8">
    <rdf:RDF>
      <cc:Work
         rdf:about="">
        <dc:format>image/svg+xml</dc:format>
        <dc:type
           rdf:resource="http://purl.org/dc/dcmitype/StillImage" />
        <dc:title />
      </cc:Work>
    </rdf:RDF>
  </metadata>
  <defs
     id="defs6" />
  <sodipodi:namedview
     pagecolor="#1e1e1e"
     bordercolor="#111111"
     borderopacity="1"
     objecttolerance="10"
     gridtolerance="10"
     guidetolerance="10"
     inkscape:pageopacity="0"
     inkscape:pageshadow="2"
     inkscape:window-width="1920"
     inkscape:window-height="997"
     id="namedview4"
     showgrid="false"
     inkscape:zoom="0.2645"
     inkscape:cx="948.9603"
     inkscape:cy="2204.1588"
     inkscape:window-x="0"
     inkscape:window-y="0"
     inkscape:window-maximized="1"
     inkscape:current-layer="layer3"
     inkscape:pagecheckerboard="0"
     inkscape:snap-global="false"
     inkscape:showpageshadow="0"
     inkscape:deskcolor="#1e1e1e" />
  <g
     inkscape:groupmode="layer"
     id="layer2"
     inkscape:label="artwork"
     sodipodi:insensitive="true">
    <image
       xlink:href="../gfx_Pepper-and-Carrot_by-David-Revoy_E36P07.png"
       y="0"
       x="0"
       id="image10"
       height="3503"
       width="2481" />
  </g>
  <g
     inkscape:groupmode="layer"
     id="layer3"
     inkscape:label="speechbubbles"
     style="display:inline">
    <path
       style="color:#000000;display:inline;overflow:visible;visibility:visible;fill:#dbffed;fill-opacity:1;fill-rule:nonzero;stroke:none;stroke-width:0.74397px;marker:none;enable-background:accumulate"
       d="m 1367.3533,2318.8872 c -35.4286,0.6033 -70.864,5.1815 -104.683,14.294 -24.5795,8.2649 -42.0224,29.2235 -44.3568,51.6019 -2.1303,16.0619 -0.6347,32.4524 3.7633,48.1518 3.7112,12.5224 9.3638,24.8694 18.3703,35.3134 13.1095,12.2832 32.1692,17.6745 50.1967,22.5084 60.9443,16.1003 126.8393,14.8281 188.4191,1.9655 18.3095,-4.0205 36.7497,-8.5229 53.431,-16.275 18.3472,-10.8127 28.25,-29.7204 29.8348,-48.3592 2.8917,-17.144 5.6248,-35.2813 -1.6223,-51.9367 -8.2846,-17.9888 -26.6411,-31.0752 -46.3494,-39.6339 -30.5242,-13.1492 -65.2356,-16.2328 -98.9372,-16.911 -16.02,-0.3211 -32.0393,-0.8331 -48.0665,-0.7192 z"
       id="path4546-6-3"
       inkscape:connector-curvature="0"
       sodipodi:nodetypes="cssssssc" />
    <path
       style="color:#000000;display:inline;overflow:visible;visibility:visible;fill:#dbffed;fill-opacity:1;fill-rule:nonzero;stroke:none;stroke-width:0.841642px;marker:none;enable-background:accumulate"
       d="m 1367.7278,3145.0652 c -37.8681,0.8222 -76.2287,7.3443 -110.8899,23.8603 -14.6461,6.9917 -27.7521,18.6429 -34.1579,34.0447 -14.3502,31.2645 -11.0198,70.4973 9.7765,97.5691 8.2612,10.9309 21.7518,16.1341 34.8609,17.8675 28.1747,5.366 56.6734,9.3461 85.3898,10.3594 38.9984,1.8944 78.0837,1.1115 117.1295,0.4285 20.4881,-0.5469 41.0936,-2.6055 60.9157,-8.3705 11.6762,-2.9313 24.0732,-6.0989 33.1439,-14.7317 10.3424,-10.4766 14.5826,-25.4937 15.7969,-39.8735 2.4897,-27.9184 -4.6192,-57.082 -21.7686,-79.0334 -11.0199,-13.7051 -26.7069,-22.6579 -43.099,-28.0707 -24.8651,-8.5023 -51.2337,-11.0629 -77.3159,-12.9721 -23.2143,-1.4525 -46.5156,-1.4353 -69.7819,-1.0776 z"
       id="path3330-0"
       inkscape:connector-curvature="0"
       sodipodi:nodetypes="zsssssz" />
    <path
       style="color:#000000;display:inline;overflow:visible;visibility:visible;fill:#dbffed;fill-opacity:1;fill-rule:nonzero;stroke:none;stroke-width:1px;marker:none;enable-background:accumulate"
       d="m 1404.1359,2479.0495 c 13.078,48.3092 -10.2417,132.5122 -94.8507,157.2445 61.4826,-42.714 67.542,-99.1938 51.107,-143.1634 -14.1878,-37.9586 -18.9368,-56.3084 -18.9368,-56.3084 z"
       id="path4440-3"
       inkscape:connector-curvature="0"
       sodipodi:nodetypes="ccscc" />
    <path
       style="color:#000000;display:inline;overflow:visible;visibility:visible;fill:#c4c7f5;fill-opacity:1;fill-rule:nonzero;stroke:none;stroke-width:1.05023px;marker:none;enable-background:accumulate"
       d="m 1880.5202,3245.1068 c 2.2085,-31.7629 12.1073,-31.4913 46.1902,-2.7607 -8.9937,-56.6463 36.7658,-59.3247 79.4131,-65.0705 -4.8912,-15.916 -11.6693,-38.2895 36.129,-53.5443 -45.7166,-2.1974 -47.656,-17.2553 -33.086,-32.6716 -34.0385,7.3462 -58.3861,14.6762 -18.1274,-19.5049 -37.997,19.4188 -60.9707,29.4286 -46.6405,-20.4338 -14.3883,6.7868 -58.5903,35.1678 -78.7695,-25.9462 -0.638,33.2488 -57.184,60.6052 -84.9534,17.683 14.0583,35.7635 3.0629,71.3915 -53.6329,48.0907 54.4907,39.0305 2.2272,39.6552 -13.9489,42.9402 45.9271,5.3047 36.7135,17.4578 4.9221,37.6185 94.5952,3.1469 42.5371,23.176 43.0006,36.7345 57.5862,-12.4701 53.8853,12.8638 62.1299,31.6447 54.8403,-57.2852 38.1795,-47.0534 57.3737,5.2204 z"
       id="path3549-3-1"
       inkscape:connector-curvature="0"
       sodipodi:nodetypes="ccccccccccccccc" />
    <path
       style="fill:#c4c7f5;fill-rule:evenodd;stroke:none;stroke-width:1.17092px;stroke-linecap:butt;stroke-linejoin:miter;stroke-opacity:1;fill-opacity:1"
       d="m 1968.4337,3164.1254 c -71.2721,1.4337 -142.2773,7.3417 -213.4387,10.5986 -31.3647,3.3443 -62.3132,14.8256 -84.0239,34.8492 -11.0605,12.0583 -16.4942,26.9456 -21.9137,41.3329 -10.2633,30.5041 -3.8313,65.3004 18.9659,90.599 10.0522,11.2246 23.7986,20.0219 39.4535,24.6462 16.9089,5.1131 34.6371,7.8599 52.2472,10.5437 20.0807,2.9235 40.3327,4.8848 60.6481,6.1066 46.6777,3.1722 93.5869,5.1804 140.3878,2.8571 30.4509,-1.3954 60.9294,-2.279 91.4192,-2.7279 15.2412,-0.4671 30.6253,0.081 45.6824,-2.3623 33.2468,-4.9575 64.7343,-19.8445 85.8153,-42.5964 12.1218,-12.8935 20.3983,-28.8998 20.6225,-45.6291 0.8367,-18.5979 -3.6513,-37.0917 -10.2158,-54.73 -9.863,-23.316 -29.8012,-44.2514 -56.7959,-54.1311 -22.8012,-8.3966 -47.7434,-10.5464 -71.9821,-14.0756 -32.0606,-3.9479 -64.4874,-5.659 -96.8718,-5.2809 z"
       id="path1289"
       inkscape:connector-curvature="0"
       sodipodi:nodetypes="csssssssscc" />
    <path
       style="color:#000000;display:inline;overflow:visible;visibility:visible;fill:#c4c7f5;fill-opacity:1;fill-rule:nonzero;stroke:none;stroke-width:1.22066px;marker:none;enable-background:accumulate"
       d="m 435.40975,3178.3461 c 8.11594,-15.2948 42.34175,-13.2985 54.45451,-8.8438 -22.94299,-20.2401 -20.61728,-31.1953 13.9142,-29.5557 -53.34297,-37.6508 -6.96139,-28.2088 3.37491,-35.4235 -43.73049,-15.4528 -21.72151,-27.2125 -11.88957,-40.1001 -51.86244,-5.5458 -32.00197,-25.8031 -31.90626,-43.4742 -5.47371,7.7618 -29.64908,30.6558 -27.27399,2.7654 -37.81099,23.1348 -81.41737,36.2037 -78.63569,-10.4783 -16.88984,21.9701 -31.97611,30.479 -27.27409,2.7653 -39.02038,32.8282 -68.12725,16.7937 -97.78275,3.5382 -9.56917,10.1245 -12.71285,26.8076 -38.53416,20.3017 2.27629,11.1849 -7.58934,17.7561 -28.24873,20.2115 25.82924,9.1464 29.86471,16.3708 -20.6326,18.7855 37.611,4.3877 72.58093,9.2622 25.10867,29.6889 13.79884,1.9557 49.42672,-15.4784 26.16685,43.4614 26.3947,-17.0164 53.25164,-25.2072 79.87647,18.4447 17.75977,-18.7712 45.27913,-26.2298 53.37153,0.1768 5.50895,-10.3819 23.03233,-12.7755 37.52229,-11.8575 5.01795,4.8286 10.01023,11.2082 15.01695,19.4168 11.90719,-15.0441 28.00074,-24.4177 53.37146,0.1769 z"
       id="path3549-3-7-5"
       inkscape:connector-curvature="0"
       sodipodi:nodetypes="cccccccccccccccccccc" />
    <path
       style="color:#000000;display:inline;overflow:visible;visibility:visible;fill:#c4c7f5;fill-opacity:1;fill-rule:nonzero;stroke:none;stroke-width:1.04204px;marker:none;enable-background:accumulate"
       d="m 367.15199,3119.1259 c -57.07353,0.8869 -114.81826,12.1999 -166.39331,39.3464 -32.90774,20.281 -50.27564,63.0309 -47.32658,103.0838 0.94057,24.5664 6.96859,51.6174 25.90465,67.3162 20.7036,17.0439 45.92368,26.2094 70.95105,32.7563 52.06484,12.5958 105.76184,9.9362 158.73028,10.478 47.18316,-0.1388 94.52787,1.4082 141.54607,-3.7365 21.94665,-2.4792 44.74721,-7.8495 62.107,-23.5242 20.7489,-17.5376 34.35852,-44.8883 35.00327,-73.5141 3.53366,-49.5273 -24.04848,-100.9155 -67.50372,-118.8182 -45.96658,-21.6058 -96.62659,-25.4501 -145.89222,-30.7378 -22.32638,-1.9162 -44.72659,-2.9936 -67.12649,-2.6499 z"
       id="path3970-3"
       inkscape:connector-curvature="0"
       sodipodi:nodetypes="cccscsc" />
    <path
       style="color:#000000;display:inline;overflow:visible;visibility:visible;fill:#c4c7f5;fill-opacity:1;fill-rule:nonzero;stroke:none;stroke-width:1.35295px;marker:none;enable-background:accumulate"
       d="m 655.60209,3020.9694 c 36.37209,56.4559 22.81983,82.4225 15.3529,101.9191 -8.64995,-2.3738 -25.16043,-4.9757 -25.16043,-4.9757 0,0 -35.04306,58.5581 -44.82978,72.5197 -9.78688,13.9616 -38.13341,-23.0686 -38.13341,-23.0686 0,0 68.63867,-58.196 66.88456,-75.5935 13.71733,3.6481 17.96983,3.6232 26.02992,4.8839 8.53279,-9.9614 11.95899,-55.362 -0.14376,-75.6849 z"
       id="path4456-8"
       inkscape:connector-curvature="0"
       sodipodi:nodetypes="cccscccc" />
    <path
       style="color:#000000;display:inline;overflow:visible;visibility:visible;fill:#dbffed;fill-opacity:1;fill-rule:nonzero;stroke:none;stroke-width:0.979134px;marker:none;enable-background:accumulate"
       d="m 1356.0957,3164.5804 c 37.0189,-51.8094 10.4316,-107.7029 -22.8129,-123.0094 56.1643,10.3304 79.8618,67.0698 67.3523,120.7861 -6.1858,26.5623 -44.5394,2.2233 -44.5394,2.2233 z"
       id="path5010-4"
       inkscape:connector-curvature="0"
       sodipodi:nodetypes="ccsc"
       inkscape:transform-center-x="-17.477815"
       inkscape:transform-center-y="-10.798976" />
    <path
       style="color:#000000;display:inline;overflow:visible;visibility:visible;fill:#c4c7f5;fill-opacity:1;fill-rule:nonzero;stroke:none;stroke-width:1.49141px;marker:none;enable-background:accumulate"
       d="m 1912.5982,3098.4022 c -3.1414,-3.557 32.154,-46.7146 32.154,-46.7146 0,0 1.8091,-18.6763 2.2497,-22.5415 7.8248,-6.4155 25.8113,-4.3144 25.8113,-4.3144 l -34.365,-47.8529 16.512,38.7245 -25.6669,-0.2625 -0.1009,31.7053 c -10.1565,5.7069 -22.8946,9.8614 -42.2141,10.0585 z"
       id="path4448"
       inkscape:connector-curvature="0"
       sodipodi:nodetypes="cccccccccc" />
  </g>
  <g
     inkscape:groupmode="layer"
     id="layer1"
     inkscape:label="txt"
     style="display:inline">
    <text
       xml:space="preserve"
       style="font-style:normal;font-variant:normal;font-weight:normal;font-stretch:normal;font-size:14.5146px;line-height:0%;font-family:Lavi;-inkscape-font-specification:Lavi;text-align:center;letter-spacing:0px;word-spacing:0px;text-anchor:middle;fill:#000000;fill-opacity:1;stroke:none;stroke-width:1.20955"
       x="339.65387"
       y="3111.3408"
       id="text4246-3-3"><tspan
         sodipodi:role="line"
         x="339.65387"
         y="3111.3408"
         id="tspan852"
         style="font-style:normal;font-variant:normal;font-weight:bold;font-stretch:normal;font-size:54.4298px;line-height:1.25;font-family:Lavi;-inkscape-font-specification:'Lavi Bold';stroke-width:1.20955">Častnik!</tspan></text>
    <text
       xml:space="preserve"
       style="font-style:normal;font-variant:normal;font-weight:normal;font-stretch:normal;line-height:0%;font-family:Lavi;-inkscape-font-specification:Lavi;text-align:center;letter-spacing:0px;word-spacing:0px;text-anchor:middle;fill:#000000;fill-opacity:1;stroke:none"
       x="399.66684"
       y="3213.8411"
       id="text4246-3-5-9"><tspan
         sodipodi:role="line"
         style="font-size:45px;line-height:1.25"
         x="399.66684"
         y="3213.8411"
         id="tspan2137">Ali lahko potrdite,</tspan><tspan
         sodipodi:role="line"
         style="font-size:45px;line-height:1.25"
         x="399.66684"
         y="3270.0911"
         id="tspan428">da tista čarovnica živi</tspan><tspan
         sodipodi:role="line"
         style="font-size:45px;line-height:1.25"
         x="399.66684"
         y="3326.3411"
         id="tspan432">v tem svetišču?</tspan></text>
    <text
       xml:space="preserve"
       style="font-style:normal;font-variant:normal;font-weight:normal;font-stretch:normal;line-height:0%;font-family:Lavi;-inkscape-font-specification:Lavi;text-align:center;letter-spacing:0px;word-spacing:0px;text-anchor:middle;fill:#000000;fill-opacity:1;stroke:none"
       x="1394.1616"
       y="2403.4441"
       id="text4246-3-5-9-3"><tspan
         sodipodi:role="line"
         style="font-size:45px;line-height:1.25"
         x="1394.1616"
         y="2403.4441"
         id="tspan30186">Prepričan sem,</tspan><tspan
         sodipodi:role="line"
         style="font-size:45px;line-height:1.25"
         x="1394.1616"
         y="2459.6941"
         id="tspan439">gospod!</tspan></text>
    <text
       xml:space="preserve"
       style="font-style:normal;font-variant:normal;font-weight:normal;font-stretch:normal;line-height:0%;font-family:Lavi;-inkscape-font-specification:Lavi;text-align:center;letter-spacing:0px;word-spacing:0px;text-anchor:middle;fill:#000000;fill-opacity:1;stroke:none"
       x="1401.399"
       y="3225.655"
       id="text4246-3-5-9-3-3-6"><tspan
         sodipodi:role="line"
         style="font-size:45px;line-height:1.25"
         x="1401.399"
         y="3225.655"
         id="tspan23037">Naši vohuni so</tspan><tspan
         sodipodi:role="line"
         style="font-size:45px;line-height:1.25"
         x="1401.399"
         y="3281.905"
         id="tspan443">jo opazili tukaj.</tspan></text>
    <text
       xml:space="preserve"
       style="font-style:normal;font-variant:normal;font-weight:normal;font-stretch:normal;line-height:0%;font-family:Lavi;-inkscape-font-specification:Lavi;text-align:center;letter-spacing:0px;word-spacing:0px;text-anchor:middle;fill:#000000;fill-opacity:1;stroke:none"
       x="1881.8522"
       y="3146.1499"
       id="text4246-3-3-7"><tspan
         sodipodi:role="line"
         style="font-style:normal;font-variant:normal;font-weight:bold;font-stretch:normal;font-size:45px;line-height:1.25;font-family:Lavi;-inkscape-font-specification:'Lavi Bold'"
         x="1881.8522"
         y="3146.1499"
         id="tspan67-0">Grrrr…</tspan><tspan
         sodipodi:role="line"
         x="1881.8522"
         y="3165.0696"
         id="tspan852-9" /></text>
    <text
       xml:space="preserve"
       style="font-style:normal;font-variant:normal;font-weight:normal;font-stretch:normal;line-height:0%;font-family:Lavi;-inkscape-font-specification:Lavi;text-align:center;letter-spacing:0px;word-spacing:0px;text-anchor:middle;fill:#000000;fill-opacity:1;stroke:none"
       x="1927.0974"
       y="3230.3347"
       id="text4246-3-5-9-3-3-6-3"><tspan
         sodipodi:role="line"
         style="font-size:45px;line-height:1.25;fill:#000000"
         x="1927.0974"
         y="3230.3347"
         id="tspan37149">Tukaj torej živi</tspan><tspan
         sodipodi:role="line"
         style="font-size:45px;line-height:1.25;fill:#000000"
         x="1927.0974"
         y="3286.5847"
         id="tspan453"><tspan
   style="font-weight:bold"
   id="tspan459">zasmehovalka</tspan> naših <tspan
   style="font-weight:bold"
   id="tspan457">vojnih</tspan></tspan><tspan
         sodipodi:role="line"
         style="font-weight:bold;font-size:45px;line-height:1.25;fill:#000000"
         x="1927.0974"
         y="3342.8347"
         id="tspan455">veščin in tradicije!</tspan></text>
  </g>
</svg>
