<?xml version="1.0" encoding="UTF-8" standalone="no"?>
<!-- Created with Inkscape (http://www.inkscape.org/) -->

<svg
   id="svg2"
   version="1.1"
   inkscape:version="1.3 (1:1.3+202307231459+0e150ed6c4)"
   width="2481"
   height="3503"
   sodipodi:docname="E36P02.svg"
   xmlns:inkscape="http://www.inkscape.org/namespaces/inkscape"
   xmlns:sodipodi="http://sodipodi.sourceforge.net/DTD/sodipodi-0.dtd"
   xmlns:xlink="http://www.w3.org/1999/xlink"
   xmlns="http://www.w3.org/2000/svg"
   xmlns:svg="http://www.w3.org/2000/svg"
   xmlns:rdf="http://www.w3.org/1999/02/22-rdf-syntax-ns#"
   xmlns:cc="http://creativecommons.org/ns#"
   xmlns:dc="http://purl.org/dc/elements/1.1/">
  <metadata
     id="metadata8">
    <rdf:RDF>
      <cc:Work
         rdf:about="">
        <dc:format>image/svg+xml</dc:format>
        <dc:type
           rdf:resource="http://purl.org/dc/dcmitype/StillImage" />
      </cc:Work>
    </rdf:RDF>
  </metadata>
  <defs
     id="defs6">
    <filter
       x="-0.04759816"
       width="1.0925865"
       height="1.4077147"
       inkscape:label="magic-Fx-red_background"
       id="filter4375-4-1-1-1-9-5-8-8-3-3-3-6-1-3"
       style="color-interpolation-filters:sRGB"
       y="-0.15042894">
      <feFlood
         radius="5.0999999999999996"
         result="flood"
         flood-color="rgb(136,138,133)"
         flood-opacity="1"
         id="feFlood4377-7-9-0-8-1-7-3-1-6-61-6-2-0-1" />
      <feComposite
         baseFrequency="0.053999999999999999 0.053999999999999999"
         result="composite1"
         operator="in"
         in="flood"
         in2="SourceGraphic"
         id="feComposite4379-3-8-8-2-77-4-1-0-7-2-7-6-6-4" />
      <feMorphology
         result="result3"
         radius="0.96959439099754563"
         operator="dilate"
         id="feMorphology4393-1-0-49-8-9-3-0-1-5-9-5-1-3-9" />
      <feComposite
         numOctaves="4"
         result="fbSourceGraphic"
         operator="over"
         in="SourceGraphic"
         in2="result3"
         id="feComposite4385-9-5-7-0-8-8-7-5-3-3-3-8-2-2" />
      <feColorMatrix
         id="feColorMatrix4544-9-5-1-5-7-0-0"
         values="0 0 0 -1 0 0 0 0 -1 0 0 0 0 -1 0 0 0 0 1 0"
         in="fbSourceGraphic"
         result="fbSourceGraphicAlpha" />
      <feTurbulence
         result="turbulence"
         baseFrequency="0.062 0.054054054054054057"
         seed="172"
         numOctaves="4.4123222748815163"
         type="fractalNoise"
         id="feTurbulence4546-3-6-9-6-9-6-6" />
      <feDisplacementMap
         result="fbSourceGraphic"
         xChannelSelector="R"
         yChannelSelector="G"
         scale="11.642079"
         in="fbSourceGraphic"
         in2="turbulence"
         id="feDisplacementMap4548-8-2-4-2-2-1-8" />
      <feColorMatrix
         scale="10.800000000000001"
         id="feColorMatrix4670-7-9-7-9-0-5-9"
         values="0 0 0 -1 0 0 0 0 -1 0 0 0 0 -1 0 0 0 0 1 0"
         in="fbSourceGraphic"
         result="fbSourceGraphicAlpha" />
      <feComposite
         result="composite1"
         operator="in"
         in="flood"
         in2="fbSourceGraphic"
         id="feComposite4674-8-2-4-1-2-5-2" />
      <feGaussianBlur
         result="blur"
         stdDeviation="1.5865199271065846"
         in="composite1"
         id="feGaussianBlur4676-3-7-50-2-3-4-6" />
      <feOffset
         result="offset"
         dy="5.2374444725016502"
         dx="-0.42771311737301687"
         id="feOffset4678-6-0-3-7-7-7-6" />
      <feComposite
         result="composite2"
         operator="over"
         in="fbSourceGraphic"
         in2="offset"
         id="feComposite4680-4-9-6-0-5-6-4" />
      <feGaussianBlur
         stdDeviation="0.76414472307477677"
         id="feGaussianBlur58-9-9-5-9" />
      <feOffset
         dx="0"
         dy="0"
         id="feOffset60-3-2-6-5" />
    </filter>
    <filter
       style="color-interpolation-filters:sRGB"
       id="filter4375-4-1-1-1-9-5-8-3-4"
       inkscape:label="Drop Shadow"
       x="-0.012542943"
       y="-0.077690719"
       width="1.03662"
       height="1.2268238">
      <feFlood
         id="feFlood4377-7-9-0-8-1-7-3-6"
         flood-opacity="1"
         flood-color="rgb(39,39,39)"
         result="flood" />
      <feComposite
         id="feComposite4379-3-8-8-2-77-4-1-7"
         in2="SourceGraphic"
         in="flood"
         operator="in"
         result="composite1" />
      <feMorphology
         id="feMorphology4393-1-0-49-8-9-3-0-5"
         operator="dilate"
         radius="6.2000000000000002"
         result="result3" />
      <feComposite
         id="feComposite4385-9-5-7-0-8-8-7-3"
         in2="result3"
         in="SourceGraphic"
         operator="over"
         result="fbSourceGraphic" />
      <feColorMatrix
         result="fbSourceGraphicAlpha"
         in="fbSourceGraphic"
         values="0 0 0 -1 0 0 0 0 -1 0 0 0 0 -1 0 0 0 0 1 0"
         id="feColorMatrix4544-5" />
      <feTurbulence
         id="feTurbulence4546-6"
         type="fractalNoise"
         numOctaves="3"
         seed="37"
         baseFrequency="0.129 0.0050000000000000001"
         result="turbulence" />
      <feDisplacementMap
         id="feDisplacementMap4548-2"
         in2="turbulence"
         in="fbSourceGraphic"
         scale="6.6"
         yChannelSelector="G"
         xChannelSelector="R"
         result="fbSourceGraphic" />
      <feColorMatrix
         result="fbSourceGraphicAlpha"
         in="fbSourceGraphic"
         values="0 0 0 -1 0 0 0 0 -1 0 0 0 0 -1 0 0 0 0 1 0"
         id="feColorMatrix4670-9-3" />
      <feFlood
         id="feFlood4672-1-0"
         flood-opacity="0.40999999999999998"
         flood-color="rgb(34,52,102)"
         result="flood"
         in="fbSourceGraphic" />
      <feComposite
         id="feComposite4674-2-3"
         in2="fbSourceGraphic"
         in="flood"
         operator="in"
         result="composite1" />
      <feGaussianBlur
         id="feGaussianBlur4676-7"
         in="composite1"
         stdDeviation="0"
         result="blur" />
      <feOffset
         id="feOffset4678-0-0"
         dx="6"
         dy="6"
         result="offset" />
      <feComposite
         id="feComposite4680-9"
         in2="offset"
         in="fbSourceGraphic"
         operator="over"
         result="composite2" />
    </filter>
  </defs>
  <sodipodi:namedview
     pagecolor="#1e1e1e"
     bordercolor="#111111"
     borderopacity="1"
     objecttolerance="10"
     gridtolerance="10"
     guidetolerance="10"
     inkscape:pageopacity="0"
     inkscape:pageshadow="2"
     inkscape:window-width="1920"
     inkscape:window-height="997"
     id="namedview4"
     showgrid="false"
     inkscape:zoom="0.32526913"
     inkscape:cx="931.53628"
     inkscape:cy="2428.758"
     inkscape:window-x="0"
     inkscape:window-y="0"
     inkscape:window-maximized="1"
     inkscape:current-layer="layer3"
     inkscape:pagecheckerboard="0"
     inkscape:snap-global="false"
     inkscape:showpageshadow="0"
     inkscape:deskcolor="#1e1e1e" />
  <g
     inkscape:groupmode="layer"
     id="layer2"
     inkscape:label="artwork"
     sodipodi:insensitive="true"
     style="display:inline">
    <image
       xlink:href="../gfx_Pepper-and-Carrot_by-David-Revoy_E36P02.png"
       y="0"
       x="0"
       id="image10"
       height="3503.4727"
       width="2481" />
  </g>
  <g
     inkscape:groupmode="layer"
     id="layer3"
     inkscape:label="speechbubbles"
     style="display:inline">
    <path
       style="fill:#ffe4a0;fill-rule:evenodd;stroke:none;stroke-width:1.33287px;stroke-linecap:butt;stroke-linejoin:miter;stroke-opacity:1;fill-opacity:1"
       d="m 1609.831,3210.1582 c -33.3887,0.042 -98.1683,12.1966 -41.2575,46.4169 -73.3042,-16.9919 -86.2966,-3.0006 -93.7502,13.8358 -24.3926,-14.9881 -50.2622,-28.345 -101.4644,-13.7325 -10.2619,-23.4772 -47.4292,-31.0344 -104.8991,-26.5789 48.7345,-20.2373 77.4585,-39.2979 -20.2218,-50.9255 79.2331,-2.9537 99.4664,-29.3144 19.8469,-47.6268 64.0942,5.6983 82.346,-0.9815 66.3856,-16.899 38.6472,10.9522 70.0209,10.3117 93.7184,-2.5642 37.4179,26.6868 64.304,24.8415 82.839,0.372 1.9156,41.1662 56.4888,38.7773 96.0777,42.8012 -66.6985,16.0307 -13.6505,58.9338 2.7254,54.901 z"
       id="path1087"
       inkscape:connector-curvature="0"
       sodipodi:nodetypes="cccccccccccc" />
    <path
       style="color:#000000;display:inline;overflow:visible;visibility:visible;fill:#ffe4a0;fill-opacity:1;fill-rule:nonzero;stroke:none;stroke-width:1.02214px;marker:none;enable-background:accumulate"
       d="m 1616.0489,3210.4318 c -25.0603,0.207 -50.6026,1.665 -74.4311,11.9723 -15.1679,6.0962 -30.2472,14.6608 -41.4949,28.7495 -9.8469,15.1892 -10.7693,35.8033 -9.2725,54.2844 1.3527,14.9245 7.4137,28.8733 16.6272,38.8641 16.7557,19.9525 39.4696,31.4895 62.6788,34.4242 16.4274,2.4299 32.9389,4.0674 49.4513,5.3367 31.7099,1.6674 63.5399,-0.7907 94.9238,-6.3828 19.1948,-3.8017 37.8981,-15.848 48.7038,-35.9178 11.7572,-20.9833 13.2907,-48.2686 8.611,-72.4361 -2.6829,-13.4016 -9.6494,-25.3737 -19.453,-32.4743 -22.7249,-16.9535 -49.7055,-22.8964 -76.0062,-24.571 -20.0988,-0.9963 -40.2178,-1.9878 -60.3382,-1.8492 z"
       id="path3525-1"
       inkscape:connector-curvature="0"
       sodipodi:nodetypes="ccccc" />
    <path
       style="display:inline;fill:#ffe4a0;fill-rule:evenodd;stroke:none;stroke-width:1.15535px;stroke-linecap:butt;stroke-linejoin:miter;stroke-opacity:1;fill-opacity:1"
       d="m 1687.9497,3135.0326 c 0,0 -32.5032,0.5122 -35.8686,17.9644 -3.3663,17.4516 24.539,59.2603 24.539,59.2603 0,0 -45.1119,0.7369 -45.1178,48.4326 -0.01,47.6953 47.113,85.7891 43.4135,52.8962 -3.6991,-32.8931 -34.8285,-95.2011 56.3216,-84.9196 -32.3662,-27.7763 -52.1364,-60.1065 -52.668,-63.6644 -1.9951,-13.3523 30.9323,-20.3265 45.1813,-19.8929 -64.6236,-55.3255 -17.6069,-82.8485 -7.229,-135.1096 -26.5229,47.7737 -71.2674,83.4938 -28.572,125.033 z"
       id="path4394-0"
       inkscape:connector-curvature="0"
       sodipodi:nodetypes="cscsscsccc" />
    <path
       style="display:inline;fill:#ffe4a0;fill-rule:evenodd;stroke:none;stroke-width:1.14357px;stroke-linecap:butt;stroke-linejoin:miter;stroke-opacity:1;fill-opacity:1"
       d="m 2087.6204,2198.5786 c -5.1075,9.5146 -9.2205,20.5453 -18.1566,26.6786 -7.2774,4.6822 -16.8526,1.3859 -22.2934,-5.0159 -4.1648,-4.4381 -8.047,-9.1729 -12.124,-13.7038 1.5926,8.3433 2.5291,17.4367 -0.7601,25.4583 -5.8412,5.354 -15.0592,3.2093 -19.9678,-2.5577 -1.7753,-1.4009 -3.5504,-2.8018 -5.3258,-4.2027 2.0959,10.6533 -0.1386,22.925 -7.7925,30.4547 -7.5267,3.8873 -16.7708,-0.6469 -20.891,-8.013 -1.6854,-1.9451 -3.3709,-3.8902 -5.0564,-5.8353 4.2588,4.7903 3.0226,14.5922 -3.2208,16.6373 -8.1266,1.3646 -15.4694,-3.824 -21.9106,-8.4848 -7.1337,-5.2172 -13.7133,-11.2473 -20.3607,-17.1532 9.1737,11.4381 18.633,23.5445 22.2755,38.5168 0.3536,6.2829 -8.2587,9.7727 -11.9334,5.0064 -2.242,-1.1668 -4.4522,-2.4023 -6.6701,-3.6214 6.077,6.4888 12.4335,13.6035 14.4059,22.9105 -2.9064,6.4377 -10.8677,7.8975 -16.5501,5.3022 -2.2668,-0.4783 -4.5335,-0.9566 -6.8004,-1.4349 11.1574,13.4188 18.1985,31.9225 15.6213,50.1336 -3.0102,15.4601 -12.9585,27.6014 -21.5091,39.8444 -0.882,0.8231 -1.3699,2.7574 0.4143,1.9159 13.9694,-2.6348 28.7784,-4.7912 42.4988,0.346 8.5644,3.8285 12.2873,16.6699 7.1409,25.0607 4.1077,-3.9511 10.0403,-7.4816 15.5723,-4.9647 6.9428,3.3422 9.5968,12.3773 8.9973,20.0581 -0.1943,5.9745 -1.8575,11.7265 -3.3932,17.4209 6.6531,-10.5202 13.6631,-21.7515 24.5574,-27.5239 6.9108,-2.2765 13.8977,6.1678 11.8877,13.4316 0.1137,2.0408 2.8165,1.0076 2.9064,-0.5277 7.5556,-9.8263 18.2376,-17.9583 30.3572,-18.57 4.0752,0.5379 6.9175,5.4788 5.9247,9.7141 6.3115,-5.5529 14.0437,-10.6101 22.5055,-9.6084 11.7189,0.6255 21.7457,8.2294 30.6815,15.7871 2.3817,2.0141 4.7066,4.1055 7.0515,6.1694 2.4674,-9.0789 5.0083,-19.1753 12.3713,-25.0954 8.1584,-4.7453 18.549,-1.0678 24.4505,6.0889 5.0327,4.7381 9.3236,10.2926 13.747,15.673 1.9193,-9.9285 13.4881,-14.827 21.6106,-10.5969 8.5824,3.8315 15.3904,11.0727 21.4587,18.4777 1.5624,2.0522 3.0622,4.159 4.5453,6.279 -1.7722,-7.5723 -4.4484,-15.4228 -2.7727,-23.3133 3.8549,-3.7006 9.8226,-1.4234 12.8164,2.4144 6.3167,5.0112 11.8582,11.1028 16.7076,17.7458 -2.9094,-10.1053 2.7789,-22.5937 12.5911,-24.9374 11.3318,-3.7747 23.3244,-0.4627 34.2134,3.463 7.1721,2.7712 13.9666,6.556 20.573,10.6303 -9.2519,-7.6666 -15.9076,-20.3977 -14.0746,-33.2829 1.6281,-9.0763 9.4187,-15.1744 17.1934,-17.6558 0.601,-0.2163 2.2917,-0.3486 0.9907,-1.1406 -4.9575,-3.9576 -11.7424,-6.5489 -14.0103,-13.3276 -2.5969,-7.9333 1.5471,-16.4862 7.1335,-21.5781 4.4566,-4.2383 9.193,-8.1103 13.9425,-11.951 -8.7802,-3.5109 -18.8179,-5.5596 -25.3361,-13.4565 -4.3927,-6.3558 -1.6532,-15.8183 3.963,-20.1862 10.5679,-11.1953 23.3245,-19.4528 35.2752,-28.7331 -19.7485,5.4818 -39.6633,12.5477 -60.3117,11.4533 -8.6737,-1.5377 -13.0311,-13.935 -8.3621,-21.71 2.4195,-8.5749 6.5144,-16.4158 10.1092,-24.4463 -15.6886,5.3131 -31.1798,12.5797 -47.8236,13.3264 -3.8073,-2.5636 -2.7244,-9.1228 0.751,-11.4571 0.6302,-1.2762 2.1761,-2.3058 1.8094,-3.9468 -9.2626,6.4488 -19.3711,12.7922 -30.6723,13.1637 -7.9595,-2.0715 -12.7992,-12.4524 -9.9025,-20.6782 -1.8766,-2.4074 -4.678,0.016 -6.484,1.2706 -19.4982,10.3479 -43.1155,13.1653 -63.5183,4.1937 -16.4626,-7.3075 -30.1264,-20.6789 -40.4423,-36.1908 -0.1823,-0.1265 -0.4117,-0.186 -0.6245,-0.125 z"
       id="path4289-9-3"
       inkscape:connector-curvature="0"
       sodipodi:nodetypes="cccccccccccccccccccccccc" />
    <path
       style="color:#000000;display:inline;overflow:visible;visibility:visible;fill:#ffe4a0;fill-opacity:1;fill-rule:nonzero;stroke:none;stroke-width:0.634675px;marker:none;enable-background:accumulate"
       d="m 2048.9526,2357.7618 c -1.019,14.0823 -77.982,87.5377 3.591,185.0685 -57.766,-96.8638 17.7385,-154.6405 29.7695,-166.83 -23.5374,-29.6642 -17.4947,-9.4644 -33.3605,-18.2385 z"
       id="path4024-3"
       inkscape:connector-curvature="0"
       sodipodi:nodetypes="cccc" />
  </g>
  <g
     inkscape:groupmode="layer"
     id="layer1"
     inkscape:label="txt"
     style="display:inline">
    <text
       transform="matrix(1.0109872,-0.19833599,-0.21684929,1.1745089,102.88627,624.18095)"
       id="text4580-6-0-0-3-3-6-2-9-8-0"
       y="1584.5073"
       x="787.65729"
       style="font-style:normal;font-variant:normal;font-weight:normal;font-stretch:normal;line-height:0;font-family:Lavi;-inkscape-font-specification:Lavi;letter-spacing:3.03024px;word-spacing:0px;opacity:0.75027;fill:#ffffff;fill-opacity:1;stroke:#837567;stroke-width:1.52377;stroke-miterlimit:4;stroke-dasharray:none;stroke-opacity:1;paint-order:stroke fill markers;filter:url(#filter4375-4-1-1-1-9-5-8-8-3-3-3-6-1-3)"
       xml:space="preserve"
       inkscape:label="FXB-3"><tspan
         style="font-style:normal;font-variant:normal;font-weight:bold;font-stretch:normal;font-size:70px;line-height:1.25;font-family:Drukah;-inkscape-font-specification:'Drukah Bold';fill:#ffffff;fill-opacity:1;stroke:#837567;stroke-width:1.52377;stroke-miterlimit:4;stroke-dasharray:none;stroke-opacity:1;paint-order:stroke fill markers"
         y="1584.5073"
         x="787.65729"
         id="tspan4582-1-1-0-6-9-0-8-3-4-4"
         sodipodi:role="line"><tspan
           style="letter-spacing:-3.73913px"
           id="tspan19018">Fsšš</tspan><tspan
           style="font-size:59.826px"
           id="tspan39837"> …</tspan></tspan></text>
    <text
       id="text4246-5-8"
       y="3203.915"
       x="1441.8181"
       style="font-style:normal;font-variant:normal;font-weight:normal;font-stretch:normal;font-size:53.7995px;line-height:0%;font-family:Lavi;-inkscape-font-specification:Lavi;text-align:center;letter-spacing:0px;word-spacing:0px;text-anchor:middle;fill:#000000;fill-opacity:1;stroke:none;stroke-width:1.05513"
       xml:space="preserve"
       inkscape:label="kingB"><tspan
         y="3203.915"
         x="1441.8181"
         style="font-style:normal;font-variant:normal;font-weight:bold;font-stretch:normal;font-size:53.7995px;line-height:1.25;font-family:Lavi;-inkscape-font-specification:'Lavi Bold';stroke-width:1.05513"
         sodipodi:role="line"
         id="tspan858">Ti vrag!</tspan></text>
    <text
       id="text4246-5-8-3"
       y="3279.4272"
       x="1634.2639"
       style="font-style:normal;font-variant:normal;font-weight:normal;font-stretch:normal;font-size:45px;line-height:0%;font-family:Lavi;-inkscape-font-specification:Lavi;text-align:center;letter-spacing:0px;word-spacing:0px;text-anchor:middle;fill:#000000;fill-opacity:1;stroke:none;stroke-width:0.88255"
       xml:space="preserve"
       inkscape:label="kingB"><tspan
         y="3279.4272"
         x="1634.2639"
         style="font-style:normal;font-variant:normal;font-weight:bold;font-stretch:normal;font-size:45px;line-height:1.25;font-family:Lavi;-inkscape-font-specification:'Lavi Bold';stroke-width:0.88255"
         sodipodi:role="line"
         id="tspan28477">Čisto brez</tspan><tspan
         y="3335.6772"
         x="1634.2639"
         style="font-style:normal;font-variant:normal;font-weight:bold;font-stretch:normal;font-size:45px;line-height:1.25;font-family:Lavi;-inkscape-font-specification:'Lavi Bold';stroke-width:0.88255"
         sodipodi:role="line"
         id="tspan337">moči sem!</tspan></text>
    <text
       xml:space="preserve"
       style="font-style:normal;font-variant:normal;font-weight:normal;font-stretch:normal;line-height:0%;font-family:Lavi;-inkscape-font-specification:Lavi;text-align:center;letter-spacing:0px;word-spacing:0px;text-anchor:middle;fill:#000000;fill-opacity:1;stroke:none"
       x="2122.8435"
       y="2329.2644"
       id="text4246-7-6-4-6-4-5-6"
       inkscape:label="kingB"><tspan
         sodipodi:role="line"
         style="font-style:normal;font-variant:normal;font-weight:bold;font-stretch:normal;font-size:45px;line-height:1.25;font-family:Lavi;-inkscape-font-specification:'Lavi Bold'"
         x="2122.8435"
         y="2329.2644"
         id="tspan12405">Blesavi čarobni</tspan><tspan
         sodipodi:role="line"
         style="font-style:normal;font-variant:normal;font-weight:bold;font-stretch:normal;font-size:45px;line-height:1.25;font-family:Lavi;-inkscape-font-specification:'Lavi Bold'"
         x="2122.8435"
         y="2385.5144"
         id="tspan449">zapor! Grrr!</tspan></text>
    <text
       xml:space="preserve"
       style="font-style:normal;font-variant:normal;font-weight:normal;font-stretch:normal;line-height:0%;font-family:Lavi;-inkscape-font-specification:Lavi;letter-spacing:0px;word-spacing:0px;display:inline;fill:#ffffff;fill-opacity:1;stroke:#000000;stroke-width:0.649528;stroke-miterlimit:4;stroke-dasharray:none;stroke-opacity:1;filter:url(#filter4375-4-1-1-1-9-5-8-3-4)"
       x="787.65729"
       y="1584.5073"
       id="text4580-6-0-3"
       transform="matrix(0.56396936,0.29200899,-0.49083985,0.74440634,2292.4537,1543.4282)"
       inkscape:transform-center-x="-5.9254429"
       inkscape:transform-center-y="0.58615246"><tspan
         sodipodi:role="line"
         id="tspan4582-1-1-6"
         x="787.65729"
         y="1584.5073"
         style="font-style:normal;font-variant:normal;font-weight:normal;font-stretch:normal;font-size:70px;line-height:1.25;font-family:Combah;-inkscape-font-specification:Combah;fill:#ffffff;fill-opacity:1;stroke:#000000;stroke-width:0.649528;stroke-opacity:1"><tspan
           style="font-style:normal;font-variant:normal;font-weight:normal;font-stretch:normal;font-size:114.732px;font-family:Combah;-inkscape-font-specification:Combah;fill:#ffffff;fill-opacity:1;stroke:#000000;stroke-width:0.649528;stroke-opacity:1"
           id="tspan4313-2-6">KLONG!</tspan></tspan></text>
    <rect
       style="fill:#242424;fill-opacity:1;stroke:none;stroke-width:1.75748;stroke-linecap:round;stroke-linejoin:round;stroke-opacity:0.826048"
       id="rect29937"
       width="23.03281"
       height="184.30493"
       x="1875.7292"
       y="3181.9229" />
  </g>
</svg>
