<?xml version="1.0" encoding="UTF-8" standalone="no"?>
<!-- Created with Inkscape (http://www.inkscape.org/) -->

<svg
   id="svg2"
   version="1.1"
   inkscape:version="1.3 (1:1.3+202307231459+0e150ed6c4)"
   width="2481"
   height="3503"
   sodipodi:docname="E36P06.svg"
   xmlns:inkscape="http://www.inkscape.org/namespaces/inkscape"
   xmlns:sodipodi="http://sodipodi.sourceforge.net/DTD/sodipodi-0.dtd"
   xmlns:xlink="http://www.w3.org/1999/xlink"
   xmlns="http://www.w3.org/2000/svg"
   xmlns:svg="http://www.w3.org/2000/svg"
   xmlns:rdf="http://www.w3.org/1999/02/22-rdf-syntax-ns#"
   xmlns:cc="http://creativecommons.org/ns#"
   xmlns:dc="http://purl.org/dc/elements/1.1/">
  <metadata
     id="metadata8">
    <rdf:RDF>
      <cc:Work
         rdf:about="">
        <dc:format>image/svg+xml</dc:format>
        <dc:type
           rdf:resource="http://purl.org/dc/dcmitype/StillImage" />
        <dc:title />
      </cc:Work>
    </rdf:RDF>
  </metadata>
  <defs
     id="defs6" />
  <sodipodi:namedview
     pagecolor="#1e1e1e"
     bordercolor="#111111"
     borderopacity="1"
     objecttolerance="10"
     gridtolerance="10"
     guidetolerance="10"
     inkscape:pageopacity="0"
     inkscape:pageshadow="2"
     inkscape:window-width="1920"
     inkscape:window-height="997"
     id="namedview4"
     showgrid="false"
     inkscape:zoom="0.23000001"
     inkscape:cx="1082.6087"
     inkscape:cy="2178.2608"
     inkscape:window-x="0"
     inkscape:window-y="0"
     inkscape:window-maximized="1"
     inkscape:current-layer="layer3"
     inkscape:pagecheckerboard="0"
     inkscape:snap-global="false"
     inkscape:showpageshadow="0"
     inkscape:deskcolor="#1e1e1e" />
  <g
     inkscape:groupmode="layer"
     id="layer2"
     inkscape:label="artwork"
     sodipodi:insensitive="true">
    <image
       xlink:href="../gfx_Pepper-and-Carrot_by-David-Revoy_E36P06.png"
       y="0"
       x="0"
       id="image10"
       height="3503"
       width="2481" />
  </g>
  <g
     inkscape:groupmode="layer"
     id="layer3"
     inkscape:label="speechbubbles"
     style="display:inline">
    <path
       style="color:#000000;display:inline;overflow:visible;visibility:visible;fill:#d5faff;fill-opacity:1;fill-rule:nonzero;stroke:none;stroke-width:0.825943px;marker:none;enable-background:accumulate"
       d="m 577.39062,1890.3496 c 13.55459,4.6614 27.39899,10.6876 36.98583,21.7461 6.87829,8.625 7.56098,20.6709 4.66066,30.9708 -1.44275,5.9611 -3.11819,12.8374 0.29351,18.4496 3.25292,4.4413 8.97247,5.7004 13.65335,8.0759 1.68146,0.5503 3.16657,2.0604 4.93205,2.0447 3.65441,-0.7862 8.30688,-4.5636 7.78517,-7.7805 0.4108,-14.3571 1.10006,-28.425 -3.6806,-42.3235 -4.09402,-10.8462 -16.4336,-19.4968 -27.02744,-23.2608 -13.09899,-5.2184 -27.0995,-7.7878 -41.09862,-9.0336 1.16537,0.3704 2.33073,0.7409 3.49609,1.1113 z"
       id="path4064-5-5"
       inkscape:connector-curvature="0"
       sodipodi:nodetypes="ccszccccccc" />
    <path
       style="color:#000000;display:inline;overflow:visible;visibility:visible;fill:#d5faff;fill-opacity:1;fill-rule:nonzero;stroke:none;stroke-width:1.36609px;marker:none;enable-background:accumulate"
       d="m 460.05011,2065.9711 c -0.0394,-37.3433 29.63412,-72.8613 72.59799,-94.4911 32.1085,-16.3962 72.48244,-25.1836 112.34797,-22.9471 44.04564,1.3719 88.28205,9.853 124.79146,27.4394 31.92295,15.1532 58.35427,37.833 65.54556,64.7652 8.24162,29.232 -10.21829,59.8463 -41.29176,79.5352 -19.23662,12.4038 -43.44621,20.7471 -69.07349,24.4628 -55.80023,8.4696 -114.44838,8.1351 -169.87366,-1.5858 -47.928,-12.1532 -83.66753,-42.9508 -95.04407,-77.1786 z"
       id="path3365-8"
       inkscape:connector-curvature="0"
       sodipodi:nodetypes="cssccsc" />
    <path
       style="color:#000000;display:inline;overflow:visible;visibility:visible;fill:#ffe4a0;fill-opacity:1;fill-rule:nonzero;stroke:none;stroke-width:1.48514px;marker:none;enable-background:accumulate"
       d="m 1893.0469,1570.3017 c -56.6883,6.1761 -126.1336,-1.1979 -166.2258,47.4363 -39.7269,55.411 -32.9822,137.28 9.439,189.1728 44.5465,39.7481 109.4242,35.4544 165.4807,40.9499 61.9844,1.4706 126.7501,0.2417 185.1236,-21.9167 51.481,-29.1242 63.9132,-94.6813 52.9865,-148.1498 -4.2933,-49.6514 -42.1481,-95.1973 -94.242,-98.7057 -50.377,-8.0424 -101.7833,-5.726 -152.562,-8.7868 z"
       id="path3525-1"
       inkscape:connector-curvature="0"
       sodipodi:nodetypes="ccccc" />
    <path
       style="color:#000000;display:inline;overflow:visible;visibility:visible;fill:#ffe4a0;fill-opacity:1;fill-rule:nonzero;stroke:none;stroke-width:0.844663px;marker:none;enable-background:accumulate"
       d="m 1973.1118,1889.6755 c -18.1752,-11.0216 -34.1079,-35.6909 -38.6041,-62.1813 -3.212,-15.891 -4.9491,-32.3534 -3.0603,-47.1809 2.5292,-4.9506 8.5452,-3.2093 12.36,1.2176 6.174,5.2735 12.9392,8.5628 18.8573,14.6149 3.5725,5.1778 3.8133,12.417 2.6585,17.788 -1.1636,10.2097 -2.5765,21.1708 0.8478,32.3369 4.2315,15.7365 13.9898,28.6271 24.2515,37.2817 12.3531,10.7595 26.1526,15.1864 39.0912,15.7949 0.045,0.4487 -1.409,0.4203 -1.8941,0.6592 -17.1414,4.2654 -36.4098,1.3261 -54.5078,-10.331 z"
       id="path4064-5"
       inkscape:connector-curvature="0"
       sodipodi:nodetypes="ccszc" />
    <path
       style="fill:#d5faff;stroke:none;stroke-width:1.04934;fill-opacity:1"
       d="m 337.88373,2285.4071 c -41.87931,0.6877 -84.08388,0.4394 -125.41806,9.5033 -15.17998,3.3398 -30.48599,7.9348 -43.88988,17.2721 -10.35276,7.2144 -19.0775,17.8304 -24.2621,30.6872 -7.04353,17.3725 -8.18924,37.55 -4.91321,56.2626 4.14046,23.4488 15.89442,45.282 33.12523,58.2684 13.24777,10.151 28.94602,15.0757 44.5991,16.3422 29.47531,3.699 59.0191,6.619 88.60561,8.752 20.65277,1.5268 41.31258,3.0185 61.99352,3.8862 42.61566,1.1658 85.3096,-2.303 127.42879,-9.9884 15.47735,-3.2687 31.07679,-9.3606 43.20069,-21.5797 11.31983,-11.4043 18.09131,-27.9829 21.00316,-44.9869 2.63381,-14.5345 3.35231,-29.5745 2.07573,-44.3605 -1.45019,-13.5693 -5.85842,-27.0265 -14.00234,-36.9788 -9.04487,-11.722 -21.32007,-19.6529 -34.35725,-23.2383 -13.89167,-4.5181 -28.23666,-6.5266 -42.40868,-9.401 -43.92562,-7.7379 -88.39127,-10.691 -132.78031,-10.4404 z"
       id="path3100-2"
       inkscape:connector-curvature="0" />
    <path
       style="fill:#d5faff;stroke:none;stroke-width:1.0512;fill-opacity:1"
       d="m 387.62076,2398.5772 c -44.86178,1.5256 -90.35235,1.7038 -133.99887,16.0122 -17.74699,5.9772 -35.46821,17.2405 -45.89889,37.0373 -14.15161,28.8198 -12.41661,67.2213 0.62947,96.4763 11.78387,26.7188 34.46718,44.6815 58.31625,47.581 31.48079,4.5762 63.09191,7.3875 94.72238,9.1939 16.36234,0.8945 32.71163,2.2816 49.07512,3.0641 41.53329,1.3035 83.08843,-2.492 124.10255,-10.1794 17.41919,-3.4124 35.29238,-9.5619 48.88022,-24.3833 9.48805,-10.0701 15.50976,-24.4181 18.63285,-39.47 4.41502,-20.6619 4.48418,-42.5693 2.12985,-63.7362 -2.28709,-16.8913 -8.54931,-34.3821 -20.68147,-43.3714 -12.9969,-9.7295 -28.36646,-10.8943 -42.80211,-14.6018 -50.56189,-11.0814 -101.93581,-14.9439 -153.10735,-13.6227 z"
       id="path3100-2-1"
       inkscape:connector-curvature="0" />
    <path
       style="fill:#d5faff;stroke:none;stroke-width:1.11924;fill-opacity:1"
       d="m 456.46129,2549.8406 c -63.13127,2.769 -129.51999,-0.019 -188.19108,26.2226 -30.58888,15.9469 -44.10975,51.2145 -40.98218,83.4315 1.5625,42.1888 31.12042,87.1678 77.17239,92.5044 46.78782,5.6855 93.99373,8.4364 141.10443,10.567 61.84016,1.7125 125.09521,-0.3163 184.54112,-18.2448 30.18246,-11.7061 47.19776,-42.3784 49.13962,-72.6555 6.40265,-37.9491 -7.11997,-82.6928 -44.92189,-100.7262 -33.32608,-13.1589 -70.16314,-14.4172 -105.54844,-18.5583 -24.0467,-1.9294 -48.18626,-2.7518 -72.31397,-2.5407 z"
       id="path3100-2-1-9"
       inkscape:connector-curvature="0" />
    <path
       style="fill:#d5faff;fill-rule:evenodd;stroke:none;stroke-width:1px;stroke-linecap:butt;stroke-linejoin:miter;stroke-opacity:1;fill-opacity:1"
       d="m 565.35803,2748.8183 c 0,0 15.49435,31.1557 18.76123,47.2541 3.26688,16.0984 -2.23396,98.2886 -54.0297,124.672 60.58129,-13.8373 97.25045,-97.2182 74.9118,-174.2445 -8.13467,-28.0492 -39.64333,2.3184 -39.64333,2.3184 z"
       id="path1357"
       inkscape:connector-curvature="0"
       sodipodi:nodetypes="cscsc" />
    <path
       style="color:#000000;display:inline;overflow:visible;visibility:visible;fill:#ffe4a0;fill-opacity:1;fill-rule:nonzero;stroke:none;stroke-width:0.840294px;marker:none;enable-background:accumulate"
       d="m 1160.6482,1613.416 c -17.8739,0.665 -36.1728,4.8405 -52.1457,17.7518 -13.6918,11.7343 -23.2264,32.595 -28.0988,55.0672 -3.4119,14.3929 -5.3784,30.6636 -1.8825,45.4728 4.3148,18.412 15.1416,31.7974 27.0239,37.9765 19.072,11.2748 39.7858,12.4073 59.9799,13.4689 21.8903,0.8833 43.8436,1.6213 65.6929,-1.086 11.9069,-1.7873 23.966,-6.7791 33.6302,-17.9635 7.9486,-8.7548 14.4506,-21.8232 15.5494,-37.0517 1.595,-17.9924 -1.5275,-36.2294 -6.4883,-52.4672 -6.7425,-21.0264 -18.7384,-38.1831 -33.2229,-46.1168 -18.4433,-10.962 -38.4463,-12.5985 -57.9893,-14.3303 -7.3418,-0.5894 -14.6964,-0.9884 -22.0488,-0.7217 z"
       id="path4546-6-89"
       inkscape:connector-curvature="0"
       sodipodi:nodetypes="cssssc" />
    <path
       style="color:#000000;display:inline;overflow:visible;visibility:visible;fill:#ffe4a0;fill-opacity:1;fill-rule:nonzero;stroke:none;stroke-width:1px;marker:none;enable-background:accumulate"
       d="m 1191.4693,1723.1631 c 34.2678,49.2543 68.9523,97.6924 121.3421,87.479 -53.9312,29.956 -129.2913,-39.4416 -157.7344,-79.0515 -24.1583,-33.6427 36.3923,-8.4275 36.3923,-8.4275 z"
       id="path4480-3"
       inkscape:connector-curvature="0"
       sodipodi:nodetypes="ccsc" />
    <path
       style="color:#000000;display:inline;overflow:visible;visibility:visible;fill:#ffe4a0;fill-opacity:1;fill-rule:nonzero;stroke:none;stroke-width:0.9211px;marker:none;enable-background:accumulate"
       d="m 926.821,2384.7386 c 0.97087,-41.5238 51.28741,-72.0916 189.1219,-64.8041 73.8315,3.9043 157.5067,6.3303 156.9373,67.1567 -0.5696,60.8263 -120.6474,59.7186 -145.2969,61.2348 -24.6492,1.5161 -154.13528,-4.3702 -178.34852,-24.9684 -15.15696,-12.8943 -21.78751,-25.7617 -22.41378,-38.619 z"
       id="path4546-6-89-3"
       inkscape:connector-curvature="0"
       sodipodi:nodetypes="cssssc" />
    <path
       style="fill:#ffe4a0;stroke:none;stroke-width:0.782855;fill-opacity:1"
       d="m 1180.4173,2424.5689 c 142.9958,5.3352 196.2687,15.5075 205.0257,123.2675 12.121,149.1399 -109.105,156.5816 -276.864,149.6408 -181.00119,-7.4885 -184.2073,-95.3518 -180.82461,-167.0281 5.83677,-123.6895 106.01841,-108.3591 252.66291,-105.8802 z"
       id="path3280-8-0"
       inkscape:connector-curvature="0"
       sodipodi:nodetypes="csssc" />
    <path
       style="color:#000000;display:inline;overflow:visible;visibility:visible;fill:#ffe4a0;fill-opacity:1;fill-rule:nonzero;stroke:none;stroke-width:1px;marker:none;enable-background:accumulate"
       d="m 1204.5538,2683.0596 c -14.7937,34.7302 -29.7284,103.9977 49.732,149.2666 -38.7431,-11.0789 -115.7589,-45.8618 -84.4037,-150.4179 9.0983,-30.339 16.322,-15.8945 23.6557,-14.9665 7.3338,0.9279 11.016,16.1178 11.016,16.1178 z"
       id="path4064-3"
       inkscape:connector-curvature="0"
       sodipodi:nodetypes="ccszc" />
    <path
       style="color:#000000;display:inline;overflow:visible;visibility:visible;fill:#d5faff;fill-opacity:1;fill-rule:nonzero;stroke:none;stroke-width:0.696849px;marker:none;enable-background:accumulate"
       d="m 1688.9425,2304.8762 c 24.7016,-39.6682 66.9492,-42.2159 102.8675,-42.2394 33.8164,1.0129 69.1452,3.7125 100.1969,22.7913 20.01,12.2041 33.5374,44.8101 22.3135,72.1033 -13.8452,23.4202 -38.9291,23.0482 -59.0847,29.5615 -39.7695,7.4345 -80.0158,0.6211 -119.6,-5.5691 -18.0482,-4.6029 -40.2582,-9.8591 -47.6424,-35.6353 -4.1924,-12.5917 -6.0786,-29.5328 0.9492,-41.0123 z"
       id="path3533-6"
       inkscape:connector-curvature="0" />
    <path
       style="fill:#d5faff;fill-rule:evenodd;stroke:none;stroke-width:1.38581px;stroke-linecap:butt;stroke-linejoin:miter;stroke-opacity:1;fill-opacity:1"
       d="m 1855.3501,2352.0624 c 38.9505,26.0497 41.6227,92.7882 26.6214,123.6319 14.1425,-16.2403 51.5149,-98.8625 -6.7766,-150.4117 -47.9683,-42.42 -26.0826,20.6575 -26.0826,20.6575 z"
       id="path4248"
       inkscape:connector-curvature="0"
       sodipodi:nodetypes="ccscc" />
    <path
       style="display:inline;fill:#ffe4a0;stroke:none;stroke-width:1.05194;fill-opacity:1"
       d="m 2043.1486,2367.6599 c 0.7175,-44.3595 27.191,-84.2461 147.4581,-77.1267 120.2672,7.1193 159.7617,11.8987 160.0077,72.3809 0.2574,63.2975 -59.5488,78.1849 -150.58,80.635 -93.8431,2.5256 -156.5144,-23.1978 -156.8858,-75.8892 z"
       id="path3280-64"
       inkscape:connector-curvature="0"
       sodipodi:nodetypes="csssc" />
    <path
       style="color:#000000;display:inline;overflow:visible;visibility:visible;fill:#ffe4a0;fill-opacity:1;fill-rule:nonzero;stroke:none;stroke-width:1.00876px;marker:none;enable-background:accumulate"
       d="m 2225.6941,2499.207 c 29.3281,-35.4419 42.8909,-48.473 14.1537,-86.3903 -28.7372,-37.9162 -14.1521,-48.0944 -14.1521,-48.0944 l 30.5785,11.3041 c 0,0 63.9999,68.3303 -30.5801,123.1806 z"
       id="path3072-56"
       inkscape:connector-curvature="0"
       sodipodi:nodetypes="ccccc" />
    <path
       style="color:#000000;display:inline;overflow:visible;visibility:visible;fill:#d5faff;fill-opacity:1;fill-rule:nonzero;stroke:none;stroke-width:0.617476px;marker:none;enable-background:accumulate"
       d="m 2143.6972,2857.9175 c 12.3518,-9.9895 100.4531,-19.5563 125.4602,6.1257 20.8731,21.4363 19.5337,63.4313 0.417,79.2151 -19.4756,16.0793 -93.6949,10.4002 -122.381,2.6999 -27.0131,-7.2509 -26.5243,-24.7778 -25.7874,-55.3282 0.3006,-12.4682 9.9396,-22.7237 22.2912,-32.7125 z"
       id="path4040-4-5-3-6"
       inkscape:connector-curvature="0"
       sodipodi:nodetypes="zssssz" />
    <path
       style="color:#000000;display:inline;overflow:visible;visibility:visible;fill:#d5faff;fill-opacity:1;fill-rule:nonzero;stroke:none;stroke-width:0.735988px;marker:none;enable-background:accumulate"
       d="m 2220.7187,2921.7322 c -24.3712,0.5614 -48.9112,2.6504 -72.5301,9.6972 -13.9685,3.6036 -28.6323,5.8165 -41.2079,13.9708 -10.5215,6.6862 -20.0147,15.3972 -27.9227,25.5807 -4.7804,6.9256 -6.9669,15.7187 -6.9068,24.3693 -0.8788,13.775 1.1282,28.4527 8.6423,39.8212 7.6784,11.6152 19.5781,18.7549 31.715,23.1286 31.3124,12.5226 64.8931,15.5388 97.9412,16.1074 27.2858,0.2488 54.8816,0.2849 81.657,-6.3099 10.9021,-2.729 21.6934,-6.3854 31.7566,-11.8204 15.8839,-9.9302 25.8181,-29.5503 26.8832,-49.5155 1.2239,-17.6153 -3.8227,-36.2671 -15.4108,-48.7524 -9.406,-9.6666 -21.9409,-14.136 -34.0844,-17.7216 -21.1786,-5.9845 -41.9421,-14.1484 -63.6715,-17.4524 -5.5859,-0.8308 -11.2262,-1.1834 -16.8611,-1.103 z"
       id="path4040-4-5-3"
       inkscape:connector-curvature="0"
       sodipodi:nodetypes="zssssz" />
    <path
       style="display:inline;fill:#d5faff;fill-rule:evenodd;stroke:none;stroke-width:1px;stroke-linecap:butt;stroke-linejoin:miter;stroke-opacity:1;fill-opacity:1"
       d="m 2233.8905,2901.4843 c -59.0902,-10.6562 16.1202,-61.0715 -1.0396,-83.0609 -8.296,-10.6309 -45.3019,13.7249 -85.4552,-27.1328 44.274,25.5713 73.4492,-3.2499 94.1628,5.6982 39.3401,16.9937 6.1746,61.0235 5.4438,70.8494 -0.9776,13.1415 -13.1118,33.6461 -13.1118,33.6461 z"
       id="path4186-80"
       inkscape:connector-curvature="0"
       sodipodi:nodetypes="cscssc" />
  </g>
  <g
     inkscape:groupmode="layer"
     id="layer1"
     inkscape:label="txt"
     style="display:inline">
    <text
       id="text4246-4-2-7"
       y="2032.4965"
       x="651.32275"
       style="font-style:normal;font-variant:normal;font-weight:normal;font-stretch:normal;line-height:0%;font-family:Lavi;-inkscape-font-specification:Lavi;text-align:center;letter-spacing:0px;word-spacing:0px;text-anchor:middle;fill:#000000;fill-opacity:1;stroke:none"
       xml:space="preserve"><tspan
         y="2032.4965"
         x="651.32275"
         style="font-size:45px;line-height:1.25"
         sodipodi:role="line"
         id="tspan1138">Skoraj bi</tspan><tspan
         y="2088.7466"
         x="651.32275"
         style="font-size:45px;line-height:1.25"
         sodipodi:role="line"
         id="tspan3082">nama uspelo …</tspan></text>
    <text
       id="text4246-4-2-7-3-2"
       y="1683.913"
       x="1183.2744"
       style="font-style:normal;font-variant:normal;font-weight:normal;font-stretch:normal;line-height:0%;font-family:Lavi;-inkscape-font-specification:Lavi;text-align:center;letter-spacing:0px;word-spacing:0px;text-anchor:middle;fill:#000000;fill-opacity:1;stroke:none"
       xml:space="preserve"><tspan
         y="1683.913"
         x="1183.2744"
         style="font-size:45px;line-height:1.25"
         sodipodi:role="line"
         id="tspan103302">Da,</tspan><tspan
         y="1740.163"
         x="1183.2744"
         style="font-size:45px;line-height:1.25"
         sodipodi:role="line"
         id="tspan11289">skoraj.</tspan></text>
    <text
       id="text4246-4-2-7-3"
       y="1635.2104"
       x="1922.4059"
       style="font-style:normal;font-variant:normal;font-weight:normal;font-stretch:normal;line-height:0%;font-family:Lavi;-inkscape-font-specification:Lavi;text-align:center;letter-spacing:0px;word-spacing:0px;text-anchor:middle;fill:#000000;fill-opacity:1;stroke:none"
       xml:space="preserve"><tspan
         y="1635.2104"
         x="1922.4059"
         style="font-size:45px;line-height:1.25"
         sodipodi:role="line"
         id="tspan26099">Mimogrede, </tspan><tspan
         y="1691.4604"
         x="1922.4059"
         style="font-size:45px;line-height:1.25"
         sodipodi:role="line"
         id="tspan1713">ali slučajno veš,</tspan><tspan
         y="1747.7104"
         x="1922.4059"
         style="font-size:45px;line-height:1.25"
         sodipodi:role="line"
         id="tspan97978">zakaj se me hoče</tspan><tspan
         y="1803.9604"
         x="1922.4059"
         style="font-size:45px;line-height:1.25"
         sodipodi:role="line"
         id="tspan97980">Vasabi znebiti?</tspan></text>
    <text
       id="text4246-4-2-7-3-6-7"
       y="2359.4299"
       x="350.99081"
       style="font-style:normal;font-variant:normal;font-weight:normal;font-stretch:normal;line-height:0%;font-family:Lavi;-inkscape-font-specification:Lavi;text-align:center;letter-spacing:0px;word-spacing:0px;text-anchor:middle;fill:#000000;fill-opacity:1;stroke:none"
       xml:space="preserve"><tspan
         y="2359.4299"
         x="350.99081"
         style="font-size:45px;line-height:1.25;fill:#000000"
         sodipodi:role="line"
         id="tspan17487">Boji se kaosaških</tspan><tspan
         y="2415.6799"
         x="350.99081"
         style="font-size:45px;line-height:1.25;fill:#000000"
         sodipodi:role="line"
         id="tspan400">čarovnic, Paprika.</tspan></text>
    <text
       id="text4246-4-2-7-3-6-7-6"
       y="2490.6794"
       x="402.06693"
       style="font-style:normal;font-variant:normal;font-weight:normal;font-stretch:normal;line-height:0%;font-family:Lavi;-inkscape-font-specification:Lavi;text-align:center;letter-spacing:0px;word-spacing:0px;text-anchor:middle;fill:#000000;fill-opacity:1;stroke:none"
       xml:space="preserve"><tspan
         y="2490.6794"
         x="402.06693"
         style="font-size:45px;line-height:1.25;fill:#000000"
         sodipodi:role="line"
         id="tspan3317">Še posebej tvojih</tspan><tspan
         y="2546.9294"
         x="402.06693"
         style="font-size:45px;line-height:1.25;fill:#000000"
         sodipodi:role="line"
         id="tspan404"><tspan
   style="font-weight:bold"
   id="tspan406">verižnih reakcij</tspan>.</tspan></text>
    <text
       id="text4246-4-2-7-3-6-7-6-6"
       y="2608.6885"
       x="456.24054"
       style="font-style:normal;font-variant:normal;font-weight:normal;font-stretch:normal;line-height:0%;font-family:Lavi;-inkscape-font-specification:Lavi;text-align:center;letter-spacing:0px;word-spacing:0px;text-anchor:middle;fill:#000000;fill-opacity:1;stroke:none"
       xml:space="preserve"><tspan
         y="2608.6885"
         x="456.24054"
         style="font-size:45px;line-height:1.25;fill:#000000"
         sodipodi:role="line"
         id="tspan40734">Verjame,</tspan><tspan
         y="2664.9385"
         x="456.24054"
         style="font-size:45px;line-height:1.25;fill:#000000"
         sodipodi:role="line"
         id="tspan427">da močno ogrožajo</tspan><tspan
         y="2721.1885"
         x="456.24054"
         style="font-size:45px;line-height:1.25;fill:#000000"
         sodipodi:role="line"
         id="tspan487">njene načrte.</tspan><tspan
         y="2740.1082"
         x="456.24054"
         style="font-size:45px;line-height:1.25;fill:#000000"
         sodipodi:role="line"
         id="tspan408" /></text>
    <text
       id="text4246-4-2-7-3-6-7-6-6-4"
       y="2394.4653"
       x="1106.5256"
       style="font-style:normal;font-variant:normal;font-weight:normal;font-stretch:normal;line-height:0%;font-family:Lavi;-inkscape-font-specification:Lavi;text-align:center;letter-spacing:0px;word-spacing:0px;text-anchor:middle;fill:#000000;fill-opacity:1;stroke:none"
       xml:space="preserve"><tspan
         y="2394.4653"
         x="1106.5256"
         style="font-size:45px;line-height:1.25;fill:#000000"
         sodipodi:role="line"
         id="tspan83621-1-4">Aja, to! Pfff…</tspan></text>
    <text
       id="text4246-4-2-7-3-6-7-6-6-4-5"
       y="2481.4832"
       x="1159.4927"
       style="font-style:normal;font-variant:normal;font-weight:normal;font-stretch:normal;line-height:0%;font-family:Lavi;-inkscape-font-specification:Lavi;text-align:center;letter-spacing:0px;word-spacing:0px;text-anchor:middle;fill:#000000;fill-opacity:1;stroke:none"
       xml:space="preserve"><tspan
         y="2481.4832"
         x="1159.4927"
         style="font-size:45px;line-height:1.25;fill:#000000"
         sodipodi:role="line"
         id="tspan90952">Tega se ji pa</tspan><tspan
         y="2537.7332"
         x="1159.4927"
         style="font-size:45px;line-height:1.25;fill:#000000"
         sodipodi:role="line"
         id="tspan498">res ni treba bati.</tspan><tspan
         y="2593.9832"
         x="1159.4927"
         style="font-size:45px;line-height:1.25;fill:#000000"
         sodipodi:role="line"
         id="tspan500">Nikoli mi še ni uspelo</tspan><tspan
         y="2650.2332"
         x="1159.4927"
         style="font-size:45px;line-height:1.25;fill:#000000"
         sodipodi:role="line"
         id="tspan502">nobene sprožiti.</tspan></text>
    <text
       id="text4246-4-2-7-3-6-7-6-6-4-5-1"
       y="2340.1653"
       x="1804.2465"
       style="font-style:normal;font-variant:normal;font-weight:normal;font-stretch:normal;line-height:0%;font-family:Lavi;-inkscape-font-specification:Lavi;text-align:center;letter-spacing:0px;word-spacing:0px;text-anchor:middle;fill:#000000;fill-opacity:1;stroke:none"
       xml:space="preserve"><tspan
         y="2340.1653"
         x="1804.2465"
         style="font-size:45px;line-height:1.25;fill:#000000"
         sodipodi:role="line"
         id="tspan186800-2">Res ne?</tspan></text>
    <text
       id="text4246-4-2-7-3-6-7-6-6-4-5-1-6"
       y="2351.8303"
       x="2202.064"
       style="font-style:normal;font-variant:normal;font-weight:normal;font-stretch:normal;font-size:39px;line-height:0%;font-family:Lavi;-inkscape-font-specification:Lavi;text-align:center;letter-spacing:0px;word-spacing:0px;text-anchor:middle;fill:#000000;fill-opacity:1;stroke:none"
       xml:space="preserve"><tspan
         y="2351.8303"
         x="2202.064"
         style="font-size:39px;line-height:1.25;fill:#000000"
         sodipodi:role="line"
         id="tspan201029">Da, res ne,</tspan><tspan
         y="2400.5803"
         x="2202.064"
         style="font-size:39px;line-height:1.25;fill:#000000"
         sodipodi:role="line"
         id="tspan94771">ha ha ha!</tspan></text>
    <text
       id="text4246-4-2-7-3-6-7-6-6-4-5-1-6-5"
       y="2913.3022"
       x="2204.2183"
       style="font-style:normal;font-variant:normal;font-weight:normal;font-stretch:normal;font-size:42.5063px;line-height:0%;font-family:Lavi;-inkscape-font-specification:Lavi;text-align:center;letter-spacing:0px;word-spacing:0px;text-anchor:middle;fill:#000000;fill-opacity:1;stroke:none;stroke-width:1.0899"
       xml:space="preserve"><tspan
         y="2913.3022"
         x="2204.2183"
         style="font-size:42.5063px;line-height:1.25;fill:#000000;stroke-width:1.0899"
         sodipodi:role="line"
         id="tspan201029-4">Hi hi!</tspan></text>
    <text
       id="text4246-4-2-7-3-6-7-6-6-4-5-1-6-5-7"
       y="2993.02"
       x="2213.6577"
       style="font-style:normal;font-variant:normal;font-weight:normal;font-stretch:normal;font-size:39px;line-height:0%;font-family:Lavi;-inkscape-font-specification:Lavi;text-align:center;letter-spacing:0px;word-spacing:0px;text-anchor:middle;fill:#000000;fill-opacity:1;stroke:none"
       xml:space="preserve"><tspan
         y="2993.02"
         x="2213.6577"
         style="font-size:39px;line-height:1.25;fill:#000000"
         sodipodi:role="line"
         id="tspan10937">Preganjavica</tspan><tspan
         y="3041.77"
         x="2213.6577"
         style="font-size:39px;line-height:1.25;fill:#000000"
         sodipodi:role="line"
         id="tspan506">jo daje …</tspan></text>
  </g>
</svg>
