<?xml version="1.0" encoding="UTF-8" standalone="no"?>
<!-- Created with Inkscape (http://www.inkscape.org/) -->

<svg
   xmlns:dc="http://purl.org/dc/elements/1.1/"
   xmlns:cc="http://creativecommons.org/ns#"
   xmlns:rdf="http://www.w3.org/1999/02/22-rdf-syntax-ns#"
   xmlns:svg="http://www.w3.org/2000/svg"
   xmlns="http://www.w3.org/2000/svg"
   xmlns:xlink="http://www.w3.org/1999/xlink"
   xmlns:sodipodi="http://sodipodi.sourceforge.net/DTD/sodipodi-0.dtd"
   xmlns:inkscape="http://www.inkscape.org/namespaces/inkscape"
   id="svg2"
   version="1.1"
   inkscape:version="0.92.2 (5c3e80d, 2017-08-06)"
   width="2481"
   height="3503"
   sodipodi:docname="Pepper-and-Carrot_by-David-Revoy_E18P03.svg"
   inkscape:export-filename="E:\Users\jamesmichael\Downloads\Compressed\eps\peppercarrot_ep18_translation-master\peppercarrot_ep18_translation-master\ph\Pepper-and-Carrot_by-David-Revoy_E18P03.png"
   inkscape:export-xdpi="99.028236"
   inkscape:export-ydpi="99.028236">
  <metadata
     id="metadata8">
    <rdf:RDF>
      <cc:Work
         rdf:about="">
        <dc:format>image/svg+xml</dc:format>
        <dc:type
           rdf:resource="http://purl.org/dc/dcmitype/StillImage" />
        <dc:title />
      </cc:Work>
    </rdf:RDF>
  </metadata>
  <defs
     id="defs6" />
  <sodipodi:namedview
     pagecolor="#ffffff"
     bordercolor="#666666"
     borderopacity="1"
     objecttolerance="10"
     gridtolerance="10"
     guidetolerance="10"
     inkscape:pageopacity="0"
     inkscape:pageshadow="2"
     inkscape:window-width="1366"
     inkscape:window-height="705"
     id="namedview4"
     showgrid="false"
     inkscape:zoom="0.31941596"
     inkscape:cx="1159.2506"
     inkscape:cy="1188.0499"
     inkscape:window-x="-8"
     inkscape:window-y="-8"
     inkscape:window-maximized="1"
     inkscape:current-layer="layer8" />
  <g
     inkscape:groupmode="layer"
     id="layer2"
     inkscape:label="artwork"
     sodipodi:insensitive="true">
    <image
       sodipodi:absref="E:\Users\jamesmichael\Downloads\Compressed\eps\peppercarrot_ep18_translation-master\peppercarrot_ep18_translation-master\ph\../gfx_Pepper-and-Carrot_by-David-Revoy_E18P03.png"
       xlink:href="../gfx_Pepper-and-Carrot_by-David-Revoy_E18P03.png"
       y="0"
       x="0"
       id="image10"
       height="3503"
       width="2481" />
  </g>
  <g
     inkscape:groupmode="layer"
     id="layer4"
     inkscape:label="translatornotes"
     sodipodi:insensitive="true" />
  <g
     inkscape:groupmode="layer"
     id="layer3"
     inkscape:label="speechbubbles">
    <path
       style="color:#000000;display:inline;overflow:visible;visibility:visible;fill:#f2f8d1;fill-opacity:1;fill-rule:nonzero;stroke:none;stroke-width:1.01728821px;marker:none;enable-background:accumulate"
       d="m 181.91352,284.35168 c 0,82.72495 12.10477,149.28733 50.36882,157.043 38.26408,7.75538 149.10339,-4.55449 165.87081,-31.69862 16.76739,-27.14426 23.61198,-80.74305 23.19715,-135.12803 -0.72671,-95.2723 -42.95718,-124.64463 -81.22123,-120.76693 -38.26409,3.87783 -96.80749,-7.71965 -117.44429,11.66908 -20.6368,19.38875 -39.05151,52.96004 -40.77126,118.8815 z"
       id="path3986"
       inkscape:connector-curvature="0"
       sodipodi:nodetypes="csssssc" />
    <path
       style="color:#000000;display:inline;overflow:visible;visibility:visible;fill:#f2f8d1;fill-opacity:1;fill-rule:nonzero;stroke:none;stroke-width:1.09293246px;marker:none;enable-background:accumulate"
       d="m 1411.0952,661.29795 c 0,-80.20084 11.5768,-144.73227 48.1717,-152.2513 36.595,-7.51875 142.5992,4.41552 158.6353,30.73143 16.0359,26.31603 22.5819,78.27942 22.1852,131.00501 -0.695,92.36537 -41.0833,120.84148 -77.6782,117.08211 -36.595,-3.75952 -92.5846,7.4841 -112.3213,-11.31304 -19.7365,-18.79716 -37.348,-51.34412 -38.9927,-115.25421 z"
       id="path3986-3"
       inkscape:connector-curvature="0"
       sodipodi:nodetypes="csssssc" />
    <path
       style="color:#000000;display:inline;overflow:visible;visibility:visible;fill:#f2f8d1;fill-opacity:1;fill-rule:nonzero;stroke:none;stroke-width:1.23646986px;marker:none;enable-background:accumulate"
       d="m 437.38391,1361.2676 c -27.46382,-6.1772 -29.7668,-41.0173 -24.18437,-53.8429 -30.72327,25.8534 -49.81233,24.9521 -52.77612,-10.1496 -55.37182,58.8662 -46.99262,10.7616 -61.03316,1.2733 -19.08225,46.2208 -42.83057,25.5411 -66.47183,17.3122 -0.81198,53.1263 -38.70774,35.7405 -68.88955,37.9796 14.16269,4.5039 57.27961,25.9003 9.27187,27.1877 9.07435,0.097 84.29613,35.0379 11.13376,86.9912 37.67308,-1.2551 45.4196,16.5199 -6.6282,33.3982 56.33927,-5.6406 40.03632,54.2288 22.35667,85.94 34.13022,-16.0239 47.8847,9.2993 41.08741,36.2449 18.71343,-3.7781 31.57657,5.3199 39.21545,25.8661 11.30419,-27.3027 22.96403,-32.3345 35.51195,18.3606 1.21382,-38.576 3.70039,-74.5483 46.49246,-29.2903 1.03541,-14.1987 -34.67139,-47.8866 69.82546,-32.18 -33.45327,-24.4154 -51.91706,-50.4644 18.15863,-83.1323 -35.00836,-15.4601 -52.33164,-42.2753 -8.60379,-53.9412 -18.64191,-4.193 -25.65286,-21.5793 -26.50318,-36.339 7.40494,-5.7076 17.46288,-11.5943 30.64051,-17.7373 -27.66933,-10.0403 -46.3558,-25.0596 -8.60397,-53.9412 z"
       id="path3549-3-7"
       inkscape:connector-curvature="0"
       sodipodi:nodetypes="cccccccccccccccccccc" />
    <path
       style="color:#000000;display:inline;overflow:visible;visibility:visible;fill:#f2f8d1;fill-opacity:1;fill-rule:nonzero;stroke:none;stroke-width:1px;marker:none;enable-background:accumulate"
       d="m 1234.7515,1447.0481 c 4.1064,18.9755 5.8021,41.3586 4.3648,45.455 -1.4372,4.0964 -24.1183,16.5382 -23.4659,22.8435 0.6524,6.3052 12.9649,15.7466 12.3589,19.7007 -0.606,3.954 -15.6638,15.9454 -14.8094,20.9326 0.8544,4.9873 15.7897,27.2412 15.0414,30.3641 -0.7485,3.1228 -4.6926,20.055 -2.189,37.166 9.0042,-32.3444 15.7135,-35.6328 15.0611,-41.9381 -0.6524,-6.3053 -11.8721,-19.3562 -10.7197,-25.1152 1.1524,-5.7588 15.3791,-17.6078 14.2398,-24.2575 -1.1392,-6.6496 -9.3553,-14.6538 -9.3553,-14.6538 6.163,-1.4836 36.9542,-14.0313 37.0766,-48.2765 0.1225,-34.2453 -37.6033,-22.2208 -37.6033,-22.2208 z"
       id="path5050"
       inkscape:connector-curvature="0" />
    <path
       style="color:#000000;display:inline;overflow:visible;visibility:visible;fill:#f2f8d1;fill-opacity:1;fill-rule:nonzero;stroke:none;stroke-width:1.19236338px;marker:none;enable-background:accumulate"
       d="m 1135.6087,1448.3708 c -2.1916,-20.9291 17.517,-97.5543 104.9025,-95.8164 87.3855,1.7379 107.392,79.6088 107.7033,107.8856 0.3112,28.2768 -19.465,74.9858 -32.0266,83.8518 -12.5617,8.8661 -45.4155,30.5291 -66.9826,27.931 -21.567,-2.5983 -52.4203,5.9253 -87.3113,-38.6475 -33.2605,-42.4897 -24.6565,-79.7717 -26.2853,-85.2045 z"
       id="path3365"
       inkscape:connector-curvature="0"
       sodipodi:nodetypes="csssssc" />
    <path
       style="color:#000000;display:inline;overflow:visible;visibility:visible;fill:#f2f8d1;fill-opacity:1;fill-rule:nonzero;stroke:none;stroke-width:1px;marker:none;enable-background:accumulate"
       d="m 1814.6588,1632.9957 c 12.8534,16.1094 29.6793,33.5611 34.0041,37.3181 1.5869,-6.9257 4.1747,-12.6522 6.1138,-17.163 7.496,7.6985 45.2534,48.5097 49.4889,60.5594 2.1569,-29.3959 -34.9364,-83.6296 -48.0788,-95.2447 -3.581,5.3909 -8.4161,12.9117 -10.3708,15.6951 -6.8155,-5.4595 -17.8925,-22.1473 -17.8925,-22.1473 z"
       id="path5066"
       inkscape:connector-curvature="0"
       sodipodi:nodetypes="cccccccc" />
    <path
       style="fill:#f2f8d1;fill-opacity:1;fill-rule:evenodd;stroke:none;stroke-width:1.20340657"
       d="m 1381.3339,1480.4366 c 52.9039,5.5121 132.5578,38.1576 89.7871,-44.8329 83.0181,58.8005 116.1241,69.6735 251.166,-22.6551 -11.2221,128.644 73.17,41.4676 136.323,12.0723 -35.8336,84.3911 41.5177,68.0958 91.941,70.5276 -106.6655,93.6323 -50.6542,123.4103 -8.6244,158.6763 -162.4453,-59.2705 -98.7365,15.683 -91.9948,56.6701 -89.9255,-67.7346 -155.3226,-51.659 -206.988,11.3342 -27.0217,-34.2574 -35.5036,-105.0614 -135.1174,3.7779 36.6306,-93.9595 -11.3839,-84.0973 -89.1197,-37.78 12.183,-32.0037 84.5916,-80.6703 -37.3728,-75.5605 76.1812,-30.4245 92.1568,-71.6383 0,-132.2299 z"
       id="path4584"
       inkscape:connector-curvature="0"
       sodipodi:nodetypes="cccccccccccc" />
    <path
       style="fill:#f2f8d1;fill-opacity:1;fill-rule:evenodd;stroke:none;stroke-width:1.07944608px;stroke-linecap:butt;stroke-linejoin:miter;stroke-opacity:1"
       d="m 2051.7107,2017.2085 c -21.8345,7.8125 -82.7428,68.5852 -49.5636,15.1163 l -31.0439,14.9365 c -60.1735,-32.4205 -257.04,-12.621 -322.8909,5.2644 l -18.0643,-32.1545 3.6032,26.9931 -20.9438,-39.9794 11.7374,53.8382 -11.0551,-18.2776 4.643,20.1814 -10.7383,-9.8131 1.8163,17.2743 c -24.9667,16.0396 -39.1621,47.6672 -44.786,80.2976 l -20.1625,-2.9567 18.7297,12.759 c -0.2383,1.9815 -0.4531,3.9619 -0.6303,5.9368 -0.012,0.135 -0.023,0.274 -0.034,0.4094 l -21.1925,-4.661 20.3494,17.3773 c -0.044,0.9282 -0.089,1.8547 -0.1268,2.7914 l -40.5474,-10.883 40.2046,29.5744 c -0.01,33.2173 2.9083,67.3053 4.4188,82.2056 1.0474,10.3314 2.1731,17.6954 8.2919,34.3021 l -37.7647,50.1633 50.0431,-27.3682 c 1.0628,0.6106 2.148,1.2202 3.2378,1.831 l -12.9283,17.0598 22.5066,-11.8822 c 2.3032,1.2013 4.6566,2.3965 7.0554,3.5849 l -23.3075,38.2168 34.7656,-32.7732 c 83.6809,38.1442 262.5686,76.1139 387.3627,-16.1712 l 44.5236,19.8942 -33.1663,-28.706 c 2.4365,-1.9839 4.8577,-4.0109 7.2594,-6.0912 l 8.1343,0.8384 -5.3894,-6.3655 c 0.5147,-1.0525 1.0284,-2.1068 1.5389,-3.171 l 27.7135,14.0004 -20.8281,-29.0063 c 13.1273,-21.4488 16.5032,-45.7843 14.8808,-70.4307 l 25.1333,-14.8295 c -43.444,7.6728 -27.927,-9.2108 -0.6102,-17.8929 l -24.5387,1.201 c 2.3769,-19.9526 -6.4056,-56.5488 -17.9084,-75.6483 l 1.1472,-14.4826 c -20.1351,1.3876 -7.1693,-11.0729 -0.2297,-21.9235 -22.1096,9.763 -19.3981,5.6621 -10.6987,-13.3193 -37.2359,5.4086 19.933,-44.7073 30.0531,-57.2607 z"
       id="path4212"
       inkscape:connector-curvature="0"
       sodipodi:nodetypes="ccccccccccccccccccccccscccccccccccccccccccccccccccc" />
    <path
       style="color:#000000;display:inline;overflow:visible;visibility:visible;fill:#f2f8d1;fill-opacity:1;fill-rule:nonzero;stroke:none;stroke-width:1px;marker:none;enable-background:accumulate"
       d="m 367.79744,2698.9679 c 36.39441,-19.0572 48.4084,-27.6376 48.29889,-70.8322 -0.10955,-43.1945 17.16485,-44.5253 17.16485,-44.5253 l 17.11255,23.0097 c 0,0 -6.67004,92.7921 -82.57629,92.3478 z"
       id="path3072-0"
       inkscape:connector-curvature="0"
       inkscape:transform-center-x="-94.0856"
       inkscape:transform-center-y="-90.317826" />
    <path
       style="color:#000000;display:inline;overflow:visible;visibility:visible;fill:#f2f8d1;fill-opacity:1;fill-rule:nonzero;stroke:none;stroke-width:1px;marker:none;enable-background:accumulate"
       d="m 247.16308,2570.0648 c -29.71815,-35.5036 -23.14904,-123.9793 177.04365,-123.3553 173.62462,0.5412 205.27057,32.7216 210.57086,44.4275 5.30042,11.7058 47.98794,77.1389 -85.34401,104.7487 -133.3321,27.6098 -255.94519,17.2012 -302.2705,-25.8209 z"
       id="path3525"
       inkscape:connector-curvature="0"
       sodipodi:nodetypes="cscsc" />
    <path
       style="color:#000000;display:inline;overflow:visible;visibility:visible;fill:#f2f8d1;fill-opacity:1;fill-rule:nonzero;stroke:none;stroke-width:1px;marker:none;enable-background:accumulate"
       d="m 657.44703,2691.9394 c 41.26377,0.4885 55.8622,-1.7171 74.19559,-46.4321 18.33332,-44.7151 34.62678,-36.5079 34.62678,-36.5079 l 5.75891,33.2804 c 0,0 -45.6706,92.2277 -114.58128,49.6596 z"
       id="path3072"
       inkscape:connector-curvature="0" />
    <path
       style="color:#000000;display:inline;overflow:visible;visibility:visible;fill:#f2f8d1;fill-opacity:1;fill-rule:nonzero;stroke:none;stroke-width:1px;marker:none;enable-background:accumulate"
       d="m 602.8976,2601.6372 c -6.57038,-29.8177 10.95058,-109.0209 145.64353,-102.4982 134.69285,6.5224 156.59423,43.7946 159.87936,54.9763 3.28524,11.1816 31.75688,74.5442 -73.36926,91.3167 -105.12624,16.7724 -199.30168,-0.9319 -232.15363,-43.7948 z"
       id="path3525-9"
       inkscape:connector-curvature="0" />
    <path
       style="color:#000000;display:inline;overflow:visible;visibility:visible;fill:#f2f8d1;fill-opacity:1;fill-rule:nonzero;stroke:none;stroke-width:1px;marker:none;enable-background:accumulate"
       d="m 1715.8244,2731.9556 c -48.806,-21.3553 -64.7562,-31.8209 -61.5722,-96.2896 3.1844,-64.4687 -20.5229,-63.0947 -20.5229,-63.0947 l -25.1934,37.6594 c 0,0 2.674,137.151 107.2885,121.7249 z"
       id="path3072-6"
       inkscape:connector-curvature="0" />
    <path
       style="color:#000000;display:inline;overflow:visible;visibility:visible;fill:#f2f8d1;fill-opacity:1;fill-rule:nonzero;stroke:none;stroke-width:1px;marker:none;enable-background:accumulate"
       d="m 1391.253,2647.6059 c -6.5704,-25.0264 10.9506,-91.5026 145.6435,-86.028 134.6929,5.4743 156.5943,36.7573 159.8794,46.1423 3.2852,9.3848 31.7569,62.5658 -73.3693,76.6431 -105.1262,14.0773 -199.3017,-0.7821 -232.1536,-36.7574 z"
       id="path3525-9-3"
       inkscape:connector-curvature="0" />
    <path
       style="color:#000000;display:inline;overflow:visible;visibility:visible;fill:#f2f8d1;fill-opacity:1;fill-rule:nonzero;stroke:none;stroke-width:1px;marker:none;enable-background:accumulate"
       d="m 2094.8166,2651.8782 c -35.5068,5.8296 -49.1181,5.0708 -84.7214,-45.6289 -35.6032,-50.6998 -46.087,-38.8932 -46.087,-38.8932 l 9.7006,40.2037 c 0,0 80.236,103.5719 121.1078,44.3184 z"
       id="path3072-6-2"
       inkscape:connector-curvature="0" />
    <path
       style="color:#000000;display:inline;overflow:visible;visibility:visible;fill:#f2f8d1;fill-opacity:1;fill-rule:nonzero;stroke:none;stroke-width:1px;marker:none;enable-background:accumulate"
       d="m 1658.3708,2607.7929 c -8.8822,-29.7459 14.8034,-108.7581 196.8867,-102.2512 182.0833,6.5067 211.6905,43.6891 216.1315,54.8438 4.441,11.1547 42.9302,74.3646 -99.1836,91.0967 -142.1139,16.7319 -269.4241,-0.9297 -313.8346,-43.6893 z"
       id="path3525-9-3-6"
       inkscape:connector-curvature="0" />
  </g>
  <g
     inkscape:groupmode="layer"
     id="layer1"
     inkscape:label="txt">
    <g
       inkscape:groupmode="layer"
       id="layer5"
       inkscape:label="frame01">
      <text
         xml:space="preserve"
         style="font-style:normal;font-variant:normal;font-weight:normal;font-stretch:normal;line-height:0%;font-family:Lavi;-inkscape-font-specification:Lavi;text-align:center;letter-spacing:0px;word-spacing:0px;text-anchor:middle;fill:#b17d62;fill-opacity:1;stroke:none"
         x="306.80984"
         y="284.04126"
         id="text4246"><tspan
           sodipodi:role="line"
           style="font-size:45px;line-height:1.25;fill:#b17d62;fill-opacity:1"
           x="314.72"
           y="284.04126"
           id="tspan4252">Cinnamon, </tspan><tspan
           sodipodi:role="line"
           style="font-size:45px;line-height:1.25;fill:#b17d62;fill-opacity:1"
           x="306.80984"
           y="340.29126"
           id="tspan4819">very good.</tspan></text>
      <text
         xml:space="preserve"
         style="font-style:normal;font-variant:normal;font-weight:normal;font-stretch:normal;line-height:0%;font-family:Lavi;-inkscape-font-specification:Lavi;text-align:center;letter-spacing:0px;word-spacing:0px;text-anchor:middle;fill:#b17d62;fill-opacity:1;stroke:none"
         x="1525.7086"
         y="641.82965"
         id="text4246-6"><tspan
           sodipodi:role="line"
           style="font-size:45px;line-height:1.25;fill:#b17d62;fill-opacity:1"
           x="1533.6188"
           y="641.82965"
           id="tspan4252-7">Camomile, </tspan><tspan
           sodipodi:role="line"
           style="font-size:45px;line-height:1.25;fill:#b17d62;fill-opacity:1"
           x="1525.7086"
           y="698.07965"
           id="tspan4821">good.</tspan></text>
    </g>
    <g
       inkscape:groupmode="layer"
       id="layer6"
       inkscape:label="frame02"
       style="display:inline">
      <text
         xml:space="preserve"
         style="font-style:normal;font-variant:normal;font-weight:normal;font-stretch:normal;line-height:0%;font-family:Lavi;-inkscape-font-specification:Lavi;text-align:center;letter-spacing:0px;word-spacing:0px;text-anchor:middle;fill:#b17d62;fill-opacity:1;stroke:#b17d62;stroke-width:1.10773635;stroke-opacity:1"
         x="329.74625"
         y="1431.394"
         id="text4246-6-5"
         transform="scale(0.95778249,1.0440784)"><tspan
           sodipodi:role="line"
           style="font-size:55.59775925px;line-height:1.25;fill:#b17d62;fill-opacity:1;stroke:#b17d62;stroke-width:1.10773635;stroke-opacity:1"
           x="339.51929"
           y="1431.394"
           id="tspan4252-7-3">Pepper </tspan><tspan
           sodipodi:role="line"
           style="font-size:55.59775925px;line-height:1.25;fill:#b17d62;fill-opacity:1;stroke:#b17d62;stroke-width:1.10773635;stroke-opacity:1"
           x="329.74625"
           y="1500.8912"
           id="tspan4823">?!</tspan></text>
    </g>
    <g
       inkscape:groupmode="layer"
       id="layer7"
       inkscape:label="frame03"
       style="display:inline">
      <text
         xml:space="preserve"
         style="font-style:normal;font-variant:normal;font-weight:normal;font-stretch:normal;line-height:1;font-family:Lavi;-inkscape-font-specification:Lavi;text-align:center;letter-spacing:0px;word-spacing:0px;text-anchor:middle;fill:#b17d62;fill-opacity:1;stroke:none"
         x="1226.9994"
         y="1454.4615"
         id="text4246-6-2"><tspan
           sodipodi:role="line"
           style="font-size:45px;line-height:1;fill:#b17d62;fill-opacity:1"
           x="1234.9095"
           y="1454.4615"
           id="tspan4278">Pero </tspan><tspan
           sodipodi:role="line"
           style="font-size:45px;line-height:1;fill:#b17d62;fill-opacity:1"
           x="1226.9994"
           y="1499.4615"
           id="tspan4798">po...</tspan></text>
    </g>
    <g
       inkscape:groupmode="layer"
       id="layer8"
       inkscape:label="frame04">
      <text
         xml:space="preserve"
         style="font-style:normal;font-variant:normal;font-weight:normal;font-stretch:normal;line-height:0%;font-family:Lavi;-inkscape-font-specification:Lavi;text-align:center;letter-spacing:0px;word-spacing:0px;text-anchor:middle;display:inline;fill:#b17d62;fill-opacity:1;stroke:#b17d62;stroke-width:1;stroke-opacity:1"
         x="1764.691"
         y="1380.5809"
         id="text4246-6-2-1"
         transform="scale(0.94299065,1.0604559)"><tspan
           sodipodi:role="line"
           style="font-size:57.32448959px;line-height:1.25;fill:#b17d62;fill-opacity:1;stroke:#b17d62;stroke-width:1;stroke-opacity:1"
           x="1774.7676"
           y="1380.5809"
           id="tspan4278-2"> </tspan><tspan
           sodipodi:role="line"
           style="font-size:57.32448959px;line-height:1.25;fill:#b17d62;fill-opacity:1;stroke:#b17d62;stroke-width:1;stroke-opacity:1"
           x="1764.691"
           y="1452.2366"
           id="tspan4327">Palpak</tspan><tspan
           sodipodi:role="line"
           style="font-size:57.32448959px;line-height:1.25;fill:#b17d62;fill-opacity:1;stroke:#b17d62;stroke-width:1;stroke-opacity:1"
           x="1764.691"
           y="1523.8922"
           id="tspan4796">NANAMAN!!!</tspan></text>
      <text
         xml:space="preserve"
         style="font-style:normal;font-variant:normal;font-weight:normal;font-stretch:normal;line-height:0%;font-family:Lavi;-inkscape-font-specification:Lavi;text-align:center;letter-spacing:0px;word-spacing:0px;text-anchor:middle;display:inline;fill:#b17d62;fill-opacity:1;stroke:none"
         x="1798.0854"
         y="2128.9556"
         id="text4246-6-2-7"><tspan
           sodipodi:role="line"
           style="font-size:45px;line-height:1.25;fill:#b17d62;fill-opacity:1;stroke:none"
           x="1805.9956"
           y="2128.9556"
           id="tspan3714">I remind you: </tspan><tspan
           sodipodi:role="line"
           style="font-size:45px;line-height:1.25;fill:#b17d62;fill-opacity:1;stroke:none"
           x="1805.9956"
           y="2185.2056"
           id="tspan4813">Ang Hippiah magic </tspan><tspan
           sodipodi:role="line"
           style="font-size:45px;line-height:1.25;fill:#b17d62;fill-opacity:1;stroke:none"
           x="1805.9956"
           y="2241.4556"
           id="tspan4807">ay hindi magic </tspan><tspan
           sodipodi:role="line"
           style="font-size:45px;line-height:1.25;fill:#b17d62;fill-opacity:1;stroke:none"
           x="1798.0854"
           y="2297.7056"
           id="tspan4809">pamatay halaman!</tspan><tspan
           sodipodi:role="line"
           style="font-size:45px;line-height:1.25;fill:#b17d62;fill-opacity:1;stroke:none"
           x="1798.0854"
           y="2353.9556"
           id="tspan4805">...</tspan></text>
    </g>
    <g
       inkscape:groupmode="layer"
       id="layer9"
       inkscape:label="frame05">
      <text
         xml:space="preserve"
         style="font-style:normal;font-variant:normal;font-weight:normal;font-stretch:normal;line-height:0%;font-family:Lavi;-inkscape-font-specification:Lavi;text-align:center;letter-spacing:0px;word-spacing:0px;text-anchor:middle;fill:#b17d62;fill-opacity:1;stroke:#b17d62;stroke-width:4.39599991;stroke-miterlimit:4;stroke-dasharray:none;stroke-opacity:1"
         x="812.90161"
         y="2453.823"
         id="text4246-6-5-6"
         transform="matrix(0.96240981,0,-0.13855859,1.0390584,0,0)"><tspan
           sodipodi:role="line"
           style="font-size:49.99659729px;line-height:1.25;fill:#b17d62;fill-opacity:1;stroke:#b17d62;stroke-width:4.39599991;stroke-miterlimit:4;stroke-dasharray:none;stroke-opacity:1"
           x="812.90161"
           y="2453.823"
           id="tspan4252-7-3-1">HA HAHA HA !</tspan></text>
      <text
         xml:space="preserve"
         style="font-style:normal;font-variant:normal;font-weight:normal;font-stretch:normal;line-height:0%;font-family:Lavi;-inkscape-font-specification:Lavi;text-align:center;letter-spacing:0px;word-spacing:0px;text-anchor:middle;fill:#b17d62;fill-opacity:1;stroke:#b17d62;stroke-width:4.39599991;stroke-miterlimit:4;stroke-dasharray:none;stroke-opacity:1"
         x="1147.7004"
         y="2494.9968"
         id="text4246-6-5-6-8"
         transform="matrix(0.96240981,0,-0.13855859,1.0390584,0,0)"><tspan
           sodipodi:role="line"
           style="font-size:49.99659729px;line-height:1.25;fill:#b17d62;fill-opacity:1;stroke:#b17d62;stroke-width:4.39599991;stroke-miterlimit:4;stroke-dasharray:none;stroke-opacity:1"
           x="1147.7004"
           y="2494.9968"
           id="tspan4252-7-3-1-7">HA HA !</tspan></text>
      <text
         xml:space="preserve"
         style="font-style:normal;font-variant:normal;font-weight:normal;font-stretch:normal;line-height:0%;font-family:Lavi;-inkscape-font-specification:Lavi;text-align:center;letter-spacing:0px;word-spacing:0px;text-anchor:middle;fill:#b17d62;fill-opacity:1;stroke:#b17d62;stroke-width:4.39599991;stroke-miterlimit:4;stroke-dasharray:none;stroke-opacity:1"
         x="1973.8583"
         y="2544.5718"
         id="text4246-6-5-6-8-9"
         transform="matrix(0.96240981,0,-0.13855859,1.0390584,0,0)"><tspan
           sodipodi:role="line"
           style="font-size:49.99659729px;line-height:1.25;fill:#b17d62;fill-opacity:1;stroke:#b17d62;stroke-width:4.39599991;stroke-miterlimit:4;stroke-dasharray:none;stroke-opacity:1"
           x="1973.8583"
           y="2544.5718"
           id="tspan4252-7-3-1-7-2">HA HA !</tspan></text>
      <text
         xml:space="preserve"
         style="font-style:normal;font-variant:normal;font-weight:normal;font-stretch:normal;line-height:0%;font-family:Lavi;-inkscape-font-specification:Lavi;text-align:center;letter-spacing:0px;word-spacing:0px;text-anchor:middle;fill:#b17d62;fill-opacity:1;stroke:#b17d62;stroke-width:4.39599991;stroke-miterlimit:4;stroke-dasharray:none;stroke-opacity:1"
         x="2305.4133"
         y="2500.9087"
         id="text4246-6-5-6-0"
         transform="matrix(0.96240981,0,-0.13855859,1.0390584,0,0)"><tspan
           sodipodi:role="line"
           style="font-size:49.99659729px;line-height:1.25;fill:#b17d62;fill-opacity:1;stroke:#b17d62;stroke-width:4.39599991;stroke-miterlimit:4;stroke-dasharray:none;stroke-opacity:1"
           x="2305.4133"
           y="2500.9087"
           id="tspan4252-7-3-1-2">HA HAHA HA !</tspan></text>
    </g>
  </g>
</svg>
