<?xml version="1.0" encoding="UTF-8" standalone="no"?>
<!-- Created with Inkscape (http://www.inkscape.org/) -->

<svg
   id="svg2"
   version="1.1"
   inkscape:version="1.3 (1:1.3+202307231459+0e150ed6c4)"
   width="2481"
   height="3503"
   sodipodi:docname="E31P06.svg"
   xmlns:inkscape="http://www.inkscape.org/namespaces/inkscape"
   xmlns:sodipodi="http://sodipodi.sourceforge.net/DTD/sodipodi-0.dtd"
   xmlns:xlink="http://www.w3.org/1999/xlink"
   xmlns="http://www.w3.org/2000/svg"
   xmlns:svg="http://www.w3.org/2000/svg"
   xmlns:rdf="http://www.w3.org/1999/02/22-rdf-syntax-ns#"
   xmlns:cc="http://creativecommons.org/ns#"
   xmlns:dc="http://purl.org/dc/elements/1.1/">
  <metadata
     id="metadata8">
    <rdf:RDF>
      <cc:Work
         rdf:about="">
        <dc:format>image/svg+xml</dc:format>
        <dc:type
           rdf:resource="http://purl.org/dc/dcmitype/StillImage" />
        <dc:title />
      </cc:Work>
    </rdf:RDF>
  </metadata>
  <defs
     id="defs6">
    <filter
       style="color-interpolation-filters:sRGB"
       id="filter4375-4-1-1-1-9-5-8-3-8"
       inkscape:label="Drop Shadow"
       x="-0.017539459"
       y="-0.075809927"
       width="1.0514181"
       height="1.2222421">
      <feFlood
         id="feFlood4377-7-9-0-8-1-7-3-8-3"
         flood-opacity="1"
         flood-color="rgb(39,39,39)"
         result="flood" />
      <feComposite
         id="feComposite4379-3-8-8-2-77-4-1-8-7"
         in2="SourceGraphic"
         in="flood"
         operator="in"
         result="composite1" />
      <feMorphology
         id="feMorphology4393-1-0-49-8-9-3-0-31-8"
         operator="dilate"
         radius="6.2000000000000002"
         result="result3" />
      <feComposite
         id="feComposite4385-9-5-7-0-8-8-7-8-2"
         in2="result3"
         in="SourceGraphic"
         operator="over"
         result="fbSourceGraphic" />
      <feColorMatrix
         result="fbSourceGraphicAlpha"
         in="fbSourceGraphic"
         values="0 0 0 -1 0 0 0 0 -1 0 0 0 0 -1 0 0 0 0 1 0"
         id="feColorMatrix4544-96-1" />
      <feTurbulence
         id="feTurbulence4546-4-0"
         type="fractalNoise"
         numOctaves="3"
         seed="37"
         baseFrequency="0.129 0.0050000000000000001"
         result="turbulence" />
      <feDisplacementMap
         id="feDisplacementMap4548-3-5"
         in2="turbulence"
         in="fbSourceGraphic"
         scale="6.6"
         yChannelSelector="G"
         xChannelSelector="R"
         result="fbSourceGraphic" />
      <feColorMatrix
         result="fbSourceGraphicAlpha"
         in="fbSourceGraphic"
         values="0 0 0 -1 0 0 0 0 -1 0 0 0 0 -1 0 0 0 0 1 0"
         id="feColorMatrix4670-33-8" />
      <feFlood
         id="feFlood4672-8-5"
         flood-opacity="0.40999999999999998"
         flood-color="rgb(0,0,0)"
         result="flood"
         in="fbSourceGraphic" />
      <feComposite
         id="feComposite4674-6-5"
         in2="fbSourceGraphic"
         in="flood"
         operator="in"
         result="composite1" />
      <feGaussianBlur
         id="feGaussianBlur4676-0-0"
         in="composite1"
         stdDeviation="0"
         result="blur" />
      <feOffset
         id="feOffset4678-4-7"
         dx="6"
         dy="6"
         result="offset" />
      <feComposite
         id="feComposite4680-8-3"
         in2="offset"
         in="fbSourceGraphic"
         operator="over"
         result="composite2" />
    </filter>
    <filter
       style="color-interpolation-filters:sRGB"
       id="filter4375-4-1-1-1-9-0"
       inkscape:label="deevad outline effect"
       x="-0.025576051"
       y="-0.069499108"
       width="1.0511521"
       height="1.1389982">
      <feFlood
         id="feFlood4377-7-9-0-8-1-9"
         flood-opacity="1"
         flood-color="rgb(0,0,0)"
         result="flood" />
      <feComposite
         id="feComposite4379-3-8-8-2-77-1"
         in2="SourceGraphic"
         in="flood"
         operator="in"
         result="composite1" />
      <feMorphology
         id="feMorphology4393-1-0-49-8-9-9"
         operator="dilate"
         radius="3"
         result="result3" />
      <feComposite
         id="feComposite4385-9-5-7-0-8-6"
         in2="result3"
         in="SourceGraphic"
         operator="over"
         result="composite2" />
    </filter>
    <filter
       style="color-interpolation-filters:sRGB"
       id="filter4375-4-1-1-1-9-0-5"
       inkscape:label="deevad outline effect"
       x="-0.020677417"
       y="-0.067508086"
       width="1.0413548"
       height="1.1350162">
      <feFlood
         id="feFlood4377-7-9-0-8-1-9-6"
         flood-opacity="1"
         flood-color="rgb(0,0,0)"
         result="flood" />
      <feComposite
         id="feComposite4379-3-8-8-2-77-1-2"
         in2="SourceGraphic"
         in="flood"
         operator="in"
         result="composite1" />
      <feMorphology
         id="feMorphology4393-1-0-49-8-9-9-9"
         operator="dilate"
         radius="3"
         result="result3" />
      <feComposite
         id="feComposite4385-9-5-7-0-8-6-1"
         in2="result3"
         in="SourceGraphic"
         operator="over"
         result="composite2" />
    </filter>
  </defs>
  <sodipodi:namedview
     pagecolor="#ffffff"
     bordercolor="#666666"
     borderopacity="1"
     objecttolerance="10"
     gridtolerance="10"
     guidetolerance="10"
     inkscape:pageopacity="0"
     inkscape:pageshadow="2"
     inkscape:window-width="1920"
     inkscape:window-height="997"
     id="namedview4"
     showgrid="false"
     inkscape:zoom="0.2287013"
     inkscape:cx="765.19023"
     inkscape:cy="2212.4929"
     inkscape:window-x="0"
     inkscape:window-y="0"
     inkscape:window-maximized="1"
     inkscape:current-layer="layer3"
     inkscape:snap-global="false"
     inkscape:pagecheckerboard="0"
     inkscape:showpageshadow="0"
     inkscape:deskcolor="#d1d1d1" />
  <g
     inkscape:groupmode="layer"
     id="layer2"
     inkscape:label="artwork"
     sodipodi:insensitive="true">
    <image
       xlink:href="../gfx_Pepper-and-Carrot_by-David-Revoy_E31P06.png"
       width="2481"
       height="3503.4727"
       id="image10"
       x="0"
       y="0" />
  </g>
  <g
     inkscape:groupmode="layer"
     id="layer3"
     inkscape:label="speechbubbles">
    <path
       style="color:#000000;display:inline;overflow:visible;visibility:visible;fill:#d3d3d3;fill-opacity:1;fill-rule:nonzero;stroke:none;stroke-width:0.928075px;marker:none;enable-background:accumulate"
       d="m 809.61817,2928.5039 c -10.53753,-2.883 -41.6208,-29.0921 -4.78883,-29.9914 -27.52743,-10.0971 -24.84967,-33.8939 -3.14562,-49.0903 -29.06323,4.6928 -50.94157,0.2144 -36.85916,-25.0762 -42.54373,18.356 -61.57103,22.7658 -53.93716,-11.9742 -18.77763,29.4705 -38.05003,25.4377 -44.24943,-7.2224 -3.51982,24.8682 -32.66247,34.5852 -67.42049,3.9233 11.8409,28.913 18.56484,43.9614 -43.22113,39.732 23.96526,15.6899 39.19222,25.7404 -0.16333,35.5666 20.5037,6.432 33.79573,16.0782 2.96049,34.7504 20.60612,3.9424 52.82087,0.3214 14.8708,34.6796 25.25213,-16.7098 68.77987,-8.6165 51.14929,16.8482 49.57009,-30.5302 59.59266,-23.8869 68.00125,-4.8413 17.7099,-29.8219 54.64728,-35.3831 71.12226,-19.7726 -8.68331,-24.857 22.42957,-16.0444 45.68106,-17.5317 z"
       id="path3549-3-78-5-3"
       inkscape:connector-curvature="0"
       sodipodi:nodetypes="ccccccccccccccc" />
    <path
       style="color:#000000;display:inline;overflow:visible;visibility:visible;fill:#d3d3d3;fill-opacity:1;fill-rule:nonzero;stroke:none;stroke-width:1.24296px;marker:none;enable-background:accumulate"
       d="m 842.87325,3018.7072 c -12.8038,-3.3133 -26.01365,-24.8134 -5.20813,-39.2534 -17.26344,-0.7653 -27.14315,-8.1557 -10.85911,-23.2856 -21.16481,1.1642 -38.15894,-13.7523 -26.31607,-43.9926 -53.13179,14.5253 -84.34887,24.4437 -73.30708,-7.4148 -24.47566,26.2886 -47.95234,21.3822 -54.0001,-9.3707 -5.51554,22.9221 -17.28994,35.4496 -52.38776,6.5887 -2.58354,8.4105 9.30554,36.0722 -66.37618,28.4349 28.68133,16.0316 45.88942,18.9749 -2.9177,25.7568 24.87389,7.2121 57.93128,18.0273 19.16448,33.5487 25.11904,4.9022 48.67489,9.7379 0.41755,39.4242 31.81561,-14.0305 65.66969,-4.9384 42.79492,17.6928 62.34529,-25.429 74.33627,-18.6487 83.75021,-0.4279 23.18116,-26.6796 56.6821,-23.6579 76.1678,-8.1491 -9.47267,-23.6431 40.44873,-19.5619 69.07717,-19.552 z"
       id="path3549-3-78-5"
       inkscape:connector-curvature="0"
       sodipodi:nodetypes="ccccccccccccccc" />
    <path
       style="fill:#d3d3d3;fill-opacity:1;stroke:none;stroke-width:0.976548"
       d="m 2336.0954,607.49643 c -15.0233,3.86007 -20.8057,7.46431 -18.1158,9.6977 -6.1623,1.09817 -8.5363,30.03928 -2.773,35.3413 0.3836,0.55806 3.0751,2.23433 1.9191,2.50979 -1.1552,0.27548 -8.0832,-0.5762 -9.2405,0.53413 -1.1575,1.11089 10.357,17.00347 8.8157,17.5563 -1.5411,0.55338 -36.9365,-10.10974 -41.9467,-7.61678 -5.0104,2.49298 -2.3296,8.9012 -3.8701,9.17575 -1.5403,0.27454 -15.7815,-1.42978 -17.7069,-1.15616 -1.9255,0.2736 -5.4088,8.61487 -7.3342,8.88847 -1.9258,0.27362 -10.7717,-3.64446 -12.3122,-3.36991 -1.5406,0.27454 -0.786,7.23467 -2.7115,7.50829 -1.9256,0.2736 -10.3817,-5.86981 -11.5374,-5.59434 -1.1554,0.27548 -5.421,14.1817 -7.3478,15.01188 -1.9269,0.83018 -14.2105,-15.34253 -15.365,-15.62363 -1.1543,-0.28165 -8.5115,18.90564 -10.0518,19.18018 -1.5409,0.27454 -9.2108,-13.1041 -10.3666,-12.82862 -1.1556,0.27548 -8.4873,8.05138 -10.0285,8.60421 -1.5411,0.55283 -11.5114,-17.28455 -13.0515,-17.28829 -1.5399,-0.004 -14.646,7.47929 -15.804,8.86791 -1.1582,1.38917 -2.2939,-7.24215 -3.8339,-7.24589 -1.5398,-0.004 -19.2603,4.96349 -19.6446,4.68427 -0.3845,-0.27923 2.7072,-5.56029 1.5522,-5.56309 -1.1548,-0.003 -19.2644,6.9115 -20.0316,5.5182 5.2823,-20.42315 -39.058,6.15199 -41.9762,5.74316 -2.6925,-1.12024 17.3748,-22.78124 15.4537,-24.45617 -1.9214,-1.6744 -8.8557,0.25676 -9.2388,-0.57903 -0.3829,-0.83579 4.2449,-4.44284 3.0924,-5.55878 -1.1525,-1.1165 -14.2321,-5.60143 -15.3839,-6.99566 -1.152,-1.3948 5.7857,-4.99624 4.2475,-5.83483 -1.5381,-0.83915 -24.2406,-6.18233 -24.6225,-7.57524 -0.3818,-1.39237 11.5677,-8.04334 10.0319,-9.99509 -1.5355,-1.95229 -5.7688,-2.79743 -5.3806,-4.18848 0.3882,-1.39049 7.7064,-3.04299 7.3247,-4.43535 -0.3819,-1.39238 -4.2165,-8.36054 -5.3689,-9.47648 -1.1527,-1.11595 8.0858,-0.53694 8.0883,-1.65008 0,-1.11369 -1.7806,-23.5183 -15.4359,-33.66701 23.9082,6.75864 33.9841,3.53587 46.6937,1.34045 12.7095,-2.19598 7.7352,-16.12464 9.662,-16.95484 7.8182,5.17921 20.3452,27.89768 22.3353,1.91714 -0.3953,-1.85524 13.7663,11.16727 15.6918,10.89366 1.9256,-0.27361 17.7981,-14.7864 20.4936,-15.05814 2.6954,-0.27174 13.0791,4.76377 15.3882,5.04767 2.3094,0.2839 4.2496,-6.66969 6.1735,-6.10843 1.9237,0.56124 14.232,5.60143 16.1581,5.04953 1.9263,-0.55245 3.4711,-2.775 5.0099,-2.21468 1.5384,0.56031 8.4634,2.80399 8.4634,2.80399 0,0 5.0086,-1.65812 7.3184,-1.65251 2.3099,0.006 18.074,9.22905 19.9977,9.79031 1.9237,0.56124 21.708,-9.43403 20.5567,-11.10655 2.4366,7.31416 14.2787,0.65375 16.7844,1.02589 2.6929,0.84196 10.7833,-1.64353 11.5515,-0.80679 0.7679,0.83672 3.0681,5.29601 5.3773,5.57991 2.3094,0.2839 7.6966,1.41013 7.6966,1.41013 l -0.7734,1.6684 c 0,0 16.179,6.87013 18.1079,5.20508 6.9284,-0.92566 6.6206,1.56665 24.406,-6.34533 -14.2464,16.83134 -23.7029,35.87639 5.9595,28.12884 -24.6656,7.40389 -13.7424,13.68463 6.9028,12.26364 z"
       id="path5888-3-2"
       inkscape:connector-curvature="0"
       sodipodi:nodetypes="cccsccsscccccccsccscscsccsccccccsccscsccccsccscsccccccccccc" />
    <path
       style="fill:#d3d3d3;fill-opacity:1;stroke:none;stroke-width:1.09853"
       d="m 2203.3858,419.70979 c -0.074,0.004 -0.1496,0.0164 -0.2237,0.0382 -2.3712,0.6989 -11.2325,7.36927 -13.6036,6.67038 -2.3711,-0.69959 -13.2137,-6.90205 -15.1107,-6.20316 -1.8969,0.69889 -8.8528,10.30967 -8.8528,10.30967 0,0 -11.5003,-4.62684 -23.5071,-10.26738 -3.5415,5.50805 -6.7398,15.91782 -9.1111,16.61672 -2.3711,0.6989 -26.7147,-11.91188 -36.3421,-16.28032 -3.5477,5.76934 15.2367,25.21843 12.1493,25.67809 -3.3197,1.04904 -19.2966,-8.31958 -20.2449,-7.27123 -0.9485,1.04834 7.2555,16.8641 4.4101,17.21355 -2.8455,0.34945 -9.4843,1.7472 -9.4843,1.7472 l 0.9473,2.09665 c 0,0 -19.918,-5.59285 -22.2893,-7.68953 -2.3711,-2.09737 1.4236,9.08836 2.8464,11.88463 -8.5365,-2.79627 -33.6708,-8.73893 -35.5675,-10.48686 -1.8969,-1.74724 3.3199,6.29173 6.1653,8.73784 -3.7937,-1.04833 -7.1148,-1.39776 -7.1148,-1.39776 l 10.9084,8.3884 -3.3188,0.69888 c 0,0 7.1128,3.84383 7.1128,5.59105 0,1.74794 -18.4959,3.84567 -18.4959,3.84567 20.9818,10.47102 7.7634,13.56142 -8.5349,15.37904 8.8539,2.34229 15.0688,4.60147 18.8099,6.63027 l -18.0684,3.46347 13.7324,3.04887 -10.0088,3.02121 10.0088,5.03595 -27.5235,8.05716 28.7758,5.03596 -21.2697,9.06543 21.2697,5.03596 -11.2611,7.04888 25.2105,1.35408 c 0,2.92907 -9.6327,11.73182 -13.2889,15.67313 14.4012,-0.0282 17.828,16.65917 35.2321,16.65917 0.032,1.08505 22.9436,-8.65149 23.4926,-8.55031 0.9319,0.17165 5.6579,-0.24995 10.4882,-0.67886 l -6.4415,-3.87587 c 1.8111,2.9386 3.6746,6.14975 4.9716,6.3409 1.482,0.21839 6.2975,-1.61093 10.1646,-2.92839 0,-2.3e-4 0,2.3e-4 0,0 l 5.5413,-0.8463 c 1.1891,1.78829 0.6812,8.70586 2.7875,9.0163 2.3713,0.34946 12.8046,-7.33826 14.2274,-6.98881 1.4227,0.34944 6.6386,17.82508 9.0093,18.87344 2.3714,1.04833 17.548,-19.22289 18.971,-19.57233 1.4225,-0.35015 10.4312,23.76561 12.3281,24.11505 1.897,0.34946 11.3826,-16.42736 12.8054,-16.0779 1.4227,0.34943 10.4337,10.1374 12.3305,10.83629 1.8971,0.6989 14.2271,-21.67079 16.1243,-21.67079 1.8969,0 18.0204,9.4367 19.4433,11.18394 1.4227,1.74793 2.8461,-9.08729 4.7432,-9.08729 1.897,0 23.7096,6.29177 24.1839,5.94232 0.4745,-0.34945 -3.3195,-6.99065 -1.8967,-6.99065 1.4227,0 23.7127,8.73787 24.6612,6.99065 0.9483,-1.74793 40.717,3.22979 51.6913,7.34007 -8.5105,-8.90947 -21.3415,-28.65888 -18.9706,-30.75625 2.3713,-2.09668 10.9092,0.34945 11.3836,-0.69889 0.4741,-1.04834 -5.2163,-5.59286 -3.7936,-6.99063 1.4226,-1.39849 17.5455,-6.9906 18.9681,-8.73785 1.4226,-1.74791 -7.1125,-6.28992 -5.2156,-7.33825 1.8969,-1.04903 29.8773,-7.69062 30.3515,-9.43853 0.4741,-1.74725 -29.3254,-6.13557 -27.4285,-8.58169 1.8969,-2.44683 7.1145,-3.49369 6.6401,-5.24162 -0.4744,-1.74722 -9.4859,-3.84565 -9.0116,-5.59288 0.474,-1.74723 0.1847,-6.48502 1.6073,-7.8828 1.4228,-1.3978 -9.9589,-0.69887 -9.9589,-2.09665 0,-1.39848 -26.0225,-9.07159 3.2233,-29.76548 -41.8665,4.41804 -27.4095,-0.99072 -43.0592,-3.7863 -15.65,-2.79627 -9.4846,-20.27301 -11.8558,-21.32135 -2.3712,-1.04904 -19.9185,5.94236 -22.2895,3.49623 -2.3712,-2.44682 -3.321,-6.99064 -5.2182,-6.99064 -1.8966,0 -7.177,3.51442 -9.5482,3.16497 -2.3712,-0.34945 -15.1888,-13.45672 -18.5083,-13.80616 -3.3197,-0.34946 -11.0926,1.94231 -13.9382,2.29175 -2.7562,0.33853 -5.0656,-7.85097 -7.3633,-7.72773 z"
       id="path5888-3"
       inkscape:connector-curvature="0"
       sodipodi:nodetypes="ccccccccccscccccccccscccccccccccccccscccccccccccccscsssccccccccccccsccccsccccc" />
    <path
       style="color:#000000;display:inline;overflow:visible;visibility:visible;fill:#d3d3d3;fill-opacity:1;fill-rule:nonzero;stroke:none;stroke-width:0.99999994px;marker:none;enable-background:accumulate"
       d="m 1272.5449,3077.9523 c -78.231,15.2781 -158.5825,23.1124 -234.3525,47.042 l 48.6913,-38.9221 c -31.113,-0.2775 -62.6052,11.89 -93.96922,19.832 l 24.81112,-26.6421 c -73.62433,-0.043 -140.93978,19.5825 -211.30464,29.7017 l 48.37788,-44.8304 c 71.35729,-4.7997 140.74069,-1.8479 214.31916,-15.3676 l -20.5535,27.1733 c 25.7084,-2.3825 51.5171,-5.4463 77.7719,-11.5491 l -30.1046,33.1547 z"
       id="path4032-1"
       inkscape:connector-curvature="0"
       sodipodi:nodetypes="cccccccccccc" />
    <path
       style="display:inline;fill:#d3d3d3;fill-rule:evenodd;stroke:none;stroke-width:0.670057px;stroke-linecap:butt;stroke-linejoin:miter;stroke-opacity:1;fill-opacity:1"
       d="m 662.25529,2994.6881 c 27.15958,19.9355 50.62032,35.0629 32.20264,-21.4104 21.9334,42.1923 30.77978,23.4824 36.11264,-1.1895 17.15512,21.2065 29.00107,39.95 37.50792,24.6921 3.1707,19.6224 9.97036,11.7039 15.85508,10.729 1.93813,4.4401 -12.07119,-10.074 14.82259,-24.7694 -3.34816,-28.1819 17.09706,3.2738 32.85011,-9.7543 4.08112,23.8507 1.809,38.6126 24.93383,4.9701 -8.35754,33.0888 -4.89202,37.7621 5.78721,25.0989 -4.88246,13.6262 -7.80266,24.1744 10.7476,1.0453 -6.35069,25.1513 16.08746,8.5318 38.02881,-17.2907 -20.8801,28.6341 -49.95033,60.7619 -26.45433,57.0304 -3.27667,7.8718 -14.96433,14.7304 19.84178,27.1903 -6.49783,5.3415 -26.33551,-2.4646 -9.78731,20.1522 2.21711,2.6441 -5.20529,4.2583 8.96056,11.2211 -8.36224,-0.4738 -13.49063,1.2178 -5.78721,11.5033 -15.26422,-0.5563 -9.55302,10.2587 1.65351,24.0527 -28.62573,-26.9942 -37.79974,-31.9125 -23.97561,-4.1829 -27.7037,-24.1227 -37.45541,-21.0351 -33.92498,-1.2029 -11.79286,-21.0574 -25.29636,-24.7396 -36.23395,-0.4124 -11.66186,-25.1021 -19.60721,-22.5303 -43.93165,-3.6137 13.12136,-21.287 -5.54547,-7.725 -19.84186,1.0453 7.82898,-26.592 -12.03986,-9.1393 -37.20348,16.7324 14.09152,-29.3648 -1.91314,-18.7573 -25.62909,2.0914 8.96064,-28.8484 -5.63257,-42.7996 -40.51043,-43.9219 16.69358,-10.4062 26.42842,-23.5021 9.09422,-47.06 19.54055,6.9367 25.36921,0.4933 11.5744,-25.0982 21.31355,21.0054 11.62306,-9.4621 3.307,-37.6482 z"
       id="path4508-9"
       inkscape:connector-curvature="0"
       sodipodi:nodetypes="cccccccccccccccccccccccccccc" />
    <path
       style="color:#000000;display:inline;overflow:visible;visibility:visible;fill:#d3d3d3;fill-opacity:1;fill-rule:nonzero;stroke:none;stroke-width:1px;marker:none;enable-background:accumulate"
       d="m 2279.1877,625.34512 c -0.091,3.76817 51.831,-6.4041 51.831,-6.4041 0,0 1.5665,29.95657 4.6782,32.0986 11.0733,-0.0391 21.0624,-5.37296 21.0624,-5.37296 l 18.0133,48.73793 -20.0054,-31.72225 c -9.8867,-0.91886 -20.0127,-0.88091 -32.7339,9.5382 l -4.3594,-32.26765 -34.1656,7.80769 z"
       id="path4448"
       inkscape:connector-curvature="0"
       sodipodi:nodetypes="cccccccccc" />
  </g>
  <g
     inkscape:groupmode="layer"
     id="layer1"
     inkscape:label="txt">
    <text
       xml:space="preserve"
       style="font-style:normal;font-variant:normal;font-weight:normal;font-stretch:normal;font-size:15.8906px;line-height:0%;font-family:Lavi;-inkscape-font-specification:Lavi;text-align:center;letter-spacing:0px;word-spacing:0px;text-anchor:middle;fill:#000000;fill-opacity:1;stroke:none;stroke-width:1.17751"
       x="2193.196"
       y="501.3096"
       id="text4246-1-3-2-8"
       transform="scale(0.99789912,1.0021053)"><tspan
         sodipodi:role="line"
         style="font-style:normal;font-variant:normal;font-weight:bold;font-stretch:normal;font-size:46.6667px;line-height:1.25;font-family:Lavi;-inkscape-font-specification:'Lavi Bold';stroke-width:1.17751"
         x="2193.196"
         y="501.3096"
         id="tspan5579">STOJ,</tspan><tspan
         sodipodi:role="line"
         style="font-style:normal;font-variant:normal;font-weight:bold;font-stretch:normal;font-size:46.6667px;line-height:1.25;font-family:Lavi;-inkscape-font-specification:'Lavi Bold';stroke-width:1.17751"
         x="2193.196"
         y="559.64294"
         id="tspan5929">sem rekla!</tspan></text>
    <text
       xml:space="preserve"
       style="font-style:normal;font-variant:normal;font-weight:normal;font-stretch:normal;font-size:15.8906px;line-height:0%;font-family:Lavi;-inkscape-font-specification:Lavi;text-align:center;letter-spacing:0px;word-spacing:0px;text-anchor:middle;fill:#000000;fill-opacity:1;stroke:none;stroke-width:1.17751"
       x="2183.115"
       y="634.39258"
       id="text4246-1-3-2-8-3"
       transform="scale(0.99789912,1.0021053)"><tspan
         sodipodi:role="line"
         style="font-style:normal;font-variant:normal;font-weight:bold;font-stretch:normal;font-size:46.6667px;line-height:1.25;font-family:Lavi;-inkscape-font-specification:'Lavi Bold';stroke-width:1.17751"
         x="2183.115"
         y="634.39258"
         id="tspan829-7">Dovolj je!</tspan></text>
    <text
       xml:space="preserve"
       style="font-style:normal;font-variant:normal;font-weight:normal;font-stretch:normal;line-height:0%;font-family:Lavi;-inkscape-font-specification:Lavi;letter-spacing:0px;word-spacing:0px;fill:#000000;fill-opacity:1;stroke:#ffffff;stroke-width:2.66678;stroke-miterlimit:4;stroke-dasharray:none;stroke-opacity:1;filter:url(#filter4375-4-1-1-1-9-0)"
       x="787.65729"
       y="1584.5073"
       id="text4580-25"
       transform="matrix(0.55718765,-0.37423929,0.21813977,1.0749149,-120.92735,-234.76499)"><tspan
         sodipodi:role="line"
         id="tspan4582-4"
         x="787.65729"
         y="1584.5073"
         style="font-size:70px;line-height:100%;letter-spacing:4.88345px;fill:#ffffff;stroke:#ffffff;stroke-width:2.66678;stroke-miterlimit:4;stroke-dasharray:none;stroke-opacity:1"><tspan
           style="font-size:55.3496px;line-height:100%;letter-spacing:4.88345px;stroke:#ffffff;stroke-width:2.66678;stroke-miterlimit:4;stroke-dasharray:none;stroke-opacity:1"
           id="tspan4439-4">Tlesk</tspan><tspan
           style="font-size:80.4001px;line-height:100%;letter-spacing:4.88345px;stroke:#ffffff;stroke-width:2.66678;stroke-miterlimit:4;stroke-dasharray:none;stroke-opacity:1"
           id="tspan4617-9">!</tspan></tspan></text>
    <text
       xml:space="preserve"
       style="font-style:normal;font-variant:normal;font-weight:normal;font-stretch:normal;line-height:0%;font-family:Lavi;-inkscape-font-specification:Lavi;letter-spacing:0px;word-spacing:0px;display:inline;fill:#ffffff;fill-opacity:1;stroke:#000000;stroke-width:0.481485;stroke-miterlimit:4;stroke-dasharray:none;stroke-opacity:1;filter:url(#filter4375-4-1-1-1-9-5-8-3-8)"
       x="787.65729"
       y="1584.5073"
       id="text4580-6-0-8-8"
       transform="matrix(1.5492299,-0.0813593,-0.87667877,1.9075458,1570.733,-1836.1775)"><tspan
         sodipodi:role="line"
         id="tspan4582-1-1-8-2"
         x="787.65729"
         y="1584.5073"
         style="font-style:normal;font-variant:normal;font-weight:bold;font-stretch:normal;font-size:70px;line-height:1.25;font-family:'Noto Sans';-inkscape-font-specification:'Noto Sans Bold';letter-spacing:5.87611px;fill:#ffffff;fill-opacity:1;stroke:#000000;stroke-width:0.481485;stroke-opacity:1"><tspan
           style="font-style:normal;font-variant:normal;font-weight:bold;font-stretch:normal;font-size:93.1495px;font-family:'Noto Sans';-inkscape-font-specification:'Noto Sans Bold';letter-spacing:5.87611px;fill:#ffffff;fill-opacity:1;stroke:#000000;stroke-width:0.481485;stroke-opacity:1"
           id="tspan4315-8-97-3">PU<tspan
   style="font-style:normal;font-variant:normal;font-weight:bold;font-stretch:normal;font-size:81.1149px;font-family:'Noto Sans';-inkscape-font-specification:'Noto Sans Bold';stroke-width:0.481485"
   id="tspan912">FFF</tspan></tspan><tspan
           style="font-style:normal;font-variant:normal;font-weight:bold;font-stretch:normal;font-size:114.732px;font-family:'Noto Sans';-inkscape-font-specification:'Noto Sans Bold';letter-spacing:5.87611px;fill:#ffffff;fill-opacity:1;stroke:#000000;stroke-width:0.481485;stroke-opacity:1"
           id="tspan4313-2-76-0">!</tspan></tspan></text>
    <text
       xml:space="preserve"
       style="font-style:normal;font-variant:normal;font-weight:normal;font-stretch:normal;line-height:0%;font-family:Lavi;-inkscape-font-specification:Lavi;letter-spacing:0px;word-spacing:0px;fill:#000000;fill-opacity:1;stroke:#ffffff;stroke-width:4.21926;stroke-miterlimit:4;stroke-dasharray:none;stroke-opacity:1;filter:url(#filter4375-4-1-1-1-9-0-5)"
       x="787.65729"
       y="1584.5073"
       id="text4580-25-2"
       transform="matrix(0.37191843,0.11061463,-0.38324889,0.61702867,2395.3602,1303.8811)"><tspan
         sodipodi:role="line"
         id="tspan4582-4-7"
         x="787.65729"
         y="1584.5073"
         style="font-style:normal;font-variant:normal;font-weight:bold;font-stretch:normal;font-size:80.4001px;line-height:100%;font-family:'Noto Sans';-inkscape-font-specification:'Noto Sans Bold';letter-spacing:4.88345px;fill:#ffffff;stroke:#ffffff;stroke-width:4.21926;stroke-miterlimit:4;stroke-dasharray:none;stroke-opacity:1">SVIŠ!</tspan></text>
    <text
       xml:space="preserve"
       style="font-style:normal;font-variant:normal;font-weight:normal;font-stretch:normal;font-size:15.8906px;line-height:0%;font-family:Lavi;-inkscape-font-specification:Lavi;text-align:center;letter-spacing:0px;word-spacing:0px;text-anchor:middle;fill:#000000;fill-opacity:1;stroke:none;stroke-width:1.17751"
       x="685.59564"
       y="2895.5073"
       id="text4246-1-3-2-8-3-3"
       transform="scale(0.99789912,1.0021053)"><tspan
         sodipodi:role="line"
         style="font-style:normal;font-variant:normal;font-weight:bold;font-stretch:normal;font-size:46.6667px;line-height:1.25;font-family:Lavi;-inkscape-font-specification:'Lavi Bold';stroke-width:1.17751"
         x="685.59564"
         y="2895.5073"
         id="tspan829-7-6">Obe!</tspan></text>
    <text
       xml:space="preserve"
       style="font-style:normal;font-variant:normal;font-weight:normal;font-stretch:normal;font-size:15.8906px;line-height:0%;font-family:Lavi;-inkscape-font-specification:Lavi;text-align:center;letter-spacing:0px;word-spacing:0px;text-anchor:middle;fill:#000000;fill-opacity:1;stroke:none;stroke-width:1.17751"
       x="710.401"
       y="2987.24"
       id="text4246-1-3-2-8-3-3-7"
       transform="scale(0.99789912,1.0021053)"><tspan
         sodipodi:role="line"
         style="font-style:normal;font-variant:normal;font-weight:bold;font-stretch:normal;font-size:46.6667px;line-height:1.25;font-family:Lavi;-inkscape-font-specification:'Lavi Bold';stroke-width:1.17751"
         x="710.401"
         y="2987.24"
         id="tspan829-7-6-5">SEM!</tspan></text>
    <text
       xml:space="preserve"
       style="font-style:normal;font-variant:normal;font-weight:normal;font-stretch:normal;font-size:15.8906px;line-height:0%;font-family:Lavi;-inkscape-font-specification:Lavi;text-align:center;letter-spacing:0px;word-spacing:0px;text-anchor:middle;fill:#000000;fill-opacity:1;stroke:none;stroke-width:1.17751"
       x="779.0592"
       y="3070.3105"
       id="text4246-1-3-2-8-36-2"
       transform="scale(0.99789912,1.0021053)"><tspan
         sodipodi:role="line"
         style="font-style:normal;font-variant:normal;font-weight:bold;font-stretch:normal;font-size:46.6667px;line-height:1.25;font-family:Lavi;-inkscape-font-specification:'Lavi Bold';stroke-width:1.17751"
         x="779.0592"
         y="3070.3105"
         id="tspan1020-8">Takoj!</tspan></text>
  </g>
</svg>
