<?xml version="1.0" encoding="UTF-8" standalone="no"?>
<!-- Created with Inkscape (http://www.inkscape.org/) -->

<svg
   id="svg2"
   version="1.1"
   inkscape:version="1.2.1 (9c6d41e410, 2022-07-14)"
   width="2481"
   height="3503"
   sodipodi:docname="E38P02.svg"
   xmlns:inkscape="http://www.inkscape.org/namespaces/inkscape"
   xmlns:sodipodi="http://sodipodi.sourceforge.net/DTD/sodipodi-0.dtd"
   xmlns:xlink="http://www.w3.org/1999/xlink"
   xmlns="http://www.w3.org/2000/svg"
   xmlns:svg="http://www.w3.org/2000/svg"
   xmlns:rdf="http://www.w3.org/1999/02/22-rdf-syntax-ns#"
   xmlns:cc="http://creativecommons.org/ns#"
   xmlns:dc="http://purl.org/dc/elements/1.1/">
  <metadata
     id="metadata8">
    <rdf:RDF>
      <cc:Work
         rdf:about="">
        <dc:format>image/svg+xml</dc:format>
        <dc:type
           rdf:resource="http://purl.org/dc/dcmitype/StillImage" />
        <dc:title />
      </cc:Work>
    </rdf:RDF>
  </metadata>
  <defs
     id="defs6">
    <filter
       style="color-interpolation-filters:sRGB"
       id="filter4375-4-1-1-1-9-5-8-8-3-3"
       inkscape:label="Drop Shadow"
       x="-0.015069439"
       y="-0.0053687619"
       width="1.0169792"
       height="1.0591332">
      <feFlood
         id="feFlood4377-7-9-0-8-1-7-3-1-6-61"
         flood-opacity="1"
         flood-color="rgb(87,166,204)"
         result="flood"
         radius="5.0999999999999996" />
      <feComposite
         id="feComposite4379-3-8-8-2-77-4-1-0-7-2"
         in2="SourceGraphic"
         in="flood"
         operator="in"
         result="composite1"
         baseFrequency="0.053999999999999999 0.053999999999999999" />
      <feMorphology
         id="feMorphology4393-1-0-49-8-9-3-0-1-5-9"
         operator="dilate"
         radius="5.1272503082614058"
         result="result3" />
      <feComposite
         id="feComposite4385-9-5-7-0-8-8-7-5-3-3"
         in2="result3"
         in="SourceGraphic"
         operator="over"
         result="fbSourceGraphic"
         numOctaves="4" />
      <feColorMatrix
         result="fbSourceGraphicAlpha"
         in="fbSourceGraphic"
         values="0 0 0 -1 0 0 0 0 -1 0 0 0 0 -1 0 0 0 0 1 0"
         id="feColorMatrix4544-9-5-1" />
      <feTurbulence
         id="feTurbulence4546-3-6-9"
         type="fractalNoise"
         numOctaves="4.4123222748815163"
         seed="172"
         baseFrequency="0.062 0.054054054054054057"
         result="turbulence" />
      <feDisplacementMap
         id="feDisplacementMap4548-8-2-4"
         in2="turbulence"
         in="fbSourceGraphic"
         scale="10.781991"
         yChannelSelector="G"
         xChannelSelector="R"
         result="fbSourceGraphic" />
      <feColorMatrix
         result="fbSourceGraphicAlpha"
         in="fbSourceGraphic"
         values="0 0 0 -1 0 0 0 0 -1 0 0 0 0 -1 0 0 0 0 1 0"
         id="feColorMatrix4670-7-9-7"
         scale="10.800000000000001" />
      <feFlood
         id="feFlood4672-4-1-8"
         flood-opacity="0"
         flood-color="rgb(45,8,0)"
         result="flood"
         in="fbSourceGraphic"
         dx="-2.3999999999999999" />
      <feComposite
         id="feComposite4674-8-2-4"
         in2="fbSourceGraphic"
         in="flood"
         operator="in"
         result="composite1" />
      <feGaussianBlur
         id="feGaussianBlur4676-3-7-50"
         in="composite1"
         stdDeviation="0"
         result="blur" />
      <feOffset
         id="feOffset4678-6-0-3"
         dx="-2.3696682464454994"
         dy="3.1000000000000001"
         result="offset" />
      <feComposite
         id="feComposite4680-4-9-6"
         in2="offset"
         in="fbSourceGraphic"
         operator="over"
         result="composite2" />
    </filter>
  </defs>
  <sodipodi:namedview
     pagecolor="#ffffff"
     bordercolor="#666666"
     borderopacity="1"
     objecttolerance="10"
     gridtolerance="10"
     guidetolerance="10"
     inkscape:pageopacity="0"
     inkscape:pageshadow="2"
     inkscape:window-width="1350"
     inkscape:window-height="1041"
     id="namedview4"
     showgrid="false"
     inkscape:zoom="0.46000002"
     inkscape:cx="1276.0869"
     inkscape:cy="978.26083"
     inkscape:window-x="554"
     inkscape:window-y="0"
     inkscape:window-maximized="0"
     inkscape:current-layer="layer3"
     inkscape:showpageshadow="0"
     inkscape:pagecheckerboard="0"
     inkscape:deskcolor="#d1d1d1" />
  <g
     inkscape:groupmode="layer"
     id="layer2"
     inkscape:label="artwork"
     sodipodi:insensitive="true">
    <image
       xlink:href="../gfx_Pepper-and-Carrot_by-David-Revoy_E38P02.png"
       y="0"
       x="0"
       id="image10"
       height="3503.9123"
       width="2481" />
  </g>
  <g
     inkscape:groupmode="layer"
     id="layer3"
     inkscape:label="speechbubbles">
    <path
       style="display:inline;fill:#ffffff;fill-rule:evenodd;stroke:none;stroke-width:1.08086px;stroke-linecap:butt;stroke-linejoin:miter;stroke-opacity:1"
       d="m 2375.5432,2478.932 c -46.0665,16.2726 -18.09,41.0465 25.128,48.1019 -45.0464,6.7547 -35.1119,33.6798 -4.5303,44.0563 -63.7664,3.4442 -94.6301,46.1447 -67.4402,70.5703 -52.8297,-14.2234 -91.168,-16.9376 -77.2764,15.8207 -20.8382,-33.122 -31.1842,-36.9917 -23.8183,-5.372 -15.2264,-13.3563 -37.1987,-42.0943 -43.2343,-5.7408 -12.6331,-28.3476 -32.3998,-17.4074 -53.62,-5.4746 1.7456,-17.0761 -52.043,-7.5306 -64.8197,9.404 -9.0896,20.6238 -15.6548,15.0874 -7.8021,-6.575 11.9365,-14.5414 -55.4192,-3.9461 -63.7833,7.24 4.0426,-16.2998 -16.2427,-14.5888 -38.4218,1.0353 -3.5047,-25.7503 -15.6121,-19.3871 -56.5389,-5.7119 15.0733,-13.7224 23.2573,-33.3912 -43.9604,-28.9735 26.455,-6.2242 45.3273,-36.8252 -20.5093,-30.8493 39.9931,-11.39 17.1209,-37.3848 -2.0787,-55.3805 64.4609,-9.9927 41.5123,-39.3656 21.8065,-65.0933 43.6387,14.0161 78.2575,26.3446 90.0076,-10.4357 48.0479,35.6799 57.7925,5.3427 52.5782,-8.8475 38.7855,37.1212 39.3136,6.3107 51.2342,-4.2705 111.5546,49.1128 111.5969,4.9182 137.7272,-17.448 4.7318,50.8937 30.9053,32.8213 57.1677,14.4639 -4.9196,42.5292 4.5641,27.9451 20.0332,17.5211 0.1176,18.4739 20.3514,27.6625 52.6231,17.2193 -23.6438,13.8062 -10.1609,17.1744 59.528,4.7398 z"
       id="path4289-9-3-6"
       inkscape:connector-curvature="0"
       sodipodi:nodetypes="ccccccccccccccccccccccccc" />
    <path
       style="display:inline;fill:#ffffff;fill-rule:evenodd;stroke:none;stroke-width:0.984167px;stroke-linecap:butt;stroke-linejoin:miter;stroke-opacity:1"
       d="m 1866.2313,2765.5737 c 38.517,-16.2722 16.9738,-45.4148 -17.9709,-55.2839 37.1756,-5.6001 30.4925,-36.3615 6.0521,-49.4077 52.2987,-1.0388 79.8004,-47.7473 58.8815,-76.4624 42.4179,18.3686 73.6061,23.1323 63.9999,-14.3738 15.2644,38.2249 23.5133,43.0429 19.1797,7.1098 11.7322,15.7178 28.1569,49.0565 35.0284,8.3896 8.8129,32.4832 25.5512,21.0441 43.5306,8.5522 -2.3375,19.1508 42.1321,10.7973 53.4773,-7.7029 8.5289,-22.8187 13.5992,-16.292 6.026,7.7513 -10.5312,15.8426 45.0822,6.9112 52.5148,-5.3124 -4.1734,18.1743 12.4968,17.1509 31.4565,0.5451 1.491,29.1521 11.7257,22.526 45.9035,8.9496 -13.0509,14.7807 -20.7888,36.5644 34.3825,34.5829 -21.9531,5.8307 -39.009,39.4485 15.1163,35.651 -33.2926,11.0449 -15.9863,41.3347 -1.2546,62.4536 -53.2154,8.3819 -36.0267,42.479 -21.2939,72.3272 -34.9173,-17.7261 -62.5531,-33.1501 -74.1178,7.743 -37.3656,-42.3168 -46.9477,-8.5896 -43.443,7.6216 -29.7186,-43.5273 -48.3144,-17.2708 -42.1004,2.5272 -32.7231,-60.918 -93.2036,-38.7536 -129.3136,4.9549 27.4765,-58.3754 -16.6538,-38.8308 -39.0963,-19.3291 21.2344,-34.087 -5.2289,-21.4828 -18.4276,-10.4337 12.8443,-26.4678 -34.0883,7.5641 -61.0202,17.8865 20.0598,-14.4937 40.1078,-59.6382 -17.5108,-48.7396 z"
       id="path4289-9-3-6-7"
       inkscape:connector-curvature="0"
       sodipodi:nodetypes="ccccccccccccccccccccccccc" />
    <path
       style="color:#000000;display:inline;overflow:visible;visibility:visible;fill:#ffffff;fill-opacity:1;fill-rule:nonzero;stroke:none;stroke-width:1.44436px;marker:none;enable-background:accumulate"
       d="M 1708.375 2287.3418 C 1670.7009 2288.256 1632.5625 2295.8101 1599.147 2313.7462 C 1582.6518 2322.8897 1569.9558 2338.3636 1563.8607 2356.1798 C 1557.1237 2375.3137 1557.5634 2396.1955 1561.0918 2415.9355 C 1564.8947 2435.6158 1573.185 2454.866 1586.97 2469.6252 C 1599.2071 2481.6595 1616.0765 2487.1125 1632.4524 2490.759 C 1671.1715 2500.4336 1711.2089 2505.6375 1751.1504 2503.6356 C 1781.3629 2502.3673 1811.5622 2498.3816 1840.7732 2490.4493 C 1862.5222 2483.9538 1883.7612 2473.1344 1898.7636 2455.7155 C 1913.1485 2437.891 1917.1231 2413.295 1912.4286 2391.2202 C 1904.9056 2353.5281 1876.6391 2321.4977 1841.383 2306.9512 C 1812.3476 2294.8296 1780.7381 2290.9428 1749.5958 2288.718 C 1735.8772 2287.8645 1722.1237 2287.157 1708.375 2287.3418 z "
       id="path4546-6-5"
       inkscape:connector-curvature="0"
       sodipodi:nodetypes="cssssc" />
    <path
       style="color:#000000;display:inline;overflow:visible;visibility:visible;fill:#ffffff;fill-opacity:1;fill-rule:nonzero;stroke:none;stroke-width:1px;marker:none;enable-background:accumulate"
       d="m 1733.0484,2482.7523 c 6.9926,29.8076 18.6468,64.1129 22.1431,71.987 6.9925,-7.8741 25.192,-15.9494 31.0192,-20.4483 5.2444,15.1842 10.3157,90.3585 -41.7451,151.3743 75.7752,-73.0554 60.9745,-148.5099 50.4857,-172.6929 -8.7406,4.4989 -24.0266,12.5222 -28.6883,14.7716 -5.8271,-11.81 -16.316,-53.9894 -16.316,-53.9894 z"
       id="path5066-8"
       inkscape:connector-curvature="0"
       sodipodi:nodetypes="cccccccc" />
    <path
       style="fill:#ffffff;fill-rule:evenodd;stroke:none;stroke-width:1px;stroke-linecap:butt;stroke-linejoin:miter;stroke-opacity:1"
       d="m 1964.0773,2883.7318 c 45.1876,-35.5067 85.571,-88.3706 91.9435,-99.1494 -29.2434,6.0571 -35.5635,6.8258 -37.506,0.8095 -1.9423,-6.0163 77.997,-127.2212 77.997,-127.2212 l 34.1125,6.4808 c 0,0 -45.8842,48.0721 -65.8722,73.2263 -12.2121,15.3687 -24.0776,37.3165 -24.0776,37.3165 0,0 23.3653,-5.1149 27.6634,-5.865 20.6338,-3.6012 -2.4761,50.755 -104.2606,114.4025 z"
       id="path891"
       inkscape:connector-curvature="0"
       sodipodi:nodetypes="ccsccscsc" />
    <path
       id="path3280-81"
       style="fill:#ffffff;stroke:none;stroke-width:0.999997"
       d="m 95.707032,2263.3965 v 118.5643 c 30.372868,27.6248 88.835058,43.0991 150.190338,41.0153 84.4777,-2.8693 157.54675,-5.7821 159.36633,-79.6078 0.9686,-39.3007 -12.92307,-64.4532 -41.21972,-79.9718 z" />
    <path
       style="fill:#ffffff;stroke:none;stroke-width:0.834085"
       d="m 314.52334,2455.1842 c 0.8464,-52.4765 -5.67281,-61.5274 215.12083,-59.9733 146.41886,1.0306 220.54357,14.4044 218.02633,61.2762 -2.38039,44.3206 -97.9694,46.0696 -208.48276,47.7922 -113.92727,1.7756 -220.33578,-17.6635 -224.6644,-49.0951 z"
       id="path3280-81-3"
       inkscape:connector-curvature="0"
       sodipodi:nodetypes="csssc" />
    <path
       style="color:#000000;display:inline;overflow:visible;visibility:visible;fill:#ffffff;fill-opacity:1;fill-rule:nonzero;stroke:none;stroke-width:0.962211px;marker:none;enable-background:accumulate"
       d="m 476.78614,2434.5319 c 62.92675,55.7561 97.91813,132.299 3.64589,154.1422 106.56124,-16.5429 117.71412,-83.6804 51.15458,-172.2651 -14.82846,-32.0556 -30.0985,8.2905 -54.80047,18.1229 z"
       id="path4035-4"
       inkscape:connector-curvature="0"
       sodipodi:nodetypes="cccc" />
    <path
       style="display:inline;fill:#ffffff;fill-rule:evenodd;stroke:none;stroke-width:0.999994px;stroke-linecap:butt;stroke-linejoin:miter;stroke-opacity:1"
       d="m 697.91192,3178.1697 c -29.60023,1.0641 -59.4603,2.5753 -88.42754,13.4092 -22.89033,9.7216 -43.63583,33.9843 -55.31643,67.5701 -5.4643,18.7899 -3.81843,41.683 2.77974,59.159 9.2095,25.4184 26.08128,42.429 43.95063,46.7029 31.16656,9.131 62.94525,9.1723 94.50227,10.4322 20.70328,0.3481 41.40184,1.2288 62.1006,1.9223 19.99113,-0.1718 40.06992,-1.1476 59.82667,-6.4808 10.96901,-2.9376 21.85248,-6.9712 32.40401,-12.6709 6.94367,-4.1898 13.22861,-11.4002 17.64241,-21.0991 10.76696,-22.483 13.55041,-54.9505 5.78182,-80.7615 -3.04423,-10.6297 -7.89485,-19.5086 -12.93618,-27.7651 -11.6997,-18.6999 -26.93589,-31.3124 -43.05677,-36.3102 -11.43004,-3.9066 -23.02107,-6.4359 -34.61156,-8.7081 -28.09399,-5.0372 -56.40547,-5.4771 -84.63967,-5.4 z"
       id="path4291"
       inkscape:connector-curvature="0"
       sodipodi:nodetypes="ccccssscssc" />
    <path
       style="color:#000000;display:inline;overflow:visible;visibility:visible;fill:#ffffff;fill-opacity:1;fill-rule:nonzero;stroke:none;stroke-width:0.999998px;marker:none;enable-background:accumulate"
       d="m 2004.1989,2364.6884 c -5.9359,16.0801 -39.4146,17.4289 -51.7392,14.1604 24.8433,17.9885 23.9772,29.1653 -9.7528,30.8999 56.566,32.4208 10.341,27.5147 1.2235,35.7351 44.4147,11.173 29.6933,28.1068 1.1847,35.8909 51.0504,0.4755 -1.4843,26.3288 -20.8119,42.7498 22.603,-10.7509 97.6467,-32.9237 98.8839,-4.8149 32.7499,-24.5553 49.6473,-24.0771 61.4904,3.6898 9.8925,-23.9435 43.5774,-28.5516 56.4577,-2.7295 11.0957,-34.9466 50.6861,-30.0266 74.2528,-13.0899 -13.2293,-11.9531 -4.2081,-31.6351 40.8952,-27.6548 -3.6304,-10.9573 2.0788,-24.7871 24.8555,-22.9609 -26.236,-6.6182 -31.071,-13.4458 17.643,-20.7926 -37.0685,-0.71 -71.6354,-2.1663 -28.1458,-27.2214 -13.6439,-0.6063 -46.0154,20.3004 -30.9225,-40.882 -39.9599,18.0407 -81.95,27.2633 -79.8841,-10.6323 -14.856,20.4975 -40.6234,30.6403 -51.8335,5.0377 -9.254,23.9165 -37.3619,13.9018 -51.9635,-2.4221 -9.6479,16.1996 -24.0803,27.141 -51.8334,5.0368 z"
       id="path3549-3-7-8"
       inkscape:connector-curvature="0"
       sodipodi:nodetypes="ccccccccccccccccccc" />
    <path
       style="color:#000000;display:inline;overflow:visible;visibility:visible;fill:#ffffff;fill-opacity:1;fill-rule:nonzero;stroke:none;stroke-width:1.09098px;marker:none;enable-background:accumulate"
       d="m 622.39235,3237.8068 c -45.84039,33.0435 -96.09041,45.4564 -121.01898,-53.4867 -9.12126,82.2936 58.68778,158.1279 153.07948,78.9046 48.17517,-40.4335 47.74258,-58.4665 47.74258,-58.4665 z"
       id="path4064-6"
       inkscape:connector-curvature="0"
       sodipodi:nodetypes="ccscc"
       inkscape:transform-center-x="-10.62037"
       inkscape:transform-center-y="-9.1957583" />
    <path
       style="fill:#ffffff;stroke:none;stroke-width:1.15107"
       d="m 862.16746,622.75275 c -36.08201,0.80503 -72.86073,5.25019 -105.29992,18.09663 -16.25676,7.61167 -25.15106,22.19268 -26.72056,36.50571 -1.95641,13.28003 5.56657,27.35879 19.92896,34.98064 17.54425,10.8087 39.12736,16.57517 60.42461,21.26639 34.01583,6.45955 69.28904,4.74642 103.98612,5.43186 47.0238,0.4897 94.19113,0.43847 141.00583,-3.42421 21.4249,-2.1541 43.2992,-7.52962 59.3423,-19.19973 12.2293,-9.54102 15.7246,-24.07194 12.9581,-36.9903 -3.1324,-15.04295 -15.4347,-28.63798 -32.4524,-36.23148 -8.8037,-4.19016 -18.8383,-6.3321 -28.7896,-8.19578 -58.2372,-12.14398 -119.04378,-11.42364 -178.85196,-12.16575 -8.51011,-0.077 -17.02089,-0.0977 -25.53148,-0.074 z"
       id="path3280-81-3-1"
       inkscape:connector-curvature="0"
       sodipodi:nodetypes="csssc" />
    <path
       style="color:#000000;display:inline;overflow:visible;visibility:visible;fill:#ffffff;fill-opacity:1;fill-rule:nonzero;stroke:none;stroke-width:0.999996px;marker:none;enable-background:accumulate"
       d="m 900.02327,671.19991 c 91.6633,40.10272 117.58643,129.77771 79.9982,191.17722 56.92493,-63.39039 51.42053,-142.19167 -64.39752,-216.52752 -33.65115,-29.84166 0.1749,6.90048 -15.60068,25.3503 z"
       id="path4035-4-9"
       inkscape:connector-curvature="0"
       sodipodi:nodetypes="cccc" />
  </g>
  <g
     inkscape:groupmode="layer"
     id="layer1"
     inkscape:label="txt">
    <text
       id="text4178-36-4"
       y="694.52051"
       x="934.77313"
       style="font-style:normal;font-variant:normal;font-weight:normal;font-stretch:normal;line-height:0%;font-family:Lavi;-inkscape-font-specification:Lavi;text-align:center;letter-spacing:0px;word-spacing:0px;text-anchor:middle;fill:#000000;fill-opacity:1;stroke:none"
       xml:space="preserve"><tspan
         y="694.52051"
         x="934.77313"
         style="font-size:40.6767px;line-height:1.25"
         sodipodi:role="line"
         id="tspan4307-5-7">Siirtykää syrjään...</tspan></text>
    <text
       xml:space="preserve"
       style="font-style:normal;font-variant:normal;font-weight:normal;font-stretch:normal;line-height:0%;font-family:Lavi;-inkscape-font-specification:Lavi;letter-spacing:3.02325px;word-spacing:0px;fill:#daf9ff;fill-opacity:1;stroke:#00bfff;stroke-width:0.687796;stroke-miterlimit:4;stroke-dasharray:none;stroke-opacity:1;filter:url(#filter4375-4-1-1-1-9-5-8-8-3-3)"
       x="787.65729"
       y="1584.5073"
       id="text4580-6-0-0-3"
       transform="matrix(0.74083092,-0.35642121,0.14558873,1.2591067,40.891484,217.84741)"><tspan
         sodipodi:role="line"
         id="tspan4582-1-1-0-6"
         x="787.65729"
         y="1584.5073"
         style="font-style:normal;font-variant:normal;font-weight:bold;font-stretch:normal;font-size:70px;line-height:1.25;font-family:Lavi;-inkscape-font-specification:'Lavi Bold';fill:#daf9ff;fill-opacity:1;stroke:#00bfff;stroke-width:0.687796;stroke-opacity:1"><tspan
           style="font-size:68.6116px;fill:#daf9ff;fill-opacity:1;stroke-width:0.687796;stroke:#00bfff;stroke-opacity:1"
           id="tspan853-6">Dzing</tspan><tspan
           style="font-size:79.977px;fill:#daf9ff;fill-opacity:1;stroke-width:0.687796;stroke:#00bfff;stroke-opacity:1"
           id="tspan929" /></tspan></text>
    <text
       id="text4178"
       y="2325.9587"
       x="247.24895"
       style="font-style:normal;font-variant:normal;font-weight:normal;font-stretch:normal;line-height:0%;font-family:Lavi;-inkscape-font-specification:Lavi;text-align:center;letter-spacing:0px;word-spacing:0px;text-anchor:middle;fill:#000000;fill-opacity:1;stroke:none"
       xml:space="preserve"><tspan
         y="2325.9587"
         x="247.24895"
         style="font-size:40.6767px;line-height:1.25"
         sodipodi:role="line"
         id="tspan513">Haavani ovat</tspan><tspan
         y="2376.8047"
         x="247.24895"
         style="font-size:40.6767px;line-height:1.25"
         sodipodi:role="line"
         id="tspan327">parantuneet.</tspan></text>
    <text
       id="text4178-36"
       y="2460.1406"
       x="532.26685"
       style="font-style:normal;font-variant:normal;font-weight:normal;font-stretch:normal;line-height:0%;font-family:Lavi;-inkscape-font-specification:Lavi;text-align:center;letter-spacing:0px;word-spacing:0px;text-anchor:middle;fill:#000000;fill-opacity:1;stroke:none"
       xml:space="preserve"><tspan
         y="2460.1406"
         x="532.26685"
         style="font-size:40.6767px;line-height:1.25"
         sodipodi:role="line"
         id="tspan517">Jälleen sama ihme!</tspan></text>
    <text
       id="text4178-3"
       y="3244.4319"
       x="717.56146"
       style="font-style:normal;font-variant:normal;font-weight:normal;font-stretch:normal;line-height:0%;font-family:Lavi;-inkscape-font-specification:Lavi;text-align:center;letter-spacing:0px;word-spacing:0px;text-anchor:middle;fill:#000000;fill-opacity:1;stroke:none"
       xml:space="preserve"><tspan
         y="3244.4319"
         x="717.56146"
         style="font-size:40.6767px;line-height:1.25"
         sodipodi:role="line"
         id="tspan587">Kykysi ovat</tspan><tspan
         y="3295.2778"
         x="717.56146"
         style="font-size:40.6767px;line-height:1.25"
         sodipodi:role="line"
         id="tspan331">uskomattomat,</tspan><tspan
         y="3346.1235"
         x="717.56146"
         style="font-size:40.6767px;line-height:1.25"
         sodipodi:role="line"
         id="tspan589">Parantaja!</tspan></text>
    <text
       id="text4178-3-5-1-7"
       y="2356.8318"
       x="1734.5117"
       style="font-style:normal;font-variant:normal;font-weight:normal;font-stretch:normal;line-height:0%;font-family:Lavi;-inkscape-font-specification:Lavi;text-align:center;letter-spacing:0px;word-spacing:0px;text-anchor:middle;fill:#000000;fill-opacity:1;stroke:none"
       xml:space="preserve"><tspan
         y="2356.8318"
         x="1734.5117"
         style="font-size:40.6767px;line-height:1.25"
         sodipodi:role="line"
         id="tspan722">Ei viivytellä!</tspan><tspan
         y="2407.6777"
         x="1734.5117"
         style="font-size:40.6767px;line-height:1.25"
         sodipodi:role="line"
         id="tspan341">Aarre odottaa</tspan><tspan
         y="2458.5234"
         x="1734.5117"
         style="font-size:40.6767px;line-height:1.25"
         sodipodi:role="line"
         id="tspan345">meitä!</tspan></text>
    <text
       id="text4178-3-5"
       y="2449.9761"
       x="2103.8687"
       style="font-style:normal;font-variant:normal;font-weight:normal;font-stretch:normal;font-size:14.5904px;line-height:0%;font-family:Lavi;-inkscape-font-specification:Lavi;text-align:center;letter-spacing:0px;word-spacing:0px;text-anchor:middle;fill:#000000;fill-opacity:1;stroke:none;stroke-width:1"
       xml:space="preserve"><tspan
         y="2449.9761"
         x="2103.8687"
         style="font-weight:bold;font-size:49.4575px;line-height:1.25;stroke-width:1"
         sodipodi:role="line"
         id="tspan4378-9">Totta!</tspan></text>
    <text
       id="text4178-3-5-1"
       y="2530.6221"
       x="2104.9133"
       style="font-style:normal;font-variant:normal;font-weight:normal;font-stretch:normal;line-height:0%;font-family:Lavi;-inkscape-font-specification:Lavi;text-align:center;letter-spacing:0px;word-spacing:0px;text-anchor:middle;fill:#000000;fill-opacity:1;stroke:none"
       xml:space="preserve"><tspan
         y="2530.6221"
         x="2104.9133"
         style="font-size:40.6767px;line-height:1.25"
         sodipodi:role="line"
         id="tspan852">Hänen ansiostaan</tspan><tspan
         y="2581.468"
         x="2104.9133"
         style="font-size:40.6767px;line-height:1.25"
         sodipodi:role="line"
         id="tspan349">olemme voittamattomia!</tspan></text>
    <text
       id="text4178-3-5-1-3"
       y="2658.3079"
       x="2088.5093"
       style="font-style:normal;font-variant:normal;font-weight:normal;font-stretch:normal;line-height:0%;font-family:Lavi;-inkscape-font-specification:Lavi;text-align:center;letter-spacing:0px;word-spacing:0px;text-anchor:middle;fill:#000000;fill-opacity:1;stroke:none"
       xml:space="preserve"><tspan
         y="2658.3079"
         x="2088.5093"
         style="font-size:40.6767px;line-height:1.25"
         sodipodi:role="line"
         id="tspan351">Lähdetään tapaa-</tspan><tspan
         y="2709.1538"
         x="2088.5093"
         style="font-size:40.6767px;line-height:1.25"
         sodipodi:role="line"
         id="tspan359">maan seuraavaa</tspan><tspan
         y="2759.9995"
         x="2088.5093"
         style="font-size:40.6767px;line-height:1.25"
         sodipodi:role="line"
         id="tspan919">hirviötä!</tspan></text>
  </g>
</svg>
