<?xml version="1.0" encoding="UTF-8" standalone="no"?>
<svg
   xmlns:dc="http://purl.org/dc/elements/1.1/"
   xmlns:cc="http://creativecommons.org/ns#"
   xmlns:rdf="http://www.w3.org/1999/02/22-rdf-syntax-ns#"
   xmlns:svg="http://www.w3.org/2000/svg"
   xmlns="http://www.w3.org/2000/svg"
   xmlns:xlink="http://www.w3.org/1999/xlink"
   xmlns:sodipodi="http://sodipodi.sourceforge.net/DTD/sodipodi-0.dtd"
   xmlns:inkscape="http://www.inkscape.org/namespaces/inkscape"
   id="svg2"
   version="1.1"
   inkscape:version="1.0.2 (e86c870879, 2021-01-15)"
   width="2481"
   height="3503"
   sodipodi:docname="E06P09.svg">
  <metadata
     id="metadata8">
    <rdf:RDF>
      <cc:Work
         rdf:about="">
        <dc:format>image/svg+xml</dc:format>
        <dc:type
           rdf:resource="http://purl.org/dc/dcmitype/StillImage" />
        <dc:title />
      </cc:Work>
    </rdf:RDF>
  </metadata>
  <defs
     id="defs6">
    <filter
       inkscape:collect="always"
       id="filter3843">
      <feGaussianBlur
         inkscape:collect="always"
         stdDeviation="0.93774878"
         id="feGaussianBlur3845" />
    </filter>
  </defs>
  <sodipodi:namedview
     pagecolor="#ffffff"
     bordercolor="#666666"
     borderopacity="1"
     objecttolerance="10"
     gridtolerance="10"
     guidetolerance="10"
     inkscape:pageopacity="0"
     inkscape:pageshadow="2"
     inkscape:window-width="1920"
     inkscape:window-height="1022"
     id="namedview4"
     showgrid="false"
     inkscape:zoom="0.42000001"
     inkscape:cx="1135.2858"
     inkscape:cy="1068.8342"
     inkscape:window-x="0"
     inkscape:window-y="28"
     inkscape:window-maximized="1"
     inkscape:current-layer="layer1"
     inkscape:document-rotation="0" />
  <g
     inkscape:groupmode="layer"
     id="layer2"
     inkscape:label="artwork"
     sodipodi:insensitive="true">
    <image
       sodipodi:absref="/home/cherry/Workspace/peppercarrot/webcomics/ep06_The-Potion-Contest/lang/gfx_Pepper-and-Carrot_by-David-Revoy_E06P09.png"
       xlink:href="../gfx_Pepper-and-Carrot_by-David-Revoy_E06P09.png"
       y="0"
       x="0"
       id="image10"
       height="3503"
       width="2481" />
  </g>
  <g
     inkscape:groupmode="layer"
     id="layer3"
     inkscape:label="speechbubbles" />
  <g
     inkscape:groupmode="layer"
     id="layer1"
     inkscape:label="txt">
    <path
       style="color:#000000;display:inline;overflow:visible;visibility:visible;fill:#ffffff;fill-opacity:1;fill-rule:nonzero;stroke:none;stroke-width:1px;marker:none;enable-background:accumulate"
       d="m 1992.8114,3270.6216 c 9.5536,-45.4874 43.4258,-72.6332 208.444,-82.9045 165.0183,-10.2714 186.7311,42.5527 191.9423,68.9648 5.2112,26.412 0.8686,65.2964 -45.1629,85.1055 -46.0312,19.809 -146.7794,24.2111 -183.257,19.0753 -36.4777,-5.1356 -110.5087,-1.0097 -131.3529,-17.8841 -20.8446,-16.8744 -38.008,-32.739 -40.6135,-72.357 z"
       id="path3573-7-6"
       inkscape:connector-curvature="0"
       sodipodi:nodetypes="csssssc" />
    <path
       style="color:#000000;display:inline;overflow:visible;visibility:visible;fill:#ffffff;fill-opacity:1;fill-rule:nonzero;stroke:none;stroke-width:0.96725px;marker:none;enable-background:accumulate"
       d="m 1864.2332,3024.5268 c 12.5364,-104.2242 55.993,-179.7287 273.5237,-189.9571 256.62,-12.0661 245.0316,97.5003 251.8699,158.0175 6.8381,60.5172 1.1395,149.6121 -59.2635,195 -60.4029,45.3879 -192.6064,55.4743 -240.4728,43.7068 -47.8668,-11.7671 -145.0114,-2.3133 -172.3636,-40.9773 -27.3526,-38.664 -49.8747,-75.014 -53.2937,-165.7899 z"
       id="path3573-7-3"
       inkscape:connector-curvature="0"
       sodipodi:nodetypes="csssssc" />
    <path
       style="color:#000000;display:inline;overflow:visible;visibility:visible;fill:#ffffff;fill-opacity:1;fill-rule:nonzero;stroke:none;stroke-width:1px;marker:none;enable-background:accumulate"
       d="m 1733.0338,2845.3485 c 6.1228,-48.2877 27.8306,-77.1046 133.5869,-88.0083 105.7564,-10.9037 119.6716,45.1724 123.0114,73.2105 3.3397,28.0379 0.5565,69.3161 -28.9438,90.3447 -29.5005,21.0285 -94.0676,25.7016 -117.4452,20.2497 -23.3777,-5.4518 -70.8224,-1.0719 -84.181,-18.9852 -13.3588,-17.9131 -24.3585,-34.7544 -26.0283,-76.8114 z"
       id="path3573-7"
       inkscape:connector-curvature="0"
       sodipodi:nodetypes="csssssc" />
    <path
       style="fill:#ffffff;stroke:none"
       d="m 532.44484,2560.0846 c 33.09859,-32.5986 27.82913,-46.4897 20.47318,-61.9311 -7.35578,-15.4414 -15.80643,-28.8005 -11.63578,-38.5723 4.17067,-9.7716 15.29078,-18.9641 24.58593,-24.686 9.29534,-5.7221 5.82948,-15.5939 3.03764,-26.8393 -2.79187,-11.2454 -2.24445,-72.1608 -2.24445,-72.1608 0,0 30.94507,37.7177 36.59273,51.8094 5.64763,14.0915 7.78669,19.2207 8.43954,25.3368 0.6528,6.1163 -0.0619,21.2717 -7.81836,29.5853 -7.75637,8.3136 -19.51606,12.2846 -26.94693,17.2201 -7.43092,4.9354 -10.37423,18.4428 -7.3735,31.1305 3.00072,12.6876 5.31027,42.1409 -8.76887,54.2024 -14.07925,12.0614 -28.34113,14.905 -28.34113,14.905 z"
       id="path3023-3"
       inkscape:connector-curvature="0"
       sodipodi:nodetypes="csssscssssssc" />
    <path
       style="color:#000000;display:inline;overflow:visible;visibility:visible;fill:#ffffff;fill-opacity:1;fill-rule:nonzero;stroke:none;stroke-width:0.983994px;marker:none;enable-background:accumulate"
       d="m 263.6812,2278.9185 c 14.16818,-77.7945 64.40091,-124.2202 309.12463,-141.7866 244.72375,-17.5663 276.92421,72.7754 284.65235,117.9462 7.72814,45.1708 1.28799,111.6726 -66.97702,145.5507 -68.26503,33.8782 -217.67533,41.4067 -271.77206,32.6233 -54.09685,-8.783 -163.8853,-1.7267 -194.79773,-30.586 -30.91254,-28.8592 -56.36616,-55.9915 -60.23017,-123.7476 z"
       id="path3573"
       inkscape:connector-curvature="0"
       sodipodi:nodetypes="csssssc" />
    <path
       style="fill:#ffffff;stroke:none;stroke-width:0.838017"
       d="m 188.75049,2097.1346 c 7.81125,-62.2783 34.79569,-121.8876 197.41234,-129.8948 162.61671,-8.0071 230.71318,44.0904 230.07776,120.998 -0.69208,83.7634 -47.57776,135.2329 -178.94932,137.0123 -131.37158,1.7794 -244.28012,-6.2279 -248.54078,-128.1155 z"
       id="path3270"
       inkscape:connector-curvature="0"
       sodipodi:nodetypes="csssc" />
    <path
       style="fill:#ffffff;stroke:none"
       d="m 1604.3654,543.48013 c 44.8711,-10.8171 54.1774,-0.16815 63.7635,12.84937 9.5861,13.01743 16.8223,25.92299 27.3594,27.20978 10.5371,1.2868 24.0955,-3.17063 33.7373,-7.81443 9.6419,-4.64389 16.3969,2.70419 24.6774,10.16404 8.2806,7.45986 61.0745,35.52734 61.0745,35.52734 0,0 -16.8411,-42.01779 -26.1287,-53.0584 -9.2876,-11.04059 -12.6259,-15.12489 -17.5681,-18.50045 -4.9422,-3.37558 -18.3701,-9.90297 -29.4667,-7.68351 -11.0966,2.21938 -20.4774,9.62342 -28.4968,13.16683 -8.0192,3.54351 -21.1553,-0.45764 -30.5735,-8.75676 -9.4182,-8.2991 -33.6405,-23.89753 -51.1713,-18.45172 -17.5306,5.44581 -27.207,15.34791 -27.207,15.34791 z"
       id="path3023"
       inkscape:connector-curvature="0"
       sodipodi:nodetypes="csssscssssssc" />
    <path
       style="color:#000000;display:inline;overflow:visible;visibility:visible;fill:#ffffff;fill-opacity:1;fill-rule:nonzero;stroke:none;stroke-width:1px;marker:none;enable-background:accumulate"
       d="m 215.17272,138.74796 c 33.3459,-30.82881 314.82327,-64.291607 413.75242,-0.75991 98.92915,63.5317 38.92296,139.76981 -17.83978,164.0273 -56.76258,24.25761 -223.80689,50.8254 -300.03089,30.0332 -76.22414,-20.7922 -135.5979,-51.87249 -139.47391,-115.5122 -1.58195,-25.9739 10.24615,-46.95949 43.59216,-77.78839 z"
       id="path4040"
       inkscape:connector-curvature="0"
       sodipodi:nodetypes="zssssz" />
    <path
       style="color:#000000;display:inline;overflow:visible;visibility:visible;fill:#ffffff;fill-opacity:1;fill-rule:nonzero;stroke:none;stroke-width:1px;marker:none;enable-background:accumulate"
       d="m 852.34444,246.42358 c -34.4485,-28.85544 -71.98381,-52.95652 -111.94016,-69.36311 -20.23931,-7.99959 -41.85115,-14.62314 -63.31048,-10.74807 -11.48402,2.26368 -22.57113,10.85668 -26.46761,24.2322 -5.14074,15.52953 -2.25452,32.37293 -1.13613,48.41021 0.71709,13.95087 1.14959,29.20546 -5.23198,41.57597 -4.11982,6.81603 -12.17192,8.49483 -18.53869,5.46747 -8.17371,-3.0111 -15.52119,-8.84445 -21.79877,-15.52531 -8.08011,-21.4305 -16.16023,-42.86098 -24.24035,-64.29147 15.20086,-36.38463 45.89015,-64.03645 80.38202,-68.64541 31.12854,-4.59357 62.26243,6.49633 89.98594,22.49513 37.80652,22.02337 71.21568,53.10375 102.29621,86.39239 z"
       id="path4048"
       inkscape:connector-curvature="0" />
    <path
       style="color:#000000;display:inline;overflow:visible;visibility:visible;fill:#ffffff;fill-opacity:1;fill-rule:nonzero;stroke:none;stroke-width:0.919404px;marker:none;enable-background:accumulate"
       d="m 1722.5997,564.90546 c 5.6086,-95.91824 70.3257,-148.76701 348.843,-137.35558 110.1522,4.51315 321.0523,-26.6779 352.0639,121.69976 28.6991,137.31347 -249.6683,145.21384 -299.7405,150.21549 -50.0723,5.00184 -311.2749,-1.41659 -359.1434,-46.77411 -22.0771,-20.91893 -41.882,-58.14373 -42.023,-87.78556 z"
       id="path4546"
       inkscape:connector-curvature="0"
       sodipodi:nodetypes="cssssc" />
    <path
       style="fill:#ffffff;stroke:none"
       d="m 1668.7516,2710.3259 c 13.773,24.5101 23.8586,39.9794 37.5558,43.2373 13.6971,3.2578 29.4987,7.941 42.5376,1.0686 13.0388,-6.8723 36.4297,-10.9208 44.0693,-5.4843 7.6397,5.4366 35.0842,26.1204 39.2838,48.072 4.1994,21.9517 41.0154,-11.4789 41.0154,-11.4789 0,0 -20.4282,-37.394 -26.2796,-42.928 -5.8518,-5.5342 -19.4537,-25.7408 -55.0447,-19.4866 -35.591,6.2541 -56.3045,19.7065 -73.4924,18.7955 -17.1878,-0.9109 -40.7145,-13.1826 -49.6452,-31.7956 z"
       id="path3137"
       inkscape:connector-curvature="0" />
    <flowRoot
       xml:space="preserve"
       id="flowRoot2987-4-9-3-6-3-8-7-2-7"
       style="font-style:normal;font-variant:normal;font-weight:normal;font-stretch:normal;line-height:0.01%;font-family:Lavi;-inkscape-font-specification:Lavi;text-align:center;letter-spacing:0px;word-spacing:0px;text-anchor:middle;opacity:0.75;fill:#000000;fill-opacity:1;stroke:none"
       transform="matrix(0.78567639,0,0,0.78567639,300.04334,3197.9723)"><flowRegion
         id="flowRegion2989-5-4-5-5-3-0-6-76-8"><rect
           id="rect2991-7-9-6-21-9-8-0-3-1"
           width="1041.0548"
           height="56.977448"
           x="120.55251"
           y="265.53046"
           style="font-style:normal;font-variant:normal;font-weight:normal;font-stretch:normal;text-align:center;text-anchor:middle;font-family:Lavi;-inkscape-font-specification:Lavi" /></flowRegion><flowPara
         style="font-size:48px;line-height:1.25;text-align:center;text-anchor:middle"
         id="flowPara3272-6-3"> <flowSpan
   style="fill:#1b1b1b;fill-opacity:1"
   id="flowSpan3856"><flowSpan
     style="fill:#2d2d2d;fill-opacity:1"
     id="flowSpan3858"><flowSpan
       style="fill:#2f2f2f;fill-opacity:1"
       id="flowSpan3860"><flowSpan
         style="fill:#3e3e3e;fill-opacity:1"
         id="flowSpan3862"><flowSpan
           style="fill:#3f3f3f;fill-opacity:1"
           id="flowSpan3864"><flowSpan
             style="fill:#474747;fill-opacity:1"
             id="flowSpan3866"><flowSpan
               style="fill:#4d4d4d;fill-opacity:1"
               id="flowSpan3868"><flowSpan
                 style="fill:#4e4e4e;fill-opacity:1"
                 id="flowSpan3870"><flowSpan
                   style="fill:#585858;fill-opacity:1"
                   id="flowSpan3872"><flowSpan
                     style="fill:#595959;fill-opacity:1"
                     id="flowSpan3874"><flowSpan
                       style="fill:#6b6b6b;fill-opacity:1"
                       id="flowSpan3876"><flowSpan
                         style="fill:#777777;fill-opacity:1"
                         id="flowSpan3878"><flowSpan
                           style="fill:#797979;fill-opacity:1"
                           id="flowSpan3880"><flowSpan
                             style="fill:#a0a0a0;fill-opacity:1"
                             id="flowSpan3882"><flowSpan
                               style="fill:#c7c7c7;fill-opacity:1"
                               id="flowSpan3884"><flowSpan
                                 style="fill:#dddddd;fill-opacity:1"
                                 id="flowSpan3886"><flowSpan
                                   style="fill:#dedede;fill-opacity:1"
                                   id="flowSpan3888"><flowSpan
                                   style="fill:#fafafa;fill-opacity:1"
                                   id="flowSpan3890"><flowSpan
                                   style="fill:#ffffff;fill-opacity:1"
                                   id="flowSpan3892" /></flowSpan></flowSpan></flowSpan></flowSpan></flowSpan></flowSpan></flowSpan></flowSpan></flowSpan></flowSpan></flowSpan></flowSpan></flowSpan></flowSpan></flowSpan></flowSpan></flowSpan></flowSpan></flowPara></flowRoot>
    <text
       xml:space="preserve"
       style="font-style:normal;font-weight:normal;line-height:0%;font-family:sans-serif;letter-spacing:0px;word-spacing:0px;fill:#000000;fill-opacity:1;stroke:none;stroke-width:1px;stroke-linecap:butt;stroke-linejoin:miter;stroke-opacity:1"
       x="518.40161"
       y="2147.7168"
       id="text3468"><tspan
         sodipodi:role="line"
         id="tspan3470"
         x="518.40161"
         y="2147.7168"
         style="font-size:40px;line-height:1.25"> </tspan></text>
    <flowRoot
       xml:space="preserve"
       id="flowRoot110"
       style="font-style:normal;font-variant:normal;font-weight:normal;font-stretch:normal;line-height:1.25;font-family:'Xiaolai SC';-inkscape-font-specification:'Xiaolai SC';text-align:center;letter-spacing:0px;word-spacing:0px;text-anchor:middle;fill:#000000;fill-opacity:1;stroke:none"
       transform="matrix(0.98321038,0,0,0.98321038,5.7542283,-136.40281)"><flowRegion
         id="flowRegion102"
         style="font-style:normal;font-variant:normal;font-weight:normal;font-stretch:normal;font-family:'Xiaolai SC';-inkscape-font-specification:'Xiaolai SC'"><rect
           id="rect100"
           width="602.40173"
           height="310.73996"
           x="120.55251"
           y="265.53046"
           style="font-style:normal;font-variant:normal;font-weight:normal;font-stretch:normal;font-family:'Xiaolai SC';-inkscape-font-specification:'Xiaolai SC';text-align:center;text-anchor:middle;" /></flowRegion><flowPara
         style="font-style:normal;font-variant:normal;font-weight:normal;font-stretch:normal;font-size:48px;font-family:'Xiaolai SC';-inkscape-font-specification:'Xiaolai SC';text-align:center;text-anchor:middle"
         id="flowPara104">그래,</flowPara><flowPara
         style="font-style:normal;font-variant:normal;font-weight:normal;font-stretch:normal;font-size:48px;font-family:'Xiaolai SC';-inkscape-font-specification:'Xiaolai SC';text-align:center;text-anchor:middle"
         id="flowPara106">標를 한番 읽어 봐,</flowPara><flowPara
         style="font-style:normal;font-variant:normal;font-weight:normal;font-stretch:normal;font-size:48px;font-family:'Xiaolai SC';-inkscape-font-specification:'Xiaolai SC';text-align:center;text-anchor:middle"
         id="flowPara108">仔細히...</flowPara></flowRoot>
    <flowRoot
       xml:space="preserve"
       id="flowRoot122"
       style="font-style:normal;font-variant:normal;font-weight:normal;font-stretch:normal;line-height:1.25;font-family:'Xiaolai SC';-inkscape-font-specification:'Xiaolai SC';text-align:center;letter-spacing:0px;word-spacing:0px;text-anchor:middle;fill:#000000;fill-opacity:1;stroke:none"
       transform="matrix(1.0124397,0,0,1.0124397,1639.6714,198.67459)"><flowRegion
         id="flowRegion114"
         style="font-style:normal;font-variant:normal;font-weight:normal;font-stretch:normal;font-family:'Xiaolai SC';-inkscape-font-specification:'Xiaolai SC'"><rect
           id="rect112"
           width="602.40173"
           height="310.73996"
           x="120.55251"
           y="265.53046"
           style="font-style:normal;font-variant:normal;font-weight:normal;font-stretch:normal;font-family:'Xiaolai SC';-inkscape-font-specification:'Xiaolai SC';text-align:center;text-anchor:middle;" /></flowRegion><flowPara
         style="font-style:normal;font-variant:normal;font-weight:normal;font-stretch:normal;font-size:48px;font-family:'Xiaolai SC';-inkscape-font-specification:'Xiaolai SC';text-align:center;text-anchor:middle"
         id="flowPara116">...코모나를 </flowPara><flowPara
         style="font-style:normal;font-variant:normal;font-weight:normal;font-stretch:normal;font-size:48px;font-family:'Xiaolai SC';-inkscape-font-specification:'Xiaolai SC';text-align:center;text-anchor:middle"
         id="flowPara118">只今當場 뜨지 않으면</flowPara><flowPara
         style="font-style:normal;font-variant:normal;font-weight:normal;font-stretch:normal;font-size:48px;font-family:'Xiaolai SC';-inkscape-font-specification:'Xiaolai SC';text-align:center;text-anchor:middle"
         id="flowPara120">이걸 너한테 뿌려버릴거야!</flowPara></flowRoot>
    <flowRoot
       xml:space="preserve"
       id="flowRoot132"
       style="font-style:normal;font-variant:normal;font-weight:normal;font-stretch:normal;line-height:1.25;font-family:'Xiaolai SC';-inkscape-font-specification:'Xiaolai SC';text-align:center;letter-spacing:0px;word-spacing:0px;text-anchor:middle;fill:#000000;fill-opacity:1;stroke:none"
       transform="matrix(0.97542837,0,0,0.97542837,22.782947,1749.7684)"><flowRegion
         id="flowRegion126"
         style="font-style:normal;font-variant:normal;font-weight:normal;font-stretch:normal;font-family:'Xiaolai SC';-inkscape-font-specification:'Xiaolai SC'"><rect
           id="rect124"
           width="532.40173"
           height="290.73993"
           x="120.55251"
           y="265.53046"
           style="font-style:normal;font-variant:normal;font-weight:normal;font-stretch:normal;font-family:'Xiaolai SC';-inkscape-font-specification:'Xiaolai SC';text-align:center;text-anchor:middle;" /></flowRegion><flowPara
         style="font-style:normal;font-variant:normal;font-weight:normal;font-stretch:normal;font-size:48px;font-family:'Xiaolai SC';-inkscape-font-specification:'Xiaolai SC';text-align:center;text-anchor:middle"
         id="flowPara128">危險에處한</flowPara><flowPara
         style="font-style:normal;font-variant:normal;font-weight:normal;font-stretch:normal;font-size:48px;font-family:'Xiaolai SC';-inkscape-font-specification:'Xiaolai SC';text-align:center;text-anchor:middle"
         id="flowPara130">저희都市를救한</flowPara><flowPara
         style="font-style:normal;font-variant:normal;font-weight:normal;font-stretch:normal;font-size:48px;font-family:'Xiaolai SC';-inkscape-font-specification:'Xiaolai SC';text-align:center;text-anchor:middle"
         id="flowPara1057">功勞로</flowPara></flowRoot>
    <flowRoot
       xml:space="preserve"
       id="flowRoot144"
       style="font-style:normal;font-variant:normal;font-weight:normal;font-stretch:normal;line-height:1.25;font-family:'Xiaolai SC';-inkscape-font-specification:'Xiaolai SC';text-align:center;letter-spacing:0px;word-spacing:0px;text-anchor:middle;fill:#000000;fill-opacity:1;stroke:none"
       transform="matrix(0.99614688,0,0,0.99614688,128.83691,1926.5796)"><flowRegion
         id="flowRegion136"
         style="font-style:normal;font-variant:normal;font-weight:normal;font-stretch:normal;font-family:'Xiaolai SC';-inkscape-font-specification:'Xiaolai SC'"><rect
           id="rect134"
           width="634.90173"
           height="343.23993"
           x="120.55251"
           y="265.53046"
           style="font-style:normal;font-variant:normal;font-weight:normal;font-stretch:normal;font-family:'Xiaolai SC';-inkscape-font-specification:'Xiaolai SC';text-align:center;text-anchor:middle;" /></flowRegion><flowPara
         style="font-style:normal;font-variant:normal;font-weight:normal;font-stretch:normal;font-size:48px;font-family:'Xiaolai SC';-inkscape-font-specification:'Xiaolai SC';text-align:center;text-anchor:middle"
         id="flowPara138">후추氏에게</flowPara><flowPara
         style="font-style:normal;font-variant:normal;font-weight:normal;font-stretch:normal;font-size:48px;font-family:'Xiaolai SC';-inkscape-font-specification:'Xiaolai SC';text-align:center;text-anchor:middle"
         id="flowPara140">大常을授與합니다...</flowPara><flowPara
         style="font-style:normal;font-variant:normal;font-weight:normal;font-stretch:normal;font-size:48px;font-family:'Xiaolai SC';-inkscape-font-specification:'Xiaolai SC';text-align:center;text-anchor:middle"
         id="flowPara142">무슨 물藥을 쓴 거죠??!!</flowPara></flowRoot>
    <flowRoot
       xml:space="preserve"
       id="flowRoot152"
       style="font-style:normal;font-variant:normal;font-weight:normal;font-stretch:normal;line-height:1.25;font-family:'Xiaolai SC';-inkscape-font-specification:'Xiaolai SC';text-align:center;letter-spacing:0px;word-spacing:0px;text-anchor:middle;fill:#000000;fill-opacity:1;stroke:none"
       transform="matrix(0.79560887,0,0,0.79560887,339.33914,567.9001)"><flowRegion
         id="flowRegion148"
         style="font-style:normal;font-variant:normal;font-weight:normal;font-stretch:normal;font-family:'Xiaolai SC';-inkscape-font-specification:'Xiaolai SC'"><rect
           id="rect146"
           width="581.45197"
           height="388.37531"
           x="1958.4893"
           y="2896.5054"
           style="font-style:normal;font-variant:normal;font-weight:normal;font-stretch:normal;font-family:'Xiaolai SC';-inkscape-font-specification:'Xiaolai SC';text-align:center;text-anchor:middle" /></flowRegion><flowPara
         style="font-style:normal;font-variant:normal;font-weight:normal;font-stretch:normal;font-size:60.6836px;font-family:'Xiaolai SC';-inkscape-font-specification:'Xiaolai SC';text-align:center;text-anchor:middle"
         id="flowPara150">... 흠... 事實,</flowPara><flowPara
         style="font-style:normal;font-variant:normal;font-weight:normal;font-stretch:normal;font-size:60.6836px;font-family:'Xiaolai SC';-inkscape-font-specification:'Xiaolai SC';text-align:center;text-anchor:middle"
         id="flowPara220">물藥은 아니에요;</flowPara><flowPara
         style="font-style:normal;font-variant:normal;font-weight:normal;font-stretch:normal;font-size:60.6836px;font-family:'Xiaolai SC';-inkscape-font-specification:'Xiaolai SC';text-align:center;text-anchor:middle"
         id="flowPara218">저番에 제 고양이가</flowPara><flowPara
         style="font-style:normal;font-variant:normal;font-weight:normal;font-stretch:normal;font-size:60.6836px;font-family:'Xiaolai SC';-inkscape-font-specification:'Xiaolai SC';text-align:center;text-anchor:middle"
         id="flowPara222">動物病院에 갔을 때</flowPara><flowPara
         style="font-style:normal;font-variant:normal;font-weight:normal;font-stretch:normal;font-size:60.6836px;font-family:'Xiaolai SC';-inkscape-font-specification:'Xiaolai SC';text-align:center;text-anchor:middle"
         id="flowPara224">採取한小便試料에요!</flowPara></flowRoot>
    <flowRoot
       xml:space="preserve"
       id="flowRoot162"
       style="font-style:normal;font-variant:normal;font-weight:normal;font-stretch:normal;line-height:1.25;font-family:'Xiaolai SC';-inkscape-font-specification:'Xiaolai SC';text-align:center;letter-spacing:0px;word-spacing:0px;text-anchor:middle;fill:#000000;fill-opacity:1;stroke:none"
       transform="matrix(0.749608,0,0,0.749608,470.00548,701.89128)"><flowRegion
         id="flowRegion156"
         style="font-style:normal;font-variant:normal;font-weight:normal;font-stretch:normal;font-family:'Xiaolai SC';-inkscape-font-specification:'Xiaolai SC'"><rect
           id="rect154"
           width="1003.9798"
           height="664.96497"
           x="1354.8743"
           y="2790.2112"
           style="font-style:normal;font-variant:normal;font-weight:normal;font-stretch:normal;font-family:'Xiaolai SC';-inkscape-font-specification:'Xiaolai SC';text-align:center;text-anchor:middle;" /></flowRegion><flowPara
         style="font-style:normal;font-variant:normal;font-weight:normal;font-stretch:normal;font-size:62.1899px;font-family:'Xiaolai SC';-inkscape-font-specification:'Xiaolai SC';text-align:center;text-anchor:middle"
         id="flowPara158">... 하하!</flowPara><flowPara
         style="font-style:normal;font-variant:normal;font-weight:normal;font-stretch:normal;font-size:62.1899px;font-family:'Xiaolai SC';-inkscape-font-specification:'Xiaolai SC';text-align:center;text-anchor:middle"
         id="flowPara160">   예 ...</flowPara></flowRoot>
    <flowRoot
       xml:space="preserve"
       id="flowRoot170"
       style="font-style:normal;font-variant:normal;font-weight:normal;font-stretch:normal;line-height:1.25;font-family:'Xiaolai SC';-inkscape-font-specification:'Xiaolai SC';text-align:center;letter-spacing:0px;word-spacing:0px;text-anchor:middle;fill:#000000;fill-opacity:1;stroke:none"
       transform="matrix(0.8573172,0,0,0.8573172,1904.5426,2998.3355)"><flowRegion
         id="flowRegion166"
         style="font-style:normal;font-variant:normal;font-weight:normal;font-stretch:normal;font-family:'Xiaolai SC';-inkscape-font-specification:'Xiaolai SC'"><rect
           id="rect164"
           width="434.84378"
           height="241.91234"
           x="120.55251"
           y="265.53046"
           style="font-style:normal;font-variant:normal;font-weight:normal;font-stretch:normal;font-family:'Xiaolai SC';-inkscape-font-specification:'Xiaolai SC';text-align:center;text-anchor:middle" /></flowRegion><flowPara
         style="font-style:normal;font-variant:normal;font-weight:normal;font-stretch:normal;font-size:48px;font-family:'Xiaolai SC';-inkscape-font-specification:'Xiaolai SC';text-align:center;text-anchor:middle"
         id="flowPara103">... 그럼 試演은 </flowPara><flowPara
         style="font-style:normal;font-variant:normal;font-weight:normal;font-stretch:normal;font-size:48px;font-family:'Xiaolai SC';-inkscape-font-specification:'Xiaolai SC';text-align:center;text-anchor:middle"
         id="flowPara226">必要없겠죠 ?...</flowPara></flowRoot>
    <flowRoot
       xml:space="preserve"
       id="flowRoot178"
       style="font-style:normal;font-variant:normal;font-weight:normal;font-stretch:normal;line-height:1.25;font-family:'Xiaolai SC';-inkscape-font-specification:'Xiaolai SC';text-align:center;letter-spacing:0px;word-spacing:0px;text-anchor:middle;fill:#000000;fill-opacity:1;stroke:none"
       transform="matrix(1.0592987,0,0,1.0592987,1488.2417,3125.6215)"><flowRegion
         id="flowRegion174"
         style="font-style:normal;font-variant:normal;font-weight:normal;font-stretch:normal;font-family:'Xiaolai SC';-inkscape-font-specification:'Xiaolai SC'"><rect
           id="rect172"
           width="1041.0548"
           height="56.977448"
           x="120.55251"
           y="265.53046"
           style="font-style:normal;font-variant:normal;font-weight:normal;font-stretch:normal;font-family:'Xiaolai SC';-inkscape-font-specification:'Xiaolai SC';text-align:center;text-anchor:middle;" /></flowRegion><flowPara
         style="font-style:normal;font-variant:normal;font-weight:normal;font-stretch:normal;font-size:48px;font-family:'Xiaolai SC';-inkscape-font-specification:'Xiaolai SC';text-align:center;text-anchor:middle"
         id="flowPara176">第6話:물藥大會  <flowSpan
   style="stroke:#000000;stroke-width:1.48569;stroke-opacity:1"
   id="flowSpan1051">終</flowSpan></flowPara></flowRoot>
    <flowRoot
       transform="matrix(0.8873296,-0.04367131,0.27352065,1.6766766,438.44395,2679.6501)"
       style="font-style:normal;font-variant:normal;font-weight:normal;font-stretch:normal;line-height:1.25;font-family:'Xiaolai SC';-inkscape-font-specification:'Xiaolai SC';text-align:center;letter-spacing:0px;word-spacing:0px;text-anchor:middle;opacity:0.353488;fill:#000000;fill-opacity:1;stroke:#000000;stroke-width:0.956204;stroke-miterlimit:4;stroke-dasharray:none;stroke-opacity:1;filter:url(#filter3843)"
       id="flowRoot194"
       xml:space="preserve"><flowRegion
         id="flowRegion190"
         style="font-style:normal;font-variant:normal;font-weight:normal;font-stretch:normal;font-family:'Xiaolai SC';-inkscape-font-specification:'Xiaolai SC';stroke-width:0.956204"><rect
           style="font-style:normal;font-variant:normal;font-weight:normal;font-stretch:normal;font-family:'Xiaolai SC';-inkscape-font-specification:'Xiaolai SC';text-align:center;text-anchor:middle;stroke:#000000;stroke-width:0.95620372;stroke-miterlimit:4;stroke-dasharray:none;stroke-opacity:1;"
           y="265.53046"
           x="120.55251"
           height="355.03918"
           width="798.1947"
           id="rect188" /></flowRegion><flowPara
         style="font-style:normal;font-variant:normal;font-weight:normal;font-stretch:normal;font-size:48px;font-family:'Xiaolai SC';-inkscape-font-specification:'Xiaolai SC';text-align:center;letter-spacing:5.20896px;text-anchor:middle;stroke:#000000;stroke-width:0.956204;stroke-miterlimit:4;stroke-dasharray:none;stroke-opacity:1"
         id="flowPara192">五萬콤</flowPara></flowRoot>
    <flowRoot
       xml:space="preserve"
       id="flowRoot202"
       style="font-style:normal;font-variant:normal;font-weight:normal;font-stretch:normal;line-height:1.25;font-family:'Xiaolai SC';-inkscape-font-specification:'Xiaolai SC';text-align:center;letter-spacing:0px;word-spacing:0px;text-anchor:middle;opacity:0.85;fill:#000000;fill-opacity:1;stroke:none"
       transform="matrix(0.53257026,0,0,0.53257026,26.256865,3210.3229)"><flowRegion
         id="flowRegion198"
         style="font-style:normal;font-variant:normal;font-weight:normal;font-stretch:normal;font-family:'Xiaolai SC';-inkscape-font-specification:'Xiaolai SC'"><rect
           id="rect196"
           width="4321.0986"
           height="106.05656"
           x="120.55251"
           y="265.53046"
           style="font-style:normal;font-variant:normal;font-weight:normal;font-stretch:normal;font-family:'Xiaolai SC';-inkscape-font-specification:'Xiaolai SC';text-align:center;text-anchor:middle" /></flowRegion><flowPara
         style="font-style:normal;font-variant:normal;font-weight:normal;font-stretch:normal;font-size:60.3925px;font-family:'Xiaolai SC';-inkscape-font-specification:'Xiaolai SC';text-align:center;text-anchor:middle;fill:#ffffff;fill-opacity:1"
         id="flowPara200">2015年3月 - 圖版및脚本 : David Revoy - 韓國語譯 : Shikamaru Yamamoto, Jihoon Kim - 漢文混用譯: Jihoon Kim </flowPara></flowRoot>
  </g>
</svg>
