<?xml version="1.0" encoding="UTF-8" standalone="no"?>
<!-- Created with Inkscape (http://www.inkscape.org/) -->

<svg
   id="svg2"
   version="1.1"
   inkscape:version="1.2.2 (b0a8486541, 2022-12-01)"
   width="2481"
   height="3503"
   sodipodi:docname="E28P05.svg"
   xmlns:inkscape="http://www.inkscape.org/namespaces/inkscape"
   xmlns:sodipodi="http://sodipodi.sourceforge.net/DTD/sodipodi-0.dtd"
   xmlns:xlink="http://www.w3.org/1999/xlink"
   xmlns="http://www.w3.org/2000/svg"
   xmlns:svg="http://www.w3.org/2000/svg"
   xmlns:rdf="http://www.w3.org/1999/02/22-rdf-syntax-ns#"
   xmlns:cc="http://creativecommons.org/ns#"
   xmlns:dc="http://purl.org/dc/elements/1.1/">
  <metadata
     id="metadata8">
    <rdf:RDF>
      <cc:Work
         rdf:about="">
        <dc:format>image/svg+xml</dc:format>
        <dc:type
           rdf:resource="http://purl.org/dc/dcmitype/StillImage" />
        <dc:title />
      </cc:Work>
    </rdf:RDF>
  </metadata>
  <defs
     id="defs6" />
  <sodipodi:namedview
     pagecolor="#ffffff"
     bordercolor="#666666"
     borderopacity="1"
     objecttolerance="10"
     gridtolerance="10"
     guidetolerance="10"
     inkscape:pageopacity="0"
     inkscape:pageshadow="2"
     inkscape:window-width="1920"
     inkscape:window-height="1003"
     id="namedview4"
     showgrid="false"
     inkscape:zoom="0.51498716"
     inkscape:cx="1015.5593"
     inkscape:cy="1339.8392"
     inkscape:window-x="0"
     inkscape:window-y="40"
     inkscape:window-maximized="1"
     inkscape:current-layer="layer3"
     inkscape:showpageshadow="2"
     inkscape:pagecheckerboard="0"
     inkscape:deskcolor="#d1d1d1" />
  <g
     inkscape:groupmode="layer"
     id="layer2"
     inkscape:label="artwork"
     sodipodi:insensitive="true">
    <image
       xlink:href="../gfx_Pepper-and-Carrot_by-David-Revoy_E28P05.png"
       y="0"
       x="0"
       id="image10"
       height="3503"
       width="2481" />
  </g>
  <g
     inkscape:groupmode="layer"
     id="layer3"
     inkscape:label="speechbubbles">
    <path
       style="fill:#ffffff;fill-rule:evenodd;stroke:none;stroke-width:0.815524px;stroke-linecap:butt;stroke-linejoin:miter;stroke-opacity:1"
       d="m 153.2417,188.95318 c 21.59324,-19.55444 53.70797,-29.53117 85.03834,-35.88173 29.3151,-6.05021 59.86004,-6.19467 89.93281,-4.88124 38.13552,1.73254 76.76219,3.86567 113.53979,12.43601 11.24436,2.50599 21.83195,7.08071 28.82359,14.54878 29.60728,25.28835 51.05227,58.21615 50.32864,93.07267 -2.97864,51.22466 -4.46873,102.51392 -8.70419,153.69046 -1.28571,16.85157 -6.30598,34.62268 -22.10888,47.00926 -18.14763,14.88638 -42.20939,24.93266 -67.85013,29.3927 -40.79567,7.5359 -82.97316,10.19551 -124.83423,9.62134 -16.36122,-1.38085 -32.71448,-3.22261 -49.02787,-5.05762 -34.95604,-4.68747 -72.49729,-11.89527 -97.56596,-32.93207 -19.90406,-16.77292 -30.92594,-39.40596 -32.97287,-62.01789 0.15486,-47.55192 4.25042,-95.03562 6.954,-142.52735 0.96396,-12.81987 0.20832,-25.92036 6.06991,-38.17105 5.33749,-13.41343 12.26704,-26.61572 22.37705,-38.30227 z"
       id="path1006"
       inkscape:connector-curvature="0" />
    <path
       style="fill:#ffffff;fill-rule:evenodd;stroke:none;stroke-width:1px;stroke-linecap:butt;stroke-linejoin:miter;stroke-opacity:1"
       d="M 333.27358,346.17986 C 395.90659,299.25879 684.65819,123.37673 1012.4941,266.75583 759.55842,143.42811 491.69794,181.66189 330.00219,300.24071 Z"
       id="path1008"
       inkscape:connector-curvature="0"
       sodipodi:nodetypes="cccc" />
    <path
       style="fill:#ffffff;fill-rule:evenodd;stroke:none;stroke-width:1px;stroke-linecap:butt;stroke-linejoin:miter;stroke-opacity:1"
       d="m 1819.6761,521.16397 c 116.7092,-13.15033 182.4608,-4.93138 226.8431,52.60129 44.3824,57.53267 34.5196,90.40848 23.0131,80.54574 -11.5065,-9.86274 -23.0131,-151.22873 -249.8562,-133.14703 z"
       id="path1011"
       inkscape:connector-curvature="0" />
    <path
       style="fill:#ffffff;fill-rule:evenodd;stroke:none;stroke-width:1.03779px;stroke-linecap:butt;stroke-linejoin:miter;stroke-opacity:1"
       d="m 2120.5512,552.39599 c 93.8305,1.64379 143.4014,13.15032 162.8757,29.58823 19.4742,16.4379 46.03,60.82025 37.1781,87.12089 -8.852,26.30065 -42.4893,69.03921 -139.8606,65.75163 -97.3713,-3.28759 -168.1868,-19.72549 -191.2018,-52.6013 -23.015,-32.87581 8.852,-101.91501 46.0301,-113.42155 37.1781,-11.50653 42.4893,-14.79411 84.9785,-16.4379 z"
       id="path1013"
       inkscape:connector-curvature="0" />
    <path
       style="fill:#ffffff;fill-rule:evenodd;stroke:none;stroke-width:0.892762px;stroke-linecap:butt;stroke-linejoin:miter;stroke-opacity:1"
       d="m 2033.4714,731.71016 c 52.4341,-46.48378 116.1125,-43.38486 133.1537,-40.28594 17.0409,3.09893 59.7715,7.82286 91.6805,10.84622 14.7546,1.39798 68.8493,31.08323 72.7292,82.12132 2.3501,30.91281 0,61.97837 -36.7038,74.37404 -36.7039,12.39567 -90.6859,12.39567 -136.5658,10.84621 -45.8798,-1.54946 -98.0768,0 -125.6047,-27.89026 -27.5279,-27.89027 -35.393,-66.62674 1.3109,-110.01159 z"
       id="path1015"
       inkscape:connector-curvature="0"
       sodipodi:nodetypes="cssssssc" />
    <path
       style="fill:#ffffff;fill-rule:evenodd;stroke:none;stroke-width:1.23964px;stroke-linecap:butt;stroke-linejoin:miter;stroke-opacity:1"
       d="m 460.57848,1105.3036 c 160.54036,1.2321 287.95333,1.2321 323.62896,13.5532 35.67564,12.3212 104.47865,40.6597 107.0269,67.7661 2.54827,27.1065 -2.54825,66.534 -50.96518,85.0157 -48.41695,18.4817 -135.05776,33.267 -221.69859,39.4276 -86.64081,6.1605 -259.92247,6.1605 -318.53244,0 -58.60996,-6.1606 -160.54033,-27.1065 -173.28164,-48.0523 -12.74129,-20.946 -17.83782,-72.6946 -2.54826,-93.6406 15.28957,-20.9458 89.1891,-46.8201 163.0886,-54.2128 73.89953,-7.3927 173.28165,-9.8569 173.28165,-9.8569 z"
       id="path1017"
       inkscape:connector-curvature="0" />
    <path
       style="fill:#ffffff;fill-rule:evenodd;stroke:none;stroke-width:1px;stroke-linecap:butt;stroke-linejoin:miter;stroke-opacity:1"
       d="m 464.5495,1496.1462 c 57.17532,-75.7573 57.17532,-148.6559 4.28815,-244.4245 -52.88717,-95.7687 -80.04545,-97.1981 -80.04545,-97.1981 l -4.28815,52.8872 c 0,0 168.6672,128.6445 80.04545,288.7354 z"
       id="path1019"
       inkscape:connector-curvature="0" />
    <path
       style="fill:#ffffff;fill-rule:evenodd;stroke:none;stroke-width:1.00006592px;stroke-linecap:butt;stroke-linejoin:miter;stroke-opacity:1"
       d="m 1928.7492,1181.6164 c -3.3611,-54.1268 84.0514,-99.5753 198.8715,-99.9637 114.8199,-0.3882 214.6634,22.2488 214.0332,78.152 -0.6302,55.9032 -20.2592,103.0846 -167.8989,103.3563 -147.6398,0.2718 -238.8088,-14.7742 -245.0058,-81.5446 z"
       id="path1021"
       inkscape:connector-curvature="0" />
    <path
       style="fill:#ffffff;fill-rule:evenodd;stroke:none;stroke-width:1px;stroke-linecap:butt;stroke-linejoin:miter;stroke-opacity:1"
       d="m 2223.4008,1243.0202 c 9.6724,22.1135 -3.7615,81.471 -16.6581,91.9459 -8.9785,11.3235 4.9225,16.0942 9.6724,15.1304 4.2989,-2.9097 37.6151,-18.04 42.9887,-9.3111 5.3736,8.7291 -48.8996,51.2105 -42.9887,57.0298 5.911,5.8194 27.9427,-8.1471 30.6294,-3.4916 2.6868,4.6554 -4.2988,17.4581 -16.6581,25.6052 20.957,-6.9833 30.0921,-18.6219 25.7932,-26.769 -4.2988,-8.1471 -12.3592,-6.9833 -17.7328,-5.8194 10.2098,-8.7291 49.9875,-38.2659 39.7777,-53.9782 -10.2098,-15.7122 -36.0426,-12.0787 -41.9536,-9.169 14.5087,-12.8026 28.0737,-53.8649 21.6254,-85.8713 -6.4483,-32.0065 -34.4955,4.6983 -34.4955,4.6983 z"
       id="path1023"
       inkscape:connector-curvature="0"
       sodipodi:nodetypes="ccccsccccccsc" />
    <path
       style="fill:#ffffff;fill-rule:evenodd;stroke:none;stroke-width:1px;stroke-linecap:butt;stroke-linejoin:miter;stroke-opacity:1"
       d="m 826.50706,2344.762 c 9.78488,-40.2573 52.11355,-55.2416 84.72982,-52.849 32.61627,2.3928 81.25075,23.5682 76.17711,56.2586 -5.07364,32.6904 -43.85076,50.2768 -71.17595,51.6227 -27.32519,1.3458 -89.15114,-3.9181 -89.73098,-55.0323 z"
       id="path1025"
       inkscape:connector-curvature="0" />
    <path
       style="fill:#ffffff;fill-rule:evenodd;stroke:none;stroke-width:1px;stroke-linecap:butt;stroke-linejoin:miter;stroke-opacity:1"
       d="m 891.05439,2384.5928 c 8.97846,20.1058 2.08504,29.2013 -7.53169,42.2988 -9.61674,13.0974 -3.91478,26.6928 6.89341,31.8628 10.80819,5.1701 22.50997,25.1418 21.87169,42.5477 -2.42546,-50.8389 -20.08451,-46.2816 -21.10575,-59.2259 -1.02125,-12.9442 20.21215,-24.3759 22.42485,-32.7054 2.2127,-8.3295 0.51063,-29.1055 -5.14877,-40.9009 -5.65941,-11.7954 -17.40374,16.1229 -17.40374,16.1229 z"
       id="path1027"
       inkscape:connector-curvature="0"
       sodipodi:nodetypes="cccccssc" />
  </g>
  <g
     inkscape:groupmode="layer"
     id="layer1"
     inkscape:label="txt">
    <text
       xml:space="preserve"
       style="font-style:normal;font-variant:normal;font-weight:normal;font-stretch:normal;line-height:0%;font-family:Lavi;-inkscape-font-specification:Lavi;text-align:center;letter-spacing:0px;word-spacing:0px;text-anchor:middle;fill:#000000;fill-opacity:1;stroke:none"
       x="317.16214"
       y="239.86371"
       id="text4246"><tspan
         sodipodi:role="line"
         style="font-size:45px;line-height:1.2"
         x="317.16214"
         y="239.86371"
         id="tspan825">ro pendo be mi</tspan><tspan
         sodipodi:role="line"
         style="font-size:45px;line-height:1.2"
         x="317.16214"
         y="293.86371"
         id="tspan833">tai snada </tspan><tspan
         sodipodi:role="line"
         style="font-size:45px;line-height:1.2"
         x="317.16214"
         y="347.86371"
         id="tspan265">.i .au mi </tspan><tspan
         sodipodi:role="line"
         style="font-size:45px;line-height:1.2"
         x="317.16214"
         y="401.86371"
         id="tspan267">su'o so'u va'e</tspan><tspan
         sodipodi:role="line"
         style="font-size:45px;line-height:1.2"
         x="317.16214"
         y="455.86371"
         id="tspan269">le ka go'i</tspan></text>
    <text
       xml:space="preserve"
       style="font-style:normal;font-variant:normal;font-weight:normal;font-stretch:normal;line-height:0%;font-family:Lavi;-inkscape-font-specification:Lavi;text-align:center;letter-spacing:0px;word-spacing:0px;text-anchor:middle;fill:#000000;fill-opacity:1;stroke:none"
       x="2143.3313"
       y="630.23462"
       id="text4246-3"><tspan
         sodipodi:role="line"
         style="font-size:45px;line-height:1.2"
         x="2143.3313"
         y="630.23462"
         id="tspan898">.i la koriander.</tspan><tspan
         sodipodi:role="line"
         style="font-size:45px;line-height:1.2"
         x="2143.3313"
         y="684.23462"
         id="tspan327">nobli</tspan></text>
    <text
       xml:space="preserve"
       style="font-style:normal;font-variant:normal;font-weight:normal;font-stretch:normal;line-height:0%;font-family:Lavi;-inkscape-font-specification:Lavi;text-align:center;letter-spacing:0px;word-spacing:0px;text-anchor:middle;fill:#000000;fill-opacity:1;stroke:none"
       x="2166.4858"
       y="776.11542"
       id="text4246-3-9"><tspan
         sodipodi:role="line"
         style="font-size:45px;line-height:1.2"
         x="2166.4858"
         y="776.11542"
         id="tspan923">.i la .safran.</tspan><tspan
         sodipodi:role="line"
         style="font-size:45px;line-height:1.2"
         x="2166.4858"
         y="830.11542"
         id="tspan331">ricfu</tspan></text>
    <text
       xml:space="preserve"
       style="font-style:normal;font-variant:normal;font-weight:normal;font-stretch:normal;line-height:0%;font-family:Lavi;-inkscape-font-specification:Lavi;text-align:center;letter-spacing:0px;word-spacing:0px;text-anchor:middle;fill:#000000;fill-opacity:1;stroke:none"
       x="485.58185"
       y="1183.152"
       id="text4246-3-9-7"><tspan
         sodipodi:role="line"
         style="font-size:45px;line-height:1.2"
         x="485.58185"
         y="1183.152"
         id="tspan950">.i ji'a .ue dai la .citcimin. simlu</tspan><tspan
         sodipodi:role="line"
         style="font-size:45px;line-height:1.2"
         x="485.58185"
         y="1237.152"
         id="tspan339">le ka tai prane fau tu'a le se cecmu</tspan></text>
    <text
       xml:space="preserve"
       style="font-style:normal;font-variant:normal;font-weight:normal;font-stretch:normal;line-height:0%;font-family:Lavi;-inkscape-font-specification:Lavi;text-align:center;letter-spacing:0px;word-spacing:0px;text-anchor:middle;fill:#000000;fill-opacity:1;stroke:none"
       x="2140.5269"
       y="1155.4224"
       id="text4246-3-9-7-3"><tspan
         sodipodi:role="line"
         style="font-size:45px;line-height:1.2"
         x="2140.5269"
         y="1155.4224"
         id="tspan981">.i mi mo</tspan><tspan
         sodipodi:role="line"
         style="font-size:45px;line-height:1.2"
         x="2140.5269"
         y="1209.4224"
         id="tspan383">.i mi kansa ma</tspan></text>
    <text
       xml:space="preserve"
       style="font-style:normal;font-variant:normal;font-weight:normal;font-stretch:normal;line-height:0%;font-family:Lavi;-inkscape-font-specification:Lavi;text-align:center;letter-spacing:0px;word-spacing:0px;text-anchor:middle;fill:#000000;fill-opacity:1;stroke:none"
       x="910.00488"
       y="2360.6299"
       id="text4246-3-9-7-3-2"><tspan
         sodipodi:role="line"
         style="font-size:45px;line-height:1.2"
         x="910.00488"
         y="2360.6299"
         id="tspan981-1">ti</tspan></text>
  </g>
</svg>
