<?xml version="1.0" encoding="UTF-8" standalone="no"?>
<svg
   xmlns:dc="http://purl.org/dc/elements/1.1/"
   xmlns:cc="http://creativecommons.org/ns#"
   xmlns:rdf="http://www.w3.org/1999/02/22-rdf-syntax-ns#"
   xmlns:svg="http://www.w3.org/2000/svg"
   xmlns="http://www.w3.org/2000/svg"
   xmlns:xlink="http://www.w3.org/1999/xlink"
   xmlns:sodipodi="http://sodipodi.sourceforge.net/DTD/sodipodi-0.dtd"
   xmlns:inkscape="http://www.inkscape.org/namespaces/inkscape"
   id="svg2"
   version="1.1"
   inkscape:version="1.0.2 (e86c8708, 2021-01-15)"
   width="2481"
   height="3503"
   sodipodi:docname="E36P11.svg">
  <metadata
     id="metadata8">
    <rdf:RDF>
      <cc:Work
         rdf:about="">
        <dc:format>image/svg+xml</dc:format>
        <dc:type
           rdf:resource="http://purl.org/dc/dcmitype/StillImage" />
        <dc:title />
      </cc:Work>
    </rdf:RDF>
  </metadata>
  <defs
     id="defs6" />
  <sodipodi:namedview
     pagecolor="#1e1e1e"
     bordercolor="#111111"
     borderopacity="1"
     objecttolerance="10"
     gridtolerance="10"
     guidetolerance="10"
     inkscape:pageopacity="0"
     inkscape:pageshadow="2"
     inkscape:window-width="1429"
     inkscape:window-height="943"
     id="namedview4"
     showgrid="false"
     inkscape:zoom="0.46000002"
     inkscape:cx="1264.1304"
     inkscape:cy="2347.826"
     inkscape:window-x="198"
     inkscape:window-y="25"
     inkscape:window-maximized="0"
     inkscape:current-layer="layer1"
     inkscape:pagecheckerboard="0"
     inkscape:snap-global="false"
     inkscape:document-rotation="0" />
  <g
     inkscape:groupmode="layer"
     id="layer2"
     inkscape:label="artwork"
     sodipodi:insensitive="true">
    <image
       sodipodi:absref="/Users/gand/Documents/Pepper&amp;Carrot/ep36_The-Surprise-Attack/gfx_Pepper-and-Carrot_by-David-Revoy_E36P11.png"
       xlink:href="../gfx_Pepper-and-Carrot_by-David-Revoy_E36P11.png"
       y="0"
       x="0"
       id="image10"
       height="3503"
       width="2481" />
  </g>
  <g
     inkscape:groupmode="layer"
     id="layer3"
     inkscape:label="speechbubbles"
     style="display:inline">
    <path
       style="color:#000000;display:inline;overflow:visible;visibility:visible;fill:#ffffff;fill-opacity:1;fill-rule:nonzero;stroke:none;stroke-width:0.649444px;marker:none;enable-background:accumulate"
       d="m 384.22008,282.95177 c -36.52082,21.41551 -81.08506,17.53589 -121.80587,16.52247 -42.52036,-3.44423 -93.06761,-16.67254 -112.2994,-58.54734 -17.96129,-38.78476 2.10016,-87.11707 40.45297,-105.22628 35.18838,-16.98124 75.64954,-18.66814 114.10065,-19.46171 49.92399,1.16875 104.76155,32.33519 112.49934,84.58625 4.21244,30.58574 -9.514,62.20135 -32.94769,82.12661 z"
       id="path4040-40"
       inkscape:connector-curvature="0"
       sodipodi:nodetypes="zssssz" />
    <path
       style="color:#000000;display:inline;overflow:visible;visibility:visible;fill:#ffffff;fill-opacity:1;fill-rule:nonzero;stroke:none;stroke-width:0.895703px;marker:none;enable-background:accumulate"
       d="m 617.61025,105.88672 c -27.34146,0.48289 -55.30789,1.99485 -81.01026,10.55273 -19.27663,6.28483 -36.60817,17.59434 -46.89078,32.88401 -10.78797,15.11503 -15.24648,32.66921 -17.99958,49.9598 -3.75274,20.5909 -5.45897,42.02901 1.14989,62.34728 10.14236,29.028 40.31222,51.93542 75.16053,58.49046 45.59561,10.88095 94.50308,13.37614 140.83587,4.25676 26.56867,-5.64189 52.37207,-15.47968 72.95579,-30.96068 13.87857,-11.91714 20.4242,-28.63021 21.90443,-45.0154 2.97723,-25.0214 3.57178,-50.80265 -4.83215,-75.17205 -8.00131,-22.85714 -29.42504,-41.60583 -55.43746,-50.51416 -20.18886,-7.20666 -41.79469,-10.9992 -63.31684,-14.11157 -14.05315,-1.87992 -28.28771,-2.85024 -42.51944,-2.71718 z"
       id="path3365-90"
       inkscape:connector-curvature="0"
       sodipodi:nodetypes="csssssc" />
    <path
       style="color:#000000;display:inline;overflow:visible;visibility:visible;fill:#ffffff;fill-opacity:1;fill-rule:nonzero;stroke:none;stroke-width:1.04398px;marker:none;enable-background:accumulate"
       d="m 841.7647,243.87402 c 0.60665,-60.97739 12.42387,-118.64252 117.18111,-116.64688 78.54749,1.49544 99.46519,48.47739 101.20539,110.11308 1.2265,43.43643 -41.2683,83.64224 -108.75404,81.51182 C 886.8937,316.81623 846.48197,290.37649 841.7647,243.87402 Z"
       id="path5026-3"
       inkscape:connector-curvature="0"
       sodipodi:nodetypes="csssc" />
    <path
       style="color:#000000;display:inline;overflow:visible;visibility:visible;fill:#ffffff;fill-opacity:1;fill-rule:nonzero;stroke:none;stroke-width:1.06703px;marker:none;enable-background:accumulate"
       d="m 958.1944,309.83323 c -43.34053,0.0194 -52.18434,75.22752 -14.63328,128.2568 -16.5114,-21.59304 -72.61174,-61.13455 -7.77479,-172.66812 29.32893,-50.45175 14.74185,29.39163 14.74185,29.39163 z"
       id="path4035-4"
       inkscape:connector-curvature="0"
       sodipodi:nodetypes="ccscc" />
    <path
       style="color:#000000;display:inline;overflow:visible;visibility:visible;fill:#ffffff;fill-opacity:1;fill-rule:nonzero;stroke:none;stroke-width:0.878368px;marker:none;enable-background:accumulate"
       d="m 1009.012,1107.6625 c -26.43581,0.9196 -53.24587,6.2081 -76.27963,18.843 -16.40054,9.9122 -26.93722,26.7814 -31.19305,44.4134 -7.94354,30.9204 -10.6984,63.3499 -5.14873,94.8488 2.35716,12.8534 5.9219,25.663 12.17216,37.3602 4.1586,7.3941 10.51963,13.7103 18.3892,17.6696 10.67207,5.9588 22.22492,10.3547 33.76261,14.5785 22.82406,7.6436 47.08524,10.4124 71.13634,11.9671 11.3654,0.663 22.7583,-0.6057 33.8165,-3.0624 14.447,-3.171 28.4874,-7.884 42.046,-13.5135 17.888,-7.9551 34.6397,-19.6494 44.7245,-35.9575 9.8558,-15.8741 13.0333,-34.4211 14.4971,-52.4938 2.0786,-23.4806 1.301,-47.7206 -7.1468,-70.1296 -7.7166,-19.8025 -23.8246,-36.6643 -44.2321,-45.5319 -23.7669,-10.8413 -50.1839,-14.7999 -76.1744,-17.7223 -10.0801,-1.0003 -20.2336,-1.5207 -30.3697,-1.2696 z"
       id="path3365-90-4"
       inkscape:connector-curvature="0"
       sodipodi:nodetypes="csssssc" />
    <path
       style="fill:#ffffff;fill-rule:evenodd;stroke:none;stroke-width:1.18884px;stroke-linecap:butt;stroke-linejoin:miter;stroke-opacity:1"
       d="m 1051.5368,1104.645 c -7.0579,-18.4075 1.4646,-58.4739 28.7582,-72.4342 -20.0938,4.5574 -50.5407,19.6541 -55.3048,46.5586 -7.4355,41.9896 24.8168,27.8537 24.8168,27.8537 z"
       id="path4248"
       inkscape:connector-curvature="0"
       sodipodi:nodetypes="ccscc" />
    <path
       style="color:#000000;display:inline;overflow:visible;visibility:visible;fill:#ffffff;fill-opacity:1;fill-rule:nonzero;stroke:none;stroke-width:1.63684px;marker:none;enable-background:accumulate"
       d="m 1763.9574,1130.1511 c -56.3611,1.4067 -112.5304,6.6436 -168.5344,12.6658 -24.5232,3.0454 -49.9985,6.8624 -71.2162,19.961 -32.3721,19.9502 -53.7211,56.2053 -53.176,93.466 -1.1856,27.6949 3.4221,56.8313 19.8893,80.148 17.8172,24.8008 47.1755,40.2415 77.5693,45.5097 42.0022,8.4574 84.958,10.8855 127.2542,17.5604 67.0651,8.6949 133.9737,19.1487 201.52,23.7897 65.6628,2.6314 131.203,-9.43 193.2235,-29.6976 26.4481,-7.8305 53.6078,-16.7601 74.7673,-34.6408 20.3392,-16.9644 32.0225,-42.4739 33.2332,-68.2258 2.6522,-25.5872 0.7059,-52.2305 -9.8242,-76.0932 -9.6077,-19.7969 -27.3829,-35.4046 -48.1605,-43.8663 -29.3744,-13.3423 -61.5472,-19.1031 -93.1517,-25.2433 -55.9671,-9.8133 -112.9564,-12.2018 -169.7216,-13.1353 -37.8849,-0.9565 -75.7684,-2.2905 -113.6722,-2.1983 z"
       id="path4546-6-5"
       inkscape:connector-curvature="0"
       sodipodi:nodetypes="cssssc" />
    <path
       style="color:#000000;display:inline;overflow:visible;visibility:visible;fill:#ffffff;fill-opacity:1;fill-rule:nonzero;stroke:none;stroke-width:1.10425px;marker:none;enable-background:accumulate"
       d="m 1681.159,1378.7198 c -18.1906,0.7686 -36.6088,1.5531 -54.3562,6.4878 -22.3947,6.7228 -43.4437,21.5376 -55.0159,43.0811 -7.9996,15.3973 -8.4352,34.7592 -0.5485,49.9925 8.5864,17.3844 24.5244,29.2546 41.1165,37.5218 27.0508,13.303 57.3712,17.0248 87.0659,19.2006 35.9771,2.4153 72.1062,1.7256 108.1654,2.3266 68.194,0.3822 136.4431,1.051 204.6449,-2.7314 26.1664,-1.8246 52.4899,-4.3611 78.0153,-11.3215 18.9035,-5.5469 37.7856,-14.8541 50.5911,-30.9849 14.0542,-18.2228 16.9523,-44.8387 6.8522,-65.318 -8.4913,-18.297 -25.073,-31.6625 -43.7162,-37.2899 -39.7572,-14.7003 -82.8994,-19.0046 -125.1034,-14.3817 -25.9621,2.5405 -52.0115,6.3149 -78.0691,4.5964 -29.3253,-1.2172 -58.6117,-3.4825 -88.0072,-3.1143 -42.3685,-0.3109 -84.7562,0.9637 -127.1335,1.7698 -1.5004,0.055 -3.0009,0.1102 -4.5013,0.1654 z"
       id="path4546-6-5-7-9"
       inkscape:connector-curvature="0"
       sodipodi:nodetypes="cssssc" />
    <path
       style="color:#000000;display:inline;overflow:visible;visibility:visible;fill:#ffffff;fill-opacity:1;fill-rule:nonzero;stroke:none;stroke-width:1.16782px;marker:none;enable-background:accumulate"
       d="m 1834.6759,1063.9074 c -58.4661,16.7056 -74.2086,55.188 -42.9987,96.676 31.21,41.487 10.2962,43.1429 10.2962,43.1429 l -38.5277,-15.376 c 0,0 -61.7873,-122.5503 71.2302,-124.4429 z"
       id="path3072-56"
       inkscape:connector-curvature="0"
       sodipodi:nodetypes="ccccc" />
    <path
       style="color:#000000;display:inline;overflow:visible;visibility:visible;fill:#ffffff;fill-opacity:1;fill-rule:nonzero;stroke:none;stroke-width:0.531213px;marker:none;enable-background:accumulate"
       d="m 158.48854,1627.5134 c 13.03968,-13.7787 173.89537,-23.5914 211.05478,7.571 25.89645,21.7169 15.90638,63.3637 -6.29018,74.2047 -22.19657,10.8417 -129.36004,13.8952 -159.81775,8.3737 -27.38917,-4.9645 -56.13819,-15.6511 -57.65388,-44.0939 -0.6186,-11.6083 -0.33265,-32.2773 12.70703,-46.0555 z"
       id="path4040-5"
       inkscape:connector-curvature="0"
       sodipodi:nodetypes="zssssz" />
    <path
       style="color:#000000;display:inline;overflow:visible;visibility:visible;fill:#ffffff;fill-opacity:1;fill-rule:nonzero;stroke:none;stroke-width:0.791779px;marker:none;enable-background:accumulate"
       d="m 233.22496,1712.5896 c 17.72695,-22.517 236.40418,-38.5528 286.921,12.3724 35.20525,35.4896 21.62412,103.5483 -8.55126,121.2646 -30.1754,17.7174 -175.86009,22.7074 -217.26619,13.6842 -37.23455,-8.1128 -76.31776,-25.5768 -78.37828,-72.0577 -0.84094,-18.9703 -0.45222,-52.7473 17.27473,-75.2635 z"
       id="path4040-5-3"
       inkscape:connector-curvature="0"
       sodipodi:nodetypes="zssssz" />
    <path
       style="color:#000000;display:inline;overflow:visible;visibility:visible;fill:#ffffff;fill-opacity:1;fill-rule:nonzero;stroke:none;stroke-width:0.855677px;marker:none;enable-background:accumulate"
       d="m 467.32955,1948.136 c 13.3495,-41.5666 52.33232,-60.4288 7.51958,-104.8642 -33.47159,-33.1897 12.91326,-29.7973 12.91326,-29.7973 0,0 5.02259,-41.3782 24.01835,27.0751 18.99576,68.4534 -9.8869,64.3755 -44.45119,107.5864 z"
       id="path3072-6"
       inkscape:connector-curvature="0"
       sodipodi:nodetypes="csczc" />
    <path
       style="fill:#ffffff;stroke:none;stroke-width:1.06269"
       d="m 648.85732,1730.1201 c -11.22175,-76.5007 70.8139,-115.1924 131.15308,-112.723 88.78518,-8.7008 178.60453,-5.3418 267.0976,4.4695 66.501,10.7781 109.1027,94.2417 71.8849,156.3201 -42.1876,64.3363 -124.96626,56.6219 -190.17054,62.9721 -75.86992,1.7482 -155.17027,-0.035 -226.33463,-30.4452 -28.1094,-16.6843 -46.54473,-47.7754 -53.63041,-80.5935 z"
       id="path3286-6"
       inkscape:connector-curvature="0"
       sodipodi:nodetypes="csssssssc" />
    <path
       style="fill:#ffffff;stroke:none;stroke-width:1.01972"
       d="m 651.73474,1881.1107 c -12.34958,-64.0059 77.931,-96.378 144.3345,-94.312 97.70847,-7.2797 196.55507,-4.4694 293.94186,3.7395 73.1847,9.0177 120.0682,78.8493 79.1098,130.7884 -46.4276,53.8283 -137.5259,47.3739 -209.28346,52.6869 -83.49513,1.4627 -170.76558,-0.029 -249.08221,-25.4726 -30.93451,-13.9592 -51.22267,-39.9722 -59.02049,-67.4302 z"
       id="path3286-6-7"
       inkscape:connector-curvature="0"
       sodipodi:nodetypes="csssssssc" />
    <path
       style="fill:#ffffff;stroke:none;stroke-width:0.835231"
       d="m 732.86459,1988.2364 c -3.51573,-53.9327 71.56051,-81.2101 124.22701,-79.4692 78.51387,-6.134 156.938,-3.7659 233.6672,3.151 57.3795,7.5985 87.8161,66.44 50.0791,110.205 -42.2782,45.3569 -114.1735,39.9181 -171.83111,44.3951 -66.62314,1.2324 -135.96052,-0.025 -195.80508,-21.4638 -23.25234,-11.7623 -36.83844,-33.6814 -40.33712,-56.8181 z"
       id="path3286-6-7-4"
       inkscape:connector-curvature="0"
       sodipodi:nodetypes="csssssssc" />
    <path
       style="fill:#ffffff;stroke:none;stroke-width:0.772703"
       d="m 1553.9977,2263.7186 c -42.4473,0.9856 -85.3294,1.4285 -126.9456,8.2171 -24.5656,5.0646 -48.6593,14.6572 -63.1016,30.3859 -12.5924,15.0743 -10.9154,34.6485 0.034,49.9505 9.036,14.5227 27.937,25.5007 49.4287,28.7663 48.4725,10.8118 99.6831,11.8471 150.0009,11.8441 46.0985,-0.2085 92.2005,-2.118 137.9955,-5.9578 25.4152,-2.6624 51.6127,-8.0568 71.0194,-20.8645 23.4865,-15.4056 33.7248,-41.4194 22.058,-63.0951 -8.0629,-14.8343 -26.4839,-25.8059 -47.1555,-30.5955 -21.8134,-5.1627 -45.0345,-4.7949 -67.6606,-6.0981 -41.4771,-1.8463 -83.046,-3.227 -124.6074,-2.5776 -0.3551,0.011 -0.7101,0.016 -1.0652,0.025 z"
       id="path3286-6-7-4-2-5"
       inkscape:connector-curvature="0"
       sodipodi:nodetypes="csssssssc" />
    <path
       style="display:inline;fill:#ffffff;stroke:none;stroke-width:0.995307"
       d="m 1586.2444,2336.9936 c -39.3071,1.7659 -79.0172,2.5593 -117.5547,14.7227 -22.7485,9.0742 -45.0598,26.2616 -58.4337,54.4429 -11.661,27.0089 -10.108,62.0803 0.031,89.4972 8.3675,26.0206 25.8704,45.69 45.7722,51.541 44.8868,19.3717 92.3092,21.2267 138.9047,21.2214 42.6883,-0.3736 85.3799,-3.795 127.7873,-10.6747 23.5351,-4.7703 47.7946,-14.4355 65.7658,-37.3833 21.749,-27.6025 31.23,-74.2119 20.4263,-113.0486 -7.4666,-26.5789 -24.5248,-46.2369 -43.6673,-54.8185 -20.1997,-9.2502 -41.703,-8.5912 -62.6554,-10.926 -38.4088,-3.3081 -76.9028,-5.782 -115.3897,-4.6184 -0.3287,0.02 -0.6575,0.029 -0.9862,0.045 z"
       id="path3286-6-7-4-2-5-3"
       inkscape:connector-curvature="0"
       sodipodi:nodetypes="csssssssc" />
    <path
       style="color:#000000;display:inline;overflow:visible;visibility:visible;fill:#ffffff;fill-opacity:1;fill-rule:nonzero;stroke:none;stroke-width:1.03365px;marker:none;enable-background:accumulate"
       d="m 1109.0561,1984.7544 c -8.1997,41.8065 59.3043,70.6591 115.2035,48.7714 -22.9931,10.09 -81.6027,63.8105 -171.9044,-28.8625 -40.8476,-41.9203 41.4313,-16.5735 41.4313,-16.5735 z"
       id="path4035-4-5"
       inkscape:connector-curvature="0"
       sodipodi:nodetypes="ccscc" />
    <path
       style="color:#000000;display:inline;overflow:visible;visibility:visible;fill:#ffffff;fill-opacity:1;fill-rule:nonzero;stroke:none;stroke-width:1.14715px;marker:none;enable-background:accumulate"
       d="m 1640.0206,2360.0065 c 85.321,-69.4317 155.0537,-160.9776 126.0876,-275.9291 50.0818,114.8531 -29.8722,233.4391 -50.2498,258.0963 -21.5049,26.0213 -75.8378,17.8328 -75.8378,17.8328 z"
       id="path4008-7"
       inkscape:connector-curvature="0"
       sodipodi:nodetypes="ccsc" />
    <path
       style="color:#000000;display:inline;overflow:visible;visibility:visible;fill:#ffffff;fill-opacity:1;fill-rule:nonzero;stroke:none;stroke-width:0.923908px;marker:none;enable-background:accumulate"
       d="m 1999.7453,2481.5298 c 2.3308,-54.303 42.207,-94.2785 147.9697,-84.7482 56.6523,5.1058 120.9338,8.2785 118.1755,87.8248 -2.7583,79.5464 -95.096,78.0975 -114.1175,80.0803 -19.0213,1.9828 -118.4149,-5.7151 -136.2571,-32.6526 -11.1688,-16.8627 -15.7793,-33.6902 -15.7706,-50.5043 z"
       id="path4546-6-89"
       inkscape:connector-curvature="0"
       sodipodi:nodetypes="cssssc" />
    <path
       style="fill:#ffffff;fill-rule:evenodd;stroke:none;stroke-width:1px;stroke-linecap:butt;stroke-linejoin:miter;stroke-opacity:1"
       d="m 2127.4405,2420.4639 c 0,0 -20.8561,-32.9672 -21.8804,-43.1562 -1.0243,-10.189 2.4576,-31.6896 11.9397,-43.6552 -22.2118,19.0145 -28.0641,35.9803 -27.9104,44.0276 0.1532,8.0482 12.5159,40.8376 12.5159,40.8376 z"
       id="path1367"
       inkscape:connector-curvature="0"
       inkscape:transform-center-x="-1.8067567"
       inkscape:transform-center-y="-52.12792"
       sodipodi:nodetypes="cscscc" />
    <path
       style="color:#000000;display:inline;overflow:visible;visibility:visible;fill:#ffffff;fill-opacity:1;fill-rule:nonzero;stroke:none;stroke-width:0.897607px;marker:none;enable-background:accumulate"
       d="m 341.41569,2688.4878 c -45.91485,0.5708 -92.56871,2.3063 -136.93007,20.2949 -21.88999,9.316 -42.67432,27.3632 -54.89152,54.6 -10.98818,24.5018 -13.90336,56.6281 -4.92301,83.1112 7.94231,24.5329 25.05772,42.3971 44.02263,47.9668 25.50411,10.2056 51.83342,15.7397 78.09215,20.7786 70.78371,12.397 143.0496,11.9336 213.3416,-5.7705 19.82541,-5.1737 39.77872,-13.5905 56.054,-30.5738 13.08325,-13.2844 23.63164,-32.3192 26.99729,-54.5101 5.74284,-33.8827 -2.345,-72.679 -22.49427,-94.5648 -14.60113,-15.7188 -33.0793,-21.9881 -50.96402,-26.5667 -29.88127,-7.3205 -60.23625,-9.7106 -90.46886,-12.6139 -19.25915,-1.4372 -38.54726,-2.2507 -57.83592,-2.1517 z"
       id="path4546-7"
       inkscape:connector-curvature="0"
       sodipodi:nodetypes="cssssc" />
    <path
       style="color:#000000;display:inline;overflow:visible;visibility:visible;fill:#ffffff;fill-opacity:1;fill-rule:nonzero;stroke:none;stroke-width:1.32494px;marker:none;enable-background:accumulate"
       d="m 309.78346,2871.5186 c -38.14394,0.9672 -76.71647,7.2878 -110.58733,30.4822 -20.78451,14.63 -39.39486,37.6541 -48.98476,69.561 -9.15494,29.6552 -11.16858,66.0776 -2.3312,99.062 5.623,21.7111 14.4697,42.294 26.31118,58.0581 12.06331,13.7308 26.50283,20.3873 40.46129,26.7188 30.33975,12.8369 61.31063,18.3988 92.07985,22.8992 24.03409,3.2255 48.09334,5.6618 72.03327,5.8676 20.766,-0.6457 41.446,-2.5511 61.91285,-5.9813 28.00689,-5.1102 55.92854,-14.7793 79.68957,-35.9215 16.57618,-15.0709 30.59528,-37.8022 35.73808,-66.9127 5.0749,-28.1695 3.37966,-59.4618 -3.03479,-88.5262 -6.13398,-26.283 -18.86399,-49.6433 -34.87538,-64.3587 -22.61847,-21.5648 -48.64963,-30.1979 -73.91886,-36.3288 -31.48979,-7.4193 -63.04149,-9.8715 -94.54086,-13.3046 -13.34515,-1.075 -26.67489,-1.5647 -39.95291,-1.3151 z"
       id="path4546-6-5-4"
       inkscape:connector-curvature="0"
       sodipodi:nodetypes="cssssc" />
    <path
       style="color:#000000;display:inline;overflow:visible;visibility:visible;fill:#ffffff;fill-opacity:1;fill-rule:nonzero;stroke:none;stroke-width:0.94912px;marker:none;enable-background:accumulate"
       d="m 570.40008,2788.5105 c 0.70291,-20.5931 2.79564,-98.204 79.29359,-67.917 -12.96153,-15.3177 -101.3034,-57.4847 -117.55274,67.9555 -4.05901,31.3344 6.93857,21.4416 13.2428,23.8225 6.30431,2.3809 25.01635,-23.861 25.01635,-23.861 z"
       id="path4064-5"
       inkscape:connector-curvature="0"
       sodipodi:nodetypes="ccszc" />
    <path
       style="fill:#ffffff;stroke:none;stroke-width:0.783866"
       d="m 1426.5745,2662.0926 c -60.4858,0.9233 -121.2359,3.0072 -180.9803,13.7868 -22.5493,4.2349 -45.6017,9.6729 -65.1577,22.854 -11.2875,7.6153 -20.7301,18.2822 -26.7544,30.9504 -10.2205,20.4817 -14.022,44.1433 -12.6713,67.129 1.6115,22.6463 10.0347,45.3697 26.0232,60.9924 16.8565,16.9557 39.069,26.3212 61.2144,32.6695 29.6571,8.2434 60.4127,10.5336 90.931,12.1032 44.2715,1.8442 88.5868,0.5955 132.8606,-0.4765 49.6684,-1.6962 99.734,-5.1368 147.9893,-18.4821 22.8823,-6.6438 45.8013,-15.6931 64.3681,-31.7281 11.9648,-10.6908 21.278,-25.6331 22.8062,-42.3978 1.9551,-16.1243 0.4489,-32.522 -2.5123,-48.399 -4.9684,-22.5265 -17.4844,-43.304 -35.452,-56.7029 -21.8868,-17.2682 -48.595,-25.7704 -75.0338,-31.476 -39.3719,-8.2674 -79.6257,-10.2803 -119.6729,-10.915 -9.3199,-0.1186 -18.639,-0.073 -27.9581,0.092 z"
       id="path3280-8-0"
       inkscape:connector-curvature="0"
       sodipodi:nodetypes="csssc" />
    <path
       style="color:#000000;display:inline;overflow:visible;visibility:visible;fill:#ffffff;fill-opacity:1;fill-rule:nonzero;stroke:none;stroke-width:1px;marker:none;enable-background:accumulate"
       d="m 1190.5649,2938.1193 c 71.9512,20.8726 126.9981,-3.0998 138.6013,-80.4717 29.2254,-33.921 39.4944,-8.1295 39.4944,-8.1295 0,0 9.6333,15.8558 9.2,26.1866 -1.6876,40.2341 -97.4111,114.3526 -187.2957,62.4146 z"
       id="path3072-7"
       inkscape:connector-curvature="0"
       sodipodi:nodetypes="cccsc" />
    <path
       style="fill:#ffffff;fill-rule:evenodd;stroke:none;stroke-width:1px;stroke-linecap:butt;stroke-linejoin:miter;stroke-opacity:1"
       d="m 611.87816,457.91854 c -12.3953,-22.626 4.8341,-35.579 4.6846,-49.244 -0.1543,-14.107 -33.2797,-25.956 -34.0153,-39.032 -0.7356,-13.076 20.5032,-26.957 19.032,-47.388 -1.4712,-20.432 -25.011,-24.518 -22.8041,-0.818 2.2069,23.701 -15.6571,27.839 -11.7699,46.584 6.483,31.261 30.8848,30.638 38.523,39.431 5.057,5.822 -4.6847,18.594 -2.4778,32.487 2.2069,13.894 8.8275,17.98 8.8275,17.98 z"
       id="path4272-2"
       inkscape:connector-curvature="0"
       sodipodi:nodetypes="csssssssc" />
    <path
       style="display:inline;fill:#ffffff;stroke:none;stroke-width:0.877336"
       d="M 395.5572,452.67668 C 407.56611,407.77396 413.32098,333.81277 360.54542,296.86263 333.08948,277.6397 320.11233,262.96148 320.11233,262.96148 l 22.24546,-19.14958 c 105.35115,77.35453 72.21397,163.85407 53.19941,208.86478 z"
       id="path3063-1-0"
       inkscape:connector-curvature="0"
       sodipodi:nodetypes="csccc" />
  </g>
  <g
     inkscape:groupmode="layer"
     id="layer1"
     inkscape:label="txt">
    <text
       id="text4246-4-2-7"
       y="195.79843"
       x="276.44409"
       style="font-style:normal;font-variant:normal;font-weight:normal;font-stretch:normal;line-height:0%;font-family:Lavi;-inkscape-font-specification:Lavi;text-align:center;letter-spacing:0px;word-spacing:0px;text-anchor:middle;fill:#000000;fill-opacity:1;stroke:none"
       xml:space="preserve"><tspan
         y="195.79843"
         x="276.44409"
         style="font-size:45px;line-height:1.25;fill:#000000"
         sodipodi:role="line"
         id="tspan1639">Ma che</tspan><tspan
         y="252.04843"
         x="276.44409"
         style="font-size:45px;line-height:1.25;fill:#000000"
         sodipodi:role="line"
         id="tspan2967">le prende?</tspan></text>
    <text
       id="text4246-4-2-7-3"
       y="176.08881"
       x="630.43268"
       style="font-style:normal;font-variant:normal;font-weight:normal;font-stretch:normal;line-height:0%;font-family:Lavi;-inkscape-font-specification:Lavi;text-align:center;letter-spacing:0px;word-spacing:0px;text-anchor:middle;fill:#000000;fill-opacity:1;stroke:none"
       xml:space="preserve"><tspan
         y="176.08881"
         x="630.43268"
         style="font-size:45px;line-height:1.25;fill:#000000"
         sodipodi:role="line"
         id="tspan3727">Pepper?</tspan><tspan
         y="232.33881"
         x="630.43268"
         style="font-size:45px;line-height:1.25;fill:#000000"
         sodipodi:role="line"
         id="tspan10316">Va tutto</tspan><tspan
         y="288.58881"
         x="630.43268"
         style="font-size:45px;line-height:1.25;fill:#000000"
         sodipodi:role="line"
         id="tspan1450">bene?</tspan></text>
    <text
       id="text4246-4-2-7-3-5"
       y="172.69748"
       x="952.75238"
       style="font-style:normal;font-variant:normal;font-weight:normal;font-stretch:normal;line-height:0%;font-family:Lavi;-inkscape-font-specification:Lavi;text-align:center;letter-spacing:0px;word-spacing:0px;text-anchor:middle;fill:#000000;fill-opacity:1;stroke:none"
       xml:space="preserve"><tspan
         y="172.69748"
         x="952.75238"
         style="font-size:45px;line-height:1.25;fill:#000000"
         sodipodi:role="line"
         id="tspan6111">Si,</tspan><tspan
         y="228.94748"
         x="952.75238"
         style="font-size:45px;line-height:1.25;fill:#000000"
         sodipodi:role="line"
         id="tspan17268">tutto</tspan><tspan
         y="285.19748"
         x="952.75238"
         style="font-size:45px;line-height:1.25;fill:#000000"
         sodipodi:role="line"
         id="tspan1452">a posto.</tspan></text>
    <text
       id="text4246-4-2-7-3-5-2"
       y="1182.4652"
       x="1034.8293"
       style="font-style:normal;font-variant:normal;font-weight:normal;font-stretch:normal;line-height:0%;font-family:Lavi;-inkscape-font-specification:Lavi;text-align:center;letter-spacing:0px;word-spacing:0px;text-anchor:middle;fill:#000000;fill-opacity:1;stroke:none"
       xml:space="preserve"><tspan
         y="1182.4652"
         x="1034.8293"
         style="font-size:45px;line-height:1.25;fill:#000000"
         sodipodi:role="line"
         id="tspan25929">Ho appena</tspan><tspan
         y="1238.7152"
         x="1034.8293"
         style="font-size:45px;line-height:1.25;fill:#000000"
         sodipodi:role="line"
         id="tspan1459">capito </tspan><tspan
         y="1294.9652"
         x="1034.8293"
         style="font-size:45px;line-height:1.25;fill:#000000"
         sodipodi:role="line"
         id="tspan1461">una cosa.</tspan></text>
    <text
       id="text4246-4-2-7-3-5-2-2"
       y="1209.312"
       x="1830.1265"
       style="font-style:normal;font-variant:normal;font-weight:normal;font-stretch:normal;line-height:0%;font-family:Lavi;-inkscape-font-specification:Lavi;text-align:center;letter-spacing:0px;word-spacing:0px;text-anchor:middle;fill:#000000;fill-opacity:1;stroke:none"
       xml:space="preserve"><tspan
         y="1209.312"
         x="1830.1265"
         style="font-size:45px;line-height:1.25;fill:#000000"
         sodipodi:role="line"
         id="tspan10142">Tutto quello che è successo è,</tspan><tspan
         y="1265.562"
         x="1830.1265"
         style="font-size:45px;line-height:1.25;fill:#000000"
         sodipodi:role="line"
         id="tspan1468"> direttamente o indirettamente,</tspan><tspan
         y="1321.812"
         x="1830.1265"
         style="font-size:45px;line-height:1.25;fill:#000000"
         sodipodi:role="line"
         id="tspan1470">il risultato delle mie azioni</tspan><tspan
         y="1378.062"
         x="1830.1265"
         style="font-size:45px;line-height:1.25;fill:#000000"
         sodipodi:role="line"
         id="tspan1476">e delle mie scelte…</tspan></text>
    <text
       id="text4246-4-2-7-3-5-2-2-6"
       y="1442.9945"
       x="1862.4454"
       style="font-style:normal;font-variant:normal;font-weight:normal;font-stretch:normal;line-height:0%;font-family:Lavi;-inkscape-font-specification:Lavi;text-align:center;letter-spacing:0px;word-spacing:0px;text-anchor:middle;fill:#000000;fill-opacity:1;stroke:none"
       xml:space="preserve"><tspan
         y="1442.9945"
         x="1862.4454"
         style="font-style:normal;font-variant:normal;font-weight:normal;font-stretch:normal;font-size:45px;line-height:1.25;font-family:Lavi;-inkscape-font-specification:Lavi;fill:#000000"
         sodipodi:role="line"
         id="tspan48292">…in altre parole,</tspan><tspan
         y="1498.7179"
         x="1862.4454"
         style="font-style:normal;font-variant:normal;font-weight:bold;font-stretch:normal;font-size:45px;line-height:1.25;font-family:Lavi;-inkscape-font-specification:Lavi;fill:#000000"
         sodipodi:role="line"
         id="tspan16620">la mia reazione a catena!</tspan></text>
    <text
       id="text4246-4-2-7-3-5-2-2-6-7-2"
       y="1679.4132"
       x="256.14807"
       style="font-style:normal;font-variant:normal;font-weight:normal;font-stretch:normal;line-height:0%;font-family:Lavi;-inkscape-font-specification:Lavi;text-align:center;letter-spacing:0px;word-spacing:0px;text-anchor:middle;fill:#000000;fill-opacity:1;stroke:none"
       xml:space="preserve"><tspan
         y="1679.4132"
         x="256.14807"
         style="font-style:normal;font-variant:normal;font-weight:normal;font-stretch:normal;font-size:45px;line-height:1.25;font-family:Lavi;-inkscape-font-specification:Lavi;fill:#000000"
         sodipodi:role="line"
         id="tspan104696-2-8">Davvero?</tspan></text>
    <text
       id="text4246-4-2-7-3-5-2-2-6-7-2-9"
       y="1764.6151"
       x="378.92795"
       style="font-style:normal;font-variant:normal;font-weight:normal;font-stretch:normal;line-height:0%;font-family:Lavi;-inkscape-font-specification:Lavi;text-align:center;letter-spacing:0px;word-spacing:0px;text-anchor:middle;fill:#000000;fill-opacity:1;stroke:none"
       xml:space="preserve"><tspan
         y="1764.6151"
         x="378.92795"
         style="font-style:normal;font-variant:normal;font-weight:normal;font-stretch:normal;font-size:45px;line-height:1.25;font-family:Lavi;-inkscape-font-specification:Lavi;fill:#000000"
         sodipodi:role="line"
         id="tspan168035">Dai dacci una</tspan><tspan
         y="1820.8651"
         x="378.92795"
         style="font-style:normal;font-variant:normal;font-weight:normal;font-stretch:normal;font-size:45px;line-height:1.25;font-family:Lavi;-inkscape-font-specification:Lavi;fill:#000000"
         sodipodi:role="line"
         id="tspan55293">spiegazione.</tspan></text>
    <text
       id="text4246-4-2-7-3-5-2-2-6-7-2-9-3"
       y="1676.4771"
       x="897.13013"
       style="font-style:normal;font-variant:normal;font-weight:normal;font-stretch:normal;line-height:0%;font-family:Lavi;-inkscape-font-specification:Lavi;text-align:center;letter-spacing:0px;word-spacing:0px;text-anchor:middle;fill:#000000;fill-opacity:1;stroke:none"
       xml:space="preserve"><tspan
         y="1676.4771"
         x="897.13013"
         style="font-style:normal;font-variant:normal;font-weight:normal;font-stretch:normal;font-size:45px;line-height:1.25;font-family:Lavi;-inkscape-font-specification:Lavi;fill:#000000"
         sodipodi:role="line"
         id="tspan64017">Basta chiacchiere,</tspan><tspan
         y="1732.7271"
         x="897.13013"
         style="font-style:normal;font-variant:normal;font-weight:normal;font-stretch:normal;font-size:45px;line-height:1.25;font-family:Lavi;-inkscape-font-specification:Lavi;fill:#000000"
         sodipodi:role="line"
         id="tspan68765">siamo nel bel mezzo </tspan><tspan
         y="1788.9771"
         x="897.13013"
         style="font-style:normal;font-variant:normal;font-weight:normal;font-stretch:normal;font-size:45px;line-height:1.25;font-family:Lavi;-inkscape-font-specification:Lavi;fill:#000000"
         sodipodi:role="line"
         id="tspan72039">di una battaglia.</tspan></text>
    <text
       id="text4246-4-2-7-3-5-2-2-6-7-2-9-3-2"
       y="1864.5121"
       x="910.66687"
       style="font-style:normal;font-variant:normal;font-weight:normal;font-stretch:normal;line-height:0%;font-family:Lavi;-inkscape-font-specification:Lavi;text-align:center;letter-spacing:0px;word-spacing:0px;text-anchor:middle;fill:#000000;fill-opacity:1;stroke:none"
       xml:space="preserve"><tspan
         y="1864.5121"
         x="910.66687"
         style="font-style:normal;font-variant:normal;font-weight:normal;font-stretch:normal;font-size:45px;line-height:1.25;font-family:Lavi;-inkscape-font-specification:Lavi;fill:#000000"
         sodipodi:role="line"
         id="tspan184397">Ne possiamo discutere</tspan><tspan
         y="1920.7621"
         x="910.66687"
         style="font-style:normal;font-variant:normal;font-weight:normal;font-stretch:normal;font-size:45px;line-height:1.25;font-family:Lavi;-inkscape-font-specification:Lavi;fill:#000000"
         sodipodi:role="line"
         id="tspan78621"> quando saremo in volo.</tspan></text>
    <text
       id="text4246-4-2-7-3-5-2-2-6-7-2-9-3-2-9"
       y="2008.9945"
       x="945.51813"
       style="font-style:normal;font-variant:normal;font-weight:normal;font-stretch:normal;line-height:0%;font-family:Lavi;-inkscape-font-specification:Lavi;text-align:center;letter-spacing:0px;word-spacing:0px;text-anchor:middle;fill:#000000;fill-opacity:1;stroke:none"
       xml:space="preserve"><tspan
         y="2008.9945"
         x="945.51813"
         style="font-style:normal;font-variant:normal;font-weight:normal;font-stretch:normal;font-size:45px;line-height:1.25;font-family:Lavi;-inkscape-font-specification:Lavi;fill:#000000"
         sodipodi:role="line"
         id="tspan184397-7">Salta su, Pepper!</tspan></text>
    <text
       id="text4246-4-2-7-3-5-2-2-6-7-2-9-3-2-9-8"
       y="2333.4099"
       x="1578.2986"
       style="font-style:normal;font-variant:normal;font-weight:normal;font-stretch:normal;line-height:0%;font-family:Lavi;-inkscape-font-specification:Lavi;text-align:center;letter-spacing:0px;word-spacing:0px;text-anchor:middle;fill:#000000;fill-opacity:1;stroke:none"
       xml:space="preserve"><tspan
         y="2333.4099"
         x="1578.2986"
         style="font-style:normal;font-variant:normal;font-weight:normal;font-stretch:normal;font-size:45px;line-height:1.25;font-family:Lavi;-inkscape-font-specification:Lavi;fill:#000000"
         sodipodi:role="line"
         id="tspan189870">Torreya ha ragione.</tspan></text>
    <text
       id="text4246-4-2-7-3-5-2-2-6-7-2-9-3-2-9-8-3"
       y="2416.0747"
       x="1606.6317"
       style="font-style:normal;font-variant:normal;font-weight:normal;font-stretch:normal;line-height:0%;font-family:Lavi;-inkscape-font-specification:Lavi;text-align:center;letter-spacing:0px;word-spacing:0px;text-anchor:middle;fill:#000000;fill-opacity:1;stroke:none"
       xml:space="preserve"><tspan
         y="2416.0747"
         x="1606.6317"
         style="font-style:normal;font-variant:normal;font-weight:normal;font-stretch:normal;font-size:45px;line-height:1.25;font-family:Lavi;-inkscape-font-specification:Lavi;fill:#000000"
         sodipodi:role="line"
         id="tspan88679">In ogni caso</tspan><tspan
         y="2472.3247"
         x="1606.6317"
         style="font-style:normal;font-variant:normal;font-weight:normal;font-stretch:normal;font-size:45px;line-height:1.25;font-family:Lavi;-inkscape-font-specification:Lavi;fill:#000000"
         sodipodi:role="line"
         id="tspan93587">dobbiamo andare</tspan><tspan
         y="2528.5747"
         x="1606.6317"
         style="font-style:normal;font-variant:normal;font-weight:normal;font-stretch:normal;font-size:45px;line-height:1.25;font-family:Lavi;-inkscape-font-specification:Lavi;fill:#000000"
         sodipodi:role="line"
         id="tspan97393">a Qualicity.</tspan></text>
    <text
       id="text4246-4-2-7-3-5-2-2-6-7-2-9-3-2-9-8-5"
       y="2464.9375"
       x="2133.2007"
       style="font-style:normal;font-variant:normal;font-weight:normal;font-stretch:normal;line-height:0%;font-family:Lavi;-inkscape-font-specification:Lavi;text-align:center;letter-spacing:0px;word-spacing:0px;text-anchor:middle;fill:#000000;fill-opacity:1;stroke:none"
       xml:space="preserve"><tspan
         y="2464.9375"
         x="2133.2007"
         style="font-style:normal;font-variant:normal;font-weight:normal;font-stretch:normal;font-size:45px;line-height:1.25;font-family:Lavi;-inkscape-font-specification:Lavi;fill:#000000"
         sodipodi:role="line"
         id="tspan194276">Aspettate</tspan><tspan
         y="2521.1875"
         x="2133.2007"
         style="font-style:normal;font-variant:normal;font-weight:normal;font-stretch:normal;font-size:45px;line-height:1.25;font-family:Lavi;-inkscape-font-specification:Lavi;fill:#000000"
         sodipodi:role="line"
         id="tspan106897">un secondo.</tspan></text>
    <text
       id="text4246-4-2-7-3-5-2-2-6-7-2-9-3-2-9-8-5-1"
       y="2749.7256"
       x="353.28015"
       style="font-style:normal;font-variant:normal;font-weight:normal;font-stretch:normal;line-height:0%;font-family:Lavi;-inkscape-font-specification:Lavi;text-align:center;letter-spacing:0px;word-spacing:0px;text-anchor:middle;fill:#000000;fill-opacity:1;stroke:none"
       xml:space="preserve"><tspan
         y="2749.7256"
         x="353.28015"
         style="font-style:normal;font-variant:normal;font-weight:normal;font-stretch:normal;font-size:45px;line-height:1.25;font-family:Lavi;-inkscape-font-specification:Lavi;fill:#000000"
         sodipodi:role="line"
         id="tspan145655">L'esercito</tspan><tspan
         y="2805.9756"
         x="353.28015"
         style="font-style:normal;font-variant:normal;font-weight:normal;font-stretch:normal;font-size:45px;line-height:1.25;font-family:Lavi;-inkscape-font-specification:Lavi;fill:#000000"
         sodipodi:role="line"
         id="tspan1807">di Wasabi sta per</tspan><tspan
         y="2862.2256"
         x="353.28015"
         style="font-style:normal;font-variant:normal;font-weight:normal;font-stretch:normal;font-size:45px;line-height:1.25;font-family:Lavi;-inkscape-font-specification:Lavi;fill:#000000"
         sodipodi:role="line"
         id="tspan1813">contrattaccare.</tspan></text>
    <text
       id="text4246-4-2-7-3-5-2-2-6-7-2-9-3-2-9-8-5-1-3"
       y="2950.9463"
       x="356.77548"
       style="font-style:normal;font-variant:normal;font-weight:normal;font-stretch:normal;line-height:0%;font-family:Lavi;-inkscape-font-specification:Lavi;text-align:center;letter-spacing:0px;word-spacing:0px;text-anchor:middle;fill:#000000;fill-opacity:1;stroke:none"
       xml:space="preserve"><tspan
         y="2950.9463"
         x="356.77548"
         style="font-style:normal;font-variant:normal;font-weight:normal;font-stretch:normal;font-size:45px;line-height:1.25;font-family:Lavi;-inkscape-font-specification:Lavi;fill:#000000"
         sodipodi:role="line"
         id="tspan207740">Non possiamo</tspan><tspan
         y="3007.1963"
         x="356.77548"
         style="font-style:normal;font-variant:normal;font-weight:normal;font-stretch:normal;font-size:45px;line-height:1.25;font-family:Lavi;-inkscape-font-specification:Lavi;fill:#000000"
         sodipodi:role="line"
         id="tspan166612">lasciare che si</tspan><tspan
         y="3063.4463"
         x="356.77548"
         style="font-style:normal;font-variant:normal;font-weight:normal;font-stretch:normal;font-size:45px;line-height:1.25;font-family:Lavi;-inkscape-font-specification:Lavi;fill:#000000"
         sodipodi:role="line"
         id="tspan1829">uccidano a vicenda </tspan><tspan
         y="3119.6963"
         x="356.77548"
         style="font-style:normal;font-variant:normal;font-weight:normal;font-stretch:normal;font-size:45px;line-height:1.25;font-family:Lavi;-inkscape-font-specification:Lavi;fill:#000000"
         sodipodi:role="line"
         id="tspan1817">in questo modo.</tspan></text>
    <text
       id="text4246-4-2-7-3-5-2-2-6-7-2-9-3-2-9-8-5-1-3-6"
       y="2739.7092"
       x="1412.0334"
       style="font-style:normal;font-variant:normal;font-weight:normal;font-stretch:normal;line-height:0%;font-family:Lavi;-inkscape-font-specification:Lavi;text-align:center;letter-spacing:0px;word-spacing:0px;text-anchor:middle;fill:#000000;fill-opacity:1;stroke:none"
       xml:space="preserve"><tspan
         y="2739.7092"
         x="1412.0334"
         style="font-style:normal;font-variant:normal;font-weight:normal;font-stretch:normal;font-size:45px;line-height:1.25;font-family:Lavi;-inkscape-font-specification:Lavi;fill:#000000"
         sodipodi:role="line"
         id="tspan179595">Sento sia una mia</tspan><tspan
         y="2795.9592"
         x="1412.0334"
         style="font-style:normal;font-variant:normal;font-weight:normal;font-stretch:normal;font-size:45px;line-height:1.25;font-family:Lavi;-inkscape-font-specification:Lavi;fill:#000000"
         sodipodi:role="line"
         id="tspan1838">responsabilità porre fine</tspan><tspan
         y="2852.2092"
         x="1412.0334"
         style="font-style:normal;font-variant:normal;font-weight:normal;font-stretch:normal;font-size:45px;line-height:1.25;font-family:Lavi;-inkscape-font-specification:Lavi;fill:#000000"
         sodipodi:role="line"
         id="tspan1840">a questa battaglia.</tspan></text>
  </g>
</svg>
