<?xml version="1.0" encoding="UTF-8" standalone="no"?>
<!-- Created with Inkscape (http://www.inkscape.org/) -->

<svg
   id="svg2"
   version="1.1"
   inkscape:version="1.3 (1:1.3+202307231459+0e150ed6c4)"
   width="2481"
   height="3503"
   sodipodi:docname="E28P08.svg"
   xmlns:inkscape="http://www.inkscape.org/namespaces/inkscape"
   xmlns:sodipodi="http://sodipodi.sourceforge.net/DTD/sodipodi-0.dtd"
   xmlns:xlink="http://www.w3.org/1999/xlink"
   xmlns="http://www.w3.org/2000/svg"
   xmlns:svg="http://www.w3.org/2000/svg"
   xmlns:rdf="http://www.w3.org/1999/02/22-rdf-syntax-ns#"
   xmlns:cc="http://creativecommons.org/ns#"
   xmlns:dc="http://purl.org/dc/elements/1.1/">
  <metadata
     id="metadata8">
    <rdf:RDF>
      <cc:Work
         rdf:about="">
        <dc:format>image/svg+xml</dc:format>
        <dc:type
           rdf:resource="http://purl.org/dc/dcmitype/StillImage" />
        <dc:title />
      </cc:Work>
    </rdf:RDF>
  </metadata>
  <defs
     id="defs6">
    <filter
       inkscape:collect="always"
       style="color-interpolation-filters:sRGB"
       id="filter1"
       x="-0.0087052235"
       y="-0.013828957"
       width="1.0175483"
       height="1.0275264">
      <feGaussianBlur
         inkscape:collect="always"
         stdDeviation="2.4772368"
         id="feGaussianBlur1" />
    </filter>
    <filter
       inkscape:collect="always"
       style="color-interpolation-filters:sRGB"
       id="filter2"
       x="-0.014440538"
       y="-0.024770521"
       width="1.0288811"
       height="1.049541">
      <feGaussianBlur
         inkscape:collect="always"
         stdDeviation="3.8705745"
         id="feGaussianBlur2" />
    </filter>
    <filter
       inkscape:collect="always"
       style="color-interpolation-filters:sRGB"
       id="filter3"
       x="-0.021488157"
       y="-0.026555082"
       width="1.0429763"
       height="1.0531102">
      <feGaussianBlur
         inkscape:collect="always"
         stdDeviation="4.3048862"
         id="feGaussianBlur3" />
    </filter>
  </defs>
  <sodipodi:namedview
     pagecolor="#ffffff"
     bordercolor="#666666"
     borderopacity="1"
     objecttolerance="10"
     gridtolerance="10"
     guidetolerance="10"
     inkscape:pageopacity="0"
     inkscape:pageshadow="2"
     inkscape:window-width="1920"
     inkscape:window-height="997"
     id="namedview4"
     showgrid="false"
     inkscape:zoom="0.36415091"
     inkscape:cx="1054.5079"
     inkscape:cy="2559.3785"
     inkscape:window-x="0"
     inkscape:window-y="0"
     inkscape:window-maximized="1"
     inkscape:current-layer="layer3"
     inkscape:showpageshadow="0"
     inkscape:pagecheckerboard="0"
     inkscape:deskcolor="#d1d1d1" />
  <g
     inkscape:groupmode="layer"
     id="layer2"
     inkscape:label="artwork"
     sodipodi:insensitive="true">
    <image
       xlink:href="../gfx_Pepper-and-Carrot_by-David-Revoy_E28P08.png"
       y="0"
       x="0"
       id="image10"
       height="3503"
       width="2481" />
  </g>
  <g
     inkscape:groupmode="layer"
     id="layer3"
     inkscape:label="speechbubbles">
    <path
       style="fill:#fff49d;fill-rule:evenodd;stroke:none;stroke-width:0.942222px;stroke-linecap:butt;stroke-linejoin:miter;stroke-opacity:1;fill-opacity:1"
       d="m 141.60646,1275.7937 c 17.85477,-36.1415 54.61457,-51.2552 66.16764,-55.1978 11.55307,-3.9427 66.16764,-11.171 82.97213,-11.171 16.80449,0 164.89396,-3.2856 194.30182,1.3142 29.40783,4.5999 84.0224,18.3993 100.82686,37.4556 16.80448,19.0564 37.81011,54.5407 29.40786,76.8827 -8.40225,22.342 -12.60338,52.5694 -58.8157,71.6257 -46.21231,19.0564 -203.75433,24.3134 -245.76553,22.9991 -42.01119,-1.3142 -96.62575,-3.2855 -131.28499,-19.0563 -34.65925,-15.7708 -56.71513,-50.5981 -55.66485,-72.9401 1.05028,-22.3418 17.85476,-51.9121 17.85476,-51.9121 z"
       id="path1079"
       inkscape:connector-curvature="0" />
    <path
       style="fill:#fff49d;fill-rule:evenodd;stroke:none;stroke-width:1px;stroke-linecap:butt;stroke-linejoin:miter;stroke-opacity:1;fill-opacity:1"
       d="m 221.45321,1401.2888 c -20.60902,44.7713 -22.74099,55.4311 -24.1623,72.4869 -1.42132,17.0557 14.92377,43.35 35.5328,50.4565 20.60902,7.1066 33.40083,29.8476 24.1623,45.482 -9.23853,15.6345 -46.19264,77.4615 23.45165,96.6493 -66.80167,-29.1369 -24.16231,-76.7509 -17.05575,-87.4107 7.10656,-10.6599 19.89837,-34.8222 -8.52787,-60.4058 -28.42624,-25.5836 -38.37542,-39.7967 0,-89.5427 38.37542,-49.7459 -33.40083,-27.7155 -33.40083,-27.7155 z"
       id="path1081"
       inkscape:connector-curvature="0"
       sodipodi:nodetypes="ccccccssc" />
    <path
       style="fill:#fff49d;fill-rule:evenodd;stroke:none;stroke-width:0.830605px;stroke-linecap:butt;stroke-linejoin:miter;stroke-opacity:1;fill-opacity:1"
       d="m 422.43851,2087.6153 c 13.47289,-33.5164 36.16409,-45.5479 57.43709,-44.6885 21.27299,0.8594 71.61907,7.7345 83.67377,7.7345 12.0547,0 65.94628,-4.297 90.76476,-2.5782 24.8185,1.7188 41.12779,13.7503 48.21879,29.2195 7.091,15.469 12.0547,34.3757 9.21829,59.2981 -2.8364,24.9224 -19.85478,55.8607 -45.38238,63.5951 -25.52759,7.7346 -96.43757,7.7346 -133.31075,8.594 -36.87318,0.8594 -82.25557,-12.0315 -98.56485,-30.0788 -16.30931,-18.0472 -29.07311,-45.5479 -12.05472,-91.0957 z"
       id="path1083"
       inkscape:connector-curvature="0" />
    <path
       style="fill:#fff49d;fill-rule:evenodd;stroke:none;stroke-width:1px;stroke-linecap:butt;stroke-linejoin:miter;stroke-opacity:1;fill-opacity:1"
       d="m 521.52769,2076.2416 c -21.62867,-11.7413 -40.78548,-28.4263 -40.78548,-37.6957 0,-9.2694 14.83108,-37.0777 -11.74127,-37.6957 -26.57236,-0.6179 -37.69567,6.1796 -37.07771,-3.7077 0.61796,-9.8874 8.03351,-25.9544 21.62866,-30.2802 -31.51605,12.3593 -34.60585,34.6059 -27.19031,40.7855 7.41554,6.1796 10.67283,9.5522 36.18391,8.6549 20.28805,2.4824 -29.05118,18.071 7.69137,66.7364 32.13401,21.6287 51.29083,-6.7975 51.29083,-6.7975 z"
       id="path1085"
       inkscape:connector-curvature="0"
       sodipodi:nodetypes="cscscsccc" />
    <path
       style="fill:#ffe4a0;fill-rule:evenodd;stroke:none;stroke-width:0.99999994px;stroke-linecap:butt;stroke-linejoin:miter;stroke-opacity:1;fill-opacity:1"
       d="m 1196.7567,1374.4067 c -2.0612,-17.5917 -18.7863,-50.2645 -51.4246,-16.1368 13.4861,-40.6864 -2.0483,-45.8436 -20.2475,-47.7381 14.3275,-14.6662 26.8461,-29.914 8.3492,-55.134 24.1301,-8.2443 29.8524,-28.7456 21.6847,-58.496 24.2775,23.2401 46.106,36.0759 52.4648,-16.8093 7.8988,41.4017 36.9104,48.8809 51.4071,4.7067 -2.1364,34.4681 6.0078,43.2805 21.8243,32.946 -9.212,21.6913 -6.6421,38.149 8.3629,49.0828 -25.8737,22.9443 -22.3046,36.8913 4.6106,43.7038 -43.282,5.9825 -37.4678,34.4558 -39.319,55.8065 -20.9277,-33.2159 -62.9528,-0.075 -57.7125,8.0684 z"
       id="path1087"
       inkscape:connector-curvature="0"
       sodipodi:nodetypes="cccccccccccc" />
    <path
       style="fill:#ffe4a0;fill-rule:evenodd;stroke:none;stroke-width:1px;stroke-linecap:butt;stroke-linejoin:miter;stroke-opacity:1;fill-opacity:1"
       d="m 1191.0392,1352.1713 c -8.4109,39.2505 -9.8127,49.5304 -9.8127,58.8758 0,9.3453 7.2361,5.602 12.611,1.6262 3.5164,-2.5819 16.3596,-20.7842 5.6125,8.1864 -10.7472,28.9706 -24.2979,69.1557 -28.0361,81.7719 10.2799,-22.4289 27.5688,-57.474 32.7088,-68.6884 5.1399,-11.2144 13.3039,-31.7117 15.4198,-37.8487 2.574,-7.4657 2.2967,-14.9288 -5.6521,-13.2604 -12.5951,3.9915 -24.253,31.4839 -4.6278,-16.1775 19.6253,-47.6613 11.2144,-117.2842 11.2144,-117.2842 z"
       id="path1089"
       inkscape:connector-curvature="0"
       sodipodi:nodetypes="csccccscccc" />
    <path
       style="fill:#fff49d;fill-rule:evenodd;stroke:none;stroke-width:0.87473536px;stroke-linecap:butt;stroke-linejoin:miter;stroke-opacity:1;fill-opacity:1"
       d="m 1335.1194,1189.737 c 1.18,-28.0807 -9.4403,-28.9317 10.6203,-29.7825 20.0604,-0.851 233.6463,-0.851 272.5874,-0.851 38.9412,0 69.622,16.1677 83.7824,39.1428 14.1604,22.9751 37.2515,67.0866 -9.9499,92.6144 -47.2012,25.528 -185.9355,14.6029 -239.037,12.9011 -53.1014,-1.702 -110.9231,-6.8169 -125.0835,-30.643 -14.1603,-23.826 7.0803,-83.3818 7.0803,-83.3818 z"
       id="path1109"
       inkscape:connector-curvature="0"
       sodipodi:nodetypes="ccsccccc" />
    <path
       style="fill:#fff49d;fill-rule:evenodd;stroke:none;stroke-width:1px;stroke-linecap:butt;stroke-linejoin:miter;stroke-opacity:1;fill-opacity:1"
       d="m 1628.3472,1291.552 c 41.353,7.5187 60.1499,15.9773 68.6085,23.4961 8.4586,7.5187 44.1726,33.8343 14.0976,68.6085 46.9921,-37.5937 7.5188,-93.0445 -46.0522,-115.6007 -15.0375,-3.7593 -36.6539,23.4961 -36.6539,23.4961 z"
       id="path1111"
       inkscape:connector-curvature="0"
       sodipodi:nodetypes="ccccc" />
    <path
       style="fill:#fff49d;fill-rule:evenodd;stroke:none;stroke-width:0.775743px;stroke-linecap:butt;stroke-linejoin:miter;stroke-opacity:1;fill-opacity:1"
       d="m 2040.2311,2067.0789 c -3.9433,-12.2568 2.1262,-25.9053 18.2387,-34.9321 22.4958,-12.7894 55.0812,-17.5653 85.4195,-17.6944 14.4261,-0.07 28.7079,1.318 42.3258,3.7385 45.2391,4.1367 92.238,-3.7876 137.0029,2.5076 18.822,2.7313 36.7248,9.1653 46.1979,19.0015 16.6082,22.0851 15.5843,46.9949 13.8803,70.8679 -0.7505,6.7696 -0.4897,13.5794 -1.724,20.3224 -4.7359,16.4109 -24.0259,31.0666 -49.559,39.0031 -25.5529,8.1827 -55.5023,10.9528 -83.9168,9.1799 -44.9236,1.5106 -91.3886,3.2825 -134.2894,-4.8882 -27.5595,-5.3809 -53.627,-15.8123 -65.6353,-31.4315 -14.6846,-18.2862 -12.5116,-39.2745 -9.9396,-59.1304 0.7171,-5.5136 1.4944,-11.0265 1.999,-16.5443 z"
       id="path1113"
       inkscape:connector-curvature="0" />
    <path
       style="fill:#fff49d;fill-rule:evenodd;stroke:none;stroke-width:1px;stroke-linecap:butt;stroke-linejoin:miter;stroke-opacity:1;fill-opacity:1"
       d="m 1888.6765,2156.0399 c 42.1519,38.9095 103.7586,57.2834 162.1228,3.2424 58.3643,-54.0409 82.1423,-58.3642 82.1423,-58.3642 0,0 -3.2425,50.7985 -58.3642,83.2231 -55.1218,32.4245 -125.375,41.0711 -185.9009,-28.1013 z"
       id="path1128"
       inkscape:connector-curvature="0" />
    <path
       style="mix-blend-mode:normal;fill:#fff49d;fill-opacity:1;fill-rule:evenodd;stroke:#f1ff9f;stroke-width:0.802;filter:url(#filter1)"
       d="m 392.76602,2445.9738 25.11197,4.4177 c -3.75289,7.3583 -6.6319,15.2955 -17.18023,18.1526 l 15.47033,21.2846 -25.09973,21.3502 -5.17778,18.1633 6.20058,13.0053 6.07878,12.3362 -0.19914,15.8401 13.38557,11.6196 9.55438,14.591 10.54557,15.8323 -10.09264,14.6433 2.512,22.3282 13.82915,-5.6774 -1.0366,14.1422 12.92502,-5.3548 1.33278,14.1718 1.58344,8.1572 7.80228,-18.611 9.49888,16.8439 6.14402,-10.4034 -3.41128,16.1991 6.36445,-9.2152 3.29183,11.8619 10.86877,-12.444 3.70211,21.9764 8.9779,-7.2986 6.84035,11.1492 12.46049,-9.8912 c 0,0 -23.2008,51.2955 39.9898,90.5493 -25.19066,-42.0684 -19.01298,-77.4461 -19.01298,-77.4461 l 11.91931,4.6053 12.04452,3.5925 6.39315,-17.3629 14.73061,12.3129 5.28708,-10.6886 7.72964,16.3548 10.76468,13.8961 7.24328,4.2045 11.85447,-12.6576 8.08816,9.1415 3.386,-25.8899 15.40213,20.0615 8.54318,-25.8356 16.43564,4.0237 -5.82732,-15.5407 19.46365,9.8458 2.85942,-14.5238 16.21022,14.2414 0.66524,-19.826 10.0568,5.3658 2.19154,-7.4009 6.6895,0.9336 5.75212,-11.7363 5.28574,1.0668 2.42725,-16.612 10.90971,8.8713 4.38504,-1.1065 3.36019,-12.0277 8.38694,1.2654 3.62496,-11.2578 11.24865,8.2956 6.29679,-0.4785 2.20093,-6.8443 c 0,0 3.48724,-9.815 0.57455,-12.7277 -2.9127,-2.9127 -2.9127,-10.3032 -2.9127,-10.3032 l 11.66142,6.3862 -4.64202,-16.4015 9.45671,-3.2357 -0.48544,-13.2806 -1.55555,-14.5352 -14.71079,-11.8629 c -6.08861,-3.8144 -11.79463,-7.7749 -4.71402,-16.6216 l 0.10051,-7.3707 -5.34107,-18.4482 c -4.72196,-6.9633 0.7117,-12.7243 6.22248,-18.4761 l -9.44904,-12.6231 c 3.09973,-10.9858 6.70672,-21.326 15.83858,-24.6337 l 13.06854,-11.5875 6.86224,-13.3632 26.08261,-11.4955 8.28136,0.2831 11.25796,-10.7019 12.44437,-5.2438 4.98128,0.072 9.86562,-15.0256 -5.36229,-29.0248 10.95102,-10.0447 7.68426,-29.4962 H 177.20706 l 0.30351,7.2856 6.96274,2.6649 4.8616,3.0407 6.71368,-7.0549 5.11756,3.6818 4.1872,13.0052 10.17981,-5.3472 11.5423,2.5777 1.65571,5.9339 6.17167,-0.9582 0.99764,15.1718 13.33323,-8.3558 c 0,0 7.84452,13.5919 4.85238,14.2704 -2.99215,0.6784 -2.99215,4.0104 -2.99215,4.0104 l 10.9571,-1.629 56.29295,83.8361 38.05624,-1.3332 20.11032,-6.1251 z"
       id="path1"
       sodipodi:nodetypes="cccccccccccccccccccccccccccccccccccccccccccccccccccccccccccccccccscccccccccccccccccccccccccccccccccccccscccccc" />
    <path
       style="fill:#ffdfff;fill-opacity:1;fill-rule:evenodd;stroke:none;stroke-width:0.802;filter:url(#filter2)"
       d="m 1057.9272,2315.992 -0.77,12.6504 -14.0823,10.6449 -22.8903,3.1902 -12.6284,-5.0789 9.1086,15.3541 11.4827,2.4487 15.4275,6.5819 23.0901,0.9384 8.889,-2.9351 1.4871,5.9445 34.0374,-0.7705 36.3383,19.9011 5.6286,7.7958 -2.6519,15.207 -9.8807,-5.4817 5.2839,11.0681 -15.6126,-4.9654 -6.6161,1.1697 -2.1292,-10.1445 -6.9466,7.3047 -2.0016,-16.9876 -10.5826,14.7229 -4.0517,2.3182 3.8117,15.9859 16.6813,7.4164 4.9247,-0.2037 1.3526,11.6894 12.1863,-3.1048 6.0402,9.6424 -2.2035,7.0844 12.9018,3.7174 11.6652,12.3325 -5.9681,12.1819 -1.523,8.7026 11.6285,8.2527 2.2867,11.1168 13.3565,6.1263 8.7258,-5.5948 -8.0089,20.6264 -8.6729,6.3772 -0.097,8.6712 0.711,8.4779 -3.872,15.0339 7.9883,-3.4103 0.3326,6.7125 8.7002,-10.6592 5.1125,15.1952 4.0937,-4.874 4.1093,5.5803 4.0777,-10.3595 2.1168,3.9998 1.3835,-10.8265 4.837,14.8793 12.5901,-10.8073 4.2315,19.0637 9.2316,-14.0211 6.7729,18.3666 7.4886,-11.0596 1.5175,13.9912 7.4341,-0.7011 5.1577,-11.6751 8.7006,15.8688 8.9365,-5.2845 4.8181,14.2614 9.2365,-8.4775 8.5731,21.0738 11.9837,-20.6625 5.3536,4.3386 -1.9712,10.2455 8.4768,-2.2007 -2.922,7.0309 8.6313,-3.9282 3.2786,11.1233 7.7114,-7.5391 4.4372,9.3298 c 0,0 -1.7073,-15.2182 4.8793,-21.7945 9.2333,-9.2189 15.3315,47.4448 -4.3545,80.1176 23.7787,-8.3849 32.9544,-44.6046 37.603,-72.11 l 10.1811,2.1952 8.8476,-6.6874 11.1175,-2.0794 7.4184,-9.0452 5.9437,14.1544 5.4047,-6.3017 10.1433,9.5139 7.5693,-1.4986 7.4444,-0.9951 5.4457,-10.5966 5.2016,-6.9602 8.4582,6.626 1.0807,-19.1497 7.2425,11.4074 0.9922,-20.6263 4.0367,11.1726 5.0301,-16.0099 9.7455,12.826 6.8087,1.4516 1.023,-6.7585 5.5034,4.2168 4.0709,-2.7094 -0.678,-8.3003 6.4748,5.9803 6.6168,-10.9545 3.3945,-6.9696 6.4214,8.4697 1.3688,-18.0052 16.9523,6.4532 c 0,0 -0.058,-5.2885 1.4745,-5.2885 1.5328,0 11.7207,0.1676 11.7207,0.1676 l -19.5962,-13.7866 19.6475,4.4721 0.2964,-5.2704 -11.1866,-6.6987 9.9611,-3.0501 -0.3006,-5.455 11.303,-6.7032 12.5153,-8.0562 13.3788,-2.5441 14.5434,-28.3659 12.8094,-111.2718 0.6836,-51.8762 z"
       id="path2"
       sodipodi:nodetypes="ccccccccccccccccccccccccccccccccccccccccccccccccccccccccccccccccccccccccccccscccccccccccccccccccccccccccccccscccccccccccccc" />
    <path
       style="mix-blend-mode:normal;fill:#d5faff;fill-opacity:1;fill-rule:evenodd;stroke:none;stroke-width:0.802;filter:url(#filter3)"
       d="m 1640.054,2309.7918 -21.774,69.9611 4.7282,113.5425 20.5521,29.5532 13.1371,-5.696 22.5608,29.4179 21.0494,10.1699 3.837,24.6857 17.0253,4.8057 8.7551,-5.3397 10.6652,20.5979 8.9551,-14.3055 14.6437,24.1546 10.7638,11.2981 8.8688,-8.1447 c -7.3837,27.5372 -8.1819,54.9715 2.0774,82.2334 2.4255,-28.9121 5.6065,-57.0444 19.8162,-73.7939 l 12.8407,-7.9004 12.9723,16.4642 13.0805,-7.7279 14.1464,15.6371 13.4885,-6.7143 14.1881,10.1487 6.478,-11.46 16.0324,13.0059 10.2839,-0.6737 8.5132,-9.1256 9.8117,0.2635 14.5238,1.9944 5.9513,-8.0103 17.6133,6.1267 4.7161,-15.0465 1.3035,-7.5884 7.9821,13.0361 7.5579,6.6846 -2.853,-17.9034 15.6735,13.852 -4.7408,-13.2159 10.7716,8.712 -7.0481,-15.9923 1.6295,-6.6679 10.3274,3.1998 6.1336,-3.5993 13.5498,-11.827 -0.9682,-11.9987 10.9873,-9.1095 -3.2421,-17.6115 8.9603,2.3859 v -8.0184 l 13.3438,3.2963 4.1795,-4.1461 -3.1702,-8.63 h 8.5719 l -2.0685,-5.5639 5.3737,-5.3736 -5.1816,-7.3388 6.766,-2.7375 -7.0318,-5.0057 -0.3791,-10.9735 -8.0355,-9.5009 18.4706,-9.6253 11.0577,-42.464 0.8141,-72.49 -2.9026,-56.0408 z"
       id="path3"
       sodipodi:nodetypes="ccccccccccccccccccccccccccccccccccccccccccccccccccccccccccccccccc" />
  </g>
  <g
     inkscape:groupmode="layer"
     id="layer1"
     inkscape:label="txt">
    <text
       xml:space="preserve"
       style="font-style:normal;font-variant:normal;font-weight:normal;font-stretch:normal;line-height:0%;font-family:Lavi;-inkscape-font-specification:Lavi;text-align:center;letter-spacing:0px;word-spacing:0px;text-anchor:middle;fill:#000000;fill-opacity:1;stroke:none"
       x="374.01498"
       y="1271.7341"
       id="text4246"><tspan
         sodipodi:role="line"
         style="font-size:45px;line-height:1.2"
         x="374.01498"
         y="1271.7341"
         id="tspan58">Aja, Paprika,</tspan><tspan
         sodipodi:role="line"
         style="font-size:45px;line-height:1.2"
         x="374.01498"
         y="1325.7341"
         id="tspan388">končno sem spoznala</tspan><tspan
         sodipodi:role="line"
         style="font-size:45px;line-height:1.2"
         x="374.01498"
         y="1379.7341"
         id="tspan390">tvoje botre.</tspan></text>
    <text
       xml:space="preserve"
       style="font-style:normal;font-variant:normal;font-weight:normal;font-stretch:normal;line-height:0%;font-family:Lavi;-inkscape-font-specification:Lavi;text-align:center;letter-spacing:0px;word-spacing:0px;text-anchor:middle;fill:#000000;fill-opacity:1;stroke:none"
       x="564.25214"
       y="2111.155"
       id="text4246-3"><tspan
         sodipodi:role="line"
         style="font-size:45px;line-height:1.2"
         x="564.25214"
         y="2111.155"
         id="tspan872">Res so nekaj</tspan><tspan
         sodipodi:role="line"
         style="font-size:45px;line-height:1.2"
         x="564.25214"
         y="2165.155"
         id="tspan446">posebnega.</tspan></text>
    <text
       xml:space="preserve"
       style="font-style:normal;font-variant:normal;font-weight:normal;font-stretch:normal;font-size:24.343px;line-height:0%;font-family:Lavi;-inkscape-font-specification:Lavi;text-align:center;letter-spacing:0px;word-spacing:0px;text-anchor:middle;fill:#000000;fill-opacity:1;stroke:none;stroke-width:1"
       x="1522.0032"
       y="1199.5613"
       id="text4246-3-5"
       transform="matrix(0.91106211,0,-0.15422983,1.09762,0,0)"><tspan
         sodipodi:role="line"
         style="font-size:91.2863px;line-height:1.2;stroke-width:1"
         x="1522.0032"
         y="1199.5613"
         id="tspan872-2">!!!</tspan></text>
    <text
       xml:space="preserve"
       style="font-style:normal;font-variant:normal;font-weight:normal;font-stretch:normal;line-height:0%;font-family:Lavi;-inkscape-font-specification:Lavi;text-align:center;letter-spacing:0px;word-spacing:0px;text-anchor:middle;fill:#000000;fill-opacity:1;stroke:none"
       x="1515.7218"
       y="1220.6265"
       id="text4246-3-9"><tspan
         sodipodi:role="line"
         style="font-size:45px;line-height:1.2"
         x="1515.7218"
         y="1220.6265"
         id="tspan62">Mislim, da imaš</tspan><tspan
         sodipodi:role="line"
         style="font-size:45px;line-height:1.2"
         x="1515.7218"
         y="1274.6265"
         id="tspan504">veliko srečo.</tspan></text>
    <text
       xml:space="preserve"
       style="font-style:normal;font-variant:normal;font-weight:normal;font-stretch:normal;line-height:0%;font-family:Lavi;-inkscape-font-specification:Lavi;text-align:center;letter-spacing:0px;word-spacing:0px;text-anchor:middle;fill:#000000;fill-opacity:1;stroke:none"
       x="2217.9976"
       y="2077.0298"
       id="text4246-3-9-0"><tspan
         sodipodi:role="line"
         style="font-size:45px;line-height:1.2"
         x="2217.9976"
         y="2077.0298"
         id="tspan73">Dovolijo ti</tspan><tspan
         sodipodi:role="line"
         style="font-size:45px;line-height:1.2"
         x="2217.9976"
         y="2131.0298"
         id="tspan77">početi karkoli.</tspan></text>
    <text
       xml:space="preserve"
       style="font-style:normal;font-variant:normal;font-weight:normal;font-stretch:normal;line-height:0%;font-family:Lavi;-inkscape-font-specification:Lavi;text-align:center;letter-spacing:0px;word-spacing:0px;text-anchor:middle;fill:#000000;fill-opacity:1;stroke:none"
       x="603.04626"
       y="2426.0916"
       id="text4246-3-9-0-6"><tspan
         sodipodi:role="line"
         style="font-size:45px;line-height:1.2"
         x="603.04626"
         y="2426.0916"
         id="tspan6870">Suhoparneže</tspan><tspan
         sodipodi:role="line"
         style="font-size:45px;line-height:1.2"
         x="603.04626"
         y="2480.0916"
         id="tspan530">lahko pošlješ v tri</tspan><tspan
         sodipodi:role="line"
         style="font-size:45px;line-height:1.2"
         x="603.04626"
         y="2534.0916"
         id="tspan532">krasne, ne da bi to</tspan><tspan
         sodipodi:role="line"
         style="font-size:45px;line-height:1.2"
         x="603.04626"
         y="2588.0916"
         id="tspan534">imelo diplomatske</tspan><tspan
         sodipodi:role="line"
         style="font-size:45px;line-height:1.2"
         x="603.04626"
         y="2642.0916"
         id="tspan528">posledice.</tspan></text>
    <text
       xml:space="preserve"
       style="font-style:normal;font-variant:normal;font-weight:normal;font-stretch:normal;line-height:0%;font-family:Lavi;-inkscape-font-specification:Lavi;text-align:center;letter-spacing:0px;word-spacing:0px;text-anchor:middle;fill:#000000;fill-opacity:1;stroke:none"
       x="1373.4027"
       y="2402.0081"
       id="text4246-3-9-0-6-1"><tspan
         sodipodi:role="line"
         style="font-size:45px;line-height:1.2"
         x="1373.4027"
         y="2402.0081"
         id="tspan869">Lahko plešeš in</tspan><tspan
         sodipodi:role="line"
         style="font-size:45px;line-height:1.2"
         x="1373.4027"
         y="2456.0081"
         id="tspan558">rajaš, ne da bi te</tspan><tspan
         sodipodi:role="line"
         style="font-size:45px;line-height:1.2"
         x="1373.4027"
         y="2510.0081"
         id="tspan560">skrbelo za mnenje</tspan><tspan
         sodipodi:role="line"
         style="font-size:45px;line-height:1.2"
         x="1373.4027"
         y="2564.0081"
         id="tspan562">drugih.</tspan></text>
    <text
       xml:space="preserve"
       style="font-style:normal;font-variant:normal;font-weight:normal;font-stretch:normal;line-height:0%;font-family:Lavi;-inkscape-font-specification:Lavi;text-align:center;letter-spacing:0px;word-spacing:0px;text-anchor:middle;fill:#000000;fill-opacity:1;stroke:none"
       x="1883.1829"
       y="2397.75"
       id="text4246-3-9-0-6-1-0"><tspan
         sodipodi:role="line"
         style="font-size:45px;line-height:1.2"
         x="1883.1829"
         y="2397.75"
         id="tspan191">Ali pa poskusiš</tspan><tspan
         sodipodi:role="line"
         style="font-size:45px;line-height:1.2"
         x="1883.1829"
         y="2451.75"
         id="tspan584">vso hrano na mizi</tspan><tspan
         sodipodi:role="line"
         style="font-size:45px;line-height:1.2"
         x="1883.1829"
         y="2505.75"
         id="tspan582">brez skrbi, da te</tspan><tspan
         sodipodi:role="line"
         style="font-size:45px;line-height:1.2"
         x="1883.1829"
         y="2559.75"
         id="tspan578">bo kdo videl.</tspan></text>
  </g>
</svg>
