<?xml version="1.0" encoding="UTF-8" standalone="no"?>
<!-- Created with Inkscape (http://www.inkscape.org/) -->

<svg
   id="svg2"
   version="1.1"
   inkscape:version="1.3 (0e150ed6c4, 2023-07-21)"
   width="2481"
   height="3503"
   sodipodi:docname="E06P08.svg"
   xmlns:inkscape="http://www.inkscape.org/namespaces/inkscape"
   xmlns:sodipodi="http://sodipodi.sourceforge.net/DTD/sodipodi-0.dtd"
   xmlns:xlink="http://www.w3.org/1999/xlink"
   xmlns="http://www.w3.org/2000/svg"
   xmlns:svg="http://www.w3.org/2000/svg"
   xmlns:rdf="http://www.w3.org/1999/02/22-rdf-syntax-ns#"
   xmlns:cc="http://creativecommons.org/ns#"
   xmlns:dc="http://purl.org/dc/elements/1.1/">
  <sodipodi:namedview
     pagecolor="#ffffff"
     bordercolor="#666666"
     inkscape:pageopacity="0"
     inkscape:pageshadow="2"
     inkscape:window-width="1888"
     inkscape:window-height="1144"
     id="namedview70"
     showgrid="false"
     inkscape:zoom="0.49190037"
     inkscape:cx="1091.6845"
     inkscape:cy="2724.1289"
     inkscape:current-layer="layer1"
     inkscape:window-x="32"
     inkscape:window-y="0"
     inkscape:window-maximized="1"
     inkscape:snap-nodes="false"
     borderopacity="1"
     inkscape:showpageshadow="0"
     inkscape:pagecheckerboard="0"
     inkscape:deskcolor="#d1d1d1" />
  <metadata
     id="metadata8">
    <rdf:RDF>
      <cc:Work
         rdf:about="">
        <dc:format>image/svg+xml</dc:format>
        <dc:type
           rdf:resource="http://purl.org/dc/dcmitype/StillImage" />
        <dc:title />
      </cc:Work>
    </rdf:RDF>
  </metadata>
  <defs
     id="defs6">
    <filter
       color-interpolation-filters="sRGB"
       id="filter4375-4-1-1-15-1-3-3"
       inkscape:label="deevad outline effect"
       x="-0.019278441"
       y="-0.055821151"
       width="1.0385569"
       height="1.1116423">
      <feFlood
         id="feFlood4377-7-9-0-4-4-4-7"
         flood-opacity="1"
         flood-color="rgb(0,0,0)"
         result="flood" />
      <feComposite
         id="feComposite4379-3-8-8-6-0-7-4"
         in2="SourceGraphic"
         in="flood"
         operator="in"
         result="composite1" />
      <feMorphology
         id="feMorphology4393-1-0-49-8-2-7-3"
         operator="dilate"
         radius="0.69999999999999996"
         result="result3" />
      <feComposite
         id="feComposite4385-9-5-7-2-1-2-9"
         in2="result3"
         in="SourceGraphic"
         operator="over"
         result="composite2" />
    </filter>
    <filter
       color-interpolation-filters="sRGB"
       id="filter3639"
       inkscape:label="deevad outline effect">
      <feFlood
         id="feFlood3641"
         flood-opacity="1"
         flood-color="rgb(0,0,0)"
         result="flood" />
      <feComposite
         id="feComposite3643"
         in2="SourceGraphic"
         in="flood"
         operator="in"
         result="composite1" />
      <feMorphology
         id="feMorphology3645"
         operator="dilate"
         radius="0.69999999999999996"
         result="result3" />
      <feComposite
         id="feComposite3647"
         in2="result3"
         in="SourceGraphic"
         operator="over"
         result="composite2" />
    </filter>
    <filter
       color-interpolation-filters="sRGB"
       id="filter3649"
       inkscape:label="deevad outline effect">
      <feFlood
         id="feFlood3651"
         flood-opacity="1"
         flood-color="rgb(0,0,0)"
         result="flood" />
      <feComposite
         id="feComposite3653"
         in2="SourceGraphic"
         in="flood"
         operator="in"
         result="composite1" />
      <feMorphology
         id="feMorphology3655"
         operator="dilate"
         radius="0.69999999999999996"
         result="result3" />
      <feComposite
         id="feComposite3657"
         in2="result3"
         in="SourceGraphic"
         operator="over"
         result="composite2" />
    </filter>
  </defs>
  <sodipodi:namedview
     pagecolor="#ffffff"
     bordercolor="#666666"
     borderopacity="1"
     objecttolerance="10"
     gridtolerance="10"
     guidetolerance="10"
     inkscape:pageopacity="0"
     inkscape:pageshadow="2"
     inkscape:window-width="1920"
     inkscape:window-height="1025"
     id="namedview4"
     showgrid="false"
     inkscape:zoom="0.49190039"
     inkscape:cx="1449.9468"
     inkscape:cy="2625.8641"
     inkscape:window-x="0"
     inkscape:window-y="26"
     inkscape:window-maximized="1"
     inkscape:current-layer="layer1" />
  <g
     inkscape:groupmode="layer"
     id="layer2"
     inkscape:label="artwork"
     sodipodi:insensitive="true">
    <image
       xlink:href="../gfx_Pepper-and-Carrot_by-David-Revoy_E06P08.png"
       width="2481"
       height="3503"
       id="image10"
       x="0"
       y="0" />
  </g>
  <g
     inkscape:groupmode="layer"
     id="layer3"
     inkscape:label="speechbubbles" />
  <g
     inkscape:groupmode="layer"
     id="layer1"
     inkscape:label="txt">
    <path
       style="color:#000000;fill:#ffe4a0;fill-opacity:1;fill-rule:nonzero;stroke:none;stroke-width:1px;marker:none;visibility:visible;display:inline;overflow:visible;enable-background:accumulate"
       d="m 524.44684,1977.3621 c -14.01377,-46.3951 -40.00882,-95.7772 -45.79925,-144.3988 l -11.44029,45.6542 c -62.91152,-129.7986 -216.9307,-210.2683 -37.93418,5.9274 l 4.61436,-21.5395 c 6.85365,14.1808 24.60331,28.6882 28.47492,44.653 l 15.40082,-17.4241 c 13.28656,38.1411 31.12227,58.0858 46.68362,87.1278 z"
       id="path4032-9"
       inkscape:connector-curvature="0"
       sodipodi:nodetypes="cccccccc" />
    <path
       style="color:#000000;fill:#ffe4a0;fill-opacity:1;fill-rule:nonzero;stroke:none;stroke-width:1px;marker:none;visibility:visible;display:inline;overflow:visible;enable-background:accumulate"
       d="m 734.33747,2852.147 c 34.68316,-42.7494 111.27433,-68.3456 171.06944,-6.0348 45.90017,-4.9397 81.26643,-4.2641 125.92729,48.6318 -41.84055,-33.4484 -69.35796,-47.6353 -136.48501,-35.9449 -35.82358,-28.4476 -90.54377,-19.0565 -121.82817,39.1849 -31.28451,58.2414 -17.69437,44.59 -17.69437,44.59 l -30.80741,-73.5852 z"
       id="path5074-3-6"
       inkscape:connector-curvature="0"
       sodipodi:nodetypes="ccccsccc" />
    <path
       style="color:#000000;fill:#ffe4a0;fill-opacity:1;fill-rule:nonzero;stroke:none;stroke-width:1px;marker:none;visibility:visible;display:inline;overflow:visible;enable-background:accumulate"
       d="m 921.73639,1713.3647 c 38.32906,18.6277 26.56293,53.657 -17.25459,29.5292 30.4647,35.9116 50.91128,52.0261 35.37649,66.5249 113.16101,-28.688 40.12509,17.6202 12.35589,45.6958 25.2138,-11.1892 65.39632,-42.7141 50.24712,0.9326 8.0165,-2.0071 17.4491,-7.7553 21.4169,0.9326 10.2141,-5.9994 17.8025,-7.54 22.2405,-3.7303 10.0387,-10.9178 16.5252,-13.7923 16.4745,-1.865 9.4908,-8.9943 12.4136,-5.8987 14.827,-1.8652 16.2884,-19.3104 22.3718,-13.8628 28.8303,-9.3257 9.2223,-11.5941 20.0147,-8.9681 32.1252,5.5954 12.3911,-19.7186 25.706,-18.519 39.5387,-5.5954 4.0629,-4.8576 7.7526,-13.0937 13.1796,-5.5954 5.4916,-2.5937 10.9829,-9.2401 16.4744,-2.7977 57.96,-25.5257 83.2408,-3.9641 110.3791,14.921 15.1317,-8.3376 26.0358,-24.4528 51.8945,-13.0558 2.4173,-11.638 16.2824,-16.3634 40.3625,-14.9211 -24.6985,-14.0451 -25.9691,-22.0409 31.3015,-14.9211 -39.9179,-11.5016 -76.7041,-23.0032 -14.8271,-34.5049 -14.4922,-4.5662 -61.8613,6.1755 -9.8847,-48.4933 -36.9085,12.0657 -70.4145,15.2007 -80.7249,-33.5725 -19.9115,12.8266 -41.9579,19.1806 -59.3081,-10.2582 -15.8027,13.7936 -37.9137,10.4819 -49.4234,3.7302 -3.114,15.1069 -26.6303,38.2752 -58.4843,-3.7302 6.989,23.8751 1.6991,61.9029 -35.4201,-0.9326 -0.7362,10.9306 14.5493,70.3734 -88.9621,-0.9326 12.9121,47.8406 -21.4561,20.0035 -48.59972,3.7302 13.46032,29.9949 -6.7969,32.3145 -51.0709,14.9211 34.1543,28.4805 -0.96419,20.6172 -23.06429,19.584 z"
       id="path3549-2"
       inkscape:connector-curvature="0"
       sodipodi:nodetypes="ccccccccccccccccccccccccccccc" />
    <path
       style="color:#000000;fill:#ffe4a0;fill-opacity:1;fill-rule:nonzero;stroke:none;stroke-width:1px;marker:none;visibility:visible;display:inline;overflow:visible;enable-background:accumulate"
       d="m 668.18509,1756.655 c 72.73889,15.425 146.87804,30.5991 23.0766,81.2353 119.82123,-16.2519 47.80788,11.8906 19.42904,29.935 213.12333,-41.4052 77.88276,17.8474 27.3339,52.6287 47.08763,-14.8404 120.99023,-54.5176 95.77122,-2.3845 55.56227,-26.6335 142.70983,-74.8686 40.86518,-0.39 85.6957,-45.8924 87.60011,-41.119 42.04578,-5.9045 56.08593,-31.4082 65.6844,-25.9232 59.30196,-6.5312 35.31953,-40.6127 43.11463,-22.5251 54.13023,-12.9095 16.5986,-14.208 37.3708,-11.8811 61.6468,4.3267 21.9574,-23.9364 47.4148,1.4801 47.5338,24.3218 18.1421,-34.413 48.1517,-39.2878 76.2017,-0.9563 0.548,-22.9435 0.1371,-71.9868 43.2754,-0.077 -11.2879,-65.7771 128.7576,-37.9895 196.2874,3.324 -39.7473,-48.2731 -5.8826,-79.0486 76.5111,-56.8129 3.6349,-13.7886 29.6474,-20.2784 75.627,-20.2561 -48.2062,-14.7301 -51.2914,-24.0007 58.3708,-19.6293 -76.9792,-10.7004 -147.9942,-21.6174 -31.1089,-39.3597 -27.98,-4.3417 -117.2986,11.5073 -22.8605,-56.0738 -69.2869,16.6752 -132.8368,22.6623 -156.531,-33.7096 -36.8535,16.3899 -78.3112,25.3519 -113.8035,-7.9038 -28.948,17.2375 -71.3329,14.8911 -93.8146,7.7849 -4.6733,17.8968 -47.5312,46.6403 -111.6914,-0.3202 15.2969,27.4604 8.3872,72.3351 -67.5338,1.3589 -0.4922,12.8442 33.5647,81.36 -169.50248,5.0624 28.57186,55.1004 -39.19749,24.8968 -92.2458,7.7278 28.13069,34.1756 -10.2553,38.2919 -96.02066,20.9969 67.41551,30.9716 -0.12068,24.1975 -42.29527,24.517 z"
       id="path3549"
       inkscape:connector-curvature="0"
       sodipodi:nodetypes="ccccccccccccccccccccccccccccc" />
    <path
       style="color:#000000;display:inline;overflow:visible;visibility:visible;fill:#ffe4a0;fill-opacity:1;fill-rule:nonzero;stroke:none;stroke-width:0.864088px;marker:none;enable-background:accumulate"
       d="m 502.36669,425.65458 c 26.56833,-34.48897 171.07599,-31.54474 219.15636,-16.60243 48.08017,14.94213 65.9705,40.67597 68.20677,49.80737 2.23617,9.13132 -3.35439,51.46759 -27.95366,59.7689 -24.59913,8.30121 -95.04218,12.45182 -119.64144,12.45182 -24.59912,0 -103.12512,-5.2837 -122.99603,-17.43262 -19.00847,-11.62172 -43.34044,-53.50416 -16.772,-87.99304 z"
       id="path3330"
       inkscape:connector-curvature="0"
       sodipodi:nodetypes="zsssssz" />
    <path
       style="color:#000000;fill:#ffe4a0;fill-opacity:1;fill-rule:nonzero;stroke:none;stroke-width:1px;marker:none;visibility:visible;display:inline;overflow:visible;enable-background:accumulate"
       d="m 900.08615,716.05926 c 42.51329,20.49356 123.80235,14.32923 138.26235,-30.35733 -49.15569,36.55167 -109.63611,20.90132 -120.75593,10.89767 -11.11981,-10.00366 -17.50642,19.45966 -17.50642,19.45966 z"
       id="path3978"
       inkscape:connector-curvature="0" />
    <path
       style="color:#000000;display:inline;overflow:visible;visibility:visible;fill:#ffe4a0;fill-opacity:1;fill-rule:nonzero;stroke:none;stroke-width:0.942052px;marker:none;enable-background:accumulate"
       d="m 443.07604,683.87629 c -10.5164,-57.90426 17.5273,-211.71234 233.11432,-199.04572 215.58685,12.66638 240.67009,79.72602 255.89985,106.76077 7.83121,17.95184 74.64439,139.39552 -94.79377,162.28275 -171.49732,23.16538 -341.63817,13.23942 -394.2204,-69.9978 z"
       id="path3525"
       inkscape:connector-curvature="0"
       sodipodi:nodetypes="cscsc" />
    <flowRoot
       xml:space="preserve"
       id="flowRoot2987-4-9-3"
       style="font-style:normal;font-variant:normal;font-weight:normal;font-stretch:normal;line-height:0.01%;font-family:Lavi;-inkscape-font-specification:Lavi;text-align:center;letter-spacing:0px;word-spacing:0px;text-anchor:middle;fill:#000000;fill-opacity:1;stroke:none"
       transform="translate(271.46798,271.0156)"><flowRegion
         id="flowRegion2989-5-4-5"><rect
           id="rect2991-7-9-6"
           width="602.40173"
           height="310.73996"
           x="120.55252"
           y="265.53046"
           style="font-style:normal;font-variant:normal;font-weight:normal;font-stretch:normal;font-family:Lavi;-inkscape-font-specification:Lavi;text-align:center;text-anchor:middle;stroke-width:1" /></flowRegion><flowPara
         style="font-size:48px;line-height:1.25;text-align:center;text-anchor:middle"
         id="flowPara583">Kot vedno</flowPara><flowPara
         style="font-size:48px;line-height:1.25;text-align:center;text-anchor:middle"
         id="flowPara2123">vsi izginejo ravno, ko</flowPara><flowPara
         style="font-size:48px;line-height:1.25;text-align:center;text-anchor:middle"
         id="flowPara587">sva midva na vrsti.</flowPara><flowPara
         style="font-size:48px;line-height:1.25;text-align:center;text-anchor:middle"
         id="flowPara579" /></flowRoot>
    <flowRoot
       transform="translate(216.72838,164.56341)"
       style="font-style:normal;font-variant:normal;font-weight:normal;font-stretch:normal;line-height:0.01%;font-family:Lavi;-inkscape-font-specification:Lavi;text-align:center;letter-spacing:0px;word-spacing:0px;text-anchor:middle;fill:#000000;fill-opacity:1;stroke:none"
       id="flowRoot3045"
       xml:space="preserve"><flowRegion
         id="flowRegion3047"><rect
           style="font-style:normal;font-variant:normal;font-weight:normal;font-stretch:normal;font-family:Lavi;-inkscape-font-specification:Lavi;text-align:center;text-anchor:middle;stroke-width:1"
           y="265.53046"
           x="120.55252"
           height="310.73996"
           width="602.40173"
           id="rect3049" /></flowRegion><flowPara
         id="flowPara3055"
         style="font-size:48px;line-height:1.25;text-align:center;text-anchor:middle">Vidiš to!</flowPara></flowRoot>
    <path
       style="color:#000000;display:inline;overflow:visible;visibility:visible;fill:#ffe4a0;fill-opacity:1;fill-rule:nonzero;stroke:none;stroke-width:0.873941px;marker:none;enable-background:accumulate"
       d="m 1600.7062,805.05392 c 55.4815,-74.47742 329.7178,-68.1195 418.9437,-35.85223 89.2254,32.26691 119.5105,87.83801 122.4412,107.55691 2.9308,19.71867 -13.8131,111.14196 -61.7677,129.0685 -47.9544,17.926 -182.4434,26.889 -229.1986,26.889 -46.755,0 -195.2435,-11.4099 -231.2561,-37.6451 -34.4494,-25.09656 -74.6442,-115.53982 -19.1625,-190.01708 z"
       id="path3330-3"
       inkscape:connector-curvature="0"
       sodipodi:nodetypes="zsssssz" />
    <path
       style="color:#000000;fill:#ffe4a0;fill-opacity:1;fill-rule:nonzero;stroke:none;stroke-width:1px;marker:none;visibility:visible;display:inline;overflow:visible;enable-background:accumulate"
       d="m 1441.4333,792.86046 c 1.8123,17.9111 3.4719,36.60072 12.514,52.57918 2.6665,4.48827 5.7379,8.94714 9.7431,12.29849 4.9422,2.55729 10.902,0.92324 14.9972,-2.48609 6.2588,-4.50938 10.9613,-11.84776 18.8831,-13.58596 5.7972,-1.12556 10.4379,3.16953 14.6457,6.42604 10.5623,8.51108 20.0337,18.50261 31.8998,25.28467 12.8634,8.50453 27.0155,16.51979 42.7488,17.47511 6.2316,0.27366 12.7888,-0.31154 18.2031,-3.68195 14.2818,-8.01643 24.173,-24.34511 22.834,-40.90808 -1.8569,-10.48428 -12.9332,-19.03038 -23.5991,-16.39316 -5.6511,1.30784 -9.507,6.21921 -11.5244,11.3814 -5.4816,8.7963 -15.7551,13.86937 -26.0014,13.88113 -8.456,0.14805 -16.8709,-2.36044 -24.0764,-6.73748 -11.3704,-3.36484 -18.2685,-13.64874 -26.3598,-21.52774 -3.7502,-3.54453 -7.9795,-7.06083 -13.0234,-8.42848 -7.6564,-0.23923 -13.3775,5.76673 -17.631,11.40618 -4.5368,5.70318 -9.1549,12.83128 -16.9484,14.04463 -5.2949,1.57023 -8.0628,-4.3141 -11.2198,-7.42808 -8.8564,-11.35341 -14.0534,-25.32791 -16.0433,-39.50562 -0.089,-1.36474 -0.067,-2.72787 -0.042,-4.09419 z"
       id="path4496"
       inkscape:connector-curvature="0"
       inkscape:transform-center-x="-99.717282"
       inkscape:transform-center-y="101.38562" />
    <flowRoot
       xml:space="preserve"
       id="flowRoot2987-4-9-3-8"
       style="font-style:normal;font-variant:normal;font-weight:normal;font-stretch:normal;line-height:0.01%;font-family:Lavi;-inkscape-font-specification:Lavi;text-align:center;letter-spacing:0px;word-spacing:0px;text-anchor:middle;fill:#000000;fill-opacity:1;stroke:none"
       transform="translate(1437.8526,528.90568)"><flowRegion
         id="flowRegion2989-5-4-5-8"><rect
           id="rect2991-7-9-6-5"
           width="602.40173"
           height="310.73996"
           x="120.55252"
           y="265.53046"
           style="font-style:normal;font-variant:normal;font-weight:normal;font-stretch:normal;font-family:Lavi;-inkscape-font-specification:Lavi;text-align:center;text-anchor:middle;stroke-width:1" /></flowRegion><flowPara
         style="font-size:48px;line-height:1.25;text-align:center;text-anchor:middle"
         id="flowPara3140">Zdaj vsaj vem,</flowPara><flowPara
         style="font-size:48px;line-height:1.25;text-align:center;text-anchor:middle"
         id="flowPara598">kaj bova storila s tvojim „napojem“, Korenček.</flowPara></flowRoot>
    <path
       style="color:#000000;display:inline;overflow:visible;visibility:visible;fill:#ffe4a0;fill-opacity:1;fill-rule:nonzero;stroke:none;stroke-width:0.90007px;marker:none;enable-background:accumulate"
       d="m 1740.487,1060.653 c 44.0459,-55.6593 289.4031,-62.4128 369.1126,-38.2984 79.7091,24.1141 97.796,59.6495 101.5036,74.3861 3.7071,14.7366 6.0112,72.1229 -37.6634,100.8319 -33.5559,22.0575 -160.4578,33.2198 -201.2396,33.2198 -40.7815,0 -170.9651,-8.527 -203.9078,-28.1334 -31.5132,-18.7554 -71.8517,-86.3466 -27.8054,-142.006 z"
       id="path3330-7"
       inkscape:connector-curvature="0"
       sodipodi:nodetypes="zsssssz" />
    <flowRoot
       xml:space="preserve"
       id="flowRoot2987-4-9-3-8-9"
       style="font-style:normal;font-variant:normal;font-weight:normal;font-stretch:normal;line-height:0.01%;font-family:Lavi;-inkscape-font-specification:Lavi;text-align:center;letter-spacing:0px;word-spacing:0px;text-anchor:middle;fill:#000000;fill-opacity:1;stroke:none"
       transform="translate(1544.9612,794.35738)"><flowRegion
         id="flowRegion2989-5-4-5-8-6"><rect
           id="rect2991-7-9-6-5-0"
           width="602.40173"
           height="310.73996"
           x="120.55252"
           y="265.53046"
           style="font-style:normal;font-variant:normal;font-weight:normal;font-stretch:normal;font-family:Lavi;-inkscape-font-specification:Lavi;text-align:center;text-anchor:middle;stroke-width:1" /></flowRegion><flowPara
         style="font-size:48px;line-height:1.25;text-align:center;text-anchor:middle"
         id="flowPara118">Vse bova spravila</flowPara><flowPara
         style="font-size:48px;line-height:1.25;text-align:center;text-anchor:middle"
         id="flowPara607">v red in šla domov!</flowPara><flowPara
         style="font-size:48px;line-height:1.25;text-align:center;text-anchor:middle"
         id="flowPara605" /></flowRoot>
    <flowRoot
       xml:space="preserve"
       id="flowRoot2987-4-9-3-8-9-5"
       style="font-style:normal;font-variant:normal;font-weight:normal;font-stretch:normal;line-height:0.01%;font-family:Lavi;-inkscape-font-specification:Lavi;text-align:center;letter-spacing:0px;word-spacing:0px;text-anchor:middle;fill:#000000;fill-opacity:1;stroke:none"
       transform="translate(646.55715,1461.4444)"><flowRegion
         id="flowRegion2989-5-4-5-8-6-3"><rect
           id="rect2991-7-9-6-5-0-1"
           width="602.40173"
           height="310.73996"
           x="120.55251"
           y="265.53046"
           style="font-style:normal;font-variant:normal;font-weight:normal;font-stretch:normal;font-family:Lavi;-inkscape-font-specification:Lavi;text-align:center;text-anchor:middle" /></flowRegion><flowPara
         style="font-size:48px;line-height:1.25;text-align:center;text-anchor:middle"
         id="flowPara3211-2">Ti </flowPara></flowRoot>
    <path
       style="color:#000000;fill:#ffe4a0;fill-opacity:1;fill-rule:nonzero;stroke:none;stroke-width:1px;marker:none;visibility:visible;display:inline;overflow:visible;enable-background:accumulate"
       d="m 799.55794,2061.6662 c 41.54476,-24.9583 79.49671,-56.3087 125.21587,-73.8403 l -43.51369,-5.8567 c 12.70794,-14.5474 33.04403,-20.2182 50.79008,-28.9032 l -26.26055,-7.9369 c 30.43962,-33.9774 70.07719,-50.7411 105.26895,-75.8248 l -46.93148,-10.2988 c -32.40962,29.4099 -59.34882,63.5475 -97.91175,87.6396 l 24.81802,10.2865 c -12.06842,10.1205 -24.58698,19.7921 -39.1159,27.4588 l 32.36116,10.2326 z"
       id="path4032"
       inkscape:connector-curvature="0"
       sodipodi:nodetypes="cccccccccccc" />
    <flowRoot
       transform="matrix(0.93080411,0,-0.09044116,1.21695,783.3953,1375.8615)"
       style="font-style:normal;font-variant:normal;font-weight:normal;font-stretch:normal;line-height:1.1;font-family:Lavi;-inkscape-font-specification:Lavi;text-align:center;letter-spacing:0px;word-spacing:0px;text-anchor:middle;fill:#000000;fill-opacity:1;stroke:#000000;stroke-width:2.71217;stroke-miterlimit:4;stroke-dasharray:none;stroke-opacity:1"
       id="flowRoot4212-3-7-8-6"
       xml:space="preserve"><flowRegion
         id="flowRegion4214-6-7-8-3"><rect
           style="font-style:normal;font-variant:normal;font-weight:normal;font-stretch:normal;font-family:Lavi;-inkscape-font-specification:Lavi;text-align:center;text-anchor:middle;stroke:#000000;stroke-width:2.71217;stroke-miterlimit:4;stroke-dasharray:none;stroke-opacity:1"
           y="284.74136"
           x="84.744102"
           height="112.78771"
           width="777.26764"
           id="rect4216-4-0-26-5" /></flowRegion><flowPara
         style="font-size:48px;text-align:center;letter-spacing:5.20896px;text-anchor:middle;stroke:#000000;stroke-width:2.71217;stroke-miterlimit:4;stroke-dasharray:none;stroke-opacity:1"
         id="flowPara3048">   ogromna-</flowPara><flowPara
         style="font-size:48px;text-align:center;letter-spacing:5.20896px;text-anchor:middle;display:inline;stroke:#000000;stroke-width:2.71217;stroke-miterlimit:4;stroke-dasharray:none;stroke-opacity:1"
         id="flowPara422">gizdalinska-zombi-kanarčica!</flowPara></flowRoot>
    <path
       style="fill:#ffe4a0;fill-opacity:1;stroke:none;stroke-width:0.943791"
       d="m 823.3529,2884.1599 c -27.94977,-6.3023 -38.71204,-12.161 -33.71254,-15.7714 -11.46382,-1.7993 -15.93069,-48.7041 -5.22072,-57.2782 0.71286,-0.9026 5.71545,-3.6108 3.56558,-4.0609 -2.14977,-0.4501 -15.03416,0.9083 -17.18892,-0.8947 -2.15477,-1.8033 19.23404,-27.521 16.36653,-28.4219 -2.86774,-0.9007 -47.30713,-4.6556 -56.63067,-8.7109 -9.32372,-4.0552 -25.72592,6.4913 -28.59185,6.0414 3.38219,-13.0754 -29.35071,2.2678 -32.93278,1.8184 -3.58182,-0.4497 -10.07555,-13.9776 -13.65753,-14.427 -3.58208,-0.4495 -20.02883,5.8718 -22.89476,5.4221 -2.86594,-0.4498 -1.47462,-11.7261 -5.05668,-12.1754 -3.58199,-0.4497 -19.29951,9.4797 -21.44938,9.0297 -2.14982,-0.4502 -10.10864,-22.9982 -13.69387,-24.3497 -3.5853,-1.3515 -26.4045,24.8178 -28.55116,25.2699 -2.14647,0.4519 -15.86485,-30.6631 -18.73089,-31.1131 -2.86593,-0.4497 -17.10862,21.2059 -19.25854,20.7558 -2.14985,-0.4501 -15.80106,-13.0732 -18.66854,-13.9739 -2.86758,-0.9008 -21.38063,27.9728 -24.24485,27.9742 -2.8644,0 -27.25496,-12.1661 -29.41145,-14.4203 -2.15642,-2.2542 -4.25372,11.7286 -7.11802,11.7298 -2.86433,0 -35.83303,-8.1031 -36.54758,-7.6518 -0.71436,0.4514 5.04537,9.0185 2.89717,9.0195 -2.1482,0 -35.84451,-11.2606 -37.26862,-9.0047 -1.4238,2.2558 -73.08015,-11.2442 -78.08611,-9.438 -5.00595,1.8063 32.3576,36.9703 28.7872,39.678 -3.57055,2.7078 -16.47152,-0.4439 -17.18262,0.9095 -0.71108,1.3535 7.90305,7.213 5.76156,9.0181 -2.14183,1.805 -26.46205,9.032 -28.60196,11.2878 -2.14009,2.2563 10.77051,8.114 7.91122,9.4685 -2.85948,1.3543 -45.07668,9.942 -45.7845,12.1974 -0.70782,2.2554 21.52964,13.0703 18.6769,16.2288 -2.85283,3.1585 -10.72472,4.5149 -10.00043,6.7698 0.7243,2.2549 14.33954,4.9551 13.63162,7.2106 -0.70799,2.2555 -7.82765,13.5342 -9.96929,15.3393 -2.14166,1.8049 15.04078,0.8955 15.04733,2.6995 0.006,1.8042 11.36926,13.0563 -27.38065,40.253 59.53126,-21.0161 64.0445,-0.5781 87.68786,3.0198 23.64361,3.5982 14.41645,26.1534 18.00167,27.505 3.58533,1.3516 30.04728,-7.6804 33.63915,-4.5248 3.59178,3.1558 5.04518,9.0184 7.90957,9.0172 2.86414,0 26.62488,-9.2067 30.20676,-8.7573 29.63826,-6.3969 40.94406,13.9672 34.98682,17.2988 5.01407,0.4489 24.31851,-7.678 28.61335,-8.1308 4.2948,-0.4529 7.91604,10.8212 11.49316,9.9177 3.57713,-0.9034 26.46188,-9.032 30.04538,-8.1315 3.58369,0.9006 6.46109,4.5076 9.3222,3.6041 2.86083,-0.9031 15.73715,-4.5169 15.73715,-4.5169 0,0 9.31873,2.7021 13.61516,2.7003 4.2964,0 20.45135,-11.4362 24.02846,-12.3399 3.57709,-0.9035 36.68761,3.9708 52.08235,31.7774 -8.71337,-32.7783 25.51228,-35.7181 30.5199,-37.0734 5.00752,-1.3553 20.0599,2.6975 21.48693,1.3438 1.42729,-1.3538 5.69749,-8.5719 9.99238,-9.0248 4.2948,-0.4529 14.31318,-2.2612 14.31318,-2.2612 l -1.44188,-2.7056 c 0,0 30.10112,7.2034 33.69137,9.908 3.59014,2.7047 -2.19088,-11.7256 -4.3522,-15.333 12.90226,3.6028 50.88202,11.2539 53.75441,13.5078 2.87251,2.2539 -5.04181,-8.1165 -9.3498,-11.2718 5.73346,1.3508 10.74761,1.7997 10.74761,1.7997 l -16.50896,-10.8176 5.00929,-0.9043 c 0,0 -10.75907,-4.9568 -10.7673,-7.2119 -0.008,-2.255 27.90867,-4.9733 27.90867,-4.9733 0,0 -11.47193,-4.0543 -8.61587,-6.3106 2.8563,-2.2565 10.012,-3.6126 10.012,-3.6126 l 1.41081,-5.8639 z"
       id="path5888"
       inkscape:connector-curvature="0"
       sodipodi:nodetypes="ccccccccccsccccsccccccsccsccscsccccscccscccccscccccsccccscccccccccccc" />
    <flowRoot
       xml:space="preserve"
       id="flowRoot2987-4-9-3-0"
       style="font-style:normal;font-variant:normal;font-weight:normal;font-stretch:normal;line-height:0.01%;font-family:Lavi;-inkscape-font-specification:Lavi;text-align:center;letter-spacing:0px;word-spacing:0px;text-anchor:middle;fill:#000000;fill-opacity:1;stroke:none"
       transform="translate(119.6814,2528.7453)"><flowRegion
         id="flowRegion2989-5-4-5-1"><rect
           id="rect2991-7-9-6-4"
           width="602.40173"
           height="310.73996"
           x="120.55252"
           y="265.53046"
           style="font-style:normal;font-variant:normal;font-weight:normal;font-stretch:normal;font-family:Lavi;-inkscape-font-specification:Lavi;text-align:center;text-anchor:middle;stroke-width:1" /></flowRegion><flowPara
         style="font-size:48px;line-height:1.25;text-align:center;letter-spacing:1.5px;text-anchor:middle;stroke:#000000;stroke-width:1.1;stroke-miterlimit:4;stroke-dasharray:none;stroke-opacity:1"
         id="flowPara126">Bi rada poskusila</flowPara><flowPara
         style="font-size:48px;line-height:1.25;text-align:center;letter-spacing:1.5px;text-anchor:middle;stroke:#000000;stroke-width:1.1;stroke-miterlimit:4;stroke-dasharray:none;stroke-opacity:1"
         id="flowPara613">še zadnji napoj?</flowPara></flowRoot>
    <path
       style="fill:#ffe4a0;fill-opacity:1;stroke:none;stroke-width:0.808221"
       d="m 1797.6547,3210.7568 c 61.2109,7.0412 40.6193,-20.4057 36.7202,-23.808 14.9077,5.7093 40.3082,-0.5724 13.8867,-20.4446 37.5405,7.9766 19.1642,4.2152 -2.6787,-17.1759 33.0666,10.8772 53.9184,3.9971 30.4305,-11.0828 33.7384,19.3901 45.6275,13.1998 24.1096,-10.8779 42.4278,24.9395 34.4885,15.5469 24.1491,3.2312 35.333,22.4786 9.075,-10.9725 11.7766,-11.1536 2.7017,-0.1813 14.1338,5.8873 16.3059,5.6682 2.172,-0.2191 2.4515,-9.5726 5.1532,-9.7538 2.7017,-0.1813 13.1755,8.8182 14.8181,8.5612 6.3721,3.1584 13.0821,-16.2744 12.9549,-19.318 -2.7161,2.6395 12.8418,24.2719 18.1864,22.3005 1.5353,0.4849 19.6265,-24.908 17.4657,-24.6187 -4.03,0.5395 8.167,18.6011 11.8367,18.0961 2.918,3.346 14.9688,-4.9439 15.4307,-10.517 -1.1351,1.5769 8.8808,26.5255 14.6872,24.2993 2.6208,4.6794 22.0096,-4.6307 23.4287,-10.3184 1.8568,-1.7415 1.7855,9.8765 3.9039,10.0284 -3.7381,5.7253 23.5119,-1.0369 27.9219,-4.3721 0.4761,0.4091 -2.6288,6.0845 -3.1896,7.2702 -3.0229,6.3898 21.8901,0.6921 28.6121,-5.4475 -25.9242,30.6386 49.7485,0.6272 58.8548,-3.6542 3.4932,1.7504 -28.2249,28.7215 -25.8983,31.138 2.327,2.4165 12.2355,0.5023 12.6042,1.6542 0.3689,1.1512 -6.6828,5.5199 -5.3083,7.1182 1.3747,1.5982 18.5255,8.8271 19.8467,10.7963 1.3211,1.9696 -8.9087,6.1103 -6.9507,7.3756 1.958,1.2653 32.1888,10.5565 32.4505,12.4499 0.262,1.8934 -17.4419,9.6227 -15.6982,12.3722 1.7438,2.7497 7.4089,4.2806 6.6116,6.0983 -0.7975,1.8175 -11.1819,3.3226 -10.92,5.2161 0.262,1.8935 4.2193,11.5507 5.594,13.1488 1.3747,1.5985 -11.2293,-0.056 -11.4434,1.4293 -0.2191,1.4841 -33.8908,6.7983 18.2852,34.7033 -56.6697,-17.8207 -50.0094,-3.983 -67.9158,-2.2673 -17.9066,1.7157 -13.6989,20.7643 -16.5077,21.6879 -2.8088,0.9234 -21.3342,-7.9036 -24.3574,-5.4958 -3.023,2.4078 -4.7784,7.1563 -6.8972,7.0043 -2.1183,-0.1509 -18.6256,-8.9794 -21.3271,-8.7983 -21.1808,-6.8256 -31.9068,9.338 -27.887,12.3937 -3.7609,0.1053 -17.0972,-7.5999 -20.2215,-8.1988 -3.1242,-0.599 -7.1112,8.4888 -9.6523,7.5568 -2.5411,-0.932 -18.5254,-8.8272 -21.2805,-8.2747 -2.7555,0.5524 -5.3024,3.3693 -7.3138,2.4749 -2.0115,-0.8938 -11.1164,-4.5462 -11.1164,-4.5462 0,0 -7.2067,1.7331 -10.3844,1.5052 -3.178,-0.2263 -23.1256,-14.0309 -25.6665,-14.963 -2.5412,-0.9321 -47.0282,18.4837 -45.7607,20.8243 1.2677,2.3407 -1.8531,-24.6131 -5.3999,-25.9922 -3.5467,-1.3791 -15.1512,1.1634 -16.0495,-0.026 -0.8988,-1.1893 -3.2197,-7.3545 -6.344,-7.9536 -3.1244,-0.5989 -10.3249,-2.6149 -10.3249,-2.6149 l 1.3806,-2.1507 c 0,0 -23.1016,4.3427 -26.071,6.3795 -2.9697,2.0367 2.9813,-9.5347 4.9988,-12.3896 -9.9619,2.2855 -38.9432,6.5816 -41.3293,8.2851 -2.3864,1.7036 4.6711,-6.4141 8.224,-8.7839 -4.3977,0.8096 -8.1587,0.9149 -8.1587,0.9149 l 13.4669,-8.0331 -3.6006,-1.0079 c 0,0 8.5338,-3.5127 8.8014,-5.3682 0.2712,-1.8552 -20.0665,-5.5629 -20.0665,-5.5629 62.1424,1.029 17.0744,-12.65 -7.1769,-17.0124 z"
       id="path5888-2"
       inkscape:connector-curvature="0"
       sodipodi:nodetypes="ccccccccsccccsccccccsccsccscsccccscccscccccscccccsccccsccccccccc" />
    <path
       style="color:#000000;fill:#ffe4a0;fill-opacity:1;fill-rule:nonzero;stroke:none;stroke-width:1px;marker:none;visibility:visible;display:inline;overflow:visible;enable-background:accumulate"
       d="m 1949.2127,3186.2754 c -39.3897,38.4564 -118.4251,55.0326 -170.6211,-13.769 -46.1636,-0.3962 -81.2149,-5.1531 -119.4658,-62.8545 37.6962,38.0583 63.3903,55.3293 131.4185,51.4723 32.2972,32.3957 87.7359,29.3893 125.5394,-24.8478 37.8036,-54.2372 22.7273,-42.2473 22.7273,-42.2473 l 22.0999,76.6516 z"
       id="path5074-3"
       inkscape:connector-curvature="0"
       sodipodi:nodetypes="ccccsccc" />
    <flowRoot
       xml:space="preserve"
       id="flowRoot2987-4-9-3-0-3"
       style="font-style:normal;font-variant:normal;font-weight:normal;font-stretch:normal;line-height:0.01%;font-family:Lavi;-inkscape-font-specification:Lavi;text-align:center;letter-spacing:0px;word-spacing:0px;text-anchor:middle;fill:#000000;fill-opacity:1;stroke:none"
       transform="translate(1608.8582,2879.0579)"><flowRegion
         id="flowRegion2989-5-4-5-1-6"><rect
           id="rect2991-7-9-6-4-7"
           width="602.40173"
           height="310.73996"
           x="120.55252"
           y="265.53046"
           style="font-style:normal;font-variant:normal;font-weight:normal;font-stretch:normal;font-family:Lavi;-inkscape-font-specification:Lavi;text-align:center;text-anchor:middle;stroke-width:1" /></flowRegion><flowPara
         style="font-size:48px;line-height:1.25;text-align:center;letter-spacing:1.5px;text-anchor:middle;stroke:#000000;stroke-width:1.1;stroke-miterlimit:4;stroke-dasharray:none;stroke-opacity:1"
         id="flowPara4202">Ti ni do</flowPara><flowPara
         style="font-size:48px;line-height:1.25;text-align:center;letter-spacing:1.5px;text-anchor:middle;stroke:#000000;stroke-width:1.1;stroke-miterlimit:4;stroke-dasharray:none;stroke-opacity:1"
         id="flowPara609">tega, kaj?</flowPara></flowRoot>
    <path
       style="color:#000000;display:inline;overflow:visible;visibility:visible;fill:#ffe4a0;fill-opacity:1;fill-rule:nonzero;stroke:none;stroke-width:1.01269174px;marker:none;enable-background:accumulate"
       d="m 430.23047,1582.757 c -4.74342,14.1556 -30.56798,59.4538 -39.03473,16.2093 -43.47048,66.8706 -93.26471,55.4388 -142.69938,48.4577 -9.77068,19.5362 -7.28009,46.1647 -48.16205,47.7053 8.15819,15.9183 -3.54301,30.2003 -32.96444,43.0229 42.02699,2.4517 51.04829,11.6093 -22.40545,37.5242 57.36409,-9.943 111.07901,-17.9855 49.8183,33.848 21.19454,-3.1249 66.26529,-45.2102 57.25047,54.2176 31.6322,-37.3814 67.72131,-61.6079 125.73159,-7.3014 11.10763,-28.0111 30.80676,-49.2804 78.78768,-23.2543 5.40757,-26.7184 56.772,-38.7619 76.55166,-37.3629 -42.53078,-20.5081 -43.82072,-38.0996 7.82118,-50.843 -94.84706,-33.4472 -22.37959,-39.6374 -10.22887,-55.1095 -71.14012,-4.1008 -43.71574,-31.5667 -34.74362,-55.3999 -78.8836,14.4742 -58.27949,-24.9365 -65.72234,-51.714 z"
       id="path3549-3"
       inkscape:connector-curvature="0"
       sodipodi:nodetypes="ccccccccccccccc" />
    <flowRoot
       transform="matrix(1.8217115,0,-0.17700578,1.8738433,-535.05413,1190.8474)"
       style="font-style:normal;font-variant:normal;font-weight:normal;font-stretch:normal;line-height:0.01%;font-family:Lavi;-inkscape-font-specification:Lavi;text-align:center;letter-spacing:0px;word-spacing:0px;text-anchor:middle;fill:#000000;fill-opacity:1;stroke:#000000;stroke-width:2.71217;stroke-miterlimit:4;stroke-dasharray:none;stroke-opacity:1"
       id="flowRoot4212-3-7-8-6-5"
       xml:space="preserve"><flowRegion
         id="flowRegion4214-6-7-8-3-6"><rect
           style="font-style:normal;font-variant:normal;font-weight:normal;font-stretch:normal;font-family:Lavi;-inkscape-font-specification:Lavi;text-align:center;text-anchor:middle;stroke:#000000;stroke-width:2.71217394;stroke-miterlimit:4;stroke-dasharray:none;stroke-opacity:1"
           y="265.53046"
           x="120.55251"
           height="355.03918"
           width="798.1947"
           id="rect4216-4-0-26-5-2" /></flowRegion><flowPara
         style="font-size:48px;line-height:1.25;text-align:center;letter-spacing:1.4522px;text-anchor:middle;stroke:#000000;stroke-width:2.71217;stroke-miterlimit:4;stroke-dasharray:none;stroke-opacity:1"
         id="flowPara4358-7-1-6">HEJ!</flowPara></flowRoot>
    <flowRoot
       xml:space="preserve"
       id="flowRoot4133-6-9-4-8-5-3"
       style="color:#000000;font-style:normal;font-variant:normal;font-weight:normal;font-stretch:normal;line-height:0.01%;font-family:Arial;-inkscape-font-specification:Arial;letter-spacing:0.00204969px;word-spacing:0px;display:inline;overflow:visible;visibility:visible;fill:#ffffff;fill-opacity:1;fill-rule:nonzero;stroke:#ffffff;stroke-width:0.0836072;stroke-linecap:butt;stroke-linejoin:miter;stroke-miterlimit:4;stroke-dasharray:none;stroke-dashoffset:0;stroke-opacity:1;marker:none;filter:url(#filter4375-4-1-1-15-1-3-3);enable-background:accumulate"
       transform="matrix(8.3099216,-5.4900388,-0.26452567,16.18078,-7093.1327,-9087.3999)"><flowRegion
         id="flowRegion4135-2-9-3-5-2-6"
         style="stroke-width:0.866467"><rect
           id="rect4137-1-7-1-2-1-4"
           width="200.00224"
           height="39.051064"
           x="1125.3193"
           y="1078.5308"
           style="color:#000000;letter-spacing:0.00204969px;display:inline;overflow:visible;visibility:visible;fill:#ffffff;fill-opacity:1;fill-rule:nonzero;stroke:#ffffff;stroke-width:0.0836072;stroke-linecap:butt;stroke-linejoin:miter;stroke-miterlimit:4;stroke-dasharray:none;stroke-dashoffset:0;stroke-opacity:1;marker:none;filter:url(#filter4375-4-1-1-15-1-3-3);enable-background:accumulate" /></flowRegion><flowPara
         id="flowPara4139-2-8-6-8-6-3"
         style="color:#000000;font-style:normal;font-variant:normal;font-weight:normal;font-stretch:normal;font-size:17.8541px;line-height:125%;font-family:Lavi;-inkscape-font-specification:Lavi;letter-spacing:0.00204969px;word-spacing:0.00204969px;display:inline;overflow:visible;visibility:visible;fill:#ffffff;fill-opacity:1;fill-rule:nonzero;stroke:#ffffff;stroke-width:0.0836072;stroke-linecap:butt;stroke-linejoin:miter;stroke-miterlimit:4;stroke-dasharray:none;stroke-dashoffset:0;stroke-opacity:1;marker:none;enable-background:accumulate">K<flowSpan
   style="font-size:13.0851px"
   id="flowSpan3116">R</flowSpan><flowSpan
   id="flowSpan3122"
   style="font-size:8.70638px">AAK</flowSpan><flowSpan
   id="flowSpan3126"
   style="font-size:7.8393px">!</flowSpan></flowPara></flowRoot>
    <text
       xml:space="preserve"
       style="font-style:normal;font-weight:normal;font-size:40px;line-height:1.25;font-family:sans-serif;letter-spacing:0px;word-spacing:0px;fill:#000000;fill-opacity:1;stroke:none"
       x="1627.9021"
       y="846.26184"
       id="text105" />
  </g>
</svg>
