<?xml version="1.0" encoding="UTF-8" standalone="no"?>
<!-- Created with Inkscape (http://www.inkscape.org/) -->

<svg
   id="svg2"
   version="1.1"
   inkscape:version="1.1.2 (0a00cf5339, 2022-02-04)"
   width="2481"
   height="3503"
   sodipodi:docname="E37P01.svg"
   xmlns:inkscape="http://www.inkscape.org/namespaces/inkscape"
   xmlns:sodipodi="http://sodipodi.sourceforge.net/DTD/sodipodi-0.dtd"
   xmlns:xlink="http://www.w3.org/1999/xlink"
   xmlns="http://www.w3.org/2000/svg"
   xmlns:svg="http://www.w3.org/2000/svg"
   xmlns:rdf="http://www.w3.org/1999/02/22-rdf-syntax-ns#"
   xmlns:cc="http://creativecommons.org/ns#"
   xmlns:dc="http://purl.org/dc/elements/1.1/">
  <metadata
     id="metadata8">
    <rdf:RDF>
      <cc:Work
         rdf:about="">
        <dc:format>image/svg+xml</dc:format>
        <dc:type
           rdf:resource="http://purl.org/dc/dcmitype/StillImage" />
        <dc:title />
      </cc:Work>
    </rdf:RDF>
  </metadata>
  <defs
     id="defs6" />
  <sodipodi:namedview
     pagecolor="#ffffff"
     bordercolor="#666666"
     borderopacity="1"
     objecttolerance="10"
     gridtolerance="10"
     guidetolerance="10"
     inkscape:pageopacity="0"
     inkscape:pageshadow="2"
     inkscape:window-width="1846"
     inkscape:window-height="1016"
     id="namedview4"
     showgrid="false"
     inkscape:zoom="0.68751786"
     inkscape:cx="1360.6919"
     inkscape:cy="2933.0147"
     inkscape:window-x="0"
     inkscape:window-y="0"
     inkscape:window-maximized="1"
     inkscape:current-layer="layer1"
     inkscape:pagecheckerboard="0"
     inkscape:showpageshadow="0"
     inkscape:deskcolor="#d1d1d1" />
  <g
     inkscape:groupmode="layer"
     id="layer2"
     inkscape:label="artwork"
     sodipodi:insensitive="true">
    <image
       xlink:href="../gfx_Pepper-and-Carrot_by-David-Revoy_E37P01.png"
       y="0"
       x="0"
       id="image10"
       height="3503"
       width="2481" />
  </g>
  <g
     inkscape:groupmode="layer"
     id="layer3"
     inkscape:label="speechbubbles">
    <path
       style="display:inline;color:#000000;overflow:visible;visibility:visible;fill:#ffffff;fill-opacity:1;fill-rule:nonzero;stroke:none;stroke-width:1px;marker:none;enable-background:accumulate"
       d="m 2244.2532,3098.223 c 40.1818,21.7108 51.3729,52.9878 26.9991,94.6594 -11.5297,45.9559 8.6989,37.3235 8.6989,37.3235 l 29.1103,-26.5249 c 0,0 28.8655,-83.545 -64.8083,-105.458 z"
       id="path3072-56-6"
       inkscape:connector-curvature="0"
       sodipodi:nodetypes="ccccc" />
    <path
       style="color:#000000;display:inline;overflow:visible;visibility:visible;fill:#ffffff;fill-opacity:1;fill-rule:nonzero;stroke:none;stroke-width:1.24776px;marker:none;enable-background:accumulate"
       d="m 849.65697,2224.497 c -28.32832,0.842 -57.2014,0.7168 -84.02305,12.7715 -15.74509,7.0369 -30.61223,20.4682 -39.27852,42.0593 -10.13387,24.7403 -9.81916,58.3288 -2.25385,87.0762 3.54761,13.3391 8.4571,26.0819 14.64869,37.146 6.72464,11.7807 15.55183,20.8029 25.14208,24.7568 27.79854,14.5968 56.71591,18.0819 85.08587,19.5474 29.6679,1.1326 59.20878,-0.386 88.51254,-3.8996 24.70663,-3.5098 49.52503,-9.8429 71.48067,-26.1018 13.2568,-10.2266 25.4772,-25.6967 30.8022,-47.8418 7.4314,-30.6166 2.6051,-69.9285 -13.4195,-95.7023 -12.8078,-19.7726 -30.16394,-29.3503 -46.88494,-35.1703 -27.6138,-9.4395 -55.5152,-11.1168 -83.22699,-13.3435 -15.55285,-1.052 -31.12316,-1.9942 -46.5852,-1.2979 z"
       id="path4546-6-21-1"
       inkscape:connector-curvature="0"
       sodipodi:nodetypes="cssssc" />
    <path
       style="color:#000000;display:inline;overflow:visible;visibility:visible;fill:#ffffff;fill-opacity:1;fill-rule:nonzero;stroke:none;stroke-width:1.24776px;marker:none;enable-background:accumulate"
       d="m 853.64913,2155.2639 c -16.33888,0.3855 -32.95749,0.3282 -48.82069,5.8465 -9.31077,3.2213 -18.33952,9.3697 -24.0834,19.2536 -6.69884,11.3254 -7.69134,26.7013 -4.3403,39.861 1.57636,6.1063 3.95761,11.9396 7.13568,17.0045 3.45991,5.3928 8.2267,9.5229 13.60991,11.3329 15.49432,6.682 32.02108,8.2774 48.30325,8.9483 17.04104,0.5184 34.1016,-0.1767 51.09538,-1.7852 14.34696,-1.6067 28.85687,-4.5058 42.06546,-11.9486 7.98976,-4.6815 15.56594,-11.7632 19.40544,-21.9007 5.3483,-14.0154 3.9433,-32.0113 -4.3818,-43.8099 -6.68298,-9.0513 -16.34074,-13.4357 -25.76395,-16.0999 -15.56834,-4.3212 -31.57332,-5.089 -47.44998,-6.1083 -8.91745,-0.4816 -17.84878,-0.9129 -26.775,-0.5942 z"
       id="path4546-6-21-1-7"
       inkscape:connector-curvature="0"
       sodipodi:nodetypes="cssssc" />
    <path
       style="color:#000000;display:inline;overflow:visible;visibility:visible;fill:#ffffff;fill-opacity:1;fill-rule:nonzero;stroke:none;stroke-width:0.999999px;marker:none;enable-background:accumulate"
       d="m 1112.8567,2252.1365 c -36.4729,-14.2248 -66.2411,-6.7142 -86.7414,26.8513 -30.09487,27.8109 -33.25181,11.7546 -33.25181,11.7546 l 6.41738,-29.5186 c 0,0 50.85483,-55.2993 113.57583,-9.0873 z"
       id="path3072-56"
       inkscape:connector-curvature="0"
       sodipodi:nodetypes="ccccc" />
    <path
       style="fill:#ffffff;stroke:none;stroke-width:1.0606"
       d="M 2094.4375 2118.1641 C 2055.3697 2118.9938 2016.0977 2126.9322 1980.8159 2144.0346 C 1966.8132 2151.2581 1953.0931 2160.3211 1944.0438 2173.5024 C 1933.2952 2189.6937 1929.9529 2209.6234 1930.1607 2228.749 C 1930.5341 2242.2432 1934.5774 2256.0215 1943.5909 2266.319 C 1953.9786 2278.8262 1969.2955 2286.081 1984.8243 2289.9072 C 2004.244 2294.833 2024.3478 2295.912 2044.2618 2297.1864 C 2079.5702 2298.9236 2114.9336 2298.5097 2150.2714 2298.7968 C 2188.0313 2298.7263 2225.9192 2298.0806 2263.4016 2293.125 C 2282.5839 2289.4617 2301.7226 2281.8701 2315.7228 2267.8545 C 2330.3924 2252.3112 2336.3931 2229.9705 2334.2783 2208.971 C 2333.1543 2188.6771 2325.9672 2168.0351 2311.3106 2153.5339 C 2298.5134 2141.2569 2281.313 2135.156 2264.4346 2130.9028 C 2222.825 2120.3592 2179.6583 2118.9103 2136.9496 2118.2425 C 2122.7792 2118.1308 2108.6083 2118.1171 2094.4375 2118.1641 z "
       id="path3280-10"
       inkscape:connector-curvature="0"
       sodipodi:nodetypes="csssc" />
    <path
       style="color:#000000;display:inline;overflow:visible;visibility:visible;fill:#ffffff;fill-opacity:1;fill-rule:nonzero;stroke:none;stroke-width:0.999998px;marker:none;enable-background:accumulate"
       d="m 1955.8929,2335.3487 c 7.3095,-11.6899 11.4879,-10.9744 20.8583,-10.8887 9.3705,0.085 20.4858,-1.4767 31.5776,-11.7728 11.8207,-15.5362 46.6253,-47.4088 4.9039,-39.2982 -15.2177,1.3778 -15.6011,25.3088 -21.9093,33.4823 -6.3081,8.1734 -22.5135,5.7762 -29.0893,11.2399 -6.5758,5.4636 -6.6119,9.437 -6.3412,17.2375 z"
       id="path4538-0"
       inkscape:connector-curvature="0"
       sodipodi:nodetypes="ccccccc" />
    <path
       style="color:#000000;display:inline;overflow:visible;visibility:visible;fill:#ffffff;fill-opacity:1;fill-rule:nonzero;stroke:none;stroke-width:1.24776px;marker:none;enable-background:accumulate"
       d="m 2105.7303,2477.6223 c -55.1318,0.8842 -111.0196,5.0872 -163.0506,19.3628 -44.6829,13.98 -73.5202,50.5335 -69.6948,86.1605 2.0369,33.2152 27.2221,66.0967 67.4595,81.7386 29.9576,11.266 63.8395,14.0872 96.6858,17.3487 39.1429,3.3789 78.4029,6.2534 117.7782,7.5664 48.166,0.524 96.206,-3.8161 144.3808,-2.5234 32.7461,0.065 65.9743,0.4514 98.0261,-5.2212 13.4867,-4.1708 20.492,-15.2035 21.3364,-25.5226 2.4567,-17.3262 -2.2383,-34.6286 -7.048,-51.5086 -6.0552,-19.1457 -13.4841,-38.2043 -24.9028,-56.0071 -10.5568,-14.7754 -26.992,-27.0669 -46.4334,-35.4938 -29.1738,-15.1176 -63.5852,-24.0819 -98.7031,-27.7835 -44.8039,-5.7715 -90.3694,-8.3885 -135.8341,-8.1168 z"
       id="path4546-6-21-1-2"
       inkscape:connector-curvature="0"
       sodipodi:nodetypes="cssssccccccccc" />
    <path
       style="color:#000000;display:inline;overflow:visible;visibility:visible;fill:#ffffff;fill-opacity:1;fill-rule:nonzero;stroke:none;stroke-width:0.999997px;marker:none;enable-background:accumulate"
       d="m 2010.4011,2431.7982 c 33.458,8.0855 47.1499,30.3061 36.3606,68.8057 -0.5547,38.9823 12.8981,27.5701 12.8981,27.5701 l 16.9151,-27.5841 c 0,0 6.8505,-72.6572 -66.1738,-68.7917 z"
       id="path3072-56-7"
       inkscape:connector-curvature="0"
       sodipodi:nodetypes="ccccc" />
    <path
       style="color:#000000;display:inline;overflow:visible;visibility:visible;fill:#ffffff;fill-opacity:1;fill-rule:nonzero;stroke:none;stroke-width:0.911216px;marker:none;enable-background:accumulate"
       d="m 2149.2922,3178.2559 c -43.2955,0.9143 -87.3612,6.0175 -125.978,20.0142 -28.4577,9.8481 -49.362,28.541 -57.7511,49.4382 -10.6988,23.4686 -12.5638,49.6215 0.9312,72.7569 11.2279,19.0745 34.9236,33.7911 62.0182,42.1701 36.4378,11.8327 76.1868,18.0073 115.9179,22.0005 58.6883,5.5033 118.5173,5.4334 177.1662,-0.261 33.192,-3.7598 66.6752,-11.1862 92.7064,-26.2605 28.178,-16.4108 43.2644,-42.3676 40.1878,-67.5132 -2.2365,-28.8527 -20.6907,-57.4915 -52.9379,-76.5139 -25.9992,-15.7701 -59.5341,-24.5681 -93.4587,-28.5517 -52.2759,-6.8375 -105.7682,-7.1834 -158.802,-7.2796 z"
       id="path4040-40"
       inkscape:connector-curvature="0"
       sodipodi:nodetypes="zssssz" />
  </g>
  <g
     inkscape:groupmode="layer"
     id="layer1"
     inkscape:label="txt"
     style="display:inline">
    <text
       xml:space="preserve"
       style="font-style:normal;font-variant:normal;font-weight:normal;font-stretch:normal;font-size:45.3333px;line-height:125%;font-family:Lavi;-inkscape-font-specification:Lavi;text-align:center;letter-spacing:0px;word-spacing:0px;text-anchor:middle;fill:#000000;fill-opacity:1;stroke:none"
       x="874.30219"
       y="2216.4595"
       id="text4246-70-2-2-2-7-4-9-9-6-1-2-3-9"><tspan
         sodipodi:role="line"
         style="font-size:45.3333px"
         x="874.30219"
         y="2216.4595"
         id="tspan2979">Ah...</tspan></text>
    <text
       xml:space="preserve"
       style="font-style:normal;font-variant:normal;font-weight:normal;font-stretch:normal;font-size:45.3333px;line-height:125%;font-family:Lavi;-inkscape-font-specification:Lavi;text-align:center;letter-spacing:0px;word-spacing:0px;text-anchor:middle;fill:#000000;fill-opacity:1;stroke:none"
       x="879.07031"
       y="2293.4443"
       id="text4246-70-2-2-2-7-4-9-9-6-1-2-3-9-3"><tspan
         sodipodi:role="line"
         style="font-size:45.3333px"
         x="879.07031"
         y="2293.4443"
         id="tspan20992">Det er</tspan><tspan
         sodipodi:role="line"
         style="font-size:45.3333px"
         x="879.07031"
         y="2350.1111"
         id="tspan9740">dejligt at være</tspan><tspan
         sodipodi:role="line"
         style="font-size:45.3333px"
         x="879.07031"
         y="2406.7776"
         id="tspan11308">ankommet!</tspan></text>
    <text
       xml:space="preserve"
       style="font-style:normal;font-variant:normal;font-weight:normal;font-stretch:normal;font-size:45.3333px;line-height:125%;font-family:Lavi;-inkscape-font-specification:Lavi;text-align:center;letter-spacing:0px;word-spacing:0px;text-anchor:middle;fill:#000000;fill-opacity:1;stroke:none"
       x="2133.604"
       y="2200.5024"
       id="text4246-70-2-2-2-7-4-9-9-6-1-2-3-9-3-5"><tspan
         sodipodi:role="line"
         style="font-size:45.3333px"
         x="2133.604"
         y="2200.5024"
         id="tspan426">Nå, det er vist</tspan><tspan
         sodipodi:role="line"
         style="font-size:45.3333px"
         x="2133.604"
         y="2257.1692"
         id="tspan27420">markedsdag.</tspan></text>
    <text
       xml:space="preserve"
       style="font-style:normal;font-variant:normal;font-weight:normal;font-stretch:normal;font-size:45.3333px;line-height:125%;font-family:Lavi;-inkscape-font-specification:Lavi;text-align:center;letter-spacing:0px;word-spacing:0px;text-anchor:middle;fill:#000000;fill-opacity:1;stroke:none"
       x="2132.5103"
       y="2566.7261"
       id="text4246-70-2-2-2-7-4-9-9-6-1-2-3-9-3-5-2"><tspan
         sodipodi:role="line"
         style="font-size:45.3333px"
         x="2132.5103"
         y="2566.7261"
         id="tspan29671">Vi burde nok spise lidt</tspan><tspan
         sodipodi:role="line"
         style="font-size:45.3333px"
         x="2132.5103"
         y="2623.3928"
         id="tspan29675">før opstigningen, ik'?</tspan></text>
    <text
       xml:space="preserve"
       style="font-style:normal;font-variant:normal;font-weight:normal;font-stretch:normal;font-size:45.3333px;line-height:125%;font-family:Lavi;-inkscape-font-specification:Lavi;text-align:center;letter-spacing:0px;word-spacing:0px;text-anchor:middle;fill:#000000;fill-opacity:1;stroke:none"
       x="2202.876"
       y="3249.8687"
       id="text4246-70-2-2-2-7-4-9-9-6-1-2-3-9-3-5-2-0"><tspan
         sodipodi:role="line"
         style="font-size:45.3333px"
         x="2202.876"
         y="3249.8687"
         id="tspan38660">Jeg var sikker på,</tspan><tspan
         sodipodi:role="line"
         style="font-size:45.3333px"
         x="2202.876"
         y="3306.5354"
         id="tspan82213">du ville kunne</tspan><tspan
         sodipodi:role="line"
         style="font-size:45.3333px"
         x="2202.876"
         y="3363.2019"
         id="tspan18758">lide idéen!</tspan></text>
  </g>
</svg>
