<?xml version="1.0" encoding="UTF-8" standalone="no"?>
<!-- Created with Inkscape (http://www.inkscape.org/) -->

<svg
   xmlns:dc="http://purl.org/dc/elements/1.1/"
   xmlns:cc="http://creativecommons.org/ns#"
   xmlns:rdf="http://www.w3.org/1999/02/22-rdf-syntax-ns#"
   xmlns:svg="http://www.w3.org/2000/svg"
   xmlns="http://www.w3.org/2000/svg"
   xmlns:xlink="http://www.w3.org/1999/xlink"
   xmlns:sodipodi="http://sodipodi.sourceforge.net/DTD/sodipodi-0.dtd"
   xmlns:inkscape="http://www.inkscape.org/namespaces/inkscape"
   id="svg2"
   version="1.1"
   inkscape:version="0.92.2 (5c3e80d, 2017-08-06)"
   width="2481"
   height="3503"
   sodipodi:docname="E36P07.svg">
  <metadata
     id="metadata8">
    <rdf:RDF>
      <cc:Work
         rdf:about="">
        <dc:format>image/svg+xml</dc:format>
        <dc:type
           rdf:resource="http://purl.org/dc/dcmitype/StillImage" />
        <dc:title />
      </cc:Work>
    </rdf:RDF>
  </metadata>
  <defs
     id="defs6" />
  <sodipodi:namedview
     pagecolor="#1e1e1e"
     bordercolor="#111111"
     borderopacity="1"
     objecttolerance="10"
     gridtolerance="10"
     guidetolerance="10"
     inkscape:pageopacity="0"
     inkscape:pageshadow="2"
     inkscape:window-width="1384"
     inkscape:window-height="1036"
     id="namedview4"
     showgrid="false"
     inkscape:zoom="0.52900001"
     inkscape:cx="1267.6066"
     inkscape:cy="1741.0208"
     inkscape:window-x="530"
     inkscape:window-y="-1"
     inkscape:window-maximized="0"
     inkscape:current-layer="layer1"
     inkscape:pagecheckerboard="0"
     inkscape:snap-global="false" />
  <g
     inkscape:groupmode="layer"
     id="layer2"
     inkscape:label="artwork"
     sodipodi:insensitive="true">
    <image
       sodipodi:absref="C:\Users\Kari\Documents\Pepper and Carrot\Episode 36\fi\../gfx_Pepper-and-Carrot_by-David-Revoy_E36P07.png"
       xlink:href="../gfx_Pepper-and-Carrot_by-David-Revoy_E36P07.png"
       y="0"
       x="0"
       id="image10"
       height="3503"
       width="2481" />
  </g>
  <g
     inkscape:groupmode="layer"
     id="layer3"
     inkscape:label="speechbubbles"
     style="display:inline">
    <path
       style="color:#000000;display:inline;overflow:visible;visibility:visible;fill:#ffffff;fill-opacity:1;fill-rule:nonzero;stroke:none;stroke-width:0.81535715px;marker:none;enable-background:accumulate"
       d="m 1383.5597,2369.9294 c -36.8727,0.6962 -73.7521,5.9799 -108.9495,16.4964 -25.5813,9.5384 -43.7351,33.7263 -46.1645,59.5527 -2.2171,18.5367 -0.6605,37.4527 3.9168,55.571 3.8623,14.4519 9.7453,28.7013 19.1187,40.7544 13.644,14.1759 33.4804,20.3978 52.2425,25.9766 63.4281,18.581 132.0086,17.1128 196.0979,2.2683 19.0559,-4.64 38.2475,-9.8361 55.6087,-18.7827 19.0948,-12.4787 29.4013,-34.2997 31.0507,-55.8103 3.0096,-19.7856 5.854,-40.7175 -1.6883,-59.9391 -8.6223,-20.7605 -27.7269,-35.8632 -48.2385,-45.7406 -31.768,-15.1752 -67.894,-18.734 -102.9693,-19.5166 -16.6727,-0.3707 -33.345,-0.9615 -50.0252,-0.8301 z"
       id="path4546-6-3"
       inkscape:connector-curvature="0"
       sodipodi:nodetypes="cssssssc" />
    <path
       style="color:#000000;display:inline;overflow:visible;visibility:visible;fill:#ffffff;fill-opacity:1;fill-rule:nonzero;stroke:none;stroke-width:1.12849px;marker:none;enable-background:accumulate"
       d="m 1276.0008,3121.2879 c -50.3615,1.1115 -101.3781,9.9281 -147.4747,32.2546 -19.4781,9.4515 -36.9081,25.2017 -45.4273,46.022 -19.0846,42.2639 -14.6555,95.2993 13.0019,131.8953 10.9868,14.7764 28.9282,21.8102 46.3623,24.1535 37.4701,7.2537 75.3709,12.6341 113.5615,14.0039 51.8647,2.5609 103.845,1.5026 155.7728,0.5792 27.2476,-0.7393 54.6512,-3.5221 81.013,-11.3152 15.5284,-3.9627 32.0154,-8.2447 44.0787,-19.9145 13.7545,-14.1624 19.3936,-34.4628 21.0086,-53.9016 3.311,-37.7405 -6.1432,-77.1641 -28.9505,-106.8383 -14.6557,-18.5268 -35.5181,-30.6292 -57.3183,-37.9464 -33.0684,-11.4935 -68.1366,-14.955 -102.8239,-17.5359 -30.873,-1.9635 -61.8619,-1.9402 -92.8041,-1.4566 z"
       id="path3330-0"
       inkscape:connector-curvature="0"
       sodipodi:nodetypes="zsssssz" />
    <path
       style="color:#000000;display:inline;overflow:visible;visibility:visible;fill:#ffffff;fill-opacity:1;fill-rule:nonzero;stroke:none;stroke-width:1px;marker:none;enable-background:accumulate"
       d="m 1415.0769,2516.9442 c 13.078,48.3092 -10.2417,132.5122 -94.8507,157.2445 61.4826,-42.714 67.542,-99.1938 51.107,-143.1634 -14.1878,-37.9586 -18.9368,-56.3084 -18.9368,-56.3084 z"
       id="path4440-3"
       inkscape:connector-curvature="0"
       sodipodi:nodetypes="ccscc" />
    <path
       style="color:#000000;display:inline;overflow:visible;visibility:visible;fill:#ffffff;fill-opacity:1;fill-rule:nonzero;stroke:none;stroke-width:1.05023px;marker:none;enable-background:accumulate"
       d="m 1880.5202,3245.1068 c 2.2085,-31.7629 12.1073,-31.4913 46.1902,-2.7607 -8.9937,-56.6463 36.7658,-59.3247 79.4131,-65.0705 -4.8912,-15.916 -11.6693,-38.2895 36.129,-53.5443 -45.7166,-2.1974 -47.656,-17.2553 -33.086,-32.6716 -34.0385,7.3462 -58.3861,14.6762 -18.1274,-19.5049 -37.997,19.4188 -60.9707,29.4286 -46.6405,-20.4338 -14.3883,6.7868 -58.5903,35.1678 -78.7695,-25.9462 -0.638,33.2488 -57.184,60.6052 -84.9534,17.683 14.0583,35.7635 3.0629,71.3915 -53.6329,48.0907 54.4907,39.0305 2.2272,39.6552 -13.9489,42.9402 45.9271,5.3047 36.7135,17.4578 4.9221,37.6185 94.5952,3.1469 42.5371,23.176 43.0006,36.7345 57.5862,-12.4701 53.8853,12.8638 62.1299,31.6447 54.8403,-57.2852 38.1795,-47.0534 57.3737,5.2204 z"
       id="path3549-3-1"
       inkscape:connector-curvature="0"
       sodipodi:nodetypes="ccccccccccccccc" />
    <path
       style="fill:#ffffff;fill-rule:evenodd;stroke:none;stroke-width:1.21249px;stroke-linecap:butt;stroke-linejoin:miter;stroke-opacity:1"
       d="m 1959.225,3144.1223 c -68.2849,1.6045 -136.3141,8.2166 -204.4931,11.8616 -30.05,3.7429 -59.7014,16.5925 -80.5022,39.0024 -10.5969,13.4954 -15.8029,30.157 -20.9954,46.2588 -9.8329,34.1396 -3.6707,73.0827 18.1712,101.3963 9.6308,12.5623 22.8009,22.4081 37.7998,27.5835 16.2001,5.7224 33.1854,8.7965 50.0575,11.8002 19.2391,3.2719 38.6421,5.467 58.1063,6.8344 44.7214,3.5503 89.6645,5.7978 134.5038,3.1976 29.1748,-1.5617 58.3758,-2.5506 87.5878,-3.0531 14.6023,-0.5227 29.3418,0.091 43.7677,-2.6436 31.8535,-5.5485 62.0211,-22.2096 82.2187,-47.6729 11.6136,-14.4302 19.5433,-32.344 19.7581,-51.0672 0.8017,-20.8143 -3.4981,-41.5121 -9.7877,-61.2524 -9.4496,-26.0948 -28.5522,-49.5251 -54.4155,-60.5823 -21.8455,-9.3973 -45.7424,-11.8033 -68.965,-15.7531 -30.7171,-4.4184 -61.7849,-6.3334 -92.812,-5.9102 z"
       id="path1289"
       inkscape:connector-curvature="0"
       sodipodi:nodetypes="csssssssscc" />
    <path
       style="color:#000000;display:inline;overflow:visible;visibility:visible;fill:#ffffff;fill-opacity:1;fill-rule:nonzero;stroke:none;stroke-width:1.20459px;marker:none;enable-background:accumulate"
       d="m 383.31528,3178.3461 c 7.90371,-15.2948 41.23452,-13.2985 53.03054,-8.8438 -22.34304,-20.2401 -20.07815,-31.1953 13.55035,-29.5557 -51.94808,-37.6508 -6.77936,-28.2088 3.28665,-35.4235 -42.58695,-15.4528 -21.1535,-27.2125 -11.57865,-40.1001 -50.50627,-5.5458 -31.16513,-25.8031 -31.07193,-43.4742 -5.33057,7.7618 -28.87377,30.6558 -26.56078,2.7654 -36.82225,23.1348 -79.28833,36.2037 -76.5794,-10.4783 -16.44817,21.9701 -31.13994,30.479 -26.56087,2.7653 -38.00001,32.8282 -66.34575,16.7937 -95.22577,3.5382 -9.31894,10.1245 -12.38041,26.8076 -37.5265,20.3017 2.21677,11.1849 -7.39088,17.7561 -27.51003,20.2115 25.15381,9.1464 29.08375,16.3708 -20.09307,18.7855 36.62748,4.3877 70.68295,9.2622 24.45208,29.6889 13.43801,1.9557 48.13423,-15.4784 25.4826,43.4614 25.70449,-17.0164 51.85913,-25.2072 77.78773,18.4447 17.29535,-18.7712 44.0951,-26.2298 51.97588,0.1768 5.36489,-10.3819 22.43004,-12.7755 36.5411,-11.8575 4.88673,4.8286 9.74845,11.2082 14.62425,19.4168 11.59583,-15.0441 27.26853,-24.4177 51.97582,0.1769 z"
       id="path3549-3-7-5"
       inkscape:connector-curvature="0"
       sodipodi:nodetypes="cccccccccccccccccccc" />
    <path
       style="color:#000000;display:inline;overflow:visible;visibility:visible;fill:#ffffff;fill-opacity:1;fill-rule:nonzero;stroke:none;stroke-width:0.98051614px;marker:none;enable-background:accumulate"
       d="m 370.9786,3119.1259 c -50.53305,0.8869 -101.66037,12.1999 -147.32505,39.3464 -29.13659,20.281 -44.51417,63.0309 -41.90306,103.0838 0.83278,24.5664 6.17,51.6174 22.93603,67.3162 18.33102,17.0439 40.66094,26.2094 62.82024,32.7563 46.09833,12.5958 93.64179,9.9362 140.54018,10.478 41.77609,-0.1388 83.69521,1.4082 125.32524,-3.7365 19.43161,-2.4792 39.61929,-7.8495 54.98969,-23.5242 18.37113,-17.5376 30.42112,-44.8883 30.99198,-73.5141 3.12871,-49.5273 -21.29258,-100.9155 -59.76796,-118.8182 -40.69892,-21.6058 -85.55342,-25.4501 -129.17333,-30.7378 -19.76783,-1.9162 -39.60103,-2.9936 -59.43396,-2.6499 z"
       id="path3970-3"
       inkscape:connector-curvature="0"
       sodipodi:nodetypes="cccscsc" />
    <path
       style="color:#000000;display:inline;overflow:visible;visibility:visible;fill:#ffffff;fill-opacity:1;fill-rule:nonzero;stroke:none;stroke-width:1.35295px;marker:none;enable-background:accumulate"
       d="m 655.60209,3020.9694 c 36.37209,56.4559 22.81983,82.4225 15.3529,101.9191 -8.64995,-2.3738 -25.16043,-4.9757 -25.16043,-4.9757 0,0 -35.04306,58.5581 -44.82978,72.5197 -9.78688,13.9616 -38.13341,-23.0686 -38.13341,-23.0686 0,0 68.63867,-58.196 66.88456,-75.5935 13.71733,3.6481 17.96983,3.6232 26.02992,4.8839 8.53279,-9.9614 11.95899,-55.362 -0.14376,-75.6849 z"
       id="path4456-8"
       inkscape:connector-curvature="0"
       sodipodi:nodetypes="cccscccc" />
    <path
       style="color:#000000;display:inline;overflow:visible;visibility:visible;fill:#ffffff;fill-opacity:1;fill-rule:nonzero;stroke:none;stroke-width:0.979134px;marker:none;enable-background:accumulate"
       d="m 1279.5978,3141.166 c 37.0189,-51.8094 10.4316,-107.7029 -22.8129,-123.0094 56.1643,10.3304 79.8618,67.0698 67.3523,120.7861 -6.1858,26.5623 -44.5394,2.2233 -44.5394,2.2233 z"
       id="path5010-4"
       inkscape:connector-curvature="0"
       sodipodi:nodetypes="ccsc"
       inkscape:transform-center-x="-17.477815"
       inkscape:transform-center-y="-10.798976" />
    <path
       style="color:#000000;display:inline;overflow:visible;visibility:visible;fill:#ffffff;fill-opacity:1;fill-rule:nonzero;stroke:none;stroke-width:1.49141px;marker:none;enable-background:accumulate"
       d="m 1912.7642,3104.2315 c -3.1414,-3.557 32.154,-46.7146 32.154,-46.7146 0,0 1.8091,-18.6763 2.2497,-22.5415 7.8248,-6.4155 25.8113,-4.3144 25.8113,-4.3144 l -34.365,-47.8529 16.512,38.7245 -25.6669,-0.2625 -0.1009,31.7053 c -10.1565,5.7069 -22.8946,9.8614 -42.2141,10.0585 z"
       id="path4448"
       inkscape:connector-curvature="0"
       sodipodi:nodetypes="cccccccccc" />
  </g>
  <g
     inkscape:groupmode="layer"
     id="layer1"
     inkscape:label="txt"
     style="display:inline">
    <text
       xml:space="preserve"
       style="font-style:normal;font-variant:normal;font-weight:normal;font-stretch:normal;font-size:14.5145998px;line-height:0%;font-family:Lavi;-inkscape-font-specification:Lavi;text-align:center;letter-spacing:0px;word-spacing:0px;text-anchor:middle;fill:#000000;fill-opacity:1;stroke:none;stroke-width:1.20955002"
       x="284.33972"
       y="3110.5491"
       id="text4246-3-3"><tspan
         sodipodi:role="line"
         x="284.33972"
         y="3110.5491"
         id="tspan852"
         style="font-style:normal;font-variant:normal;font-weight:bold;font-stretch:normal;font-size:54.42979813px;line-height:1.25;font-family:Lavi;-inkscape-font-specification:'Lavi Bold';stroke-width:1.20955002">Upseeri!</tspan></text>
    <text
       xml:space="preserve"
       style="font-style:normal;font-variant:normal;font-weight:normal;font-stretch:normal;line-height:0%;font-family:Lavi;-inkscape-font-specification:Lavi;text-align:center;letter-spacing:0px;word-spacing:0px;text-anchor:middle;fill:#000000;fill-opacity:1;stroke:none"
       x="406.04767"
       y="3213.5732"
       id="text4246-3-5-9"><tspan
         sodipodi:role="line"
         style="font-size:45px;line-height:1.25"
         x="406.04767"
         y="3213.5732"
         id="tspan18055">Voitko vahvistaa,</tspan><tspan
         sodipodi:role="line"
         style="font-size:45px;line-height:1.25"
         x="406.04767"
         y="3269.8232"
         id="tspan6127">että tuo on sen</tspan><tspan
         sodipodi:role="line"
         style="font-size:45px;line-height:1.25"
         x="406.04767"
         y="3326.0732"
         id="tspan9617">noidan temppeli?</tspan></text>
    <text
       xml:space="preserve"
       style="font-style:normal;font-variant:normal;font-weight:normal;font-stretch:normal;line-height:0%;font-family:Lavi;-inkscape-font-specification:Lavi;text-align:center;letter-spacing:0px;word-spacing:0px;text-anchor:middle;fill:#000000;fill-opacity:1;stroke:none"
       x="1413.2664"
       y="2440.3196"
       id="text4246-3-5-9-3"><tspan
         sodipodi:role="line"
         style="font-size:45px;line-height:1.25"
         x="1413.2664"
         y="2440.3196"
         id="tspan47">Suurella toden-</tspan><tspan
         sodipodi:role="line"
         style="font-size:45px;line-height:1.25"
         x="1413.2664"
         y="2496.5696"
         id="tspan53">näköisyydellä,</tspan><tspan
         sodipodi:role="line"
         style="font-size:45px;line-height:1.25"
         x="1413.2664"
         y="2552.8196"
         id="tspan25784">herrani!</tspan></text>
    <text
       xml:space="preserve"
       style="font-style:normal;font-variant:normal;font-weight:normal;font-stretch:normal;line-height:0%;font-family:Lavi;-inkscape-font-specification:Lavi;text-align:center;letter-spacing:0px;word-spacing:0px;text-anchor:middle;fill:#000000;fill-opacity:1;stroke:none"
       x="1315.355"
       y="3202.9702"
       id="text4246-3-5-9-3-3-6"><tspan
         sodipodi:role="line"
         style="font-size:45px;line-height:1.25"
         x="1323.2651"
         y="3202.9702"
         id="tspan7736">Useat vakoojistamme </tspan><tspan
         sodipodi:role="line"
         style="font-size:45px;line-height:1.25"
         x="1315.355"
         y="3259.2202"
         id="tspan33425">ovat nähneet hänet</tspan><tspan
         sodipodi:role="line"
         style="font-size:45px;line-height:1.25"
         x="1315.355"
         y="3315.4702"
         id="tspan36535">täällä äskettäin.</tspan></text>
    <text
       xml:space="preserve"
       style="font-style:normal;font-variant:normal;font-weight:normal;font-stretch:normal;line-height:0%;font-family:Lavi;-inkscape-font-specification:Lavi;text-align:center;letter-spacing:0px;word-spacing:0px;text-anchor:middle;fill:#000000;fill-opacity:1;stroke:none"
       x="1883.0886"
       y="3134.877"
       id="text4246-3-3-7"><tspan
         sodipodi:role="line"
         style="font-style:normal;font-variant:normal;font-weight:bold;font-stretch:normal;font-size:45px;line-height:1.25;font-family:Lavi;-inkscape-font-specification:'Lavi Bold'"
         x="1883.0886"
         y="3134.877"
         id="tspan67-0">GRrrr...</tspan><tspan
         sodipodi:role="line"
         x="1883.0886"
         y="3153.7966"
         id="tspan852-9" /></text>
    <text
       xml:space="preserve"
       style="font-style:normal;font-variant:normal;font-weight:normal;font-stretch:normal;line-height:0%;font-family:Lavi;-inkscape-font-specification:Lavi;text-align:center;letter-spacing:0px;word-spacing:0px;text-anchor:middle;fill:#000000;fill-opacity:1;stroke:none"
       x="1919.5736"
       y="3222.498"
       id="text4246-3-5-9-3-3-6-3"><tspan
         sodipodi:role="line"
         style="font-size:45px;line-height:1.25;fill:#000000"
         x="1919.5736"
         y="3222.498"
         id="tspan61151">Hän on uhka meidän</tspan><tspan
         sodipodi:role="line"
         style="font-size:45px;line-height:1.25;fill:#000000"
         x="1919.5736"
         y="3278.748"
         id="tspan72">perinteillemme ja</tspan><tspan
         sodipodi:role="line"
         style="font-size:45px;line-height:1.25;fill:#000000"
         x="1919.5736"
         y="3334.998"
         id="tspan74">tavallemme sotia!</tspan></text>
  </g>
</svg>
