<?xml version="1.0" encoding="UTF-8" standalone="no"?>
<svg
   id="svg2"
   version="1.1"
   inkscape:version="1.2 (dc2aedaf03, 2022-05-15)"
   width="2481"
   height="3503"
   sodipodi:docname="E34P03.svg"
   xmlns:inkscape="http://www.inkscape.org/namespaces/inkscape"
   xmlns:sodipodi="http://sodipodi.sourceforge.net/DTD/sodipodi-0.dtd"
   xmlns:xlink="http://www.w3.org/1999/xlink"
   xmlns="http://www.w3.org/2000/svg"
   xmlns:svg="http://www.w3.org/2000/svg"
   xmlns:rdf="http://www.w3.org/1999/02/22-rdf-syntax-ns#"
   xmlns:cc="http://creativecommons.org/ns#"
   xmlns:dc="http://purl.org/dc/elements/1.1/">
  <metadata
     id="metadata8">
    <rdf:RDF>
      <cc:Work
         rdf:about="">
        <dc:format>image/svg+xml</dc:format>
        <dc:type
           rdf:resource="http://purl.org/dc/dcmitype/StillImage" />
        <dc:title />
      </cc:Work>
    </rdf:RDF>
  </metadata>
  <defs
     id="defs6" />
  <sodipodi:namedview
     pagecolor="#ffffff"
     bordercolor="#666666"
     borderopacity="1"
     objecttolerance="10"
     gridtolerance="10"
     guidetolerance="10"
     inkscape:pageopacity="0"
     inkscape:pageshadow="2"
     inkscape:window-width="1645"
     inkscape:window-height="686"
     id="namedview4"
     showgrid="false"
     inkscape:zoom="0.64306408"
     inkscape:cx="1266.5923"
     inkscape:cy="551.26699"
     inkscape:window-x="899"
     inkscape:window-y="738"
     inkscape:window-maximized="1"
     inkscape:current-layer="layer1"
     inkscape:document-rotation="0"
     borderlayer="true"
     inkscape:showpageshadow="2"
     inkscape:pagecheckerboard="0"
     inkscape:deskcolor="#d1d1d1" />
  <g
     inkscape:groupmode="layer"
     id="layer2"
     inkscape:label="artwork"
     sodipodi:insensitive="true">
    <image
       xlink:href="../gfx_Pepper-and-Carrot_by-David-Revoy_E34P03.png"
       width="2481"
       height="3503"
       id="image10"
       x="0"
       y="0" />
  </g>
  <g
     inkscape:groupmode="layer"
     id="layer3"
     inkscape:label="speechbubbles"
     style="display:inline">
    <path
       style="color:#000000;display:inline;overflow:visible;visibility:visible;fill:#ffffff;fill-opacity:1;fill-rule:nonzero;stroke:none;stroke-width:1.28637px;marker:none;enable-background:accumulate"
       d="M 1193.0195 2141.2539 C 1147.4665 2142.5671 1101.9993 2145.7949 1056.4882 2148.0331 C 1040.1149 2148.962 1023.7201 2149.6682 1007.3809 2151.0859 C 986.44059 2153.2798 965.05812 2157.8467 947.1858 2169.5091 C 921.02801 2186.7726 904.29329 2216.7758 901.8239 2247.8635 C 899.1541 2271.4988 900.76044 2296.2896 910.83956 2318.1327 C 922.10967 2342.3277 941.08577 2362.0752 962.11133 2378.1152 C 986.35974 2396.3154 1014.9445 2408.2676 1044.5424 2414.4486 C 1063.0338 2418.5239 1081.5501 2422.6322 1100.3562 2424.99 C 1127.2036 2428.5084 1154.2469 2430.5454 1181.3121 2431.2641 C 1208.8071 2431.7313 1236.2261 2429.2165 1263.6792 2428.1654 C 1285.4569 2426.8818 1307.1093 2423.3647 1328.1082 2417.429 C 1353.9893 2410.8256 1379.9991 2402.925 1402.894 2388.8174 C 1422.1423 2375.4583 1435.5355 2355.3128 1444.9161 2334.1585 C 1456.1649 2310.0707 1465.488 2284.4358 1466.7411 2257.6402 C 1467.0627 2231.6976 1455.2226 2206.598 1437.3311 2188.1922 C 1417.1884 2167.1102 1389.1273 2154.2543 1360.222 2151.3692 C 1332.6925 2147.7326 1304.9385 2146.2965 1277.2433 2144.54 C 1249.1938 2142.9287 1221.1201 2141.4597 1193.0195 2141.2539 z "
       id="path4546-6-08-2"
       inkscape:connector-curvature="0"
       sodipodi:nodetypes="cssssc" />
    <path
       style="color:#000000;display:inline;overflow:visible;visibility:visible;fill:#ffffff;fill-opacity:1;fill-rule:nonzero;stroke:none;stroke-width:0.586403px;marker:none;enable-background:accumulate"
       d="m 786.34677,2123.5123 c 5.02464,-42.62 47.16918,-72.3401 153.25243,-60.2559 56.824,6.4733 121.4295,11.7571 114.7301,74.2181 -6.6996,62.4603 -99.65607,57.3161 -118.91724,58.0513 -19.26129,0.7346 -119.01807,-9.6322 -135.66614,-31.5981 -10.42127,-13.7499 -14.23657,-27.1885 -13.39915,-40.4154 z"
       id="path4546-6-08"
       inkscape:connector-curvature="0"
       sodipodi:nodetypes="cssssc" />
    <path
       style="fill:#ffffff;fill-rule:evenodd;stroke:none;stroke-width:1.25695px;stroke-linecap:butt;stroke-linejoin:miter;stroke-opacity:1"
       d="m 1471.3459,2456.5997 c -67.1764,-16.6519 -104.4231,-46.199 -116.7263,-96.6707 l -26.7459,22.416 c 34.4783,64.0674 88.4565,69.7439 143.4722,74.2547 z"
       id="path1291"
       inkscape:connector-curvature="0"
       sodipodi:nodetypes="cccc" />
    <path
       style="fill:#ffffff;stroke:none;stroke-width:0.889177"
       d="M 2021.9746 293.04297 C 1986.2611 294.07712 1950.6511 298.20458 1915.5842 305.00734 C 1897.2671 309.1582 1879.094 316.08213 1864.5805 328.29986 C 1848.9549 342.02174 1839.9695 362.40556 1838.5443 382.99035 C 1837.4905 402.98147 1846.4045 422.8559 1860.9771 436.37442 C 1871.8817 446.72968 1885.7664 453.45012 1900.1581 457.44238 C 1915.3778 461.95298 1930.9642 465.07853 1946.539 468.07439 C 2003.4336 478.27956 2061.8567 478.26407 2119.108 471.05766 C 2137.649 468.56593 2156.4968 464.93369 2173.0312 455.76953 C 2189.0602 446.73109 2202.4626 432.44517 2209.0376 415.12729 C 2214.6517 400.26332 2213.6012 383.63067 2208.9699 368.65703 C 2202.7061 348.54748 2188.7755 330.49215 2169.8581 320.86304 C 2157.6789 314.81215 2144.6054 310.88477 2131.6863 306.76685 C 2121.7593 303.68091 2111.7555 300.69506 2101.4397 299.22079 C 2083.4891 296.39105 2065.3025 295.68652 2047.2229 294.07694 C 2038.823 293.43445 2030.4024 292.95373 2021.9746 293.04297 z "
       id="path3100-2-0"
       inkscape:connector-curvature="0" />
    <path
       style="fill:#ffffff;stroke:none;stroke-width:1.0865"
       d="m 2019.5839,253.5565 c -6.366,58.07386 -97.0698,73.80425 -161.6063,73.87191 -109.7496,4.35437 -220.9647,-2.91346 -328.0217,-21.54286 -69.1323,-16.08413 -102.7338,-90.80562 -45.3804,-128.46041 58.8257,-29.32136 134.3857,-26.7993 202.2704,-32.43727 96.0136,-2.96731 195.4627,2.45137 285.3702,29.62082 40.0531,14.78235 53.9309,47.65096 47.3678,78.94781 z"
       id="path3100-2"
       inkscape:connector-curvature="0" />
    <path
       style="color:#000000;display:inline;overflow:visible;visibility:visible;fill:#ffffff;fill-opacity:1;fill-rule:nonzero;stroke:none;stroke-width:1.04174px;marker:none;enable-background:accumulate"
       d="m 954.3418,206.84405 c -45.87505,1.98303 -90.50389,14.86637 -132.65874,32.03161 -15.88073,6.07328 -32.79797,11.16439 -45.81804,22.39739 -14.02348,12.34231 -22.59215,29.41996 -28.17223,46.75937 -8.54435,27.93936 -10.7449,57.25373 -11.54367,86.25917 -0.41844,14.28046 -0.22398,28.6483 2.27607,42.76268 2.82333,16.29266 7.67467,32.33628 15.09561,47.21487 11.30881,21.28011 30.71463,37.5118 52.13963,48.71847 21.39559,11.1837 45.2899,17.17177 69.33549,19.66308 23.84715,2.71731 47.88886,3.64001 71.88735,3.45572 32.30255,-0.61453 64.91303,-4.56448 95.38533,-15.43432 26.8709,-10.5249 48.2885,-32.1524 60.4625,-57.53633 13.0838,-25.92741 21.7985,-53.95805 25.7259,-82.5958 3.6767,-28.99649 1.7999,-59.10444 -8.6815,-86.65386 -8.6775,-22.09639 -24.0909,-41.50414 -43.5152,-55.63631 -22.4585,-17.15965 -47.7099,-30.56149 -73.7901,-41.6927 -15.25658,-5.99836 -31.57975,-10.06227 -48.1284,-9.71304 z"
       id="path4040-40"
       inkscape:connector-curvature="0"
       sodipodi:nodetypes="zssssz" />
    <path
       style="fill:#ffffff;stroke:none;stroke-width:1.36939"
       d="m 892.09961,88.826334 c -28.75402,0.336902 -57.83216,3.363847 -85.19428,13.397696 -16.3116,5.96492 -32.41506,13.84832 -45.4192,26.26982 -9.12602,8.95523 -15.8987,20.99968 -17.81839,34.25248 -2.89051,17.39156 1.5927,35.79962 11.34058,49.90043 13.456,20.82892 35.77762,34.44258 59.16006,36.76059 35.76084,5.3918 71.958,4.07814 107.95733,4.28932 28.05868,-0.11683 56.41595,-0.50982 83.90449,-7.2605 18.7707,-4.74747 37.197,-13.23746 51.5197,-27.44646 10.6108,-10.80905 17.6808,-26.23856 17.2066,-42.17946 -0.2887,-19.07421 -9.2063,-37.26922 -22.3777,-49.721 -14.6982,-14.31521 -33.3654,-22.89254 -52.3065,-28.366649 -27.6725,-7.935641 -56.47609,-8.997119 -84.94555,-9.729496 -7.6746,-0.160188 -15.35121,-0.243815 -23.02714,-0.166771 z"
       id="path3280-1"
       inkscape:connector-curvature="0"
       sodipodi:nodetypes="csssc" />
    <path
       style="color:#000000;display:inline;overflow:visible;visibility:visible;fill:#ffffff;fill-opacity:1;fill-rule:nonzero;stroke:none;stroke-width:0.990091px;marker:none;enable-background:accumulate"
       d="m 488.9942,566.25992 c -18.78498,50.92279 -2.84901,105.08842 13.19711,114.63467 -28.06687,-12.75099 -51.50197,-72.60161 -41.41962,-110.56135 11.40195,-31.85325 28.22251,-4.07332 28.22251,-4.07332 z"
       id="path4480-2"
       inkscape:connector-curvature="0"
       sodipodi:nodetypes="cccc"
       inkscape:transform-center-x="54.91025"
       inkscape:transform-center-y="-145.58616" />
    <path
       style="color:#000000;display:inline;overflow:visible;visibility:visible;fill:#ffffff;fill-opacity:1;fill-rule:nonzero;stroke:none;stroke-width:1.058px;marker:none;enable-background:accumulate"
       d="m 507.35636,344.91805 c -37.97473,0.38871 -76.29494,0.62809 -113.6499,7.70681 -20.91753,4.81035 -40.61052,16.02628 -52.5529,32.93774 -18.94702,24.90098 -27.87834,55.81779 -26.96964,86.14759 1.24014,28.78316 15.02181,57.90606 40.33223,75.31491 18.23004,12.52985 40.45997,18.55933 62.45243,22.51044 36.38825,7.75808 73.93191,10.70576 111.21227,8.89598 32.41716,-0.66374 65.49704,-0.97372 96.69689,-10.14974 21.78713,-6.74558 41.37582,-19.98837 53.90952,-37.95905 14.0205,-19.28477 20.13976,-42.68724 20.67241,-65.74216 1.14688,-29.70679 -6.33005,-60.34467 -24.7032,-85.00881 -13.43156,-16.82836 -34.48115,-28.25541 -56.95389,-30.54413 -29.36841,-4.51394 -59.24475,-2.6804 -88.85287,-4.04776 -7.19733,-0.10101 -14.39549,-0.0656 -21.59335,-0.0618 z"
       id="path4546-6-5-5"
       inkscape:connector-curvature="0"
       sodipodi:nodetypes="cssssc" />
    <path
       style="color:#000000;display:inline;overflow:visible;visibility:visible;fill:#ffffff;fill-opacity:1;fill-rule:nonzero;stroke:none;stroke-width:0.878626px;marker:none;enable-background:accumulate"
       d="m 280.03711,122.38281 c -33.79477,0.68643 -68.02945,4.60046 -99.77231,16.78803 -17.23206,6.90084 -33.18544,18.89121 -41.6431,35.74547 -9.88288,20.64639 -10.45282,45.06065 -3.60005,66.71181 4.53119,13.43431 13.76714,25.42778 26.2788,32.30259 19.49064,11.5596 41.77723,17.42486 64.07206,20.50986 17.17101,2.38165 34.46105,3.75524 51.7079,5.44806 31.56947,2.56675 63.42574,2.91769 94.90088,-1.01693 28.89544,-3.55299 57.83793,-9.01684 84.94654,-19.92043 14.64667,-5.90857 29.0757,-13.59551 39.64678,-25.60571 14.50656,-16.00103 18.89205,-39.42064 14.04417,-60.13619 -3.60016,-15.96647 -12.91349,-30.7211 -26.39467,-40.14017 -16.42622,-11.79649 -36.42107,-16.96784 -55.99513,-20.73869 -30.1949,-5.68926 -60.95953,-7.12509 -91.57175,-8.89364 -18.85659,-0.90071 -37.74247,-1.35513 -56.62012,-1.05406 z"
       id="path4546-6-5-3"
       inkscape:connector-curvature="0"
       sodipodi:nodetypes="cssssc" />
    <path
       id="path1081"
       style="fill:#ffffff;fill-rule:evenodd;stroke:none;stroke-width:1px;stroke-linecap:butt;stroke-linejoin:miter;stroke-opacity:1"
       d="m 293.67188,278.28125 c -10.34602,0.0639 -20.49884,2.27426 -30.72657,3.55078 -2.69982,4.93778 -4.08222,10.48922 -6.23101,15.68234 -5.67931,15.85263 -11.23804,31.88728 -14.15471,48.50943 -1.55744,12.04107 -0.85288,24.84605 5.20433,35.64519 9.1497,17.95023 22.70579,33.83652 27.94646,53.6304 3.09231,10.90551 5.52274,22.36337 4.35032,33.73572 -2.11881,9.59327 -8.21891,17.62309 -11.87847,26.63366 -6.87167,15.32803 -10.49807,32.77889 -6.43519,49.37594 1.01596,4.68537 2.40213,9.28257 3.95804,13.81467 -2.44284,-26.62563 4.52474,-54.43511 21.1636,-75.60842 5.87927,-7.58781 10.3557,-16.41037 11.5087,-26.03213 2.42129,-15.20105 -1.52987,-30.55332 -7.50308,-44.47184 -6.35087,-15.65438 -14.74681,-30.53834 -19.38839,-46.84497 -2.53518,-14.1623 4.48464,-27.52853 11.07638,-39.5497 6.64471,-12.19187 14.72253,-23.64193 20.19033,-36.44305 2.35665,-5.59735 -3.25033,-12.19349 -9.08074,-11.62802 z" />
    <path
       style="color:#000000;display:inline;overflow:visible;visibility:visible;fill:#ffffff;fill-opacity:1;fill-rule:nonzero;stroke:none;stroke-width:0.747612px;marker:none;enable-background:accumulate"
       d="m 899.59119,531.93304 c -2.31202,46.97432 46.46212,99.91514 106.27011,73.88577 -68.51547,11.60614 -80.86302,-50.88993 -74.49691,-77.22915 6.052,-16.0625 -31.7732,3.34338 -31.7732,3.34338 z"
       id="path3978-4"
       inkscape:connector-curvature="0"
       sodipodi:nodetypes="cccc" />
    <path
       style="fill:#ffffff;fill-rule:evenodd;stroke:none;stroke-width:1.17292px;stroke-linecap:butt;stroke-linejoin:miter;stroke-opacity:1"
       d="m 2100.8685,448.51869 c 46.9908,56.36735 25.0644,96.94489 0.9732,119.18809 57.8143,-39.15954 50.7085,-84.22782 24.8731,-138.46075 -6.4903,-8.77797 -25.8463,19.27266 -25.8463,19.27266 z"
       id="path1359"
       inkscape:connector-curvature="0"
       sodipodi:nodetypes="cccc" />
    <path
       style="color:#000000;display:inline;overflow:visible;visibility:visible;fill:#ffffff;fill-opacity:1;fill-rule:nonzero;stroke:none;stroke-width:0.53159px;marker:none;enable-background:accumulate"
       d="m 753.43797,1784.4258 c -21.61908,0.867 -43.64329,5.9216 -62.11716,18.3531 -12.9203,9.5893 -19.93225,26.9834 -18.3262,43.572 0.52192,13.3373 4.75947,27.3028 14.46741,36.2633 10.66519,9.28 24.51001,12.594 37.76342,15.0694 19.19956,3.3542 38.6325,5.3796 58.0923,5.6186 25.93906,-0.1737 51.97567,-5.0256 76.09424,-15.3087 9.98843,-4.6176 19.69787,-11.9976 23.93725,-23.0724 8.94529,-22.3457 0.0224,-50.8982 -19.67455,-63.133 -14.27504,-9.2197 -31.09379,-12.1995 -47.41439,-14.2998 -20.8459,-2.4933 -41.85659,-3.2792 -62.82232,-3.0625 z"
       id="path4546-6-5-3-5"
       inkscape:connector-curvature="0"
       sodipodi:nodetypes="cssssc" />
    <path
       style="color:#000000;display:inline;overflow:visible;visibility:visible;fill:#ffffff;fill-opacity:1;fill-rule:nonzero;stroke:none;stroke-width:0.710537px;marker:none;enable-background:accumulate"
       d="m 849.98651,1849.2956 c 26.9288,18.2447 60.46856,37.1401 111.40082,-0.4118 -51.33263,27.0778 -81.7058,-0.5873 -98.47579,-20.0818 -9.1535,-13.7188 -12.92502,20.4935 -12.92503,20.4936 z"
       id="path3978-4-3"
       inkscape:connector-curvature="0"
       sodipodi:nodetypes="cccc" />
  </g>
  <g
     inkscape:groupmode="layer"
     id="layer1"
     inkscape:label="txt">
    <text
       xml:space="preserve"
       style="font-style:normal;font-variant:normal;font-weight:normal;font-stretch:normal;font-size:45px;line-height:1.25;font-family:Lavi;-inkscape-font-specification:Lavi;text-align:center;letter-spacing:0px;word-spacing:0px;text-anchor:middle;fill:#000000;fill-opacity:1;stroke:none"
       x="328.19693"
       y="194.99399"
       id="text4246-3-2-2-6-3-7-9-3"><tspan
         style="font-size:45px"
         sodipodi:role="line"
         x="328.19693"
         y="194.99399"
         id="tspan60">Is dit een van</tspan><tspan
         style="font-size:45px"
         sodipodi:role="line"
         x="328.19693"
         y="251.24399"
         id="tspan319">de genodigden?</tspan></text>
    <text
       xml:space="preserve"
       style="font-style:normal;font-variant:normal;font-weight:normal;font-stretch:normal;font-size:45px;line-height:1.25;font-family:Lavi;-inkscape-font-specification:Lavi;text-align:center;letter-spacing:0px;word-spacing:0px;text-anchor:middle;fill:#000000;fill-opacity:1;stroke:none"
       x="514.43018"
       y="421.59866"
       id="text4246-3-2-2-6-3-7-9-3-3"><tspan
         style="font-size:45px"
         sodipodi:role="line"
         x="514.43018"
         y="421.59866"
         id="tspan71">Ja. Mijn goede</tspan><tspan
         style="font-size:45px"
         sodipodi:role="line"
         x="514.43018"
         y="477.84866"
         id="tspan378">vriendin Pepper. </tspan><tspan
         style="font-size:45px"
         sodipodi:role="line"
         x="514.43018"
         y="534.09863"
         id="tspan73">Alles is in orde.</tspan></text>
    <text
       xml:space="preserve"
       style="font-style:normal;font-variant:normal;font-weight:normal;font-stretch:normal;font-size:45px;line-height:1.25;font-family:Lavi;-inkscape-font-specification:Lavi;text-align:center;letter-spacing:0px;word-spacing:0px;text-anchor:middle;fill:#000000;fill-opacity:1;stroke:none"
       x="909.74799"
       y="162.51166"
       id="text4246-3-2-2-6-3-7-9-3-3-5"><tspan
         style="font-size:45px"
         sodipodi:role="line"
         x="909.74799"
         y="162.51166"
         id="tspan77">Carrot, ben</tspan><tspan
         style="font-size:45px"
         sodipodi:role="line"
         x="909.74799"
         y="218.76166"
         id="tspan547">je oké?</tspan></text>
    <text
       xml:space="preserve"
       style="font-style:normal;font-variant:normal;font-weight:normal;font-stretch:normal;font-size:40px;line-height:1.25;font-family:Lavi;-inkscape-font-specification:Lavi;text-align:center;letter-spacing:0px;word-spacing:0px;text-anchor:middle;fill:#000000;fill-opacity:1;stroke:none"
       x="930.7442"
       y="297.52646"
       id="text4246-3-2-2-6-3-7-9-3-3-5-9"><tspan
         sodipodi:role="line"
         x="930.7442"
         y="297.52646"
         style="font-size:40px"
         id="tspan127">Het spijt me, ik</tspan><tspan
         sodipodi:role="line"
         x="930.7442"
         y="347.52646"
         style="font-size:40px"
         id="tspan569">heb het landen op</tspan><tspan
         sodipodi:role="line"
         x="930.7442"
         y="397.52646"
         style="font-size:40px"
         id="tspan701">supersnellheid nog</tspan><tspan
         sodipodi:role="line"
         x="930.7442"
         y="447.52646"
         style="font-size:40px"
         id="tspan567">niet zo goed onder</tspan><tspan
         sodipodi:role="line"
         x="930.7442"
         y="497.52646"
         style="font-size:40px"
         id="tspan693">de knie, geloof ik.</tspan></text>
    <text
       xml:space="preserve"
       style="font-style:normal;font-variant:normal;font-weight:normal;font-stretch:normal;font-size:45px;line-height:1.25;font-family:Lavi;-inkscape-font-specification:Lavi;text-align:center;letter-spacing:0px;word-spacing:0px;text-anchor:middle;fill:#000000;fill-opacity:1;stroke:none"
       x="1746.5807"
       y="228.80762"
       id="text4246-3-2-2-6-3-7-9-3-3-5-9-2"><tspan
         style="font-size:45px"
         sodipodi:role="line"
         x="1746.5807"
         y="228.80762"
         id="tspan81">Nogmaals mijn excuses</tspan><tspan
         style="font-size:45px"
         sodipodi:role="line"
         x="1746.5807"
         y="285.05762"
         id="tspan770">voor de onderbreking,</tspan></text>
    <text
       xml:space="preserve"
       style="font-style:normal;font-variant:normal;font-weight:normal;font-stretch:normal;font-size:45px;line-height:1.25;font-family:Lavi;-inkscape-font-specification:Lavi;text-align:center;letter-spacing:0px;word-spacing:0px;text-anchor:middle;fill:#000000;fill-opacity:1;stroke:none"
       x="2025.9722"
       y="374.49142"
       id="text4246-3-2-2-6-3-7-9-3-3-5-9-2-6"><tspan
         style="font-size:45px"
         sodipodi:role="line"
         x="2025.9722"
         y="374.49142"
         id="tspan774">ennn... ook voor</tspan><tspan
         style="font-size:45px"
         sodipodi:role="line"
         x="2025.9722"
         y="430.74142"
         id="tspan778">m'n outfit....</tspan></text>
    <text
       xml:space="preserve"
       style="font-style:normal;font-variant:normal;font-weight:normal;font-stretch:normal;font-size:45px;line-height:1.25;font-family:Lavi;-inkscape-font-specification:Lavi;text-align:center;letter-spacing:0px;word-spacing:0px;text-anchor:middle;fill:#000000;fill-opacity:1;stroke:none"
       x="776.10114"
       y="1856.0842"
       id="text4246-3-2-2-6-3-7-9-3-3-5-9-2-6-3"><tspan
         style="font-size:45px"
         sodipodi:role="line"
         x="776.10114"
         y="1856.0842"
         id="tspan8459-7">Hihi!</tspan></text>
    <text
       xml:space="preserve"
       style="font-style:normal;font-variant:normal;font-weight:normal;font-stretch:normal;font-size:45px;line-height:1.25;font-family:Lavi;-inkscape-font-specification:Lavi;text-align:center;letter-spacing:0px;word-spacing:0px;text-anchor:middle;fill:#000000;fill-opacity:1;stroke:none"
       x="922.21698"
       y="2143.4609"
       id="text4246-3-2-2-6-3-7-9-3-3-5-9-2-6-1"><tspan
         style="font-size:45px"
         sodipodi:role="line"
         x="922.21698"
         y="2143.4609"
         id="tspan1077-7">Shichimi,</tspan></text>
    <text
       xml:space="preserve"
       style="font-style:normal;font-variant:normal;font-weight:normal;font-stretch:normal;font-size:45px;line-height:1.25;font-family:Lavi;-inkscape-font-specification:Lavi;text-align:center;letter-spacing:0px;word-spacing:0px;text-anchor:middle;fill:#000000;fill-opacity:1;stroke:none"
       x="1184.2006"
       y="2218.9443"
       id="text4246-3-2-2-6-3-7-9-3-3-5-9-2-6-1-9"><tspan
         style="font-size:45px"
         x="1184.2006"
         y="2218.9443"
         sodipodi:role="line"
         id="tspan97">deze jonge heks die</tspan><tspan
         style="font-size:45px"
         x="1184.2006"
         y="2275.1943"
         sodipodi:role="line"
         id="tspan837">zojuist gearriveerd is, is</tspan><tspan
         style="font-size:45px"
         x="1184.2006"
         y="2331.4443"
         sodipodi:role="line"
         id="tspan841">zij <tspan
   style="font-style:italic"
   id="tspan843">waarlijk</tspan> een van jouw</tspan><tspan
         style="font-size:45px"
         x="1184.2006"
         y="2387.6943"
         sodipodi:role="line"
         id="tspan967">vriendinnen?</tspan></text>
  </g>
</svg>
