<?xml version="1.0" encoding="UTF-8" standalone="no"?>
<svg
   sodipodi:docname="E34P01.svg"
   height="3503"
   width="2481"
   inkscape:version="1.2.1 (9c6d41e410, 2022-07-14)"
   version="1.1"
   id="svg2"
   xmlns:inkscape="http://www.inkscape.org/namespaces/inkscape"
   xmlns:sodipodi="http://sodipodi.sourceforge.net/DTD/sodipodi-0.dtd"
   xmlns:xlink="http://www.w3.org/1999/xlink"
   xmlns="http://www.w3.org/2000/svg"
   xmlns:svg="http://www.w3.org/2000/svg"
   xmlns:rdf="http://www.w3.org/1999/02/22-rdf-syntax-ns#"
   xmlns:cc="http://creativecommons.org/ns#"
   xmlns:dc="http://purl.org/dc/elements/1.1/">
  <metadata
     id="metadata8">
    <rdf:RDF>
      <cc:Work
         rdf:about="">
        <dc:format>image/svg+xml</dc:format>
        <dc:type
           rdf:resource="http://purl.org/dc/dcmitype/StillImage" />
        <dc:title />
      </cc:Work>
    </rdf:RDF>
  </metadata>
  <defs
     id="defs6">
    <filter
       inkscape:label="blur-layer-whisper"
       height="1.0263046"
       y="-0.013152302"
       width="1.0075036"
       x="-0.0037518157"
       id="filter7961"
       style="color-interpolation-filters:sRGB"
       inkscape:collect="always">
      <feGaussianBlur
         id="feGaussianBlur7963"
         stdDeviation="2.6222679"
         inkscape:collect="always" />
    </filter>
    <filter
       height="1.3504795"
       width="1.079756"
       id="filter8274"
       inkscape:label="narrator-drop-shadow"
       style="color-interpolation-filters:sRGB;"
       x="-0.052728084"
       y="-0.16361136">
      <feFlood
         id="feFlood8264"
         result="flood"
         flood-color="rgb(0,21,64)"
         flood-opacity="0.603922" />
      <feComposite
         id="feComposite8266"
         result="composite1"
         operator="in"
         in2="SourceGraphic"
         in="flood" />
      <feGaussianBlur
         id="feGaussianBlur8268"
         result="blur"
         stdDeviation="2.0230825044646368"
         in="composite1" />
      <feOffset
         id="feOffset8270"
         result="offset"
         dy="4.8380533854166714"
         dx="-7.4077921838061513" />
      <feComposite
         id="feComposite8272"
         result="fbSourceGraphic"
         operator="over"
         in2="offset"
         in="SourceGraphic" />
      <feColorMatrix
         id="feColorMatrix8420"
         values="0 0 0 -1 0 0 0 0 -1 0 0 0 0 -1 0 0 0 0 1 0"
         in="fbSourceGraphic"
         result="fbSourceGraphicAlpha" />
      <feFlood
         in="fbSourceGraphic"
         result="flood"
         flood-color="rgb(0,12,37)"
         flood-opacity="0.061934527228860295"
         id="feFlood8422" />
      <feComposite
         result="composite1"
         operator="in"
         in="flood"
         id="feComposite8424"
         in2="fbSourceGraphic" />
      <feGaussianBlur
         result="blur"
         stdDeviation="1"
         in="composite1"
         id="feGaussianBlur8426" />
      <feOffset
         result="offset"
         dy="-2.8318869588504754"
         dx="-3.3194756113327486"
         id="feOffset8428" />
      <feComposite
         result="composite2"
         operator="over"
         in="fbSourceGraphic"
         id="feComposite8430"
         in2="offset" />
    </filter>
  </defs>
  <sodipodi:namedview
     inkscape:snap-global="false"
     borderlayer="true"
     inkscape:document-rotation="0"
     inkscape:current-layer="layer1"
     inkscape:window-maximized="1"
     inkscape:window-y="36"
     inkscape:window-x="1283"
     inkscape:cy="2348.2557"
     inkscape:cx="1244.329"
     inkscape:zoom="0.4665165"
     showgrid="false"
     id="namedview4"
     inkscape:window-height="1388"
     inkscape:window-width="1261"
     inkscape:pageshadow="2"
     inkscape:pageopacity="0"
     guidetolerance="10"
     gridtolerance="10"
     objecttolerance="10"
     borderopacity="1"
     bordercolor="#666666"
     pagecolor="#ffffff"
     inkscape:showpageshadow="2"
     inkscape:pagecheckerboard="0"
     inkscape:deskcolor="#d1d1d1" />
  <g
     sodipodi:insensitive="true"
     inkscape:label="artwork"
     id="layer2"
     inkscape:groupmode="layer">
    <image
       xlink:href="../gfx_Pepper-and-Carrot_by-David-Revoy_E34P01.png"
       width="2481"
       height="3503.7233"
       id="image10"
       x="0"
       y="0" />
  </g>
  <g
     style="display:inline;opacity:0.65;filter:url(#filter7961)"
     inkscape:label="speechbubbles-whisper"
     id="layer3"
     inkscape:groupmode="layer">
    <path
       d="m 1454.4354,2869.7437 c -46.1117,-0.388 -91.2583,-10.4664 -136.4951,-17.982 -23.5976,-3.4099 -47.9861,-5.7666 -69.6872,-16.1238 -31.7834,-15.6028 -53.3755,-47.63 -58.1869,-81.5708 -3.2935,-22.9668 2.1018,-47.3091 16.2885,-66.1429 15.7399,-21.8957 39.9833,-37.0691 66.0035,-45.0003 31.0207,-10.1477 63.6609,-13.9911 95.812,-19.2058 55.3478,-7.4441 111.3781,-4.4605 166.9779,-2.0407 37.2337,1.9558 74.5354,3.4788 111.5933,7.6647 22.6311,2.7429 45.3582,6.5865 66.6954,14.6409 24.0677,9.4681 45.3335,25.9336 59.5478,47.0812 8.3628,13.242 12.1393,29.0338 11.078,44.502 -0.2572,20.8519 -4.813,41.8953 -14.8391,60.4324 -12.8764,21.9017 -35.0504,37.6451 -59.3199,45.928 -34.0435,12.3483 -70.4452,16.6765 -106.4987,19.0713 -38.7639,2.8501 -77.4735,6.5956 -116.3252,8.1702 -10.8755,0.4179 -21.7603,0.6222 -32.6443,0.5756 z"
       style="fill:#e0ffff;fill-rule:evenodd;stroke:none;stroke-width:1.34617px;stroke-linecap:butt;stroke-linejoin:miter;stroke-opacity:1"
       id="path1299" />
    <path
       inkscape:connector-curvature="0"
       id="path1285"
       d="m 1273.6311,2510.7423 c -26.6999,0.7253 -53.8476,3.9645 -78.2283,13.4124 -28.8226,11.8463 -48.8049,37.557 -48.7355,64.2691 0.6484,13.927 8.7339,27.0907 20.0896,37.1742 8.1583,7.2054 18.4002,12.5131 29.0819,16.7901 21.5059,8.8992 45.6069,13.0303 69.5788,13.2584 38.1964,1.7503 76.8335,-0.4378 114.0077,-8.1165 17.4946,-3.7706 34.9124,-9.787 47.8769,-20.5101 13.2708,-10.5912 22.9977,-24.9033 24.1455,-40.3148 0.3523,-13.8166 -6.8998,-26.9355 -16.3427,-38.0359 -12.0333,-14.7414 -30.4222,-26.2584 -51.5724,-30.2538 -25.7312,-5.8187 -52.5767,-6.4817 -79.0704,-7.4228 -10.274,-0.2469 -20.5534,-0.2786 -30.8311,-0.2503 z"
       style="fill:#e0ffff;fill-rule:evenodd;stroke:none;stroke-width:1.81846px;stroke-linecap:butt;stroke-linejoin:miter;stroke-opacity:1" />
    <path
       sodipodi:nodetypes="csssc"
       inkscape:connector-curvature="0"
       id="path3280-8-90"
       d="M 246.66211 2518.8184 C 216.88462 2519.8622 186.63882 2525.7853 160.49243 2540.6002 C 132.51095 2556.8601 112.37667 2586.2847 108.25561 2618.4833 C 103.99978 2646.3822 108.94256 2676.2193 124.6968 2699.9296 C 138.25384 2719.3422 159.38177 2732.353 181.7069 2739.3733 C 209.41173 2748.7257 238.57759 2752.6057 267.57011 2755.4056 C 303.94888 2758.1364 341.14783 2756.0539 376.12597 2745.1011 C 401.92563 2736.195 425.60369 2719.3139 439.78307 2695.6864 C 452.62155 2674.3889 456.15826 2648.3238 451.95973 2624.0136 C 448.97156 2600.7965 440.10832 2577.6572 423.56187 2560.6993 C 405.78613 2542.0152 381.14716 2531 355.9565 2526.7726 C 320.04287 2519.3953 283.19126 2518.6846 246.66211 2518.8184 z "
       style="font-variation-settings:normal;vector-effect:none;fill:#e0ffff;fill-opacity:1;stroke:none;stroke-width:1.33846px;stroke-linecap:butt;stroke-linejoin:miter;stroke-miterlimit:4;stroke-dasharray:none;stroke-dashoffset:0;stroke-opacity:1;stop-color:#000000" />
    <path
       sodipodi:nodetypes="csccccc"
       inkscape:connector-curvature="0"
       id="path1291"
       d="m 405.61348,2631.9631 c 42.85265,-5.0607 58.06957,-2.3086 68.49973,0.7202 10.42915,3.0295 34.5561,33.0962 43.85358,53.3011 -34.06156,-36.1486 -48.52756,-39.3772 -65.05064,-34.4498 -16.52311,4.9273 -63.29994,23.4366 -63.29994,23.4366 l 11.09296,-45.4041 z"
       style="fill:#e0ffff;fill-opacity:1;fill-rule:evenodd;stroke:none;stroke-width:1.28082px;stroke-linecap:butt;stroke-linejoin:miter;stroke-opacity:1" />
    <path
       sodipodi:nodetypes="cccc"
       inkscape:connector-curvature="0"
       id="path1291-6"
       d="m 1434.2038,2989.2388 c 48.3667,-37.0134 81.9085,-79.2404 77.928,-171.8638 l 30.8393,-3.1198 c -4.7727,67.6875 -17.9327,144.5385 -108.7673,174.9836 z"
       style="fill:#e0ffff;fill-rule:evenodd;stroke:none;stroke-width:0.964753px;stroke-linecap:butt;stroke-linejoin:miter;stroke-opacity:1" />
  </g>
  <g
     style="display:inline"
     inkscape:label="speechbubbles"
     id="layer4"
     inkscape:groupmode="layer">
    <path
       d="m 462.18577,1878.5547 c -64.5097,0.8832 -129.10407,-0.4356 -193.52683,3.5226 -40.41989,4.1706 -80.53076,16.3644 -113.91147,38.901 -16.38398,11.0482 -30.65227,26.4234 -35.77506,45.3017 -6.40828,22.2758 -3.8424,45.6133 -1.85341,68.2909 2.24289,23.2847 6.08945,47.0997 17.85774,67.9393 12.55412,22.2678 34.30886,39.5069 59.4006,47.5616 26.58088,9.4117 55.07724,11.9567 83.1448,13.9552 55.24415,3.2344 110.63451,3.182 165.95289,2.2484 27.99104,-0.5551 55.98566,-1.2008 83.95478,-2.4002 36.07884,-1.9347 72.46187,-7.3378 105.86219,-21.0099 18.11517,-7.1646 36.36301,-15.8995 49.39183,-30.2852 13.02814,-14.7905 19.74249,-33.5915 23.37071,-52.3492 7.14253,-31.7546 10.23703,-64.9669 3.32742,-97.0197 -6.0912,-27.8731 -27.69805,-52.2977 -55.78816,-62.1522 -26.15054,-9.9317 -54.38503,-12.7412 -82.06827,-16.2205 -36.26608,-4.211 -72.79974,-6.4655 -109.33976,-6.2838 z"
       style="color:#000000;display:inline;overflow:visible;visibility:visible;fill:#ffffff;fill-opacity:1;fill-rule:nonzero;stroke:none;stroke-width:0.921406px;marker:none;enable-background:accumulate"
       id="path4040-4-1" />
    <path
       sodipodi:nodetypes="ccscc"
       inkscape:connector-curvature="0"
       id="path4440-1"
       d="m 539.19946,1927.3519 c 7.55014,-44.8382 62.74837,-99.1824 137.61984,-61.3131 -80.77928,-16.5552 -107.19343,39.0539 -106.74645,81.3775 0.39562,37.4602 -16.36437,17.1598 -16.36437,17.1598 z"
       style="color:#000000;display:inline;overflow:visible;visibility:visible;fill:#ffffff;fill-opacity:1;fill-rule:nonzero;stroke:none;stroke-width:1.80075px;marker:none;enable-background:accumulate" />
    <path
       sodipodi:nodetypes="zssssz"
       inkscape:connector-curvature="0"
       id="path4040-2"
       d="M 1820.8262 2838.6191 C 1792.0885 2839.5433 1763.4847 2847.4425 1738.6094 2861.9277 C 1720.0781 2875.1933 1712.6983 2901.4762 1721.0624 2922.5801 C 1725.5383 2934.3483 1734.6722 2944.2163 1746.1269 2949.4719 C 1759.279 2956.0329 1773.7407 2959.2487 1787.9538 2962.6123 C 1820.4162 2969.3146 1853.8996 2970.3439 1886.8525 2967.3229 C 1898.3278 2965.8234 1909.1359 2960.4592 1917.5405 2952.5433 C 1929.65 2941.7367 1938.8332 2927.2186 1941.9562 2911.1872 C 1944.4142 2895.8033 1938.789 2879.089 1926.5923 2869.1525 C 1913.7928 2857.8363 1897.0702 2852.7409 1880.958 2848.1729 C 1861.419 2842.591 1841.2438 2838.3276 1820.8262 2838.6191 z "
       style="color:#000000;display:inline;overflow:visible;visibility:visible;fill:#ffffff;fill-opacity:1;fill-rule:nonzero;stroke:none;stroke-width:0.774122px;marker:none;enable-background:accumulate" />
    <path
       sodipodi:nodetypes="ccsc"
       inkscape:connector-curvature="0"
       id="path5010-4"
       d="m 1970.7532,2998.2521 c 42.5246,54.5422 86.7334,47.5024 118.7066,15.8691 -23.32,34.399 -69.359,69.3478 -144.2603,0.1036 -14.3413,-13.258 25.5537,-15.9727 25.5537,-15.9727 z"
       style="color:#000000;display:inline;overflow:visible;visibility:visible;fill:#ffffff;fill-opacity:1;fill-rule:nonzero;stroke:none;stroke-width:0.811733px;marker:none;enable-background:accumulate" />
    <path
       sodipodi:nodetypes="zssssz"
       inkscape:connector-curvature="0"
       id="path4040-2-5"
       d="M 1873.9727 2930.5352 C 1849.4685 2931.5213 1824.6881 2937.4276 1803.7251 2950.4952 C 1784.171 2962.7661 1770.3358 2983.1556 1764.4863 3005.3379 C 1760.4984 3020.908 1760.1781 3037.7525 1765.3809 3053.08 C 1772.6485 3073.5898 1789.2689 3090.0714 1808.8812 3099.0502 C 1825.3916 3106.4337 1843.4424 3109.2349 1861.2064 3111.8067 C 1886.7946 3114.9699 1912.7122 3115.0224 1938.3907 3112.9813 C 1960.0634 3110.7509 1981.7861 3103.1426 1998.075 3088.2865 C 2010.519 3077.0911 2020.6618 3062.2968 2023.1558 3045.4652 C 2025.0734 3031.8171 2023.2172 3017.8826 2019.714 3004.6425 C 2014.4372 2985.9253 2003.2867 2968.5475 1987.1214 2957.4564 C 1965.7602 2942.155 1939.6415 2935.2142 1913.8553 2932.1957 C 1900.6228 2930.7228 1887.2803 2930.2161 1873.9727 2930.5352 z "
       style="color:#000000;display:inline;overflow:visible;visibility:visible;fill:#ffffff;fill-opacity:1;fill-rule:nonzero;stroke:none;stroke-width:0.866707px;marker:none;enable-background:accumulate" />
    <rect
       y="127.99652"
       x="128.97966"
       height="86.261734"
       width="417.40149"
       id="rect8238"
       style="color:#000000;overflow:visible;fill:#eeffdb;fill-opacity:0.89322001;stroke:#807e00;stroke-width:8.05223;paint-order:stroke fill markers;stop-color:#000000;filter:url(#filter8274);stroke-opacity:1" />
  </g>
  <g
     inkscape:label="txt"
     id="layer1"
     inkscape:groupmode="layer">
    <text
       id="text4246-3-2-2-35"
       y="186.49605"
       x="327.29865"
       style="font-style:normal;font-variant:normal;font-weight:normal;font-stretch:normal;font-size:45px;line-height:1.25;font-family:Lavi;-inkscape-font-specification:Lavi;text-align:center;letter-spacing:0px;word-spacing:0px;text-anchor:middle;fill:#000000;fill-opacity:1;stroke:none"
       xml:space="preserve"><tspan
         id="tspan905-2"
         y="186.49605"
         x="327.29865"
         sodipodi:role="line"
         style="font-size:45px">Later die nacht...</tspan></text>
    <text
       id="text4246-3-2-2"
       y="1958.8977"
       x="411.95737"
       style="font-style:normal;font-variant:normal;font-weight:normal;font-stretch:normal;font-size:45px;line-height:1.25;font-family:Lavi;-inkscape-font-specification:Lavi;text-align:center;letter-spacing:0px;word-spacing:0px;text-anchor:middle;fill:#000000;fill-opacity:1;stroke:none"
       xml:space="preserve"><tspan
         y="1958.8977"
         x="411.95737"
         sodipodi:role="line"
         style="font-size:45px"
         id="tspan465"> ...en dus, op deze avond,</tspan><tspan
         id="tspan80"
         y="2015.1477"
         x="411.95737"
         sodipodi:role="line"
         style="font-size:45px">verwelkomen we jou, </tspan><tspan
         y="2071.3977"
         x="411.95737"
         sodipodi:role="line"
         style="font-size:45px"
         id="tspan469">Shichimi, hierbij als kers-</tspan><tspan
         y="2127.6477"
         x="411.95737"
         sodipodi:role="line"
         style="font-size:45px"
         id="tspan640">verse Ridder van Ah.</tspan></text>
    <text
       id="text4246-3-2-2-3"
       y="2594.0891"
       x="281.43396"
       style="font-style:normal;font-variant:normal;font-weight:normal;font-stretch:normal;font-size:45px;line-height:1.25;font-family:Lavi;-inkscape-font-specification:Lavi;text-align:center;letter-spacing:0px;word-spacing:0px;text-anchor:middle;fill:#000000;fill-opacity:1;stroke:none"
       xml:space="preserve"><tspan
         id="tspan101"
         y="2594.0891"
         x="281.43396"
         sodipodi:role="line"
         style="font-size:45px;fill:#000000;fill-opacity:1">Nog altijd</tspan><tspan
         y="2650.3391"
         x="281.43396"
         sodipodi:role="line"
         style="font-size:45px;fill:#000000;fill-opacity:1"
         id="tspan551">geen teken van</tspan><tspan
         y="2706.5891"
         x="281.43396"
         sodipodi:role="line"
         style="font-size:45px;fill:#000000;fill-opacity:1"
         id="tspan553">Pepper?</tspan></text>
    <text
       transform="translate(-22.636085,-29.590992)"
       id="text4246-3-2-2-3-5"
       y="2594.489"
       x="1320.327"
       style="font-style:normal;font-variant:normal;font-weight:normal;font-stretch:normal;font-size:45px;line-height:1.25;font-family:Lavi;-inkscape-font-specification:Lavi;text-align:center;letter-spacing:0px;word-spacing:0px;text-anchor:middle;white-space:pre;inline-size:253.323;display:inline;fill:#000000;fill-opacity:1;stroke:none"
       xml:space="preserve"><tspan
         x="1320.327"
         y="2594.489"
         id="tspan326">Nog
</tspan><tspan
         x="1320.327"
         y="2650.7389"
         id="tspan328">steeds niet.</tspan></text>
    <text
       id="text4246-3-2-2-3-5-1"
       y="2695.9419"
       x="1493.1329"
       style="font-style:normal;font-variant:normal;font-weight:normal;font-stretch:normal;font-size:45px;line-height:1.25;font-family:Lavi;-inkscape-font-specification:Lavi;text-align:center;letter-spacing:0px;word-spacing:0px;text-anchor:middle;fill:#000000;fill-opacity:1;stroke:none"
       xml:space="preserve"><tspan
         y="2695.9419"
         x="1493.1329"
         sodipodi:role="line"
         style="font-size:45px;fill:#000000;fill-opacity:1"
         id="tspan774">Ze kan zich beter</tspan><tspan
         y="2752.1919"
         x="1493.1329"
         sodipodi:role="line"
         style="font-size:45px;fill:#000000;fill-opacity:1"
         id="tspan776">haasten, anders mist ze</tspan><tspan
         y="2808.4419"
         x="1493.1329"
         sodipodi:role="line"
         style="font-size:45px;fill:#000000;fill-opacity:1"
         id="tspan784">Shichimi's toespraak nog.</tspan></text>
    <text
       id="text4246-3-2-2-3-5-1-7"
       y="2918.1755"
       x="1831.7936"
       style="font-style:normal;font-variant:normal;font-weight:normal;font-stretch:normal;font-size:45px;line-height:1.25;font-family:Lavi;-inkscape-font-specification:Lavi;text-align:center;letter-spacing:0px;word-spacing:0px;text-anchor:middle;fill:#000000;fill-opacity:1;stroke:none"
       xml:space="preserve"><tspan
         id="tspan7676"
         y="2918.1755"
         x="1831.7936"
         sodipodi:role="line"
         style="font-size:45px">Dank.</tspan></text>
    <text
       id="text4246-3-2-2-3-5-1-7-3"
       y="3013.8923"
       x="1894.7001"
       style="font-style:normal;font-variant:normal;font-weight:normal;font-stretch:normal;font-size:45px;line-height:1.25;font-family:Lavi;-inkscape-font-specification:Lavi;text-align:center;letter-spacing:0px;word-spacing:0px;text-anchor:middle;fill:#000000;fill-opacity:1;stroke:none"
       xml:space="preserve"><tspan
         id="tspan118"
         y="3013.8923"
         x="1894.7001"
         sodipodi:role="line"
         style="font-size:45px">Ik wil</tspan><tspan
         y="3070.1423"
         x="1894.7001"
         sodipodi:role="line"
         style="font-size:45px"
         id="tspan852">graag...</tspan></text>
  </g>
</svg>
