<?xml version="1.0" encoding="UTF-8" standalone="no"?>
<svg
   id="svg2"
   version="1.1"
   inkscape:version="1.2 (dc2aedaf03, 2022-05-15)"
   width="2481"
   height="3503"
   sodipodi:docname="E34P04.svg"
   xmlns:inkscape="http://www.inkscape.org/namespaces/inkscape"
   xmlns:sodipodi="http://sodipodi.sourceforge.net/DTD/sodipodi-0.dtd"
   xmlns:xlink="http://www.w3.org/1999/xlink"
   xmlns="http://www.w3.org/2000/svg"
   xmlns:svg="http://www.w3.org/2000/svg"
   xmlns:rdf="http://www.w3.org/1999/02/22-rdf-syntax-ns#"
   xmlns:cc="http://creativecommons.org/ns#"
   xmlns:dc="http://purl.org/dc/elements/1.1/">
  <metadata
     id="metadata8">
    <rdf:RDF>
      <cc:Work
         rdf:about="">
        <dc:format>image/svg+xml</dc:format>
        <dc:type
           rdf:resource="http://purl.org/dc/dcmitype/StillImage" />
        <dc:title />
      </cc:Work>
    </rdf:RDF>
  </metadata>
  <defs
     id="defs6">
    <filter
       style="color-interpolation-filters:sRGB"
       id="filter4375-4-1-1-1-9-5-8-8-5-5-3-8"
       inkscape:label="soundFX1"
       x="-0.044353127"
       y="-0.0023842071"
       width="1.0467294"
       height="1.0447156">
      <feFlood
         id="feFlood4377-7-9-0-8-1-7-3-1-2-7-6-7"
         flood-opacity="1"
         flood-color="rgb(255,255,255)"
         result="flood" />
      <feComposite
         id="feComposite4379-3-8-8-2-77-4-1-0-6-4-7-9"
         in2="SourceGraphic"
         in="flood"
         operator="in"
         result="composite1"
         baseFrequency="0.053999999999999999 0.053999999999999999" />
      <feMorphology
         id="feMorphology4393-1-0-49-8-9-3-0-1-9-9-5-2"
         operator="dilate"
         radius="2.9756367599225957"
         result="result3" />
      <feComposite
         id="feComposite4385-9-5-7-0-8-8-7-5-4-9-3-0"
         in2="result3"
         in="SourceGraphic"
         operator="over"
         result="fbSourceGraphic" />
      <feColorMatrix
         result="fbSourceGraphicAlpha"
         in="fbSourceGraphic"
         values="0 0 0 -1 0 0 0 0 -1 0 0 0 0 -1 0 0 0 0 1 0"
         id="feColorMatrix4544-9-4-4-5-2" />
      <feTurbulence
         id="feTurbulence4546-3-6-5-6-3"
         type="fractalNoise"
         numOctaves="5"
         seed="174"
         baseFrequency="0.053999999999999999 0.054054054054054057"
         result="turbulence" />
      <feDisplacementMap
         id="feDisplacementMap4548-8-0-9-2-7"
         in2="turbulence"
         in="fbSourceGraphic"
         scale="6.6"
         yChannelSelector="G"
         xChannelSelector="R"
         result="fbSourceGraphic" />
      <feColorMatrix
         result="fbSourceGraphicAlpha"
         in="fbSourceGraphic"
         values="0 0 0 -1 0 0 0 0 -1 0 0 0 0 -1 0 0 0 0 1 0"
         id="feColorMatrix4670-7-7-3-9-5" />
      <feFlood
         id="feFlood4672-4-4-5-1-9"
         flood-opacity="1"
         flood-color="rgb(255,255,255)"
         result="flood"
         in="fbSourceGraphic" />
      <feComposite
         id="feComposite4674-8-3-7-2-22"
         in2="fbSourceGraphic"
         in="flood"
         operator="in"
         result="composite1" />
      <feGaussianBlur
         id="feGaussianBlur4676-3-7-08-7-8"
         in="composite1"
         stdDeviation="0"
         result="blur" />
      <feOffset
         id="feOffset4678-6-9-1-0-9"
         dx="-6.3258232761971414"
         dy="6"
         result="offset" />
      <feComposite
         id="feComposite4680-4-0-9-9-7"
         in2="offset"
         in="fbSourceGraphic"
         operator="over"
         result="composite2" />
    </filter>
  </defs>
  <sodipodi:namedview
     pagecolor="#ffffff"
     bordercolor="#666666"
     borderopacity="1"
     objecttolerance="10"
     gridtolerance="10"
     guidetolerance="10"
     inkscape:pageopacity="0"
     inkscape:pageshadow="2"
     inkscape:window-width="1645"
     inkscape:window-height="686"
     id="namedview4"
     showgrid="false"
     inkscape:zoom="0.60647144"
     inkscape:cx="1232.5395"
     inkscape:cy="3108.9675"
     inkscape:window-x="899"
     inkscape:window-y="738"
     inkscape:window-maximized="1"
     inkscape:current-layer="layer1"
     inkscape:document-rotation="0"
     borderlayer="true"
     inkscape:snap-global="false"
     inkscape:showpageshadow="2"
     inkscape:pagecheckerboard="0"
     inkscape:deskcolor="#d1d1d1" />
  <g
     inkscape:groupmode="layer"
     id="layer2"
     inkscape:label="artwork"
     sodipodi:insensitive="true">
    <image
       xlink:href="../gfx_Pepper-and-Carrot_by-David-Revoy_E34P04.png"
       y="0"
       x="0"
       id="image10"
       height="3503"
       width="2481" />
  </g>
  <g
     inkscape:groupmode="layer"
     id="layer3"
     inkscape:label="speechbubbles"
     style="display:inline">
    <path
       style="color:#000000;display:inline;overflow:visible;visibility:visible;fill:#ffffff;fill-opacity:1;fill-rule:nonzero;stroke:none;stroke-width:0.815906px;marker:none;enable-background:accumulate"
       d="m 933.32695,166.32726 c -32.50039,0.18395 -65.6548,4.3207 -95.08324,16.6768 -21.95297,9.46959 -38.33692,27.36002 -44.88708,47.55653 -6.46895,17.57342 -7.09701,37.3748 1.91419,54.39309 9.17183,16.32462 27.49588,27.84589 47.40215,33.16846 41.52681,12.98606 85.98555,17.68501 130.00909,18.00231 35.01634,-0.4709 70.57084,-8.04729 99.81754,-24.95613 14.3254,-8.56373 25.49,-21.26712 29.8121,-35.86262 7.7331,-23.51142 1.7516,-49.8571 -15.0241,-69.52388 -10.914,-12.49715 -26.6927,-21.74406 -44.2063,-26.03808 -18.9571,-5.28898 -38.7192,-7.98464 -58.36864,-10.60187 -17.02812,-1.93396 -34.20751,-2.8969 -51.38571,-2.81461 z"
       id="path4040-4-5-3-5"
       inkscape:connector-curvature="0"
       sodipodi:nodetypes="zssssz" />
    <path
       style="color:#000000;display:inline;overflow:visible;visibility:visible;fill:#ffffff;fill-opacity:1;fill-rule:nonzero;stroke:none;stroke-width:1.1734px;marker:none;enable-background:accumulate"
       d="M 974.95312 313.87109 C 922.05555 316.58187 868.18778 323.75662 819.72304 346.29881 C 784.75604 365.79595 756.48144 400.73924 751.92899 441.32338 C 749.97603 478.44175 774.09812 513.92906 807.18714 529.53753 C 841.69893 547.54159 881.02384 551.57428 918.9124 557.43257 C 982.14825 565.66266 1047.5615 566.29003 1109.3672 548.80273 C 1143.0862 537.69697 1174.5292 515.54721 1191.3085 483.66291 C 1202.7966 459.44663 1201.1378 429.93381 1188.0328 406.68759 C 1168.5932 366.28327 1128.8438 336.91386 1084.9307 328.68159 C 1053.0563 321.10976 1020.5515 315.7322 987.81342 314.02176 C 983.52834 313.87384 979.24037 313.84909 974.95312 313.87109 z "
       id="path4040-4-5-3"
       inkscape:connector-curvature="0"
       sodipodi:nodetypes="zssssz" />
    <path
       style="color:#000000;display:inline;overflow:visible;visibility:visible;fill:#ffffff;fill-opacity:1;fill-rule:nonzero;stroke:none;stroke-width:1px;marker:none;enable-background:accumulate"
       d="m 907.21667,619.60054 c 72.99905,-2.53565 65.7638,-63.19299 71.48587,-78.47444 l 37.78086,7.15422 c 0,0 -26.16471,95.6219 -109.26673,71.32022 z"
       id="path3072-5-5"
       inkscape:connector-curvature="0"
       sodipodi:nodetypes="cccc" />
    <path
       style="display:inline;fill:#ffffff;fill-rule:evenodd;stroke:none;stroke-width:1.408px;stroke-linecap:butt;stroke-linejoin:miter;stroke-opacity:1"
       d="m 1729.4941,1533.8343 c -263.4619,-188.6648 -719.6026,-198.4778 -988.12534,-169.638 l -8.73311,23.8296 c 289.95695,-44.5653 772.14605,6.8513 996.85845,145.8084 z"
       id="path1094"
       inkscape:connector-curvature="0"
       sodipodi:nodetypes="cccc" />
    <path
       style="color:#000000;display:inline;overflow:visible;visibility:visible;fill:#ffffff;fill-opacity:1;fill-rule:nonzero;stroke:none;stroke-width:1.48321px;marker:none;enable-background:accumulate"
       d="m 1211.9228,1266.2938 c -41.3244,-0.413 -83.1474,5.2155 -121.2708,21.147 -24.2076,10.1932 -46.4152,26.1924 -61.4468,47.9041 -17.8986,25.6578 -22.8237,60.5634 -10.8976,90.1247 11.6488,28.8684 34.4137,52.5226 61.2294,67.9418 22.2956,12.594 47.7871,17.9267 72.9559,19.9819 32.9941,2.9905 66.1669,2.1231 99.0414,-0.8479 17.3002,-1.5675 34.5819,-3.4286 51.7513,-5.9783 26.5523,-4.6104 52.5534,-15.1117 72.5829,-33.2953 18.6282,-16.4958 33.7967,-37.7197 40.1581,-62.0981 5.3717,-22.1678 -0.4566,-46.8517 -15.2726,-64.5203 -22.802,-30.2111 -55.0876,-52.9811 -90.7613,-65.1389 -31.5281,-10.91 -64.9814,-14.9138 -98.0699,-15.2207 z"
       id="path3365-3"
       inkscape:connector-curvature="0"
       sodipodi:nodetypes="cssccc" />
    <path
       style="fill:#ffffff;fill-rule:evenodd;stroke:none;stroke-width:1.06139px;stroke-linecap:butt;stroke-linejoin:miter;stroke-opacity:1"
       d="m 470.11174,1501.4419 c -29.32172,-0.3311 -58.60245,-2.2844 -87.79729,-4.8413 -28.79602,-3.2262 -57.96502,-9.5013 -83.08809,-24.1103 -21.89273,-12.9299 -40.55655,-32.584 -48.1082,-56.7339 -6.41083,-21.4678 -2.50929,-45.0774 8.54218,-64.4711 14.05697,-27.3037 35.91759,-51.4178 64.05434,-65.5381 21.4016,-10.8015 45.42645,-15.2254 69.10007,-18.4432 25.05897,-3.1394 50.33193,-4.2553 75.56494,-5.0989 70.34303,-1.464 140.64544,4.3236 210.31748,13.3644 23.45004,3.7635 47.44403,10.226 66.18303,25.0861 21.7089,17.2354 35.50392,42.0461 44.21567,67.5599 4.98603,14.5279 6.55052,30.9073 0.36251,45.3405 -9.80919,26.3246 -32.18412,46.9935 -58.09594,58.4761 -21.20328,9.6328 -43.86929,15.9813 -66.80673,20.2985 -25.25577,4.4453 -50.99429,5.0289 -76.59244,5.1778 -33.10768,0.7538 -66.17602,2.5681 -99.26161,3.8617 -6.19578,0.1077 -12.39345,0.1269 -18.58992,0.072 z"
       id="path1079"
       inkscape:connector-curvature="0" />
    <path
       id="path5050-5"
       style="color:#000000;display:inline;overflow:visible;visibility:visible;fill:#ffffff;fill-opacity:1;fill-rule:nonzero;stroke:none;stroke-width:1.10542px;marker:none;enable-background:accumulate"
       d="m 1055.3066,2327.9473 c -6.7695,3.1849 -13.5391,6.3698 -20.3086,9.5547 -5.4515,8.7234 -8.4665,18.631 -12.08,28.1855 0.2877,8.9888 4.778,17.1081 7.4112,25.5492 4.8043,13.3509 10.142,27.6669 6.8338,42.0256 -3.4158,16.5674 -11.898,31.5008 -16.4345,47.7397 -0.956,12.8214 5.6959,25.4955 16.2957,32.604 7.6345,5.5383 17.8577,10.6572 22.2668,17.4448 4.4091,6.7876 3.9198,12.9565 3.0275,20.0069 -0.8923,7.0504 -6.8233,13.4216 -10.106,20.1773 -2.5543,5.2297 -6.5724,10.2065 -4.8898,16.3644 0.5485,8.6419 3.5528,16.9498 8.2569,24.18 1.9155,5.167 7.5375,11.5732 1.5157,15.9953 -3.2977,3.3341 -6.6403,6.6236 -10.0035,9.8933 6.6199,-4.2691 13.2848,-8.7213 18.4668,-14.7364 2.2175,-7.1316 -0.2102,-14.5787 -3.3587,-21.0008 -3.3881,-9.4513 -0.8017,-19.8562 4.2602,-28.1901 5.6073,-9.9289 13.8919,-19.3951 13.8982,-31.4245 0.5595,-12.2965 -5.2038,-24.6049 -15.0512,-32.0084 -6.3523,-5.6552 -13.9693,-10.3956 -18.4457,-17.7889 -5.2096,-11.3685 -1.3783,-24.1347 3.0069,-35.0894 5.3982,-14.2627 13.5704,-28.4586 12.1858,-44.2358 -1.3898,-17.7099 -13.4465,-33.5966 -10.8255,-51.7808 1.5634,-10.2967 5.5548,-20.0386 7.2382,-30.3113 -0.044,-1.6098 -1.4268,-3.3809 -3.1602,-3.1543 z"
       sodipodi:nodetypes="ccccccczzcccccccccccccccc" />
    <path
       id="path1086-2"
       style="display:inline;fill:#ffffff;fill-rule:evenodd;stroke:none;stroke-width:1.72192px;stroke-linecap:butt;stroke-linejoin:miter;stroke-opacity:1"
       d="m 969.49288,2362.244 c -22.05887,2.072 -43.10903,11.2864 -65.53602,10.1905 -16.18698,-0.046 -33.37431,-3.2616 -48.52731,4.1788 -11.78466,5.7666 -24.17795,12.7516 -30.91546,24.4734 -7.39475,14.5227 -9.92206,33.1117 -0.76509,47.4824 12.40948,19.6335 35.12294,32.5447 58.45033,32.4581 19.80037,0.1222 39.61778,2.0994 58.81628,7.0853 15.31402,3.5903 31.44686,5.4007 46.8387,1.128 14.92249,-3.5641 30.30029,-7.7909 45.72809,-4.9333 19.4406,2.8709 38.8582,8.7921 58.6981,5.9357 24.4445,-2.8639 48.3035,-12.2598 73.2355,-9.4962 14.712,1.1364 30.902,2.2363 43.5759,-6.8501 20.7512,-13.656 28.7839,-43.783 17.4388,-65.8698 -8.7079,-13.4201 -24.4854,-19.8261 -39.1024,-24.6114 -22.1315,-6.8718 -46.0305,-1.9296 -68.0695,-9.3646 -13.7036,-4.261 -27.8503,-8.1533 -42.3539,-6.9259 -25.8828,1.1429 -52.2063,6.2281 -77.78622,-0.3296 -9.7978,-2.1008 -19.64553,-4.5119 -29.72582,-4.5513 z" />
    <path
       id="path1086"
       style="display:inline;fill:#ffffff;fill-rule:evenodd;stroke:none;stroke-width:1.04175px;stroke-linecap:butt;stroke-linejoin:miter;stroke-opacity:1"
       d="m 942.6518,2287.7817 c 9.43573,-13.0131 25.21825,-20.4085 40.80829,-25.1206 16.10462,-4.8304 33.04111,-6.7484 49.90881,-6.9132 15.5956,-0.3452 31.7246,-1.505 46.7529,3.2629 7.2666,2.5751 13.9645,6.3476 20.7594,9.8373 9.0753,5.0191 18.5489,11.2049 22.1795,20.9226 2.3677,6.2472 0.5836,12.8861 0.6073,19.3176 -0.4302,9.8612 -0.9882,20.7155 -8.2029,28.5913 -6.9875,8.1476 -18.1176,11.2975 -28.3657,14.2544 -16.9301,4.4306 -34.3038,7.4298 -51.7965,9.0531 -11.2633,1.0974 -22.7799,2.1776 -33.9458,-0.2271 -13.39055,-2.6873 -25.42264,-9.3127 -36.57381,-16.513 -8.9826,-6.1764 -17.89253,-13.394 -22.31552,-23.2141 -2.65092,-7.1043 -2.13153,-14.833 -1.56512,-22.2214 0.3801,-3.7008 0.93438,-7.3899 1.74915,-11.0298 z" />
    <path
       style="color:#000000;display:inline;overflow:visible;visibility:visible;fill:#ffffff;fill-opacity:1;fill-rule:nonzero;stroke:none;stroke-width:1.00142px;marker:none;enable-background:accumulate"
       d="m 1538.6111,2866.3551 c -29.2718,23.6335 -49.9774,61.4772 -38.0228,102.9845 11.9549,41.5072 -6.8025,41.4052 -6.8025,41.4052 l -37.425,-15.5296 c 0,0 -6.4717,-90.5725 82.2503,-128.8601 z"
       id="path3072-6"
       inkscape:connector-curvature="0"
       sodipodi:nodetypes="csccc" />
    <path
       style="display:inline;fill:#ffffff;stroke:none;stroke-width:0.733516"
       d="m 1458.6963,3074.2314 c -38.7421,0.8685 -77.7581,10.9827 -110.6278,32.0679 -25.8003,17.1845 -45.4788,44.4106 -51.5207,75.2231 -3.5828,20.1805 0.1616,40.684 4.2468,60.477 5.3034,25.2019 19.1661,48.5414 39.0526,64.7614 13.6199,11.1543 29.6011,19.091 46.1472,24.7711 20.8439,7.0524 42.8715,9.8427 64.7839,10.2743 36.1826,1.4881 72.4097,0.6791 108.5919,-0.3655 30.8223,-1.4771 62.0665,-5.5297 90.7158,-17.6871 29.6612,-12.7729 55.4063,-35.9154 69.1926,-65.5679 12.6454,-27.2964 14.6076,-59.9369 3.3756,-88.0531 -9.8712,-23.5636 -28.6738,-42.2396 -49.7873,-55.8342 -20.5345,-13.2105 -44.0052,-21.1029 -67.8418,-25.566 -26.3016,-5.2681 -52.9705,-8.3203 -79.5783,-11.509 -22.1732,-2.2348 -44.4685,-3.224 -66.7505,-2.992 z"
       id="path3280-5"
       inkscape:connector-curvature="0"
       sodipodi:nodetypes="csssc" />
    <path
       style="fill:#ffffff;stroke:none;stroke-width:0.421573"
       d="M 1475.3789 2970.7129 C 1448.2838 2971.168 1420.9445 2973.0294 1394.7109 2980.2441 C 1381.5191 2984.0693 1368.8627 2990.0345 1357.8715 2998.3136 C 1353.2482 3001.9293 1348.7337 3005.8117 1345.1241 3010.4651 C 1334.8862 3024.3558 1332.5185 3044.044 1340.3611 3059.5901 C 1345.3445 3068.892 1354.3221 3075.2023 1363.5181 3079.9002 C 1380.7922 3089.2279 1400.8431 3092.4784 1420.305 3091.3198 C 1453.2634 3090.6708 1486.2325 3091.9846 1519.1871 3090.9617 C 1531.9028 3090.6042 1544.6266 3090.7528 1557.3433 3090.5548 C 1571.833 3090.0128 1586.7144 3087.6222 1599.4065 3080.2207 C 1610.1782 3074.0131 1619.4307 3064.2394 1622.916 3052.0938 C 1627.228 3037.5496 1623.3016 3020.8722 1612.8244 3009.8727 C 1601.3601 2996.5908 1585.214 2988.0734 1568.4036 2983.6629 C 1549.6526 2978.3383 1530.4293 2974.8027 1511.1156 2972.2744 C 1499.2531 2970.9693 1487.3062 2970.6199 1475.3789 2970.7129 z "
       id="path3280-8-0"
       inkscape:connector-curvature="0"
       sodipodi:nodetypes="csssc" />
  </g>
  <g
     inkscape:groupmode="layer"
     id="layer1"
     inkscape:label="txt">
    <text
       xml:space="preserve"
       style="font-style:normal;font-variant:normal;font-weight:normal;font-stretch:normal;font-size:45px;line-height:1.25;font-family:Lavi;-inkscape-font-specification:Lavi;text-align:center;letter-spacing:0px;word-spacing:0px;text-anchor:middle;fill:#000000;fill-opacity:1;stroke:none"
       x="950.99347"
       y="232.95139"
       id="text4246-3-2-2-6-3-7-9-3"><tspan
         style="font-size:45px"
         sodipodi:role="line"
         x="950.99347"
         y="232.95139"
         id="tspan68">Jazeker,</tspan><tspan
         style="font-size:45px"
         sodipodi:role="line"
         x="950.99347"
         y="289.20139"
         id="tspan328">Uwe Hoogheid.</tspan></text>
    <text
       xml:space="preserve"
       style="font-style:normal;font-variant:normal;font-weight:normal;font-stretch:normal;font-size:45px;line-height:1.25;font-family:Lavi;-inkscape-font-specification:Lavi;text-align:center;letter-spacing:0px;word-spacing:0px;text-anchor:middle;fill:#000000;fill-opacity:1;stroke:none"
       x="979.35199"
       y="398.5528"
       id="text4246-3-2-2-6-3-7-9-3-3"><tspan
         style="font-size:45px"
         sodipodi:role="line"
         x="979.35199"
         y="398.5528"
         id="tspan896">Haar naam is </tspan><tspan
         style="font-size:45px"
         sodipodi:role="line"
         x="979.35199"
         y="454.8028"
         id="tspan81">Pepper, van de</tspan><tspan
         style="font-size:45px"
         sodipodi:role="line"
         x="979.35199"
         y="511.0528"
         id="tspan332">Chaosah-school.</tspan></text>
    <text
       xml:space="preserve"
       style="font-style:normal;font-variant:normal;font-weight:normal;font-stretch:normal;font-size:45px;line-height:1.25;font-family:Lavi;-inkscape-font-specification:Lavi;text-align:center;letter-spacing:0px;word-spacing:0px;text-anchor:middle;fill:#000000;fill-opacity:1;stroke:none"
       x="514.68396"
       y="1338.3331"
       id="text4246-3-2-2-6-3-7-9-3-3-3"><tspan
         style="font-size:45px"
         sodipodi:role="line"
         x="514.68396"
         y="1338.3331"
         id="tspan909">Haar aanwezigheid</tspan><tspan
         style="font-size:45px"
         sodipodi:role="line"
         x="514.68396"
         y="1394.5831"
         id="tspan398">vervuilt de gezegende </tspan><tspan
         style="font-size:45px"
         sodipodi:role="line"
         x="514.68396"
         y="1450.8331"
         id="tspan90">aard van onze School.</tspan></text>
    <text
       xml:space="preserve"
       style="font-style:normal;font-variant:normal;font-weight:normal;font-stretch:normal;font-size:45px;line-height:1.25;font-family:Lavi;-inkscape-font-specification:Lavi;text-align:center;letter-spacing:0px;word-spacing:0px;text-anchor:middle;fill:#000000;fill-opacity:1;stroke:none"
       x="1210.7987"
       y="1354.1165"
       id="text4246-3-2-2-6-3-7-9-3-3-3-9"><tspan
         style="font-size:45px"
         sodipodi:role="line"
         x="1210.7987"
         y="1354.1165"
         id="tspan101">Verwijder haar</tspan><tspan
         style="font-size:45px"
         sodipodi:role="line"
         x="1210.7987"
         y="1410.3665"
         id="tspan597">uit mijn zicht,</tspan><tspan
         id="tspan70"
         style="font-size:45px"
         sodipodi:role="line"
         x="1210.7987"
         y="1466.6165">en wel meteen.</tspan></text>
    <text
       xml:space="preserve"
       style="font-style:normal;font-variant:normal;font-weight:normal;font-stretch:normal;font-size:45px;line-height:1.25;font-family:Lavi;-inkscape-font-specification:Lavi;text-align:center;letter-spacing:0px;word-spacing:0px;text-anchor:middle;fill:#000000;fill-opacity:1;stroke:none"
       x="1041.905"
       y="2320.762"
       id="text4246-3-2-2-6-3-7-9-3-3-3-9-0-0"><tspan
         style="font-size:45px"
         sodipodi:role="line"
         x="1041.905"
         y="2320.762"
         id="tspan1031-6-6">Maar...</tspan></text>
    <text
       xml:space="preserve"
       style="font-style:normal;font-variant:normal;font-weight:normal;font-stretch:normal;font-size:45px;line-height:1.25;font-family:Lavi;-inkscape-font-specification:Lavi;text-align:center;letter-spacing:0px;word-spacing:0px;text-anchor:middle;fill:#000000;fill-opacity:1;stroke:none"
       x="1028.5508"
       y="2444.2068"
       id="text4246-3-2-2-6-3-7-9-3-3-3-9-0"><tspan
         style="font-size:45px"
         sodipodi:role="line"
         x="1028.5508"
         y="2444.2068"
         id="tspan1031-6">Meester Wasabi...</tspan></text>
    <text
       xml:space="preserve"
       style="font-style:normal;font-variant:normal;font-weight:normal;font-stretch:normal;font-size:45px;line-height:1.25;font-family:Lavi;-inkscape-font-specification:Lavi;text-align:center;letter-spacing:0px;word-spacing:0px;text-anchor:middle;fill:#000000;fill-opacity:1;stroke:none"
       x="1477.7218"
       y="3054.2053"
       id="text4246-3-2-2-6-3-7-9-3-3-3-9-0-6"><tspan
         style="font-size:45px"
         sodipodi:role="line"
         x="1477.7218"
         y="3054.2053"
         id="tspan1199">Wat<tspan
   style="font-style:italic"
   id="tspan663"> &quot;maar</tspan>&quot;?</tspan></text>
    <text
       xml:space="preserve"
       style="font-style:normal;font-variant:normal;font-weight:normal;font-stretch:normal;font-size:45px;line-height:1.25;font-family:Lavi;-inkscape-font-specification:Lavi;text-align:center;letter-spacing:0px;word-spacing:0px;text-anchor:middle;fill:#000000;fill-opacity:1;stroke:none"
       x="1508.3136"
       y="3140.5386"
       id="text4246-3-2-2-6-3-7-9-3-3-3-9-0-6-8"><tspan
         style="font-size:45px"
         sodipodi:role="line"
         x="1508.3136"
         y="3140.5386"
         id="tspan110">Heb je liever</tspan><tspan
         style="font-size:45px"
         sodipodi:role="line"
         x="1508.3136"
         y="3196.7886"
         id="tspan739">dat jullie <tspan
   style="font-style:italic"
   id="tspan902">beiden</tspan></tspan><tspan
         style="font-size:45px"
         sodipodi:role="line"
         x="1508.3136"
         y="3253.0386"
         id="tspan741">verbannen zijn van</tspan><tspan
         style="font-size:45px"
         sodipodi:role="line"
         x="1508.3136"
         y="3309.2886"
         id="tspan833">deze school?</tspan></text>
    <text
       xml:space="preserve"
       style="font-style:normal;font-variant:normal;font-weight:normal;font-stretch:normal;font-size:105.817px;line-height:1.25;font-family:Lavi;-inkscape-font-specification:Lavi;letter-spacing:0px;word-spacing:0px;fill:#000000;fill-opacity:1;stroke:#030303;stroke-width:0.716208;stroke-miterlimit:4;stroke-dasharray:none;stroke-opacity:1;filter:url(#filter4375-4-1-1-1-9-5-8-8-5-5-3-8)"
       x="787.65729"
       y="1584.5073"
       id="text4580-6-0-0-0-9-3-36"
       transform="matrix(0.78722097,-0.19942868,-0.30990333,0.91892591,1994.5561,1995.3356)"><tspan
         style="font-size:195.17px;fill:#000000;fill-opacity:1;stroke:#030303;stroke-width:0.716208;stroke-miterlimit:4;stroke-dasharray:none;stroke-opacity:1"
         sodipodi:role="line"
         id="tspan876-6-1"
         x="787.65729"
         y="1584.5073">!<tspan
   style="font-size:173.821px;fill:#000000;stroke:#030303;stroke-opacity:1"
   id="tspan1317">!</tspan><tspan
   id="tspan1322"
   style="font-size:152.472px;fill:#000000;stroke:#030303;stroke-opacity:1">!</tspan></tspan></text>
  </g>
</svg>
