<?xml version="1.0" encoding="UTF-8" standalone="no"?>
<!-- Created with Inkscape (http://www.inkscape.org/) -->

<svg
   id="svg2"
   version="1.1"
   inkscape:version="1.3 (0e150ed6c4, 2023-07-21)"
   width="2481"
   height="3503"
   sodipodi:docname="E13P06.svg"
   xmlns:inkscape="http://www.inkscape.org/namespaces/inkscape"
   xmlns:sodipodi="http://sodipodi.sourceforge.net/DTD/sodipodi-0.dtd"
   xmlns:xlink="http://www.w3.org/1999/xlink"
   xmlns="http://www.w3.org/2000/svg"
   xmlns:svg="http://www.w3.org/2000/svg"
   xmlns:rdf="http://www.w3.org/1999/02/22-rdf-syntax-ns#"
   xmlns:cc="http://creativecommons.org/ns#"
   xmlns:dc="http://purl.org/dc/elements/1.1/">
  <metadata
     id="metadata8">
    <rdf:RDF>
      <cc:Work
         rdf:about="">
        <dc:format>image/svg+xml</dc:format>
        <dc:type
           rdf:resource="http://purl.org/dc/dcmitype/StillImage" />
        <dc:title />
      </cc:Work>
    </rdf:RDF>
  </metadata>
  <defs
     id="defs6">
    <filter
       style="color-interpolation-filters:sRGB"
       id="filter4375-5-4-9"
       inkscape:label="deevad outline effect"
       x="-0.048814481"
       y="-0.12664345"
       width="1.097629"
       height="1.2532869">
      <feFlood
         id="feFlood4377-0-3-0"
         flood-opacity="1"
         flood-color="rgb(255,255,255)"
         result="flood" />
      <feComposite
         id="feComposite4379-6-6-2"
         in2="SourceGraphic"
         in="flood"
         operator="in"
         result="composite1" />
      <feMorphology
         id="feMorphology4393-0-9-2"
         operator="dilate"
         radius="4"
         result="result3" />
      <feComposite
         id="feComposite4385-7-5-85"
         in2="result3"
         in="SourceGraphic"
         operator="over"
         result="composite2" />
    </filter>
    <filter
       style="color-interpolation-filters:sRGB"
       id="filter4375-5-4-9-2"
       inkscape:label="deevad outline effect">
      <feFlood
         id="feFlood4377-0-3-0-0"
         flood-opacity="1"
         flood-color="rgb(255,255,255)"
         result="flood" />
      <feComposite
         id="feComposite4379-6-6-2-2"
         in2="SourceGraphic"
         in="flood"
         operator="in"
         result="composite1" />
      <feMorphology
         id="feMorphology4393-0-9-2-0"
         operator="dilate"
         radius="4"
         result="result3" />
      <feComposite
         id="feComposite4385-7-5-85-7"
         in2="result3"
         in="SourceGraphic"
         operator="over"
         result="composite2" />
    </filter>
    <filter
       style="color-interpolation-filters:sRGB"
       id="filter4375-5-4-9-3"
       inkscape:label="deevad outline effect"
       x="-0.036917578"
       y="-0.12420956"
       width="1.0738352"
       height="1.2484191">
      <feFlood
         id="feFlood4377-0-3-0-1"
         flood-opacity="1"
         flood-color="rgb(255,255,255)"
         result="flood" />
      <feComposite
         id="feComposite4379-6-6-2-26"
         in2="SourceGraphic"
         in="flood"
         operator="in"
         result="composite1" />
      <feMorphology
         id="feMorphology4393-0-9-2-8"
         operator="dilate"
         radius="4"
         result="result3" />
      <feComposite
         id="feComposite4385-7-5-85-2"
         in2="result3"
         in="SourceGraphic"
         operator="over"
         result="composite2" />
    </filter>
    <filter
       inkscape:collect="always"
       style="color-interpolation-filters:sRGB"
       id="filter4552-8-9-4"
       x="-0.01133179"
       width="1.0226636"
       y="-0.11202931"
       height="1.2240586">
      <feGaussianBlur
         inkscape:collect="always"
         stdDeviation="1.6224608"
         id="feGaussianBlur4554-6-3-2" />
    </filter>
    <filter
       inkscape:collect="always"
       style="color-interpolation-filters:sRGB"
       id="filter4552-8-9-4-6"
       x="-0.012026949"
       width="1.0240539"
       y="-0.11202931"
       height="1.2240586">
      <feGaussianBlur
         inkscape:collect="always"
         stdDeviation="1.6224608"
         id="feGaussianBlur4554-6-3-2-2" />
    </filter>
  </defs>
  <sodipodi:namedview
     pagecolor="#ffffff"
     bordercolor="#666666"
     borderopacity="1"
     objecttolerance="10"
     gridtolerance="10"
     guidetolerance="10"
     inkscape:pageopacity="0"
     inkscape:pageshadow="2"
     inkscape:window-width="1563"
     inkscape:window-height="752"
     id="namedview4"
     showgrid="false"
     inkscape:zoom="0.34782609"
     inkscape:cx="1269.3125"
     inkscape:cy="2581.75"
     inkscape:window-x="75"
     inkscape:window-y="80"
     inkscape:window-maximized="0"
     inkscape:current-layer="layer1"
     inkscape:showpageshadow="0"
     inkscape:pagecheckerboard="0"
     inkscape:deskcolor="#d1d1d1" />
  <g
     inkscape:groupmode="layer"
     id="layer2"
     inkscape:label="artwork"
     sodipodi:insensitive="true">
    <image
       xlink:href="../gfx_Pepper-and-Carrot_by-David-Revoy_E13P06.png"
       y="0"
       x="0"
       id="image10"
       height="3503"
       width="2481" />
  </g>
  <g
     inkscape:groupmode="layer"
     id="layer3"
     inkscape:label="speechbubbles" />
  <g
     inkscape:groupmode="layer"
     id="layer1"
     inkscape:label="txt">
    <path
       style="color:#000000;display:inline;overflow:visible;visibility:visible;fill:#ffffff;fill-opacity:1;fill-rule:nonzero;stroke:none;stroke-width:1px;marker:none;enable-background:accumulate"
       d="m 1876.9906,1742.7575 c -69.1064,15.4775 -126.2741,90.7678 -64.3829,148.0837 -44.4695,-72.6711 41.253,-110.6276 82.0461,-113.5987 25.7518,0.6306 -17.6632,-34.485 -17.6632,-34.485 z"
       id="path3978"
       inkscape:connector-curvature="0"
       sodipodi:nodetypes="cccc" />
    <text
       xml:space="preserve"
       style="color:#000000;font-style:normal;font-variant:normal;font-weight:normal;font-stretch:normal;line-height:0%;font-family:Lavi;-inkscape-font-specification:'Lavi, Normal';text-align:center;letter-spacing:0px;word-spacing:0px;writing-mode:lr-tb;text-anchor:middle;clip-rule:nonzero;display:inline;overflow:visible;visibility:visible;opacity:1;isolation:auto;mix-blend-mode:normal;color-interpolation:sRGB;color-interpolation-filters:linearRGB;solid-color:#000000;solid-opacity:1;fill:#000000;fill-opacity:1;fill-rule:nonzero;stroke:#000000;stroke-width:0.9;stroke-linecap:butt;stroke-linejoin:miter;stroke-miterlimit:4;stroke-dasharray:none;stroke-dashoffset:0;stroke-opacity:1;filter:url(#filter4375-5-4-9);color-rendering:auto;image-rendering:auto;shape-rendering:auto;text-rendering:auto;enable-background:accumulate"
       x="1367.1063"
       y="691.71692"
       id="text4136"
       transform="matrix(0.6322045,0.15033006,0,0.79645319,201.11125,-80.537932)"><tspan
         sodipodi:role="line"
         id="tspan4138"
         x="1367.1063"
         y="691.71692"
         style="font-size:47.0037px;line-height:1.25">Pam</tspan></text>
    <flowRoot
       xml:space="preserve"
       id="flowRoot2987-4-9-3-6-3-8-7-2-7-2"
       style="font-style:normal;font-variant:normal;font-weight:normal;font-stretch:normal;line-height:0.01%;font-family:Lavi;-inkscape-font-specification:Lavi;text-align:end;letter-spacing:0px;word-spacing:0px;text-anchor:end;opacity:1;fill:#ffffff;fill-opacity:1;stroke:none"
       transform="translate(524.13435,3341.6551)"><flowRegion
         id="flowRegion2989-5-4-5-5-3-0-6-76-8-1"><rect
           id="rect2991-7-9-6-21-9-8-0-3-1-7"
           width="1283.3873"
           height="39.502567"
           x="-69.735092"
           y="-2.5750711"
           style="font-style:normal;font-variant:normal;font-weight:normal;font-stretch:normal;font-family:Lavi;-inkscape-font-specification:Lavi;text-align:end;text-anchor:end;fill:#ffffff;fill-opacity:1" /></flowRegion><flowPara
         style="font-size:32.9703px;line-height:1.25;text-align:end;text-anchor:end;fill:#ffffff;fill-opacity:1"
         id="flowPara3272-6-3-1">Noviembre 2015 - Dibujo &amp; Guión: David Revoy - Traducción: TheFaico</flowPara></flowRoot>
    <path
       style="color:#000000;display:inline;overflow:visible;visibility:visible;fill:#ffffff;fill-opacity:1;fill-rule:nonzero;stroke:none;stroke-width:1px;marker:none;enable-background:accumulate"
       d="m 1801.0342,1434.2415 c 24.3434,-19.1771 197.9771,-37.5451 247.2621,11.7604 41.1377,41.1542 38.498,121.7792 0.822,152.0808 -38.3838,30.8707 -184.658,19.9673 -241.1937,5.1838 -53.2386,-13.9213 -52.2754,-47.5701 -50.8233,-106.2214 0.5927,-23.9376 19.5898,-43.6266 43.9329,-62.8036 z"
       id="path4040-4-5-3"
       inkscape:connector-curvature="0"
       sodipodi:nodetypes="zssssz" />
    <text
       id="text4178"
       y="1477.9589"
       x="1921.9727"
       style="font-style:normal;font-variant:normal;font-weight:normal;font-stretch:normal;line-height:0%;font-family:Lavi;-inkscape-font-specification:Lavi;text-align:center;letter-spacing:0px;word-spacing:0px;text-anchor:middle;fill:#000000;fill-opacity:1;stroke:none"
       xml:space="preserve"><tspan
         id="tspan4186"
         y="1477.9589"
         x="1921.9727"
         style="font-size:40.6767px;line-height:1.25"
         sodipodi:role="line">Sé que lo </tspan><tspan
         y="1528.8047"
         x="1921.9727"
         style="font-size:40.6767px;line-height:1.25"
         sodipodi:role="line"
         id="tspan4243">haces para </tspan><tspan
         y="1579.6506"
         x="1921.9727"
         style="font-size:40.6767px;line-height:1.25"
         sodipodi:role="line"
         id="tspan4245">defenderme...</tspan></text>
    <path
       style="color:#000000;display:inline;overflow:visible;visibility:visible;fill:#ffffff;fill-opacity:1;fill-rule:nonzero;stroke:none;stroke-width:1px;marker:none;enable-background:accumulate"
       d="m 1701.7783,1311.0268 c 22.7418,-14.2291 184.9525,-27.858 230.9952,8.726 38.4312,30.536 35.9653,90.3588 0.7678,112.8423 -35.8584,22.9056 -172.5097,14.8155 -225.3259,3.8462 -49.7362,-10.3293 -48.8363,-35.2963 -47.4797,-78.815 0.5537,-17.7614 18.3009,-32.3704 41.0426,-46.5995 z"
       id="path4040-4-5-3-6"
       inkscape:connector-curvature="0"
       sodipodi:nodetypes="zssssz" />
    <text
       id="text4178-1"
       y="1350.3406"
       x="1812.4628"
       style="font-style:normal;font-variant:normal;font-weight:normal;font-stretch:normal;line-height:0%;font-family:Lavi;-inkscape-font-specification:Lavi;text-align:center;letter-spacing:0px;word-spacing:0px;text-anchor:middle;fill:#000000;fill-opacity:1;stroke:none"
       xml:space="preserve"><tspan
         y="1350.3406"
         x="1812.4628"
         style="font-size:40.6767px;line-height:1.25"
         sodipodi:role="line"
         id="tspan4235">¡Vamos, </tspan><tspan
         y="1401.1864"
         x="1812.4628"
         style="font-size:40.6767px;line-height:1.25"
         sodipodi:role="line"
         id="tspan4239">deja de gruñir!</tspan></text>
    <path
       style="color:#000000;display:inline;overflow:visible;visibility:visible;fill:#ffffff;fill-opacity:1;fill-rule:nonzero;stroke:none;stroke-width:1px;marker:none;enable-background:accumulate"
       d="m 1808.246,1612.2126 c 34.1157,-20.9266 277.4541,-40.9703 346.5244,12.8333 57.6522,44.9088 53.9528,132.8892 1.1519,165.9553 -53.7926,33.6871 -258.7883,21.789 -338.0199,5.6567 -74.6111,-15.1913 -73.2612,-51.9099 -71.226,-115.912 0.8306,-26.1216 27.4538,-47.6067 61.5696,-68.5333 z"
       id="path4040-4-5-3-4"
       inkscape:connector-curvature="0"
       sodipodi:nodetypes="zssssz" />
    <text
       id="text4178-6"
       y="1663.856"
       x="1976.1305"
       style="font-style:normal;font-variant:normal;font-weight:normal;font-stretch:normal;line-height:0%;font-family:Lavi;-inkscape-font-specification:Lavi;text-align:center;letter-spacing:0px;word-spacing:0px;text-anchor:middle;fill:#000000;fill-opacity:1;stroke:none"
       xml:space="preserve"><tspan
         y="1663.856"
         x="1976.1305"
         style="font-size:40.6767px;line-height:1.25"
         sodipodi:role="line"
         id="tspan4245-2">...pero cuando se</tspan><tspan
         y="1714.7018"
         x="1976.1305"
         style="font-size:40.6767px;line-height:1.25"
         sodipodi:role="line"
         id="tspan4291">trata de<tspan
   style="font-style:italic;font-variant:normal;font-weight:normal;font-stretch:normal;font-family:Lavi;-inkscape-font-specification:'Lavi Italic'"
   id="tspan4720"> un juego... </tspan></tspan><tspan
         y="1765.5477"
         x="1976.1305"
         style="font-size:40.6767px;line-height:1.25"
         sodipodi:role="line"
         id="tspan4293">¡no sirve de mucho!</tspan></text>
    <text
       xml:space="preserve"
       style="color:#000000;font-style:normal;font-variant:normal;font-weight:normal;font-stretch:normal;line-height:0%;font-family:Lavi;-inkscape-font-specification:'Lavi, Normal';text-align:center;letter-spacing:0px;word-spacing:0px;writing-mode:lr-tb;text-anchor:middle;clip-rule:nonzero;display:inline;overflow:visible;visibility:visible;opacity:1;isolation:auto;mix-blend-mode:normal;color-interpolation:sRGB;color-interpolation-filters:linearRGB;solid-color:#000000;solid-opacity:1;fill:#000000;fill-opacity:1;fill-rule:nonzero;stroke:#000000;stroke-width:0.9;stroke-linecap:butt;stroke-linejoin:miter;stroke-miterlimit:4;stroke-dasharray:none;stroke-dashoffset:0;stroke-opacity:1;filter:url(#filter4375-5-4-9-3);color-rendering:auto;image-rendering:auto;shape-rendering:auto;text-rendering:auto;enable-background:accumulate"
       x="1367.1063"
       y="691.71692"
       id="text4136-1"
       transform="matrix(0.86619653,-0.09897381,-0.04163634,1.0337332,990.71602,2420.1286)"><tspan
         sodipodi:role="line"
         id="tspan4138-8"
         x="1367.1063"
         y="691.71692"
         style="font-size:47.0037px;line-height:1.25">Grrrr</tspan></text>
    <text
       id="text4178-6-5-9-0-7"
       style="font-style:normal;font-variant:normal;font-weight:normal;font-stretch:normal;line-height:0%;font-family:Lavi;-inkscape-font-specification:Lavi;text-align:center;letter-spacing:0px;word-spacing:0px;text-anchor:middle;opacity:0.434;fill:#412525;fill-opacity:1;stroke:none;filter:url(#filter4552-8-9-4)"
       xml:space="preserve"
       y="3129.8394"
       x="1318.7137"
       transform="matrix(0.79399618,0.00599505,-0.16710117,0.70250588,554.35987,930.47685)"><tspan
         y="3129.8394"
         x="1318.7137"
         style="font-style:normal;font-variant:normal;font-weight:normal;font-stretch:normal;font-size:40.6767px;line-height:1.25;font-family:Fondamento;-inkscape-font-specification:Fondamento;fill:#412525;fill-opacity:1"
         sodipodi:role="line"
         id="tspan4293-1-6-3-5">Ciudadelas &amp; Fénix</tspan></text>
    <use
       x="0"
       y="0"
       xlink:href="#text4178-6-5-9-0-7"
       id="use4664"
       transform="matrix(-0.08333857,0.4312511,-1.1395718,0.00256786,4637.5155,2372.8565)"
       width="100%"
       height="100%" />
    <use
       x="0"
       y="0"
       xlink:href="#text4178-6-5-9-0-7"
       id="use4690"
       transform="matrix(-0.84929227,0.00764673,-0.00836177,-0.77666632,2281.8716,5194.945)"
       width="100%"
       height="100%" />
    <use
       x="0"
       y="0"
       xlink:href="#use4664"
       id="use4692"
       transform="matrix(-0.77125805,0.77789429,-1.1459847,-0.83284157,5569.8628,4567.7195)"
       width="100%"
       height="100%" />
    <use
       x="0"
       y="0"
       xlink:href="#use4664"
       id="use4694"
       transform="matrix(0.2413678,0.96175958,-1.2866298,0.18042315,4661.393,754.64422)"
       width="100%"
       height="100%" />
    <text
       id="text4178-6-5-9-0-7-0"
       style="font-style:normal;font-variant:normal;font-weight:normal;font-stretch:normal;line-height:0%;font-family:Lavi;-inkscape-font-specification:Lavi;text-align:center;letter-spacing:0px;word-spacing:0px;text-anchor:middle;opacity:0.434;fill:#28220b;fill-opacity:1;stroke:none;filter:url(#filter4552-8-9-4-6)"
       xml:space="preserve"
       y="3129.8394"
       x="1318.7137"
       transform="matrix(0.79298761,0.00753598,0.0219157,0.88307326,108.80567,-1534.6899)"><tspan
         y="3129.8394"
         x="1318.7137"
         style="font-style:normal;font-variant:normal;font-weight:normal;font-stretch:normal;font-size:40.6767px;line-height:1.25;font-family:Fondamento;-inkscape-font-specification:Fondamento;fill:#28220b;fill-opacity:1"
         sodipodi:role="line"
         id="tspan4293-1-6-3-5-4">Princesa Celandria</tspan></text>
<text
       xml:space="preserve"
       style="font-style:normal;font-variant:normal;font-weight:normal;font-stretch:normal;line-height:0%;font-family:Lavi;-inkscape-font-specification:Lavi;text-align:center;letter-spacing:0px;word-spacing:0px;text-anchor:middle;fill:#000000;fill-opacity:1;stroke:#000000;stroke-width:3.82173;stroke-miterlimit:4;stroke-dasharray:none;stroke-opacity:1"
       x="2059.5447"
       y="2616.4343"
       id="text4213"
       transform="matrix(0.75304346,0,-0.11971288,1.3279446,0,0)"><tspan
         sodipodi:role="line"
         id="tspan4215"
         x="2059.5447"
         y="2616.4343"
         style="font-size:63.5518px;line-height:1.25;stroke-width:3.82173;stroke-miterlimit:4;stroke-dasharray:none">- FIN -</tspan></text>
    <text
       transform="matrix(0.28748374,0.14909896,-0.65903124,0.26591764,3002.6373,1539.8144)"
       x="1318.7137"
       y="3129.8394"
       xml:space="preserve"
       style="font-style:normal;font-variant:normal;font-weight:normal;font-stretch:normal;line-height:0%;font-family:Lavi;-inkscape-font-specification:Lavi;text-align:center;letter-spacing:0px;word-spacing:0px;text-anchor:middle;opacity:0.434;fill:#412525;fill-opacity:1;stroke:none;filter:url(#filter4552-8-9-4)"
       id="text4208"><tspan
         id="tspan4210"
         sodipodi:role="line"
         style="font-style:normal;font-variant:normal;font-weight:normal;font-stretch:normal;font-size:40.6767px;line-height:1.25;font-family:Fondamento;-inkscape-font-specification:Fondamento;fill:#412525;fill-opacity:1"
         x="1318.7137"
         y="3129.8394">Ciudadelas &amp; Fénix</tspan></text>
  </g>
  <g
     inkscape:groupmode="layer"
     id="layer4"
     inkscape:label="translatornotes"
     sodipodi:insensitive="true">
    <path
       style="color:#000000;clip-rule:nonzero;display:inline;overflow:visible;visibility:visible;opacity:0.481;isolation:auto;mix-blend-mode:normal;color-interpolation:sRGB;color-interpolation-filters:linearRGB;solid-color:#000000;solid-opacity:1;fill:#ffe680;fill-opacity:1;fill-rule:nonzero;stroke:#565656;stroke-width:1.2;stroke-linecap:butt;stroke-linejoin:miter;stroke-miterlimit:4;stroke-dasharray:none;stroke-dashoffset:0;stroke-opacity:1;marker:none;color-rendering:auto;image-rendering:auto;shape-rendering:auto;text-rendering:auto;enable-background:accumulate"
       d="m 2869.1119,2666.8499 0.031,-189.0352 h -304.7581 v 90.9805 h -10 v -15.6308 l -30.9824,26.9824 30.9824,26.9804 v -16.6171 h 10 v 76.3398 z"
       id="rect4191-6"
       inkscape:connector-curvature="0"
       sodipodi:nodetypes="cccccccccccc" />
    <path
       inkscape:connector-curvature="0"
       id="path3446"
       d="m 2783.3764,3192.9784 0.05,-123.1118 h -219.0416 v 51.414 h -10 v -15.6308 l -30.9824,26.9824 30.9824,26.9804 v -16.6171 h 10 v 49.9425 z"
       style="color:#000000;clip-rule:nonzero;display:inline;overflow:visible;visibility:visible;opacity:0.481;isolation:auto;mix-blend-mode:normal;color-interpolation:sRGB;color-interpolation-filters:linearRGB;solid-color:#000000;solid-opacity:1;fill:#ffe680;fill-opacity:1;fill-rule:nonzero;stroke:#565656;stroke-width:1.2;stroke-linecap:butt;stroke-linejoin:miter;stroke-miterlimit:4;stroke-dasharray:none;stroke-dashoffset:0;stroke-opacity:1;marker:none;color-rendering:auto;image-rendering:auto;shape-rendering:auto;text-rendering:auto;enable-background:accumulate"
       sodipodi:nodetypes="cccccccccccc" />
    <g
       id="hidden775"
       transform="translate(0.71529609,2.0802066)">
      <text
         xml:space="preserve"
         x="2673.2529"
         y="3104.3228"
         id="tspan500"
         inkscape:label="hidden775-1"
         style="font-style:normal;font-variant:normal;font-weight:normal;font-stretch:normal;font-size:25.3333px;line-height:0%;font-family:Lavi;-inkscape-font-specification:Lavi;text-align:center;text-anchor:middle;fill:#000000;fill-opacity:0.48">The other one is</text>
      <text
         xml:space="preserve"
         x="2674.8276"
         y="3138.1768"
         id="tspan500-5"
         inkscape:label="hidden775-2"
         style="font-style:normal;font-variant:normal;font-weight:normal;font-stretch:normal;font-size:25.3333px;line-height:0%;font-family:Lavi;-inkscape-font-specification:Lavi;text-align:center;text-anchor:middle;fill:#000000;fill-opacity:0.48">at the bottom of</text>
      <text
         xml:space="preserve"
         x="2678.3032"
         y="3171.2534"
         id="tspan500-1"
         inkscape:label="hidden775-3"
         style="font-style:normal;font-variant:normal;font-weight:normal;font-stretch:normal;font-size:25.3333px;line-height:0%;font-family:Lavi;-inkscape-font-specification:Lavi;text-align:center;text-anchor:middle;fill:#000000;fill-opacity:0.48">the game board.</text>
    </g>
    <g
       id="hidden752">
      <text
         xml:space="preserve"
         x="2717.1084"
         y="2513.7415"
         id="text775"
         inkscape:label="hidden752-1"
         style="font-style:normal;font-variant:normal;font-weight:normal;font-stretch:normal;font-size:25.3333px;line-height:0%;font-family:Lavi;-inkscape-font-specification:Lavi;text-align:center;text-anchor:middle;fill:#000000;fill-opacity:0.48">If you wish to translate</text>
      <text
         xml:space="preserve"
         x="2719.0498"
         y="2548.2856"
         id="text775-2"
         inkscape:label="hidden752-2"
         style="font-style:normal;font-variant:normal;font-weight:normal;font-stretch:normal;font-size:25.3333px;line-height:0%;font-family:Lavi;-inkscape-font-specification:Lavi;text-align:center;text-anchor:middle;fill:#000000;fill-opacity:0.48">&quot;Citadels &amp; Phoenixes&quot;,</text>
      <text
         xml:space="preserve"
         x="2721.8564"
         y="2580.3147"
         id="text775-3"
         inkscape:label="hidden752-3"
         style="font-style:normal;font-variant:normal;font-weight:normal;font-stretch:normal;font-size:25.3333px;line-height:0%;font-family:Lavi;-inkscape-font-specification:Lavi;text-align:center;text-anchor:middle;fill:#000000;fill-opacity:0.48">there are 2 text entries,</text>
      <text
         xml:space="preserve"
         x="2717.8718"
         y="2612.3584"
         id="text775-6"
         inkscape:label="hidden752-4"
         style="font-style:normal;font-variant:normal;font-weight:normal;font-stretch:normal;font-size:25.3333px;line-height:0%;font-family:Lavi;-inkscape-font-specification:Lavi;text-align:center;text-anchor:middle;fill:#000000;fill-opacity:0.48">one of which is on the</text>
      <text
         xml:space="preserve"
         x="2720.1343"
         y="2642.4993"
         id="text775-0"
         inkscape:label="hidden752-5"
         style="font-style:normal;font-variant:normal;font-weight:normal;font-stretch:normal;font-size:25.3333px;line-height:0%;font-family:Lavi;-inkscape-font-specification:Lavi;text-align:center;text-anchor:middle;fill:#000000;fill-opacity:0.48">book with the dice on it.</text>
    </g>
  </g>
</svg>
