<?xml version="1.0" encoding="UTF-8" standalone="no"?>
<svg
   xmlns:dc="http://purl.org/dc/elements/1.1/"
   xmlns:cc="http://creativecommons.org/ns#"
   xmlns:rdf="http://www.w3.org/1999/02/22-rdf-syntax-ns#"
   xmlns:svg="http://www.w3.org/2000/svg"
   xmlns="http://www.w3.org/2000/svg"
   xmlns:xlink="http://www.w3.org/1999/xlink"
   xmlns:sodipodi="http://sodipodi.sourceforge.net/DTD/sodipodi-0.dtd"
   xmlns:inkscape="http://www.inkscape.org/namespaces/inkscape"
   id="svg2"
   version="1.1"
   inkscape:version="0.92.2 (5c3e80d, 2017-08-06)"
   width="2481"
   height="3503"
   sodipodi:docname="E35P10.svg">
  <metadata
     id="metadata8">
    <rdf:RDF>
      <cc:Work
         rdf:about="">
        <dc:format>image/svg+xml</dc:format>
        <dc:type
           rdf:resource="http://purl.org/dc/dcmitype/StillImage" />
        <dc:title />
      </cc:Work>
    </rdf:RDF>
  </metadata>
  <defs
     id="defs6" />
  <sodipodi:namedview
     pagecolor="#ffffff"
     bordercolor="#666666"
     borderopacity="1"
     objecttolerance="10"
     gridtolerance="10"
     guidetolerance="10"
     inkscape:pageopacity="0"
     inkscape:pageshadow="2"
     inkscape:window-width="1398"
     inkscape:window-height="1032"
     id="namedview4"
     showgrid="false"
     inkscape:zoom="0.532004"
     inkscape:cx="1231.6637"
     inkscape:cy="395.20383"
     inkscape:window-x="505"
     inkscape:window-y="1"
     inkscape:window-maximized="0"
     inkscape:current-layer="layer1"
     inkscape:document-rotation="0"
     inkscape:snap-global="false"
     inkscape:pagecheckerboard="0" />
  <g
     inkscape:groupmode="layer"
     id="layer2"
     inkscape:label="artwork"
     sodipodi:insensitive="true">
    <image
       sodipodi:absref="C:\Users\Kari\Documents\Pepper and Carrot\Episode 35\fi\../lang/de/./../gfx_Pepper-and-Carrot_by-David-Revoy_E35P10.png"
       xlink:href="../gfx_Pepper-and-Carrot_by-David-Revoy_E35P10.png"
       y="0"
       x="0"
       id="image10"
       height="3503"
       width="2481" />
  </g>
  <g
     inkscape:groupmode="layer"
     id="layer3"
     inkscape:label="speechbubbles">
    <path
       style="fill:#ffffff;stroke:none;stroke-width:0.92796999"
       d="m 1266.7701,157.25314 c -54.616,0.27024 -109.83,-0.44085 -163.5234,10.04567 -22.3255,4.24163 -45.048,9.27337 -64.6582,20.29815 -23.2259,13.2147 -42.50301,33.2601 -50.69365,57.31578 -6.69117,20.9453 -2.48772,43.69917 7.62295,63.14061 11.9268,24.11035 33.6129,44.32874 60.4427,54.70295 27.5211,11.77464 56.7689,19.79142 86.2001,26.51432 42.7491,8.91865 86.7852,10.39537 130.4684,11.1226 52.7755,1.39286 105.8332,4.08998 158.416,-1.75514 32.5046,-3.45441 64.892,-8.08199 96.831,-14.61195 31.9629,-6.72271 63.8166,-16.58852 90.6889,-34.15356 12.3313,-7.76483 21.5924,-18.99457 27.9134,-31.27222 4.3587,-8.44853 7.4957,-17.3653 10.5529,-26.25747 5.5957,-17.40585 7.261,-36.28944 1.6158,-53.87381 -7.1576,-23.43292 -26.3176,-43.39482 -50.6344,-53.35977 -24.6757,-11.05223 -51.9781,-15.67342 -78.8433,-19.98389 -39.0925,-5.64994 -78.7575,-6.39267 -118.2469,-7.34164 -47.5242,-0.65845 -95.0562,-0.50576 -142.584,-0.54069 -0.5228,0.004 -1.0455,0.007 -1.5683,0.01 z"
       id="path3100-98"
       inkscape:connector-curvature="0"
       sodipodi:nodetypes="zsssssz" />
    <path
       style="color:#000000;display:inline;overflow:visible;visibility:visible;fill:#ffffff;fill-opacity:1;fill-rule:nonzero;stroke:none;stroke-width:0.83737px;marker:none;enable-background:accumulate"
       d="m 1448.7795,517.63055 c 2.403,-24.32977 -9.2766,-33.6163 -20.6628,-38.28253 -11.3869,-4.66626 -19.0826,-5.58729 -28.1978,-26.0826 -9.1142,-20.49521 -0.7357,-41.29642 -4.8853,-52.46499 -11.4569,-16.24953 -34.9307,-26.06627 -44.5289,-30.51513 -21.6856,-10.05119 11.3091,-23.29909 11.3091,-23.29909 8.77,-0.30545 47.7455,23.68713 57.7575,33.72157 14.4084,14.44054 -4.0636,48.20741 4.0399,65.52593 7.5675,16.17219 18.2749,17.40774 23.9472,28.63593 5.6729,11.22843 4.8219,31.66667 1.2211,42.76091 z"
       id="path4538-8"
       inkscape:connector-curvature="0"
       sodipodi:nodetypes="csscscsssc" />
    <path
       style="color:#000000;display:inline;overflow:visible;visibility:visible;fill:#ffffff;fill-opacity:1;fill-rule:nonzero;stroke:none;stroke-width:1.21196px;marker:none;enable-background:accumulate"
       d="m 128.60526,1521.6618 c 4.04686,-52.835 4.62778,-103.8757 58.15572,-134.3848 53.52782,-30.5077 147.82948,-38.1731 266.27874,-29.2988 63.44774,4.7531 143.3755,11.1057 193.97011,33.0647 50.59462,21.9591 71.8562,59.5245 66.66422,136.9162 -5.19199,77.3916 -33.21031,110.9507 -91.65593,130.2669 -58.44553,19.3177 -147.31858,24.3928 -168.71908,26.3926 -21.40048,1.9996 -87.77534,-0.5587 -153.62887,-10.1499 -65.85341,-9.5912 -110.89691,-16.2888 -130.21198,-42.4256 -30.27953,-33.1568 -42.6943,-71.9148 -40.85293,-110.3813 z"
       id="path4546-6-2-0"
       inkscape:connector-curvature="0"
       sodipodi:nodetypes="cssssssscc" />
    <path
       style="fill:#ffffff;fill-rule:evenodd;stroke:none;stroke-width:1.12465px;stroke-linecap:butt;stroke-linejoin:miter;stroke-opacity:1"
       d="m 566.83527,1651.6586 c 4.43847,-15.3188 61.8645,41.4938 43.56991,104.2767 2.42387,27.4208 22.18027,42.2423 21.12076,57.0045 -1.05963,24.2524 -9.53608,35.8508 -36.02508,55.8848 33.90594,-15.8168 54.23301,-33.7608 55.29264,-58.0121 1.05951,-24.2524 -17.71625,-25.1329 -17.14842,-60.0829 1.05952,-10.5449 25.79381,-65.3353 -26.69151,-120.7385 19.07205,-20.0341 -40.1183,21.6675 -40.1183,21.6675 z"
       id="path1303"
       inkscape:connector-curvature="0"
       sodipodi:nodetypes="cccccccc" />
    <path
       style="color:#000000;display:inline;overflow:visible;visibility:visible;fill:#ffffff;fill-opacity:1;fill-rule:nonzero;stroke:none;stroke-width:0.79738px;marker:none;enable-background:accumulate"
       d="m 1281.8209,1541.7467 c 2.4753,-37.3903 2.8306,-73.5107 35.5721,-95.1015 32.7413,-21.5896 90.4228,-27.0143 162.8745,-20.7341 38.8092,3.3636 87.6985,7.8593 118.6458,23.3992 30.9472,15.54 43.9521,42.1243 40.7764,96.8929 -3.1756,54.7685 -20.3136,78.5176 -56.063,92.1873 -35.7495,13.6708 -90.1104,17.2623 -103.2004,18.6775 -13.09,1.4151 -53.6897,-0.3954 -93.9703,-7.1829 -40.2806,-6.7874 -67.8322,-11.5272 -79.6466,-30.0237 -18.521,-23.4644 -26.1149,-50.8927 -24.9885,-78.1147 z"
       id="path4546-6-2-0-3"
       inkscape:connector-curvature="0"
       sodipodi:nodetypes="cssssssscc" />
    <path
       style="color:#000000;display:inline;overflow:visible;visibility:visible;fill:#ffffff;fill-opacity:1;fill-rule:nonzero;stroke:none;stroke-width:0.76914996px;marker:none;enable-background:accumulate"
       d="m 1364.447,1759.375 c 2.0926,-41.1512 2.393,-80.9047 30.073,-104.6672 27.6799,-23.7613 76.4445,-29.7316 137.6957,-22.8197 32.8097,3.702 74.1412,8.6498 100.3043,25.7529 26.1631,17.1029 37.1577,46.3614 34.4729,106.6388 -2.6848,60.2772 -17.1735,86.415 -47.3963,101.4599 -30.2228,15.0458 -76.1802,18.9986 -87.2467,20.556 -11.0664,1.5576 -45.3898,-0.4349 -79.4433,-7.9053 -34.0535,-7.4703 -57.346,-12.6866 -67.3341,-33.0436 -15.6579,-25.8245 -22.0776,-56.0116 -21.1255,-85.9718 z"
       id="path4546-6-2-0-3-6"
       inkscape:connector-curvature="0"
       sodipodi:nodetypes="cssssssscc" />
    <path
       style="color:#000000;display:inline;overflow:visible;visibility:visible;fill:#ffffff;fill-opacity:1;fill-rule:nonzero;stroke:none;stroke-width:1.47843px;marker:none;enable-background:accumulate"
       d="m 1474.8245,1844.8292 c 6.1533,73.3287 -47.1663,130.4434 -118.01,146.3855 114.7363,-9.2052 166.2605,-106.0374 160.9588,-137.1332 -5.191,-30.4467 -42.9488,-9.2523 -42.9488,-9.2523 z"
       id="path5010-4"
       inkscape:connector-curvature="0"
       sodipodi:nodetypes="ccsc" />
  </g>
  <g
     inkscape:groupmode="layer"
     id="layer1"
     inkscape:label="txt">
    <text
       xml:space="preserve"
       style="font-style:normal;font-variant:normal;font-weight:normal;font-stretch:normal;font-size:45px;line-height:1.25;font-family:Lavi;-inkscape-font-specification:Lavi;text-align:center;letter-spacing:0px;word-spacing:0px;text-anchor:middle;fill:#000000;fill-opacity:1;stroke:none"
       x="1325.0667"
       y="244.98175"
       id="text4246-3-2-2"><tspan
         style="font-size:45px"
         sodipodi:role="line"
         x="1325.0667"
         y="244.98175"
         id="tspan7817">Tiedäthän, että antautuessasi</tspan><tspan
         style="font-size:45px"
         sodipodi:role="line"
         x="1325.0667"
         y="301.23175"
         id="tspan15985">Mestari Wasabille</tspan><tspan
         style="font-size:45px"
         sodipodi:role="line"
         x="1325.0667"
         y="357.48175"
         id="tspan20039">sinulle ei käy hyvin?</tspan></text>
    <text
       xml:space="preserve"
       style="font-style:normal;font-variant:normal;font-weight:normal;font-stretch:normal;font-size:45px;line-height:1.25;font-family:Lavi;-inkscape-font-specification:Lavi;text-align:center;letter-spacing:0px;word-spacing:0px;text-anchor:middle;fill:#000000;fill-opacity:1;stroke:none"
       x="415.41315"
       y="1452.8612"
       id="text4246-3-2-2-3"><tspan
         style="font-size:45px"
         sodipodi:role="line"
         x="415.41315"
         y="1452.8612"
         id="tspan920">Tiedän, mutta minusta</tspan><tspan
         style="font-size:45px"
         sodipodi:role="line"
         x="415.41315"
         y="1509.1112"
         id="tspan886">tuntuu, että on</tspan><tspan
         style="font-size:45px"
         sodipodi:role="line"
         x="415.41315"
         y="1565.3612"
         id="tspan892">mahdollista saada</tspan><tspan
         style="font-size:45px"
         sodipodi:role="line"
         x="415.41315"
         y="1621.6112"
         id="tspan53">hänet ymmärtämään.</tspan></text>
    <text
       xml:space="preserve"
       style="font-style:normal;font-variant:normal;font-weight:normal;font-stretch:normal;font-size:45px;line-height:1.25;font-family:Lavi;-inkscape-font-specification:Lavi;text-align:center;letter-spacing:0px;word-spacing:0px;text-anchor:middle;fill:#000000;fill-opacity:1;stroke:none"
       x="1460.6498"
       y="1490.1573"
       id="text4246-3-2-2-3-3"><tspan
         style="font-size:45px"
         sodipodi:role="line"
         x="1460.6498"
         y="1490.1573"
         id="tspan896">Kaikkihan on</tspan><tspan
         style="font-size:45px"
         sodipodi:role="line"
         x="1460.6498"
         y="1546.4073"
         id="tspan60">kuitenkin aina</tspan><tspan
         style="font-size:45px"
         sodipodi:role="line"
         x="1460.6498"
         y="1602.6573"
         id="tspan62">korjattavissa.</tspan></text>
    <text
       xml:space="preserve"
       style="font-style:normal;font-variant:normal;font-weight:normal;font-stretch:normal;font-size:45px;line-height:1.25;font-family:Lavi;-inkscape-font-specification:Lavi;text-align:center;letter-spacing:0px;word-spacing:0px;text-anchor:middle;fill:#000000;fill-opacity:1;stroke:none"
       x="1516.4325"
       y="1717.9688"
       id="text4246-3-2-2-3-3-1"><tspan
         style="font-size:45px"
         sodipodi:role="line"
         x="1516.4325"
         y="1717.9688"
         id="tspan913">Opin sen</tspan><tspan
         style="font-size:45px"
         sodipodi:role="line"
         x="1516.4325"
         y="1774.2188"
         id="tspan69">hyvältä</tspan><tspan
         style="font-size:45px"
         sodipodi:role="line"
         x="1516.4325"
         y="1830.4688"
         id="tspan71">ystävältäni.</tspan></text>
  </g>
</svg>
