<?xml version="1.0" encoding="UTF-8" standalone="no"?>
<svg
   xmlns:dc="http://purl.org/dc/elements/1.1/"
   xmlns:cc="http://creativecommons.org/ns#"
   xmlns:rdf="http://www.w3.org/1999/02/22-rdf-syntax-ns#"
   xmlns:svg="http://www.w3.org/2000/svg"
   xmlns="http://www.w3.org/2000/svg"
   xmlns:xlink="http://www.w3.org/1999/xlink"
   xmlns:sodipodi="http://sodipodi.sourceforge.net/DTD/sodipodi-0.dtd"
   xmlns:inkscape="http://www.inkscape.org/namespaces/inkscape"
   id="svg2"
   version="1.1"
   inkscape:version="1.0.2 (e86c870879, 2021-01-15)"
   width="2481"
   height="3503"
   sodipodi:docname="E35P05.svg">
  <metadata
     id="metadata8">
    <rdf:RDF>
      <cc:Work
         rdf:about="">
        <dc:format>image/svg+xml</dc:format>
        <dc:type
           rdf:resource="http://purl.org/dc/dcmitype/StillImage" />
        <dc:title />
      </cc:Work>
    </rdf:RDF>
  </metadata>
  <defs
     id="defs6" />
  <sodipodi:namedview
     pagecolor="#ffffff"
     bordercolor="#666666"
     borderopacity="1"
     objecttolerance="10"
     gridtolerance="10"
     guidetolerance="10"
     inkscape:pageopacity="0"
     inkscape:pageshadow="2"
     inkscape:window-width="1024"
     inkscape:window-height="546"
     id="namedview4"
     showgrid="false"
     inkscape:zoom="0.35"
     inkscape:cx="1249.737"
     inkscape:cy="2736.8778"
     inkscape:window-x="0"
     inkscape:window-y="25"
     inkscape:window-maximized="1"
     inkscape:current-layer="layer3"
     inkscape:document-rotation="0"
     inkscape:snap-global="false"
     inkscape:pagecheckerboard="0" />
  <g
     inkscape:groupmode="layer"
     id="layer2"
     inkscape:label="artwork"
     sodipodi:insensitive="true">
    <image
       sodipodi:absref="/home/twilight/Descargas/ep35/lang/gfx_Pepper-and-Carrot_by-David-Revoy_E35P05.png"
       xlink:href="../gfx_Pepper-and-Carrot_by-David-Revoy_E35P05.png"
       width="2481"
       height="3503"
       id="image10"
       x="0"
       y="0" />
  </g>
  <g
     inkscape:groupmode="layer"
     id="layer3"
     inkscape:label="speechbubbles">
    <path
       style="color:#000000;display:inline;overflow:visible;visibility:visible;fill:#ffffff;fill-opacity:1;fill-rule:nonzero;stroke:none;stroke-width:1.22389px;marker:none;enable-background:accumulate"
       d="m 1293.5361,3038.6191 c 2.6997,-35.2866 14.8003,-34.9849 56.464,-3.067 -10.9941,-62.9304 44.9435,-65.9059 97.0767,-72.2891 -5.9793,-17.6816 -29.062,-37.9887 8.3577,-49.0096 -20.0991,-10.5394 -20.164,-24.5601 -2.3533,-41.6866 -41.6094,8.1611 -57.2605,3.1364 -8.0472,-34.8365 -46.4485,21.5729 -90.9291,40.777 -73.4113,-14.6168 -17.5887,7.5397 -27.4016,51.3953 -96.2898,-28.8246 -0.7799,36.9373 -69.9032,67.3285 -103.8492,19.6447 17.1853,39.7309 -39.1473,85.3245 -65.5621,53.4256 15.6919,22.2732 2.7224,44.0543 -17.0516,47.7038 56.1423,5.8931 44.8795,19.3944 6.0168,41.7916 115.6356,3.496 51.9985,25.7471 52.5653,40.8097 70.3946,-13.8535 65.8707,14.2909 75.949,35.1552 67.0383,-63.6402 46.6716,-52.2733 70.135,5.7996 z"
       id="path3549-3-1"
       inkscape:connector-curvature="0"
       sodipodi:nodetypes="ccccccccccccccc" />
    <path
       style="color:#000000;display:inline;overflow:visible;visibility:visible;fill:#ffffff;fill-opacity:1;fill-rule:nonzero;stroke:none;stroke-width:1.08157px;marker:none;enable-background:accumulate"
       d="m 1212.8862,3147.3781 c -7.8993,-24.0046 -52.4518,-26.0175 -68.8527,-21.1382 33.0606,-26.8536 31.9081,-43.5381 -12.9789,-46.1287 75.2763,-48.3972 24.054,-56.6746 1.6282,-53.3458 59.1055,-16.6787 62.2542,-56.2014 22.1382,-58.0991 67.9363,-0.7099 45.7037,-33.8324 48.5673,-60.2125 5.7593,12.3786 33.1202,50.0649 34.7667,8.1038 37.177,31.1307 82.0839,46.4145 103.3574,-4.1656 18.1054,35.2444 36.1565,50.1401 34.767,8.1038 44.8593,54.6735 85.172,34.9935 125.7233,19.5409 -9.2316,16.7667 -33.6174,42.46 46.3486,35.9122 -28.1394,15.8378 -29.3157,26.7961 33.077,34.2759 -34.914,9.8802 -41.3483,20.0716 23.4788,31.039 -49.3299,1.0609 -95.33,3.2343 -37.4554,40.6364 -18.1569,0.905 -61.2361,-30.3043 -41.1508,61.0304 -31.2217,-29.2394 -64.5323,-45.3775 -106.3071,15.8716 -19.77,-30.5989 -54.0603,-45.7404 -68.9781,-7.52 -5.3621,-16.294 -27.595,-22.422 -46.4693,-23.165 -7.2985,6.4722 -14.8267,15.2633 -22.6821,26.7809 -12.8392,-24.184 -32.0454,-40.5169 -68.9781,-7.52 z"
       id="path3549-3-7"
       inkscape:connector-curvature="0"
       sodipodi:nodetypes="cccccccccccccccccccc" />
    <path
       style="fill:#ffffff;fill-rule:evenodd;stroke:none;stroke-width:1.65188px;stroke-linecap:butt;stroke-linejoin:miter;stroke-opacity:1"
       d="m 1204.7404,2519.8617 c 50.5917,78.9459 60.9555,113.3414 65.2028,134.3512 -41.2056,-22.133 -58.2095,-26.0517 -64.1574,-16.5377 -5.9478,9.5142 78.8131,323.8736 78.8131,323.8736 l 27.3427,-77.0906 c 0,0 -45.9792,-134.5245 -55.8759,-162.7161 -9.897,-28.1916 -17.6794,-59.5815 -17.6794,-59.5815 0,0 32.7448,22.5895 42.5581,23.1114 9.813,0.5218 45.9229,-15.5328 -76.204,-165.4103 z"
       id="path891"
       inkscape:connector-curvature="0"
       inkscape:transform-center-x="-51.96084"
       inkscape:transform-center-y="220.66697"
       sodipodi:nodetypes="ccsccscsc" />
    <path
       style="fill:#ffffff;fill-rule:evenodd;stroke:none;stroke-width:1px;stroke-linecap:butt;stroke-linejoin:miter;stroke-opacity:1"
       d="m 2185.1028,3280.612 c 1.0808,-19.455 14.0506,-55.122 33.5054,-61.607 19.4547,-6.485 73.4956,-6.485 84.3038,-3.242 10.8082,3.242 28.1013,27.02 32.4246,36.748 4.3233,9.727 16.2123,44.313 -3.2424,58.364 -19.4548,14.051 -38.9095,24.859 -59.4451,23.778 -20.5356,-1.081 -61.6067,-8.647 -71.334,-21.616 -9.7274,-12.97 -16.2123,-32.425 -16.2123,-32.425 z"
       id="path1355"
       inkscape:connector-curvature="0" />
    <path
       style="fill:#ffffff;fill-rule:evenodd;stroke:none;stroke-width:1.40704px;stroke-linecap:butt;stroke-linejoin:miter;stroke-opacity:1"
       d="m 2210.3858,3260.9854 c 0,0 -9.9729,30.1184 -20.5324,37.3461 -10.5597,7.2275 -37.179,18.9359 -56.6531,11.8546 35.6758,21.6634 55.6021,14.7863 64.3759,10.0326 8.7751,-4.7533 39.4153,-35.3687 39.4153,-35.3687 z"
       id="path1367"
       inkscape:connector-curvature="0" />
  </g>
  <g
     inkscape:groupmode="layer"
     id="layer1"
     inkscape:label="txt">
    <text
       xml:space="preserve"
       style="font-style:normal;font-variant:normal;font-weight:normal;font-stretch:normal;font-size:64px;line-height:1.25;font-family:Lavi;-inkscape-font-specification:Lavi;text-align:center;letter-spacing:0px;word-spacing:0px;text-anchor:middle;fill:#000000;fill-opacity:1;stroke:none"
       x="1781.5028"
       y="2937.1594"
       id="text4246-3-2-2"
       transform="skewX(-9.8231434)"><tspan
         style="font-style:normal;font-variant:normal;font-weight:bold;font-stretch:normal;font-size:64px;font-family:Lavi;-inkscape-font-specification:'Lavi Bold'"
         sodipodi:role="line"
         x="1791.5028"
         y="2937.1594"
         id="tspan905">¡RAYOS! </tspan></text>
    <text
       xml:space="preserve"
       style="font-style:normal;font-variant:normal;font-weight:normal;font-stretch:normal;font-size:56px;line-height:1.25;font-family:Lavi;-inkscape-font-specification:Lavi;text-align:center;letter-spacing:0px;word-spacing:0px;text-anchor:middle;fill:#000000;fill-opacity:1;stroke:none"
       x="1348.2343"
       y="3025.2488"
       id="text4246-3-2-2-7"><tspan
         style="font-style:normal;font-variant:normal;font-weight:bold;font-stretch:normal;font-size:56px;font-family:Lavi;-inkscape-font-specification:'Lavi Bold'"
         sodipodi:role="line"
         x="1348.2343"
         y="3025.2488"
         id="tspan935">¡¿QUÉ</tspan><tspan
         style="font-style:normal;font-variant:normal;font-weight:bold;font-stretch:normal;font-size:56px;font-family:Lavi;-inkscape-font-specification:'Lavi Bold'"
         sodipodi:role="line"
         x="1348.2343"
         y="3095.2488"
         id="tspan24">HACEMOS?!</tspan></text>
    <text
       xml:space="preserve"
       style="font-style:normal;font-variant:normal;font-weight:normal;font-stretch:normal;font-size:56px;line-height:1.25;font-family:Lavi;-inkscape-font-specification:Lavi;text-align:center;letter-spacing:0px;word-spacing:0px;text-anchor:middle;fill:#000000;fill-opacity:1;stroke:none"
       x="2261.2617"
       y="3292.04"
       id="text4246-3-2-2-7-3"><tspan
         style="font-style:normal;font-variant:normal;font-weight:bold;font-stretch:normal;font-size:56px;font-family:Lavi;-inkscape-font-specification:'Lavi Bold'"
         sodipodi:role="line"
         x="2261.2617"
         y="3292.04"
         id="tspan935-6">¡Oh!</tspan></text>
  </g>
</svg>
