<?xml version="1.0" encoding="UTF-8" standalone="no"?>
<!-- Created with Inkscape (http://www.inkscape.org/) -->

<svg
   xmlns:dc="http://purl.org/dc/elements/1.1/"
   xmlns:cc="http://creativecommons.org/ns#"
   xmlns:rdf="http://www.w3.org/1999/02/22-rdf-syntax-ns#"
   xmlns:svg="http://www.w3.org/2000/svg"
   xmlns="http://www.w3.org/2000/svg"
   xmlns:xlink="http://www.w3.org/1999/xlink"
   xmlns:sodipodi="http://sodipodi.sourceforge.net/DTD/sodipodi-0.dtd"
   xmlns:inkscape="http://www.inkscape.org/namespaces/inkscape"
   id="svg2"
   version="1.1"
   inkscape:version="0.92.4 (5da689c313, 2019-01-14)"
   width="2481"
   height="3503"
   sodipodi:docname="E38P03.svg">
  <metadata
     id="metadata8">
    <rdf:RDF>
      <cc:Work
         rdf:about="">
        <dc:format>image/svg+xml</dc:format>
        <dc:type
           rdf:resource="http://purl.org/dc/dcmitype/StillImage" />
        <dc:title />
      </cc:Work>
    </rdf:RDF>
  </metadata>
  <defs
     id="defs6" />
  <sodipodi:namedview
     pagecolor="#ffffff"
     bordercolor="#666666"
     borderopacity="1"
     objecttolerance="10"
     gridtolerance="10"
     guidetolerance="10"
     inkscape:pageopacity="0"
     inkscape:pageshadow="2"
     inkscape:window-width="1858"
     inkscape:window-height="1057"
     id="namedview4"
     showgrid="false"
     inkscape:zoom="0.60835002"
     inkscape:cx="1467.0831"
     inkscape:cy="768.06127"
     inkscape:window-x="54"
     inkscape:window-y="-8"
     inkscape:window-maximized="1"
     inkscape:current-layer="layer3"
     inkscape:showpageshadow="0"
     inkscape:pagecheckerboard="0"
     inkscape:deskcolor="#d1d1d1" />
  <g
     inkscape:groupmode="layer"
     id="layer2"
     inkscape:label="artwork"
     sodipodi:insensitive="true">
    <image
       sodipodi:absref="D:\Documents\code\webcomics\ep38_The-Healer\lang\id\../gfx_Pepper-and-Carrot_by-David-Revoy_E38P03.png"
       xlink:href="../gfx_Pepper-and-Carrot_by-David-Revoy_E38P03.png"
       width="2481"
       height="3503"
       id="image10"
       x="0"
       y="0" />
  </g>
  <g
     inkscape:groupmode="layer"
     id="layer3"
     inkscape:label="speechbubbles">
    <path
       style="color:#000000;display:inline;overflow:visible;visibility:visible;fill:#ffffff;fill-opacity:1;fill-rule:nonzero;stroke:none;stroke-width:1px;marker:none;enable-background:accumulate"
       d="m 1982.7326,2510.0564 c -33.6371,0.8018 -67.6629,3.7749 -99.9247,15.4244 -13.6887,5.4226 -24.6693,16.7397 -35.2587,27.6458 -7.9932,8.4796 -15.5576,18.6022 -17.9022,31.1289 -3.2949,17.2957 -2.6532,35.2224 -0.7875,52.6825 1.5921,12.4624 5.7321,24.579 12.587,34.4867 9.279,13.9184 22.6798,23.6563 37.044,29.2347 24.5576,10.6706 50.7248,16.8653 77.0377,16.7512 17.0205,0.084 34.0413,-1.0985 51.0589,-0.2596 21.1874,0.5077 42.5788,1.2561 63.5173,-3.215 18.3719,-3.7455 36.3737,-10.0774 53.3195,-19.0492 12.0282,-6.7676 22.8446,-17.0427 29.4388,-30.5765 12.5759,-24.6712 12.9819,-57.015 0.4955,-81.8408 -10.2197,-21.2409 -27.2399,-37.3528 -46.1605,-47.7138 -19.6605,-10.9999 -41.3412,-16.173 -62.9511,-18.9956 -20.3983,-3.0816 -40.9002,-5.9834 -61.514,-5.7037 z"
       id="path4040-4-5-3"
       inkscape:connector-curvature="0"
       sodipodi:nodetypes="zssssz" />
    <path
       style="color:#000000;display:inline;overflow:visible;visibility:visible;fill:#ffffff;fill-opacity:1;fill-rule:nonzero;stroke:none;stroke-width:1.1050576px;marker:none;enable-background:accumulate"
       d="m 2103.2557,2706.9726 c -51.4138,0.7935 -103.3091,1.0708 -153.8268,10.9643 -23.0856,4.8169 -44.7291,17.3267 -57.415,35.968 -18.9402,27.0274 -20.7589,63.1136 -5.447,91.921 8.9255,17.5415 23.9176,32.2564 42.0078,42.0923 13.5741,7.9098 29.0019,13.2222 45.0212,14.7738 40.3152,5.3692 81.0337,8.7979 121.8038,8.0635 30.8445,-0.5328 61.7159,-3.0719 91.9972,-8.5853 22.2605,-4.3943 44.4721,-12.5004 60.9234,-27.4178 12.7232,-11.4379 21.1468,-26.8297 23.3682,-43.0808 2.3241,-14.0323 3.1384,-28.2882 2.5374,-42.4681 -0.8148,-14.8337 -4.9663,-29.8545 -14.4088,-42.0999 -8.713,-11.7117 -21.774,-20.1106 -35.8558,-25.576 -20.2402,-7.9643 -42.2946,-10.7766 -64.0337,-12.8144 -18.8362,-1.5838 -37.7684,-1.8478 -56.6719,-1.7406 z"
       id="path3365-33"
       inkscape:connector-curvature="0"
       sodipodi:nodetypes="csssssc" />
    <path
       style="color:#000000;display:inline;overflow:visible;visibility:visible;fill:#ffffff;fill-opacity:1;fill-rule:nonzero;stroke:none;stroke-width:0.999999px;marker:none;enable-background:accumulate"
       d="m 1263.1642,1831.4688 c -42.5257,-42.2705 -19.5395,-108.0364 17.6028,-114.3414 51.4374,-8.7316 -11.3103,20.5827 -11.3103,20.5827 0,0 -37.0509,43.6527 -6.2925,93.7587 z"
       id="path5002-7"
       inkscape:connector-curvature="0"
       sodipodi:nodetypes="cscc" />
    <path
       style="color:#000000;display:inline;overflow:visible;visibility:visible;fill:#ffffff;fill-opacity:1;fill-rule:nonzero;stroke:none;stroke-width:1px;marker:none;enable-background:accumulate"
       d="m 1916.9709,2636.425 c -77.3885,-61.1144 -158.5933,-65.3254 -208.3967,7.4705 60.8364,-52.278 143.8743,-25.5157 174.2291,8.7518 16.5264,23.0336 34.1676,-16.2223 34.1676,-16.2223 z"
       id="path3978-4"
       inkscape:connector-curvature="0"
       sodipodi:nodetypes="cccc" />
    <path
       style="fill:#ffffff;fill-rule:evenodd;stroke:none;stroke-width:0.999997px;stroke-linecap:butt;stroke-linejoin:miter;stroke-opacity:1"
       d="m 1571.1,1438.6662 c 1.0295,-18.6517 13.3828,-52.846 31.913,-59.0632 18.53,-6.2173 70.0024,-6.2173 80.2969,-3.1082 10.2946,3.1082 26.7657,25.9044 30.8835,35.2307 4.1179,9.3254 15.4418,42.4833 -3.0882,55.9542 -18.5302,13.4708 -37.0602,23.8325 -56.6198,22.7962 -19.5596,-1.0364 -58.6787,-8.29 -67.9436,-20.7235 -9.2651,-12.4345 -15.4418,-31.0862 -15.4418,-31.0862 z"
       id="path1355"
       inkscape:connector-curvature="0" />
    <path
       style="fill:#ffffff;fill-rule:evenodd;stroke:none;stroke-width:1.07165265px;stroke-linecap:butt;stroke-linejoin:miter;stroke-opacity:1"
       d="m 991.16129,1564.5354 c 21.27591,2.0314 52.43081,-7.5765 35.23011,-38.1612 33.3867,21.6699 60.7602,17.8869 115.0688,-16.1391 -4.513,47.4093 19.76,42.9799 41.6428,33.8779 -21.0013,15.9536 16.6968,25.0955 36.9751,25.9916 -42.8966,34.5064 -20.3712,45.4806 -3.4684,58.4772 -42.1572,-9.6156 -31.9613,9.8675 -36.9967,20.8848 -36.1645,-24.9624 -62.4647,-19.038 -83.2425,4.1769 -10.8671,-12.6249 -14.2781,-38.7184 -54.3389,1.3923 14.7314,-34.6271 -4.5781,-30.9924 -35.8403,-13.9231 4.8994,-11.7944 34.0193,-29.7296 -15.03001,-27.8464 30.63711,-11.2123 37.06201,-26.401 0,-48.7309 z"
       id="path4584"
       inkscape:connector-curvature="0"
       sodipodi:nodetypes="cccccccccccc" />
    <path
       style="color:#000000;display:inline;overflow:visible;visibility:visible;fill:#ffffff;fill-opacity:1;fill-rule:nonzero;stroke:none;stroke-width:1px;marker:none;enable-background:accumulate"
       d="m 1092.7675,1600.0887 c 32.5118,17.1362 69.5241,50.078 26.9344,88.4809 5.5785,26.0417 6.6264,46.3987 -29.7935,75.4959 22.4386,-26.2104 31.5308,-42.9396 20.1333,-80.7335 19.0733,-22.4288 9.883,-53.2464 -33.7163,-67.4214 -43.5993,-14.1751 -33.1079,-7.2586 -33.1079,-7.2586 l 36.9086,-13.1055 z"
       id="path5074"
       inkscape:connector-curvature="0"
       sodipodi:nodetypes="ccccsccc" />
    <path
       style="fill:#ffffff;stroke:none;stroke-width:0.999998"
       d="m 1641.2389,1626.3692 c -23.6692,-22.5115 -16.2357,-35.8105 -6.3972,-46.3314 9.8357,-10.5203 11.5626,-22.6355 9.6907,-30.0237 -1.8719,-7.3881 -10.8731,-18.1272 -18.2553,-23.021 -7.3832,-4.8937 2.0396,-17.023 7.4292,-24.7215 7.1196,-10.1717 17.3403,-10.9015 17.3403,-10.9015 0,0 -8.6513,-43.4434 -16.6505,-33.7546 -7.9983,9.6888 -25.6203,43.7517 -27.4427,48.1059 -1.8214,4.3541 -5.0288,17.8771 0.4234,24.5114 5.4533,6.6341 17.5984,9.8769 21.8896,18.2273 4.4207,8.6023 3.0414,15.2934 -2.2485,24.1895 -5.2898,8.8961 -13.1942,29.5079 -2.6908,39.3668 10.5043,9.8587 16.9118,14.3528 16.9118,14.3528 z"
       id="path3023-9"
       inkscape:connector-curvature="0"
       sodipodi:nodetypes="csssscssssssc" />
  </g>
  <g
     inkscape:groupmode="layer"
     id="layer1"
     inkscape:label="txt">
    <path
       style="color:#000000;display:inline;overflow:visible;visibility:visible;fill:#ffffff;fill-opacity:1;fill-rule:nonzero;stroke:none;stroke-width:1.21463656px;marker:none;enable-background:accumulate"
       d="m 1265.2865,1825.9982 c 11.3253,-21.5672 33.4063,-39.4036 43.1542,-1.2712 27.3736,-35.6471 40.5501,-23.8774 61.9443,1.5093 0.1915,-8.1262 7.3265,-40.5956 38.1117,-20.3599 -9.759,-29.1197 20.0159,-31.7229 34.5573,-28.4655 -5.5259,-14.2409 2.8174,-24.9345 23.5348,-32.4611 -29.3603,-6.6624 -23.0802,-23.8612 15.3092,-40.3861 -40.2245,2.0509 -49.7837,-17.9489 -18.8486,-44.2691 -14.8558,0.2977 -66.3379,37.947 -60.4845,-36.0264 -17.7757,25.0322 -50.3781,53.9423 -81.8871,7.3462 -6.3743,19.9968 -27.5708,34.0724 -53.7998,9.7549 -3.2193,19.5846 -31.652,23.5985 -42.5474,20.5991 23.2724,19.625 23.8279,32.9968 -4.7641,37.5102 52.0083,34.5162 11.99,32.0454 5.1521,42.4989 39.195,10.088 33.4453,29.0858 16.269,38.038 34.4933,-24.6347 26.6808,18.7184 24.2989,45.9827 z"
       id="path3549-3-8"
       inkscape:connector-curvature="0"
       sodipodi:nodetypes="cccccccccccccccc" />
    <text
       id="text4178-0"
       y="1600.2191"
       x="1106.0676"
       style="font-style:normal;font-variant:normal;font-weight:normal;font-stretch:normal;font-size:37.33330154px;line-height:0%;font-family:Lavi;-inkscape-font-specification:Lavi;text-align:center;letter-spacing:0px;word-spacing:0px;text-anchor:middle;fill:#000000;fill-opacity:1;stroke:none"
       xml:space="preserve"><tspan
         y="1600.2191"
         x="1106.0676"
         style="font-size:37.33330154px;line-height:1.25"
         sodipodi:role="line"
         id="tspan4245-6-6">Duluan!</tspan></text>
    <text
       id="text4178-0-1"
       y="1710.4082"
       x="1331.897"
       style="font-style:normal;font-variant:normal;font-weight:normal;font-stretch:normal;font-size:32.75839996px;line-height:0%;font-family:Lavi;-inkscape-font-specification:Lavi;text-align:center;letter-spacing:0px;word-spacing:0px;text-anchor:middle;fill:#000000;fill-opacity:1;stroke:none;stroke-width:0.99999601"
       xml:space="preserve"
       transform="scale(1.0080992,0.99196588)"><tspan
         y="1710.4082"
         x="1331.897"
         style="font-size:32.75839996px;line-height:1.25;stroke-width:0.99999601"
         sodipodi:role="line"
         id="tspan8148">Eh, tidak</tspan><tspan
         y="1751.3562"
         x="1331.897"
         style="font-size:32.75839996px;line-height:1.25;stroke-width:0.99999601"
         sodipodi:role="line"
         id="tspan34">bisa! Aku</tspan><tspan
         y="1792.3042"
         x="1331.897"
         style="font-size:32.75839996px;line-height:1.25;stroke-width:0.99999601"
         sodipodi:role="line"
         id="tspan451">duluan!</tspan></text>
    <text
       id="text4178-0-7"
       y="1453.9064"
       x="1646.5745"
       style="font-style:normal;font-variant:normal;font-weight:normal;font-stretch:normal;font-size:18.9857px;line-height:0%;font-family:Lavi;-inkscape-font-specification:Lavi;text-align:center;letter-spacing:0px;word-spacing:0px;text-anchor:middle;fill:#000000;fill-opacity:1;stroke:none;stroke-width:0.999996"
       xml:space="preserve"><tspan
         y="1453.9064"
         x="1646.5745"
         style="font-size:64.3559px;line-height:1.25;stroke-width:0.999996"
         sodipodi:role="line"
         id="tspan4245-6-6-9">?</tspan></text>
    <text
       id="text4178-0-2"
       y="2581.3774"
       x="1992.4161"
       style="font-style:normal;font-variant:normal;font-weight:normal;font-stretch:normal;line-height:0%;font-family:Lavi;-inkscape-font-specification:Lavi;text-align:center;letter-spacing:0px;word-spacing:0px;text-anchor:middle;fill:#000000;fill-opacity:1;stroke:none"
       xml:space="preserve"><tspan
         y="2581.3774"
         x="1992.4161"
         style="font-size:40.67670059px;line-height:1.25"
         sodipodi:role="line"
         id="tspan424">Kamu pikir</tspan><tspan
         y="2632.2234"
         x="1992.4161"
         style="font-size:40.67670059px;line-height:1.25"
         sodipodi:role="line"
         id="tspan45">lagi apa</tspan><tspan
         y="2683.0691"
         x="1992.4161"
         style="font-size:40.67670059px;line-height:1.25"
         sodipodi:role="line"
         id="tspan47">kamu?</tspan></text>
    <text
       id="text4178-0-2-2"
       y="2766.137"
       x="2072.3018"
       style="font-style:normal;font-variant:normal;font-weight:normal;font-stretch:normal;line-height:0%;font-family:Lavi;-inkscape-font-specification:Lavi;text-align:center;letter-spacing:0px;word-spacing:0px;text-anchor:middle;fill:#000000;fill-opacity:1;stroke:none"
       xml:space="preserve"><tspan
         y="2766.137"
         x="2072.3018"
         style="font-size:40.67670059px;line-height:1.25"
         sodipodi:role="line"
         id="tspan501">Kami sudah</tspan><tspan
         y="2816.9829"
         x="2072.3018"
         style="font-size:40.67670059px;line-height:1.25"
         sodipodi:role="line"
         id="tspan54">mencarimu</tspan><tspan
         y="2867.8286"
         x="2072.3018"
         style="font-size:40.67670059px;line-height:1.25"
         sodipodi:role="line"
         id="tspan56">berbulan-bulan.</tspan></text>
  </g>
</svg>
