<?xml version="1.0" encoding="UTF-8" standalone="no"?>
<!-- Created with Inkscape (http://www.inkscape.org/) -->

<svg
   xmlns:dc="http://purl.org/dc/elements/1.1/"
   xmlns:cc="http://creativecommons.org/ns#"
   xmlns:rdf="http://www.w3.org/1999/02/22-rdf-syntax-ns#"
   xmlns:svg="http://www.w3.org/2000/svg"
   xmlns="http://www.w3.org/2000/svg"
   xmlns:xlink="http://www.w3.org/1999/xlink"
   xmlns:sodipodi="http://sodipodi.sourceforge.net/DTD/sodipodi-0.dtd"
   xmlns:inkscape="http://www.inkscape.org/namespaces/inkscape"
   id="svg2"
   version="1.1"
   inkscape:version="0.92.5 (2060ec1f9f, 2020-04-08)"
   width="2481"
   height="3503"
   sodipodi:docname="E27P02.svg">
  <metadata
     id="metadata8">
    <rdf:RDF>
      <cc:Work
         rdf:about="">
        <dc:format>image/svg+xml</dc:format>
        <dc:type
           rdf:resource="http://purl.org/dc/dcmitype/StillImage" />
        <dc:title />
      </cc:Work>
    </rdf:RDF>
  </metadata>
  <defs
     id="defs6" />
  <sodipodi:namedview
     pagecolor="#ffffff"
     bordercolor="#666666"
     borderopacity="1"
     objecttolerance="10"
     gridtolerance="10"
     guidetolerance="10"
     inkscape:pageopacity="0"
     inkscape:pageshadow="2"
     inkscape:window-width="1920"
     inkscape:window-height="1031"
     id="namedview4"
     showgrid="false"
     inkscape:zoom="0.64686496"
     inkscape:cx="1202.8516"
     inkscape:cy="1631.1006"
     inkscape:window-x="0"
     inkscape:window-y="25"
     inkscape:window-maximized="1"
     inkscape:current-layer="layer1"
     inkscape:snap-global="false"
     inkscape:lockguides="true" />
  <g
     inkscape:groupmode="layer"
     id="layer2"
     inkscape:label="artwork"
     sodipodi:insensitive="true">
    <image
       sodipodi:absref="/mnt/disquesata/Dropbox/ecriture/traduction/pepper_carrot/webcomics/ep27_Coriander-s-Invention/lang/oc/../gfx_Pepper-and-Carrot_by-David-Revoy_E27P02.png"
       xlink:href="../gfx_Pepper-and-Carrot_by-David-Revoy_E27P02.png"
       y="0"
       x="0"
       id="image10"
       height="3503"
       width="2481" />
  </g>
  <g
     inkscape:groupmode="layer"
     id="layer3"
     inkscape:label="speechbubbles">
    <path
       style="fill:#ffffff;fill-rule:evenodd;stroke:none;stroke-width:0.95494342px;stroke-linecap:butt;stroke-linejoin:miter;stroke-opacity:1"
       d="m 478.42988,195.57139 c 5.23884,1.63451 54.63374,0 59.12417,-0.81725 4.49044,-0.81726 38.16877,-7.35529 46.40126,-5.72078 8.23249,1.63451 65.11143,10.6243 75.58914,11.44156 10.47769,0.81725 60.62098,2.45176 69.60186,7.35529 8.9809,4.90352 20.95542,9.80705 27.69109,17.9796 6.73567,8.17254 16.46496,33.50743 15.71655,39.22821 -0.74841,5.72078 -11.22612,44.94899 -17.21337,50.66977 -5.98726,5.72078 -26.94266,24.51763 -32.92992,26.9694 -5.98727,2.45176 -19.45859,8.98979 -26.19426,11.44156 -6.73567,2.45176 -159.41075,4.90352 -178.12094,5.72078 -18.71018,0.81725 -91.30569,-4.90353 -104.02862,-5.72078 -12.72292,-0.81726 -42.65922,1.63451 -62.11779,-6.53804 -19.45861,-8.17254 -32.92995,-38.41095 -38.91719,-44.13174 -5.98727,-5.72078 -16.46497,-30.23841 -15.71655,-39.22821 0.74839,-8.9898 15.71655,-30.23841 23.20061,-32.69017 7.48407,-2.45177 38.16878,-22.88313 56.13055,-26.9694 17.96178,-4.08627 61.3694,-13.89332 69.60188,-13.07607 11.26867,1.64213 10.0848,0.16304 32.18153,4.08627 z"
       id="path1323"
       inkscape:connector-curvature="0"
       sodipodi:nodetypes="ccsscscsscsssccsscc" />
    <path
       style="fill:#ffffff;fill-rule:evenodd;stroke:none;stroke-width:0.93668556px;stroke-linecap:butt;stroke-linejoin:miter;stroke-opacity:1"
       d="m 192.92564,163.77351 c 9.2416,-19.15682 25.992,-29.0442 34.65599,-31.51605 8.664,-2.47185 23.10399,3.08981 31.19041,1.85389 8.08638,-1.23593 38.69917,-12.35924 50.25117,-11.74128 11.552,0.61796 45.63039,4.32573 56.60479,4.9437 10.97439,0.61796 38.12159,3.0898 47.94079,9.88738 9.8192,6.79758 20.7936,14.21312 22.52639,21.0107 1.7328,6.79758 5.77601,19.77478 1.7328,30.89809 -4.0432,11.12331 -13.86239,30.28013 -26.56959,32.13401 -12.7072,1.85389 -75.66558,8.65147 -89.52798,8.0335 -13.86239,-0.61796 -51.98399,0 -61.22559,0 -9.2416,0 -42.74239,-4.32573 -52.56158,-12.35923 -9.8192,-8.0335 -17.32799,-24.10051 -18.4832,-33.9879 -1.1552,-9.88738 3.4656,-19.15681 3.4656,-19.15681 z"
       id="path1325"
       inkscape:connector-curvature="0" />
    <path
       style="fill:#ffffff;fill-rule:evenodd;stroke:none;stroke-width:1px;stroke-linecap:butt;stroke-linejoin:miter;stroke-opacity:1"
       d="m 544.4243,343.97954 c 6.17962,25.33643 -4.94369,76.0093 4.32573,89.60445 9.26943,13.59516 11.12331,11.74128 19.15682,18.53886 -12.35924,15.44904 -17.92089,33.36993 -16.68497,42.63936 1.23592,9.26942 4.32573,33.36993 35.84178,44.49324 -27.19032,-19.15681 -24.71847,-38.31363 -23.48255,-43.87528 1.23593,-5.56166 6.17962,-34.60586 21.62867,-42.0214 -15.44905,-11.74127 -23.48255,-24.71847 -23.48255,-32.13401 0,-7.41554 8.65146,-82.80688 8.65146,-82.80688 z"
       id="path1327"
       inkscape:connector-curvature="0" />
    <path
       style="fill:#ffffff;fill-rule:evenodd;stroke:none;stroke-width:0.88110149px;stroke-linecap:butt;stroke-linejoin:miter;stroke-opacity:1"
       d="m 1060.2527,99.513979 c -25.1725,17.031151 -48.433,30.970451 -51.7894,55.949461 -3.3562,24.97901 -12.58615,45.41639 -13.42523,62.44753 -0.83908,17.03115 5.63973,79.16428 11.51333,101.87247 5.8735,22.7082 37.7587,74.93704 41.954,79.47868 4.1955,4.54163 31.8853,19.30196 45.3106,26.11442 13.4253,6.81246 120.8279,11.35409 140.1268,14.76032 19.2989,3.40623 71.322,-15.89573 84.7474,-23.8436 13.4253,-7.94787 31.8852,-11.3541 40.2759,-24.97901 8.3909,-13.62491 27.6898,-49.95802 31.0461,-65.85375 3.3563,-15.89574 3.3563,-70.3954 3.3563,-81.7495 0,-11.3541 -0.8391,-61.31212 -16.7816,-82.8849 -15.9426,-21.57278 -42.7933,-51.09344 -63.7704,-60.17671 -20.977,-9.083277 -147.6785,-22.708193 -161.9429,-23.843603 -14.2644,-1.135409 -90.6209,22.708192 -90.6209,22.708192 z"
       id="path1329"
       inkscape:connector-curvature="0"
       sodipodi:nodetypes="cssscsscscscssc" />
    <path
       style="fill:#ffffff;fill-rule:evenodd;stroke:none;stroke-width:0.83407217px;stroke-linecap:butt;stroke-linejoin:miter;stroke-opacity:1"
       d="m 1055.2353,395.10744 c -23.5293,14.36798 -49.7736,27.83798 -55.2035,37.71597 -5.42982,9.87799 -12.66963,36.81796 -9.04979,49.38996 3.61997,12.57199 15.38469,64.65595 28.95929,74.53394 13.5746,9.87799 57.0136,40.40997 78.733,40.40997 21.7194,0 91.4025,11.67399 103.1673,10.77599 11.7646,-0.898 87.7826,9.87799 107.6922,0.898 19.9094,-8.98 45.2487,-25.14398 60.6334,-30.53198 15.3844,-5.38799 52.4885,-8.08199 63.3482,-27.83798 10.8598,-19.75598 15.7192,-55.03303 7.2399,-80.81994 -8.2009,-24.93996 -25.3393,-46.69595 -52.4887,-60.16595 -27.1492,-13.46998 -114.027,-43.10396 -114.027,-43.10396 l -130.3165,-11.67399 c 0,0 -20.8145,8.08199 -42.534,19.75598 -21.7194,11.67399 -46.1538,20.65399 -46.1538,20.65399 z"
       id="path1331"
       inkscape:connector-curvature="0"
       sodipodi:nodetypes="csccsccccasccsc" />
    <path
       style="fill:#ffffff;fill-rule:evenodd;stroke:none;stroke-width:1px;stroke-linecap:butt;stroke-linejoin:miter;stroke-opacity:1"
       d="m 1351.9814,582.45483 c 0,0 27.0205,22.6972 35.667,37.82867 8.6466,15.13146 27.0205,36.74784 22.6972,76.73814 10.8082,-51.87931 10.8082,-67.01077 -20.5355,-116.72844 -31.3438,-49.71768 -37.8287,2.16163 -37.8287,2.16163 z"
       id="path1333"
       inkscape:connector-curvature="0" />
    <path
       style="fill:#ffffff;fill-rule:evenodd;stroke:none;stroke-width:1.00570655px;stroke-linecap:butt;stroke-linejoin:miter;stroke-opacity:1"
       d="m 1627.4982,231.8935 c 11.3146,-46.74643 15.086,-74.01519 41.4865,-90.89585 26.4006,-16.88066 134.517,-31.16429 149.603,-32.4628 15.086,-1.29851 60.344,3.89554 81.7159,3.89554 21.3719,0 132.0026,-2.59703 149.603,-2.59703 17.6003,0 89.259,0 108.1165,2.59703 18.8575,2.59702 85.4874,18.17916 96.802,29.86578 11.3145,11.6866 44.0007,61.03006 45.2579,93.49287 1.2573,32.4628 -1.2572,85.7018 -23.8862,106.47799 -22.629,20.77619 -75.4301,46.74643 -110.6308,54.53751 -35.2006,7.79107 -207.4327,16.88065 -227.5473,16.88065 -20.1147,0 -105.6021,3.89554 -147.0886,-2.59702 -41.4866,-6.49256 -86.7447,-25.97024 -108.1165,-44.14941 -21.3718,-18.17918 -47.7725,-31.16429 -55.3154,-66.22412 -7.543,-35.05983 0,-68.82114 0,-68.82114 z"
       id="path1335"
       inkscape:connector-curvature="0" />
    <path
       style="fill:#ffffff;fill-rule:evenodd;stroke:none;stroke-width:1.03118944px;stroke-linecap:butt;stroke-linejoin:miter;stroke-opacity:1"
       d="m 1737.4371,423.03907 c 29.2544,26.61792 45.5739,47.56076 -12.1285,80.71719 52.2484,-0.72812 46.3333,20.05383 36.3852,45.56614 71.1356,-20.5973 120.9478,-7.40942 128.022,32.54725 46.6993,-32.2476 53.7678,-26.46532 88.9414,-1.30189 42.1429,-49.89404 66.5718,-15.54139 97.0272,-10.41512 -6.2548,-23.03081 14.3859,-43.92498 66.4326,-10.21797 -18.6822,-18.88765 -11.2849,-65.99877 60.2418,-69.19731 -32.0611,-10.89059 -77.8358,-22.51429 -24.2568,-69.00017 -82.538,-8.98442 -42.4794,-27.33589 -55.2516,-41.66048 l -119.9364,-13.0189 -121.2839,7.81134 -61.9896,5.20756 c -1.4998,20.45876 4.7645,42.79545 -82.2034,42.96236 z"
       id="path1337"
       inkscape:connector-curvature="0"
       sodipodi:nodetypes="cccccccccccccc" />
    <path
       style="fill:#ffffff;fill-rule:evenodd;stroke:none;stroke-width:1px;stroke-linecap:butt;stroke-linejoin:miter;stroke-opacity:1"
       d="m 2083.819,528.58622 c 24.8588,19.45474 57.2834,63.76832 55.1217,92.95043 10.8082,-38.90948 -17.2931,-97.27371 -31.3437,-112.40517 -14.0507,-15.13147 -23.778,19.45474 -23.778,19.45474 z"
       id="path1339"
       inkscape:connector-curvature="0" />
    <path
       style="fill:#ffffff;fill-rule:evenodd;stroke:none;stroke-width:1.08426356px;stroke-linecap:butt;stroke-linejoin:miter;stroke-opacity:1"
       d="m 857.43956,1438.6648 c 12.92574,-34.2595 38.77722,-50.6446 73.86139,-59.5818 35.08415,-8.9372 127.41085,1.4895 151.41575,1.4895 24.005,0 120.0249,7.4477 132.9506,19.3641 12.9257,11.9164 44.3168,37.2387 35.0841,64.0505 -9.2327,26.8118 -20.3119,53.6236 -70.1683,68.519 -49.8566,14.8954 -96.0197,0 -114.4853,1.4896 -18.4653,1.4895 -42.4701,8.9372 -94.17309,1.4895 -51.70297,-7.4477 -118.17826,-46.1759 -114.48515,-96.8204 z"
       id="path1341"
       inkscape:connector-curvature="0" />
    <path
       style="fill:#ffffff;fill-rule:evenodd;stroke:none;stroke-width:1px;stroke-linecap:butt;stroke-linejoin:miter;stroke-opacity:1"
       d="m 1321.8416,1549.9601 c -25.1103,-26.3097 -29.3743,-46.7563 -36.94,-53.2412 -7.5658,-6.4849 -52.768,-40.79 -87.3542,-44.0325 -34.5862,-3.2424 -28.1013,24.8589 -28.1013,24.8589 0,0 36.7479,1.0808 51.8793,5.4041 15.1315,4.3232 48.6369,20.5355 54.041,24.8588 5.4041,4.3233 19.4547,27.0205 46.4752,42.1519 z"
       id="path1343"
       inkscape:connector-curvature="0"
       sodipodi:nodetypes="cccccsc" />
    <path
       style="fill:#ffffff;fill-rule:evenodd;stroke:none;stroke-width:1px;stroke-linecap:butt;stroke-linejoin:miter;stroke-opacity:1"
       d="m 1847.0115,1634.8585 c 65.8759,-41.0171 79.5483,-53.4465 129.266,-55.9324 49.7176,-2.4859 59.6612,-29.8306 59.6612,-29.8306 0,0 -34.8024,-1.243 -72.0906,6.2147 -37.2883,7.4576 -95.7066,37.2882 -116.8366,79.5483 z"
       id="path1345"
       inkscape:connector-curvature="0" />
    <path
       style="fill:#ffffff;fill-rule:evenodd;stroke:none;stroke-width:0.99999988px;stroke-linecap:butt;stroke-linejoin:miter;stroke-opacity:1"
       d="m 1980.1886,1519.225 c 17.7997,-20.9727 63.5703,-43.2562 91.5412,-47.1886 27.9708,-3.9323 116.9692,5.2432 136.0403,17.0403 19.071,11.7972 58.4846,20.9728 57.2132,58.9858 -1.2715,38.013 5.0856,55.0534 -24.1567,76.026 -29.2423,20.9728 -132.2261,15.7296 -155.1113,14.4188 -22.8854,-1.3107 -66.1131,-6.5539 -88.9984,-30.1483 -22.8853,-23.5942 -33.0565,-48.4993 -16.5283,-89.134 z"
       id="path1347"
       inkscape:connector-curvature="0" />
    <path
       style="fill:#ffffff;fill-rule:evenodd;stroke:none;stroke-width:1px;stroke-linecap:butt;stroke-linejoin:miter;stroke-opacity:1"
       d="m 2013.5657,1655.9885 c 19.8871,-34.8024 68.3618,-47.2318 79.5483,-47.2318 11.1865,0 98.1924,7.4576 114.3506,7.4576 16.1583,0 49.7177,-7.4576 68.3618,-4.9717 18.6442,2.4859 53.4465,0 68.3618,24.8588 14.9153,24.8588 26.1018,79.5483 22.373,103.1642 -3.7288,23.6159 4.9718,54.6894 -11.1865,90.7347 -16.1582,36.0453 -22.3729,49.7177 -45.9888,60.9042 -23.6159,11.1865 -135.4807,6.2147 -160.3395,2.4859 -24.8589,-3.7289 -73.3336,0 -94.4636,-6.2147 -21.13,-6.2148 -54.6894,-27.3448 -49.7177,-53.4465 4.9718,-26.1018 -8.7006,-49.7177 -2.4859,-94.4636 6.2148,-44.7459 11.1865,-83.2771 11.1865,-83.2771 z"
       id="path1349"
       inkscape:connector-curvature="0" />
    <path
       style="fill:#ffffff;fill-rule:evenodd;stroke:none;stroke-width:1.12449646px;stroke-linecap:butt;stroke-linejoin:miter;stroke-opacity:1"
       d="m 110.82753,2399.1151 c 0,-35.8207 32.71576,-41.7908 54.05211,-41.7908 21.33637,0 91.03513,-4.7762 100.99211,-4.7762 9.95697,0 83.92302,7.1642 96.72483,13.1343 12.80182,5.9701 32.71574,10.7462 29.87091,32.2386 -2.84485,21.4925 0,33.4327 -28.44847,39.4028 -28.44849,5.9702 -139.39757,8.3582 -159.31151,7.1642 -19.91392,-1.194 -49.78483,-10.7463 -64.00908,-17.9104 -14.22424,-7.1641 -32.71576,-9.5522 -29.8709,-27.4625 z"
       id="path1351"
       inkscape:connector-curvature="0" />
    <path
       style="fill:#ffffff;fill-rule:evenodd;stroke:none;stroke-width:0.96320325px;stroke-linecap:butt;stroke-linejoin:miter;stroke-opacity:1"
       d="m 309.11422,2417.8476 c 48.15781,-12.4074 82.20391,-9.4641 96.44438,-7.6234 14.9867,1.9372 52.96013,13.3791 64.84914,23.4065 11.889,10.0274 27.05014,30.343 25.96932,42.3759 -1.08082,12.033 6.91442,45.0959 5.8336,61.1398 -1.08082,16.0438 -12.59967,71.222 -20.1654,94.2851 -7.56574,23.063 -25.93966,50.137 -107.00108,55.1508 -81.06142,5.0137 -130.77909,3.0082 -162.12284,-5.0138 -31.34375,-8.0218 -71.33406,-13.0355 -82.14225,-51.1397 -10.80819,-38.1042 -14.05064,-81.2221 -10.80819,-99.2714 3.24246,-18.0494 6.48492,-58.159 10.80819,-65.1782 4.32328,-7.0192 17.38212,-34.354 27.10949,-40.3704 9.72737,-6.0164 151.22564,-7.7612 151.22564,-7.7612 z"
       id="path1353"
       inkscape:connector-curvature="0"
       sodipodi:nodetypes="csssscscsscsc" />
    <path
       style="fill:#ffffff;fill-rule:evenodd;stroke:none;stroke-width:1px;stroke-linecap:butt;stroke-linejoin:miter;stroke-opacity:1"
       d="m 532.84375,2533.5054 c 1.08082,-19.4547 14.05064,-55.1218 33.50539,-61.6067 19.45474,-6.4849 73.49568,-6.4849 84.30387,-3.2424 10.80819,3.2424 28.1013,27.0204 32.42457,36.7478 4.32328,9.7274 16.21229,44.3136 -3.24245,58.3642 -19.45474,14.0507 -38.90949,24.8589 -59.44505,23.778 -20.53556,-1.0808 -61.60668,-8.6465 -71.33405,-21.6163 -9.72737,-12.9699 -16.21228,-32.4246 -16.21228,-32.4246 z"
       id="path1355"
       inkscape:connector-curvature="0" />
    <path
       style="fill:#ffffff;fill-rule:evenodd;stroke:none;stroke-width:1px;stroke-linecap:butt;stroke-linejoin:miter;stroke-opacity:1"
       d="m 371.0335,2688.1612 c 0,0 10.62431,7.3553 12.25882,23.7003 1.63451,16.3451 -0.81725,35.142 -13.89333,54.7561 28.60391,-32.6902 43.31449,-55.5733 34.32469,-83.36 -8.9898,-27.7866 -32.69018,4.9036 -32.69018,4.9036 z"
       id="path1357"
       inkscape:connector-curvature="0" />
    <path
       style="fill:#ffffff;fill-rule:evenodd;stroke:none;stroke-width:1px;stroke-linecap:butt;stroke-linejoin:miter;stroke-opacity:1"
       d="m 609.41023,2578.6689 c 0,0 17.16235,24.5177 9.80706,38.411 -7.35529,13.8933 -8.9898,18.7968 -25.33489,35.1419 26.9694,-17.9796 37.5937,-31.0556 40.86272,-43.3145 3.26902,-12.2588 5.72078,-35.9592 5.72078,-42.4972 0,-6.538 -31.05567,12.2588 -31.05567,12.2588 z"
       id="path1359"
       inkscape:connector-curvature="0" />
    <path
       style="fill:#ffffff;fill-rule:evenodd;stroke:none;stroke-width:1.03840244px;stroke-linecap:butt;stroke-linejoin:miter;stroke-opacity:1"
       d="m 721.7991,2510.6937 c -9.39843,-42.5634 -7.51874,-84.1134 4.69921,-95.2608 4.75927,-26.065 60.0674,-65.3013 81.7663,-59.7915 16.91717,-4.0536 108.0819,-25.3353 125.93891,-23.3084 17.85701,2.0267 118.32618,4.6109 137.12298,22.8524 18.7969,18.2414 34.2573,28.5276 45.5355,47.7825 11.2781,19.2548 17.716,57.2071 23.3551,63.2875 5.639,6.0806 3.5713,36.3309 -1.1279,53.5589 -4.6992,17.2281 -21.6164,31.4159 -46.0523,37.4963 -24.4359,6.0806 -57.3304,14.1878 -78.9468,15.2013 -21.61634,1.0134 -71.428,1.0134 -109.0217,-2.0268 -44.76237,-9.5027 -72.61993,-9.7453 -117.26947,-14.0847 -8.45859,-1.0133 -64.12015,-18.3446 -65.99983,-45.7067 z"
       id="path1361"
       inkscape:connector-curvature="0"
       sodipodi:nodetypes="ccccccccccccc" />
    <path
       style="fill:#ffffff;fill-rule:evenodd;stroke:none;stroke-width:1px;stroke-linecap:butt;stroke-linejoin:miter;stroke-opacity:1"
       d="m 1048.8643,2539.6614 c 40.4132,37.5937 65.789,69.5483 47.932,102.4428 29.1351,-35.714 14.0976,-69.5483 -24.4359,-117.4803 -38.5336,-47.932 -23.4961,15.0375 -23.4961,15.0375 z"
       id="path1363"
       inkscape:connector-curvature="0" />
    <path
       style="fill:#ffffff;fill-rule:evenodd;stroke:none;stroke-width:1px;stroke-linecap:butt;stroke-linejoin:miter;stroke-opacity:1"
       d="m 1362.7766,2499.8218 c -0.8172,-27.7867 20.4314,-32.6902 31.8729,-34.3247 11.4416,-1.6345 58.8423,-9.807 76.8219,3.269 17.9796,13.0761 22.8832,35.142 14.7106,43.3145 -8.1725,8.1726 -34.3247,20.4314 -50.6698,21.2486 -16.345,0.8173 -51.487,-4.0862 -62.9285,-15.5278 -11.4416,-11.4416 -9.8071,-17.9796 -9.8071,-17.9796 z"
       id="path1365"
       inkscape:connector-curvature="0" />
    <path
       style="fill:#ffffff;fill-rule:evenodd;stroke:none;stroke-width:1px;stroke-linecap:butt;stroke-linejoin:miter;stroke-opacity:1"
       d="m 1445.7231,2523.112 c 0,0 19.6141,10.6243 24.5176,19.6141 4.9035,8.9898 13.0761,31.0556 8.9898,45.7662 13.0761,-26.1521 8.1725,-42.4972 4.9035,-49.8525 -3.269,-7.3553 -23.7004,-34.3247 -23.7004,-34.3247 z"
       id="path1367"
       inkscape:connector-curvature="0" />
    <path
       style="fill:#ffffff;fill-rule:evenodd;stroke:none;stroke-width:0.89847535px;stroke-linecap:butt;stroke-linejoin:miter;stroke-opacity:1"
       d="m 1852.248,2454.444 c 3.6497,-52.9602 26.4599,-69.1724 41.971,-76.7382 15.511,-7.5657 79.3798,-18.3739 101.2776,-17.2931 21.8978,1.0808 103.1025,11.889 116.7887,12.9698 13.6861,1.0809 48.3577,25.9397 51.095,32.4246 2.7372,6.4849 14.5986,23.778 10.9489,43.2328 -3.6496,19.4547 -24.6351,45.3944 -44.7082,55.1217 -20.0731,9.7274 -100.3651,17.2931 -115.8762,15.1315 -15.511,-2.1616 -41.9709,-5.4041 -57.4819,-5.4041 -15.511,0 -64.7812,-1.0808 -77.555,-12.9698 -12.7737,-11.889 -26.4599,-46.4752 -26.4599,-46.4752 z"
       id="path1369"
       inkscape:connector-curvature="0" />
    <path
       style="fill:#ffffff;fill-rule:evenodd;stroke:none;stroke-width:1.05092192px;stroke-linecap:butt;stroke-linejoin:miter;stroke-opacity:1"
       d="m 1975.3627,2507.5657 c 17.314,24.1512 6.8068,34.5534 -22.4952,35.6671 22.6629,9.9586 50.9517,15.5923 44.9903,47.556 25.161,-0.375 41.0782,-19.937 81.2324,10.8082 23.7449,-25.3561 47.4896,-13.281 71.2346,-2.1617 11.3889,-11.3113 32.3579,-12.0311 76.2336,-6.4849 -3.3881,-25.0109 24.1456,-36.1565 49.9892,-44.3136 -21.882,-13.1763 -41.592,-27.5479 -27.4941,-60.5258 -31.7986,7.2773 -58.5389,6.6803 -73.734,-11.889 -31.5478,4.157 -55.2449,21.8927 -98.7288,5.4041 -23.4161,19.9279 -49.5158,21.2885 -76.2336,18.3739 6.0887,17.7643 -1.0985,21.4958 -24.9944,7.5657 z"
       id="path1371"
       inkscape:connector-curvature="0"
       sodipodi:nodetypes="cccccccccccc" />
    <path
       style="fill:#ffffff;fill-rule:evenodd;stroke:none;stroke-width:1px;stroke-linecap:butt;stroke-linejoin:miter;stroke-opacity:1"
       d="m 2142.1832,2571.3341 c -3.2425,28.1012 8.6465,79.9806 34.5862,113.4859 -3.2425,16.2123 1.0808,33.5054 15.1315,47.5561 -12.9699,-29.1821 -7.5658,-36.7479 -1.0809,-50.7985 -12.9698,-20.5356 -31.3437,-69.1724 -34.5862,-109.1627 -3.2424,-39.9903 -14.0506,-1.0808 -14.0506,-1.0808 z"
       id="path1373"
       inkscape:connector-curvature="0" />
  </g>
  <g
     inkscape:groupmode="layer"
     id="layer1"
     inkscape:label="txt">
    <text
       xml:space="preserve"
       style="font-style:normal;font-variant:normal;font-weight:normal;font-stretch:normal;line-height:0%;font-family:Lavi;-inkscape-font-specification:Lavi;text-align:center;letter-spacing:0px;word-spacing:0px;text-anchor:middle;fill:#000000;fill-opacity:1;stroke:none"
       x="318.61392"
       y="193.67375"
       id="text4246"><tspan
         sodipodi:role="line"
         style="font-size:45px;line-height:1.20000005"
         x="318.61392"
         y="193.67375"
         id="tspan4252">Sabètz...</tspan></text>
    <text
       xml:space="preserve"
       style="font-style:normal;font-variant:normal;font-weight:normal;font-stretch:normal;line-height:0%;font-family:Lavi;-inkscape-font-specification:Lavi;text-align:center;letter-spacing:0px;word-spacing:0px;text-anchor:middle;fill:#000000;fill-opacity:1;stroke:none"
       x="528.04688"
       y="265.45801"
       id="text4246-3"><tspan
         sodipodi:role="line"
         style="font-size:45px;line-height:1.20000005"
         x="528.04688"
         y="265.45801"
         id="tspan899"> pensavi encara</tspan><tspan
         sodipodi:role="line"
         style="font-size:45px;line-height:1.20000005"
         x="528.04688"
         y="319.45801"
         id="tspan95">a la securitat...</tspan></text>
    <text
       xml:space="preserve"
       style="font-style:normal;font-variant:normal;font-weight:normal;font-stretch:normal;line-height:0%;font-family:Lavi;-inkscape-font-specification:Lavi;text-align:center;letter-spacing:0px;word-spacing:0px;text-anchor:middle;fill:#000000;fill-opacity:1;stroke:none"
       x="1203.0967"
       y="169.41882"
       id="text4246-3-7"><tspan
         sodipodi:role="line"
         style="font-size:45px;line-height:1.20000005"
         x="1203.0967"
         y="169.41882"
         id="tspan937">Un fum de joves</tspan><tspan
         sodipodi:role="line"
         style="font-size:45px;line-height:1.20000005"
         x="1203.0967"
         y="223.41882"
         id="tspan111">reis e reinas</tspan><tspan
         sodipodi:role="line"
         style="font-size:45px;line-height:1.20000005"
         x="1203.0967"
         y="241.21356"
         id="tspan113" /><tspan
         sodipodi:role="line"
         style="font-size:45px;line-height:1.20000005"
         x="1203.0967"
         y="277.41882"
         id="tspan115">foguèron tuats</tspan><tspan
         sodipodi:role="line"
         style="font-size:45px;line-height:1.20000005"
         x="1203.0967"
         y="331.41882"
         id="tspan117">pendent lor</tspan><tspan
         sodipodi:role="line"
         style="font-size:45px;line-height:1.20000005"
         x="1203.0967"
         y="385.41882"
         id="tspan119">coronament.</tspan></text>
    <text
       xml:space="preserve"
       style="font-style:normal;font-variant:normal;font-weight:normal;font-stretch:normal;line-height:0%;font-family:Lavi;-inkscape-font-specification:Lavi;text-align:center;letter-spacing:0px;word-spacing:0px;text-anchor:middle;fill:#000000;fill-opacity:1;stroke:none"
       x="1216.4489"
       y="491.01553"
       id="text4246-3-7-7"><tspan
         sodipodi:role="line"
         style="font-size:45px;line-height:1.20000005"
         x="1216.4489"
         y="491.01553"
         id="tspan903">Ma familha foguèt</tspan><tspan
         sodipodi:role="line"
         style="font-size:45px;line-height:1.20000005"
         x="1216.4489"
         y="545.01556"
         id="tspan123">pas esparnhada.</tspan></text>
    <text
       xml:space="preserve"
       style="font-style:normal;font-variant:normal;font-weight:normal;font-stretch:normal;line-height:0%;font-family:Lavi;-inkscape-font-specification:Lavi;text-align:center;letter-spacing:0px;word-spacing:0px;text-anchor:middle;fill:#000000;fill-opacity:1;stroke:none"
       x="1961.5282"
       y="176.76515"
       id="text4246-3-7-7-6"><tspan
         sodipodi:role="line"
         style="font-size:45px;line-height:1.20000005"
         x="1961.5282"
         y="176.76515"
         id="tspan976">E ara, dins qualques oras,</tspan><tspan
         sodipodi:role="line"
         style="font-size:45px;line-height:1.20000005"
         x="1961.5282"
         y="230.76515"
         id="tspan130">recebrem de milierats</tspan><tspan
         sodipodi:role="line"
         style="font-size:45px;line-height:1.20000005"
         x="1961.5282"
         y="284.76517"
         id="tspan132">de convidats venguts del monde</tspan><tspan
         sodipodi:role="line"
         style="font-size:45px;line-height:1.20000005"
         x="1961.5282"
         y="338.76517"
         id="tspan986">tot e serai lo centre de</tspan><tspan
         sodipodi:role="line"
         style="font-size:45px;line-height:1.20000005"
         x="1968.5594"
         y="392.76517"
         id="tspan141">l'atencion. </tspan><tspan
         sodipodi:role="line"
         style="font-size:45px;line-height:1.20000005"
         x="1961.5282"
         y="410.55991"
         id="tspan968" /><tspan
         sodipodi:role="line"
         style="font-size:45px;line-height:1.20000005"
         x="1961.5282"
         y="410.55991"
         id="tspan970" /><tspan
         sodipodi:role="line"
         style="font-size:45px;line-height:1.20000005"
         x="1961.5282"
         y="410.55991"
         id="tspan972" /></text>
    <text
       xml:space="preserve"
       style="font-style:normal;font-variant:normal;font-weight:normal;font-stretch:normal;line-height:0%;font-family:Lavi;-inkscape-font-specification:Lavi;text-align:center;letter-spacing:0px;word-spacing:0px;text-anchor:middle;fill:#000000;fill-opacity:1;stroke:none"
       x="1059.3418"
       y="1445.7167"
       id="text4246-3-7-7-6-7"><tspan
         sodipodi:role="line"
         style="font-size:45px;line-height:1.20000005"
         x="1066.373"
         y="1445.7167"
         id="tspan1067">Te'n fagas pas, </tspan><tspan
         sodipodi:role="line"
         style="font-size:45px;line-height:1.20000005"
         x="1059.3418"
         y="1499.7167"
         id="tspan1007">Coriandre.</tspan></text>
    <text
       xml:space="preserve"
       style="font-style:normal;font-variant:normal;font-weight:normal;font-stretch:normal;line-height:0%;font-family:Lavi;-inkscape-font-specification:Lavi;text-align:center;letter-spacing:0px;word-spacing:0px;text-anchor:middle;fill:#000000;fill-opacity:1;stroke:none"
       x="1957.3252"
       y="459.72366"
       id="text4246-3-7-7-6-7-7"><tspan
         sodipodi:role="line"
         style="font-size:45px;line-height:1.20000005"
         x="1957.3252"
         y="459.72366"
         id="tspan990">Ai vertadièrament</tspan><tspan
         sodipodi:role="line"
         style="font-size:45px;line-height:1.20000005"
         x="1957.3252"
         y="513.72369"
         id="tspan153">paur !</tspan></text>
    <text
       xml:space="preserve"
       style="font-style:normal;font-variant:normal;font-weight:normal;font-stretch:normal;line-height:0%;font-family:Lavi;-inkscape-font-specification:Lavi;text-align:center;letter-spacing:0px;word-spacing:0px;text-anchor:middle;fill:#000000;fill-opacity:1;stroke:none"
       x="2121.4336"
       y="1541.2563"
       id="text4246-3-7-7-6-7-2"><tspan
         sodipodi:role="line"
         style="font-size:45px;line-height:1.20000005"
         x="2121.4336"
         y="1541.2563"
         id="tspan1011">Seguirem</tspan><tspan
         sodipodi:role="line"
         style="font-size:45px;line-height:1.20000005"
         x="2121.4336"
         y="1595.2563"
         id="tspan157">nòstre plan.</tspan></text>
    <text
       xml:space="preserve"
       style="font-style:normal;font-variant:normal;font-weight:normal;font-stretch:normal;line-height:0%;font-family:Lavi;-inkscape-font-specification:Lavi;text-align:center;letter-spacing:0px;word-spacing:0px;text-anchor:middle;fill:#000000;fill-opacity:1;stroke:none"
       x="2182.6404"
       y="1691.4915"
       id="text4246-3-7-7-6-7-2-9"><tspan
         sodipodi:role="line"
         style="font-size:45px;line-height:1.20000005"
         x="2182.6404"
         y="1691.4915"
         id="tspan1024">Shichimi e ieu</tspan><tspan
         sodipodi:role="line"
         style="font-size:45px;line-height:1.20000005"
         x="2182.6404"
         y="1745.4915"
         id="tspan164">serem tos</tspan><tspan
         sodipodi:role="line"
         style="font-size:45px;line-height:1.20000005"
         x="2189.6716"
         y="1799.4915"
         id="tspan166">gardacòrs, </tspan><tspan
         sodipodi:role="line"
         style="font-size:45px;line-height:1.20000005"
         x="2182.6404"
         y="1853.4915"
         id="tspan1026">te'n sovenes ?</tspan></text>
    <text
       xml:space="preserve"
       style="font-style:normal;font-variant:normal;font-weight:normal;font-stretch:normal;line-height:0%;font-family:Lavi;-inkscape-font-specification:Lavi;text-align:center;letter-spacing:0px;word-spacing:0px;text-anchor:middle;fill:#000000;fill-opacity:1;stroke:none"
       x="254.1396"
       y="2407.7466"
       id="text4246-3-7-7-6-7-2-9-6"><tspan
         sodipodi:role="line"
         style="font-size:45px;line-height:1.20000005"
         x="254.1396"
         y="2407.7466"
         id="tspan1121-3">Exactament.</tspan></text>
    <text
       xml:space="preserve"
       style="font-style:normal;font-variant:normal;font-weight:normal;font-stretch:normal;line-height:0%;font-family:Lavi;-inkscape-font-specification:Lavi;text-align:center;letter-spacing:0px;word-spacing:0px;text-anchor:middle;fill:#000000;fill-opacity:1;stroke:none"
       x="310.79276"
       y="2481.5852"
       id="text4246-3-7-7-6-7-2-9-6-1"><tspan
         sodipodi:role="line"
         style="font-size:45px;line-height:1.20000005"
         x="310.79276"
         y="2481.5852"
         id="tspan1050">Deuriás far</tspan><tspan
         sodipodi:role="line"
         style="font-size:45px;line-height:1.20000005"
         x="310.79276"
         y="2535.5852"
         id="tspan177">una pausa e</tspan><tspan
         sodipodi:role="line"
         style="font-size:45px;line-height:1.20000005"
         x="310.79276"
         y="2589.5852"
         id="tspan179">pensar a</tspan><tspan
         sodipodi:role="line"
         style="font-size:45px;line-height:1.20000005"
         x="310.79276"
         y="2643.5852"
         id="tspan181">quicòm mai.</tspan></text>
    <text
       xml:space="preserve"
       style="font-style:normal;font-variant:normal;font-weight:normal;font-stretch:normal;line-height:0%;font-family:Lavi;-inkscape-font-specification:Lavi;text-align:center;letter-spacing:0px;word-spacing:0px;text-anchor:middle;fill:#000000;fill-opacity:1;stroke:none"
       x="612.41107"
       y="2544.4858"
       id="text4246-3-7-7-6-7-2-9-6-1-4"><tspan
         sodipodi:role="line"
         style="font-size:45px;line-height:1.20000005"
         x="612.41107"
         y="2544.4858"
         id="tspan1183-0">Òc.</tspan></text>
    <text
       xml:space="preserve"
       style="font-style:normal;font-variant:normal;font-weight:normal;font-stretch:normal;line-height:0%;font-family:Lavi;-inkscape-font-specification:Lavi;text-align:center;letter-spacing:0px;word-spacing:0px;text-anchor:middle;fill:#000000;fill-opacity:1;stroke:none"
       x="930.10059"
       y="2411.3877"
       id="text4246-3-7-7-6-7-2-9-6-1-4-3"><tspan
         sodipodi:role="line"
         style="font-size:45px;line-height:1.20000005"
         x="930.10059"
         y="2411.3877"
         id="tspan1063">Tè ! E se vos</tspan><tspan
         sodipodi:role="line"
         style="font-size:45px;line-height:1.20000005"
         x="930.10059"
         y="2465.3877"
         id="tspan188">mostravi ma</tspan><tspan
         sodipodi:role="line"
         style="font-size:45px;line-height:1.20000005"
         x="930.10059"
         y="2519.3877"
         id="tspan190">darrièra invencion ?</tspan></text>
    <text
       xml:space="preserve"
       style="font-style:normal;font-variant:normal;font-weight:normal;font-stretch:normal;line-height:0%;font-family:Lavi;-inkscape-font-specification:Lavi;text-align:center;letter-spacing:0px;word-spacing:0px;text-anchor:middle;fill:#000000;fill-opacity:1;stroke:none"
       x="1429.6105"
       y="2501.0703"
       id="text4246-3-7-7-6-7-2-9-6-1-4-3-1"><tspan
         sodipodi:role="line"
         style="font-size:45px;line-height:1.20000005"
         x="1429.6105"
         y="2501.0703"
         id="tspan1249-3">...</tspan></text>
    <text
       xml:space="preserve"
       style="font-style:normal;font-variant:normal;font-weight:normal;font-stretch:normal;line-height:0%;font-family:Lavi;-inkscape-font-specification:Lavi;text-align:center;letter-spacing:0px;word-spacing:0px;text-anchor:middle;fill:#000000;fill-opacity:1;stroke:none"
       x="2014.7648"
       y="2425.7151"
       id="text4246-3-7-7-6-7-2-9-6-1-4-3-1-2"><tspan
         sodipodi:role="line"
         style="font-size:45px;line-height:1.20000005"
         x="2014.7648"
         y="2425.7151"
         id="tspan1076">Es aval, dins</tspan><tspan
         sodipodi:role="line"
         style="font-size:45px;line-height:1.20000005"
         x="2014.7648"
         y="2479.7151"
         id="tspan194">mon talhièr.</tspan></text>
    <text
       xml:space="preserve"
       style="font-style:normal;font-variant:normal;font-weight:normal;font-stretch:normal;line-height:0%;font-family:Lavi;-inkscape-font-specification:Lavi;text-align:center;letter-spacing:0px;word-spacing:0px;text-anchor:middle;fill:#000000;fill-opacity:1;stroke:none"
       x="2118.0996"
       y="2553.5225"
       id="text4246-3-7-7-6-7-2-9-6-1-4-3-1-2-6"><tspan
         sodipodi:role="line"
         style="font-size:45px;line-height:1.20000005"
         x="2118.0996"
         y="2553.5225"
         id="tspan1298-5">Venètz !</tspan></text>
  </g>
</svg>
