<?xml version="1.0" encoding="UTF-8" standalone="no"?>
<!-- Created with Inkscape (http://www.inkscape.org/) -->

<svg
   xmlns:dc="http://purl.org/dc/elements/1.1/"
   xmlns:cc="http://creativecommons.org/ns#"
   xmlns:rdf="http://www.w3.org/1999/02/22-rdf-syntax-ns#"
   xmlns:svg="http://www.w3.org/2000/svg"
   xmlns="http://www.w3.org/2000/svg"
   xmlns:xlink="http://www.w3.org/1999/xlink"
   xmlns:sodipodi="http://sodipodi.sourceforge.net/DTD/sodipodi-0.dtd"
   xmlns:inkscape="http://www.inkscape.org/namespaces/inkscape"
   id="svg2"
   version="1.1"
   inkscape:version="0.92.4 (5da689c313, 2019-01-14)"
   width="2481"
   height="3503"
   sodipodi:docname="E36P02.svg">
  <metadata
     id="metadata8">
    <rdf:RDF>
      <cc:Work
         rdf:about="">
        <dc:format>image/svg+xml</dc:format>
        <dc:type
           rdf:resource="http://purl.org/dc/dcmitype/StillImage" />
      </cc:Work>
    </rdf:RDF>
  </metadata>
  <defs
     id="defs6">
    <filter
       x="-0.032294048"
       width="1.0625661"
       height="1.3663621"
       inkscape:label="magic-Fx-red_background"
       id="filter4375-4-1-1-1-9-5-8-8-3-3-3-6-1-3"
       style="color-interpolation-filters:sRGB"
       y="-0.13001217">
      <feFlood
         radius="5.0999999999999996"
         result="flood"
         flood-color="rgb(136,138,133)"
         flood-opacity="1"
         id="feFlood4377-7-9-0-8-1-7-3-1-6-61-6-2-0-1" />
      <feComposite
         baseFrequency="0.053999999999999999 0.053999999999999999"
         result="composite1"
         operator="in"
         in="flood"
         in2="SourceGraphic"
         id="feComposite4379-3-8-8-2-77-4-1-0-7-2-7-6-6-4" />
      <feMorphology
         result="result3"
         radius="0.96959439099754563"
         operator="dilate"
         id="feMorphology4393-1-0-49-8-9-3-0-1-5-9-5-1-3-9" />
      <feComposite
         numOctaves="4"
         result="fbSourceGraphic"
         operator="over"
         in="SourceGraphic"
         in2="result3"
         id="feComposite4385-9-5-7-0-8-8-7-5-3-3-3-8-2-2" />
      <feColorMatrix
         id="feColorMatrix4544-9-5-1-5-7-0-0"
         values="0 0 0 -1 0 0 0 0 -1 0 0 0 0 -1 0 0 0 0 1 0"
         in="fbSourceGraphic"
         result="fbSourceGraphicAlpha" />
      <feTurbulence
         result="turbulence"
         baseFrequency="0.062 0.054054054054054057"
         seed="172"
         numOctaves="4.4123222748815163"
         type="fractalNoise"
         id="feTurbulence4546-3-6-9-6-9-6-6" />
      <feDisplacementMap
         result="fbSourceGraphic"
         xChannelSelector="R"
         yChannelSelector="G"
         scale="11.642079"
         in="fbSourceGraphic"
         in2="turbulence"
         id="feDisplacementMap4548-8-2-4-2-2-1-8" />
      <feColorMatrix
         scale="10.800000000000001"
         id="feColorMatrix4670-7-9-7-9-0-5-9"
         values="0 0 0 -1 0 0 0 0 -1 0 0 0 0 -1 0 0 0 0 1 0"
         in="fbSourceGraphic"
         result="fbSourceGraphicAlpha" />
      <feComposite
         result="composite1"
         operator="in"
         in="flood"
         in2="fbSourceGraphic"
         id="feComposite4674-8-2-4-1-2-5-2" />
      <feGaussianBlur
         result="blur"
         stdDeviation="1.5865199271065846"
         in="composite1"
         id="feGaussianBlur4676-3-7-50-2-3-4-6" />
      <feOffset
         result="offset"
         dy="5.2374444725016502"
         dx="-0.42771311737301687"
         id="feOffset4678-6-0-3-7-7-7-6" />
      <feComposite
         result="composite2"
         operator="over"
         in="fbSourceGraphic"
         in2="offset"
         id="feComposite4680-4-9-6-0-5-6-4" />
      <feGaussianBlur
         stdDeviation="0.76414472307477677"
         id="feGaussianBlur58-9-9-5-9" />
      <feOffset
         dx="0"
         dy="0"
         id="feOffset60-3-2-6-5" />
    </filter>
    <filter
       style="color-interpolation-filters:sRGB"
       id="filter4375-4-1-1-1-9-5-8-3-4"
       inkscape:label="Drop Shadow"
       x="-0.0007296798"
       y="-0.0039836934"
       width="1.0149402"
       height="1.0815659">
      <feFlood
         id="feFlood4377-7-9-0-8-1-7-3-6"
         flood-opacity="1"
         flood-color="rgb(39,39,39)"
         result="flood" />
      <feComposite
         id="feComposite4379-3-8-8-2-77-4-1-7"
         in2="SourceGraphic"
         in="flood"
         operator="in"
         result="composite1" />
      <feMorphology
         id="feMorphology4393-1-0-49-8-9-3-0-5"
         operator="dilate"
         radius="6.2000000000000002"
         result="result3" />
      <feComposite
         id="feComposite4385-9-5-7-0-8-8-7-3"
         in2="result3"
         in="SourceGraphic"
         operator="over"
         result="fbSourceGraphic" />
      <feColorMatrix
         result="fbSourceGraphicAlpha"
         in="fbSourceGraphic"
         values="0 0 0 -1 0 0 0 0 -1 0 0 0 0 -1 0 0 0 0 1 0"
         id="feColorMatrix4544-5" />
      <feTurbulence
         id="feTurbulence4546-6"
         type="fractalNoise"
         numOctaves="3"
         seed="37"
         baseFrequency="0.129 0.0050000000000000001"
         result="turbulence" />
      <feDisplacementMap
         id="feDisplacementMap4548-2"
         in2="turbulence"
         in="fbSourceGraphic"
         scale="6.6"
         yChannelSelector="G"
         xChannelSelector="R"
         result="fbSourceGraphic" />
      <feColorMatrix
         result="fbSourceGraphicAlpha"
         in="fbSourceGraphic"
         values="0 0 0 -1 0 0 0 0 -1 0 0 0 0 -1 0 0 0 0 1 0"
         id="feColorMatrix4670-9-3" />
      <feFlood
         id="feFlood4672-1-0"
         flood-opacity="0.40999999999999998"
         flood-color="rgb(34,52,102)"
         result="flood"
         in="fbSourceGraphic" />
      <feComposite
         id="feComposite4674-2-3"
         in2="fbSourceGraphic"
         in="flood"
         operator="in"
         result="composite1" />
      <feGaussianBlur
         id="feGaussianBlur4676-7"
         in="composite1"
         stdDeviation="0"
         result="blur" />
      <feOffset
         id="feOffset4678-0-0"
         dx="6"
         dy="6"
         result="offset" />
      <feComposite
         id="feComposite4680-9"
         in2="offset"
         in="fbSourceGraphic"
         operator="over"
         result="composite2" />
    </filter>
  </defs>
  <sodipodi:namedview
     pagecolor="#1e1e1e"
     bordercolor="#111111"
     borderopacity="1"
     objecttolerance="10"
     gridtolerance="10"
     guidetolerance="10"
     inkscape:pageopacity="0"
     inkscape:pageshadow="2"
     inkscape:window-width="1858"
     inkscape:window-height="1057"
     id="namedview4"
     showgrid="false"
     inkscape:zoom="0.46000002"
     inkscape:cx="1255.1614"
     inkscape:cy="818.1201"
     inkscape:window-x="54"
     inkscape:window-y="-8"
     inkscape:window-maximized="1"
     inkscape:current-layer="layer1"
     inkscape:pagecheckerboard="0"
     inkscape:snap-global="false" />
  <g
     inkscape:groupmode="layer"
     id="layer2"
     inkscape:label="artwork"
     sodipodi:insensitive="true"
     style="display:inline">
    <image
       sodipodi:absref="D:\Documents\Others\webcomics\new-ep36_Title-Here\lang\id\../gfx_Pepper-and-Carrot_by-David-Revoy_E36P02.png"
       xlink:href="../gfx_Pepper-and-Carrot_by-David-Revoy_E36P02.png"
       width="2481"
       height="3503"
       id="image10"
       x="0"
       y="0" />
  </g>
  <g
     inkscape:groupmode="layer"
     id="layer3"
     inkscape:label="speechbubbles"
     style="display:inline">
    <path
       style="fill:#ffffff;fill-rule:evenodd;stroke:none;stroke-width:1.12836px;stroke-linecap:butt;stroke-linejoin:miter;stroke-opacity:1"
       d="m 1632.3357,3206.4764 c -22.5506,0.045 -66.3028,12.9419 -27.8652,49.2533 -49.5096,-18.0303 -58.2846,-3.184 -63.3188,14.6812 -16.4747,-15.904 -33.9471,-30.0771 -68.529,-14.5716 -6.9308,-24.9118 -32.0336,-32.9308 -70.8487,-28.2031 32.9153,-21.4739 52.3154,-41.6992 -13.6577,-54.0373 53.5139,-3.1342 67.1795,-31.1057 13.4045,-50.5371 43.2891,6.0465 55.6164,-1.0415 44.8368,-17.9317 26.1022,11.6215 47.2921,10.9419 63.2973,-2.7208 25.272,28.3175 43.4309,26.3594 55.9493,0.3947 1.2938,43.6817 38.1525,41.1468 64.8908,45.4166 -45.0481,17.0103 -9.2195,62.535 1.8407,58.2558 z"
       id="path1087"
       inkscape:connector-curvature="0"
       sodipodi:nodetypes="cccccccccccc" />
    <path
       style="color:#000000;display:inline;overflow:visible;visibility:visible;fill:#ffffff;fill-opacity:1;fill-rule:nonzero;stroke:none;stroke-width:1.38787949px;marker:none;enable-background:accumulate"
       d="m 1657.0753,3199.405 c -39.9891,0.2392 -80.7468,1.9238 -118.7701,13.8326 -24.2034,7.0434 -48.2656,16.9389 -66.2135,33.2166 -15.7128,17.5495 -17.1846,41.3667 -14.7961,62.7195 2.1584,17.2434 11.8299,33.3598 26.5319,44.903 26.7372,23.0529 62.9819,36.3826 100.017,39.7732 26.2131,2.8075 52.5606,4.6995 78.9094,6.1661 50.5996,1.9262 101.3908,-0.9138 151.4703,-7.3748 30.6292,-4.3925 60.474,-18.3106 77.7164,-41.4988 18.7614,-24.2438 21.2085,-55.7687 13.741,-83.6916 -4.2811,-15.484 -15.3976,-29.3163 -31.0412,-37.5202 -36.2624,-19.588 -79.3152,-26.4543 -121.2834,-28.3891 -32.0715,-1.151 -64.1757,-2.2965 -96.2817,-2.1365 z"
       id="path3525-1"
       inkscape:connector-curvature="0"
       sodipodi:nodetypes="ccccc" />
    <path
       style="display:inline;fill:#ffffff;fill-rule:evenodd;stroke:none;stroke-width:1.15535px;stroke-linecap:butt;stroke-linejoin:miter;stroke-opacity:1"
       d="m 1689.5967,3128.6539 c 0,0 -32.5032,0.5122 -35.8686,17.9644 -3.3663,17.4516 24.539,59.2603 24.539,59.2603 0,0 -45.1119,0.7369 -45.1178,48.4326 -0.01,47.6953 47.113,85.7891 43.4135,52.8962 -3.6991,-32.8931 -34.8285,-95.2011 56.3216,-84.9196 -32.3662,-27.7763 -52.1364,-60.1065 -52.668,-63.6644 -1.9951,-13.3523 30.9323,-20.3265 45.1813,-19.8929 -64.6236,-55.3255 -17.6069,-82.8485 -7.229,-135.1096 -26.5229,47.7737 -71.2674,83.4938 -28.572,125.033 z"
       id="path4394-0"
       inkscape:connector-curvature="0"
       sodipodi:nodetypes="cscsscsccc" />
    <path
       style="display:inline;fill:#ffffff;fill-rule:evenodd;stroke:none;stroke-width:1.15555632px;stroke-linecap:butt;stroke-linejoin:miter;stroke-opacity:1"
       d="m 2100.6764,2198.5774 c -5.4918,9.0353 -9.9142,19.5104 -19.5225,25.3347 -7.8249,4.4464 -18.1205,1.316 -23.9707,-4.7633 -4.4783,-4.2145 -8.6525,-8.7108 -13.0364,-13.0134 1.7126,7.923 2.7196,16.5583 -0.8171,24.1758 -6.2806,5.0843 -16.1922,3.0477 -21.4701,-2.4289 -1.9088,-1.3303 -3.8176,-2.6606 -5.7265,-3.9909 2.2535,10.1167 -0.1491,21.7702 -8.3787,28.9206 -8.0931,3.6915 -18.0326,-0.6143 -22.4628,-7.6094 -1.8122,-1.8471 -3.6245,-3.6942 -5.4368,-5.5414 4.5792,4.549 3.25,13.8572 -3.4631,15.7993 -8.7382,1.2958 -16.6333,-3.6313 -23.5591,-8.0574 -7.6704,-4.9544 -14.7451,-10.6807 -21.8926,-16.2892 9.8639,10.8619 20.0349,22.3585 23.9513,36.5766 0.3805,5.9664 -8.8799,9.2804 -12.8312,4.7542 -2.4105,-1.108 -4.7872,-2.2813 -7.1718,-3.4389 6.5343,6.1619 13.369,12.9182 15.4896,21.7564 -3.125,6.1133 -11.6852,7.4996 -17.7952,5.0351 -2.4373,-0.4542 -4.8746,-0.9084 -7.312,-1.3626 11.9969,12.7428 19.5678,30.3144 16.7966,47.6081 -3.2366,14.6814 -13.9334,26.2111 -23.1274,37.8373 -0.9483,0.7817 -1.4729,2.6185 0.4456,1.8194 15.0204,-2.502 30.9436,-4.5499 45.696,0.3286 9.2089,3.6357 13.2119,15.8302 7.6783,23.7983 4.4166,-3.752 10.7958,-7.1047 16.744,-4.7146 7.465,3.1738 10.3186,11.7538 9.6741,19.0477 -0.2089,5.6735 -1.9973,11.1358 -3.6484,16.5433 7.1535,-9.9903 14.691,-20.6557 26.4048,-26.1374 7.4309,-2.1618 14.9434,5.8572 12.7821,12.755 0.1224,1.938 3.0285,0.9569 3.1252,-0.5011 8.1241,-9.3313 19.6097,-17.0537 32.641,-17.6346 4.3819,0.5108 7.438,5.2028 6.3707,9.2248 6.7863,-5.2732 15.1002,-10.0756 24.1987,-9.1244 12.6005,0.594 23.3815,7.8149 32.9898,14.9918 2.5608,1.9127 5.0606,3.8988 7.5821,5.8587 2.6529,-8.6216 5.3851,-18.2094 13.3019,-23.8312 8.7723,-4.5063 19.9446,-1.0141 26.2901,5.7821 5.4112,4.4994 10.0251,9.7741 14.7812,14.8835 2.0639,-9.4284 14.5029,-14.0801 23.2365,-10.0631 9.2282,3.6385 16.5484,10.5149 23.0731,17.5469 1.6801,1.9489 3.2928,3.9495 4.8875,5.9627 -1.9056,-7.1908 -4.7831,-14.6459 -2.9814,-22.1389 4.1448,-3.5142 10.5615,-1.3517 13.7807,2.2928 6.7919,4.7587 12.7503,10.5435 17.9646,16.8518 -3.1284,-9.5962 2.9879,-21.4555 13.5384,-23.6812 12.1843,-3.5845 25.0792,-0.4393 36.7874,3.2885 7.7117,2.6317 15.0174,6.2258 22.1208,10.0949 -9.9479,-7.2804 -17.1043,-19.3702 -15.1335,-31.6063 1.7506,-8.6191 10.1273,-14.41 18.4869,-16.7664 0.6463,-0.2054 2.4642,-0.3311 1.0654,-1.0831 -5.3305,-3.7583 -12.6261,-6.2191 -15.0645,-12.6563 -2.7923,-7.5336 1.6635,-15.6558 7.6702,-20.4911 4.7919,-4.0249 9.8848,-7.7018 14.9916,-11.349 -9.441,-3.3341 -20.2337,-5.2795 -27.2423,-12.7786 -4.7234,-6.0357 -1.7775,-15.0215 4.2611,-19.1694 11.363,-10.6314 25.0793,-18.4729 37.9292,-27.2857 -21.2344,5.2056 -42.6475,11.9156 -64.8494,10.8764 -9.3263,-1.4603 -14.0115,-13.2331 -8.9912,-20.6164 2.6015,-8.143 7.0046,-15.5889 10.8698,-23.2149 -16.8689,5.0455 -33.5257,11.946 -51.4215,12.6551 -4.0939,-2.4345 -2.9296,-8.6632 0.8074,-10.88 0.6775,-1.2119 2.3397,-2.1896 1.9455,-3.7479 -9.9595,6.1239 -20.8284,12.1478 -32.9799,12.5005 -8.5584,-1.9671 -13.7624,-11.8251 -10.6475,-19.6365 -2.0179,-2.2861 -5.03,0.015 -6.9719,1.2066 -20.9652,9.8266 -46.3593,12.5021 -68.2972,3.9824 -17.7012,-6.9394 -32.393,-19.6372 -43.485,-34.3677 -0.1961,-0.1202 -0.4426,-0.1766 -0.6715,-0.1187 z"
       id="path4289-9-3"
       inkscape:connector-curvature="0"
       sodipodi:nodetypes="cccccccccccccccccccccccc" />
    <path
       style="color:#000000;display:inline;overflow:visible;visibility:visible;fill:#ffffff;fill-opacity:1;fill-rule:nonzero;stroke:none;stroke-width:0.634675px;marker:none;enable-background:accumulate"
       d="m 2065.5689,2358.3715 c -1.019,14.0823 -77.982,87.5377 3.591,185.0685 -57.766,-96.8638 17.7385,-154.6405 29.7695,-166.83 -23.5374,-29.6642 -17.4947,-9.4644 -33.3605,-18.2385 z"
       id="path4024-3"
       inkscape:connector-curvature="0"
       sodipodi:nodetypes="cccc" />
  </g>
  <g
     inkscape:groupmode="layer"
     id="layer1"
     inkscape:label="txt"
     style="display:inline">
    <text
       transform="matrix(1.0109872,-0.19833599,-0.21684929,1.1745089,102.88627,624.18095)"
       id="text4580-6-0-0-3-3-6-2-9-8-0"
       y="1584.5073"
       x="787.65729"
       style="font-style:normal;font-variant:normal;font-weight:normal;font-stretch:normal;line-height:0;font-family:Lavi;-inkscape-font-specification:Lavi;letter-spacing:3.03024px;word-spacing:0px;opacity:0.75027;fill:#ffffff;fill-opacity:1;stroke:#837567;stroke-width:1.52377;stroke-miterlimit:4;stroke-dasharray:none;stroke-opacity:1;paint-order:stroke fill markers;filter:url(#filter4375-4-1-1-1-9-5-8-8-3-3-3-6-1-3)"
       xml:space="preserve"
       inkscape:label="FXB-3"><tspan
         style="font-style:normal;font-variant:normal;font-weight:bold;font-stretch:normal;font-size:70px;line-height:1.25;font-family:Drukah;-inkscape-font-specification:'Drukah Bold';fill:#ffffff;fill-opacity:1;stroke:#837567;stroke-width:1.52377;stroke-miterlimit:4;stroke-dasharray:none;stroke-opacity:1;paint-order:stroke fill markers"
         y="1584.5073"
         x="787.65729"
         id="tspan4582-1-1-0-6-9-0-8-3-4-4"
         sodipodi:role="line"><tspan
   style="letter-spacing:-3.73913px"
   id="tspan19018">Fs</tspan>ch<tspan
   style="font-size:59.826px"
   id="tspan39837">h...</tspan></tspan></text>
    <text
       id="text4246-5-8"
       y="3199.8108"
       x="1515.5361"
       style="font-style:normal;font-variant:normal;font-weight:normal;font-stretch:normal;font-size:53.79949951px;line-height:0%;font-family:Lavi;-inkscape-font-specification:Lavi;text-align:center;letter-spacing:0px;word-spacing:0px;text-anchor:middle;fill:#000000;fill-opacity:1;stroke:none;stroke-width:1.05513"
       xml:space="preserve"
       inkscape:label="kingB"><tspan
         y="3199.8108"
         x="1515.5361"
         style="font-style:normal;font-variant:normal;font-weight:bold;font-stretch:normal;font-size:53.79949951px;line-height:1.25;font-family:Lavi;-inkscape-font-specification:'Lavi Bold';stroke-width:1.05513"
         sodipodi:role="line"
         id="tspan858">Sial!</tspan></text>
    <text
       id="text4246-5-8-3"
       y="3270.23"
       x="1686.7274"
       style="font-style:normal;font-variant:normal;font-weight:normal;font-stretch:normal;font-size:45px;line-height:0%;font-family:Lavi;-inkscape-font-specification:Lavi;text-align:center;letter-spacing:0px;word-spacing:0px;text-anchor:middle;fill:#000000;fill-opacity:1;stroke:none;stroke-width:0.88255"
       xml:space="preserve"
       inkscape:label="kingB"><tspan
         y="3270.23"
         x="1686.7274"
         style="font-style:normal;font-variant:normal;font-weight:bold;font-stretch:normal;font-size:45px;line-height:1.25;font-family:Lavi;-inkscape-font-specification:'Lavi Bold';stroke-width:0.88255"
         sodipodi:role="line"
         id="tspan39734">Aku tak bisa</tspan><tspan
         y="3326.48"
         x="1686.7274"
         style="font-style:normal;font-variant:normal;font-weight:bold;font-stretch:normal;font-size:45px;line-height:1.25;font-family:Lavi;-inkscape-font-specification:'Lavi Bold';stroke-width:0.88255"
         sodipodi:role="line"
         id="tspan401">berbuat apa-apa</tspan><tspan
         y="3382.73"
         x="1686.7274"
         style="font-style:normal;font-variant:normal;font-weight:bold;font-stretch:normal;font-size:45px;line-height:1.25;font-family:Lavi;-inkscape-font-specification:'Lavi Bold';stroke-width:0.88255"
         sodipodi:role="line"
         id="tspan403">di sini!</tspan></text>
    <text
       xml:space="preserve"
       style="font-style:normal;font-variant:normal;font-weight:normal;font-stretch:normal;line-height:0%;font-family:Lavi;-inkscape-font-specification:Lavi;text-align:center;letter-spacing:0px;word-spacing:0px;text-anchor:middle;fill:#000000;fill-opacity:1;stroke:none"
       x="2138.511"
       y="2317.1406"
       id="text4246-7-6-4-6-4-5-6"
       inkscape:label="kingB"><tspan
         sodipodi:role="line"
         style="font-style:normal;font-variant:normal;font-weight:bold;font-stretch:normal;font-size:45px;line-height:1.25;font-family:Lavi;-inkscape-font-specification:'Lavi Bold'"
         x="2138.511"
         y="2317.1406"
         id="tspan50694">Dasar penjara</tspan><tspan
         sodipodi:role="line"
         style="font-style:normal;font-variant:normal;font-weight:bold;font-stretch:normal;font-size:45px;line-height:1.25;font-family:Lavi;-inkscape-font-specification:'Lavi Bold'"
         x="2138.511"
         y="2373.3906"
         id="tspan407">sihir! Grrrr!</tspan></text>
    <text
       xml:space="preserve"
       style="font-style:normal;font-variant:normal;font-weight:normal;font-stretch:normal;line-height:0%;font-family:Lavi;-inkscape-font-specification:Lavi;letter-spacing:0px;word-spacing:0px;display:inline;fill:#ffffff;fill-opacity:1;stroke:#000000;stroke-width:0.64952803;stroke-miterlimit:4;stroke-dasharray:none;stroke-opacity:1;filter:url(#filter4375-4-1-1-1-9-5-8-3-4)"
       x="787.65729"
       y="1584.5073"
       id="text4580-6-0-3"
       transform="matrix(0.56396936,0.29200899,-0.49083985,0.74440634,2292.4537,1543.4282)"
       inkscape:transform-center-x="-5.9254429"
       inkscape:transform-center-y="0.58615246"><tspan
         sodipodi:role="line"
         id="tspan4582-1-1-6"
         x="787.65729"
         y="1584.5073"
         style="font-style:normal;font-variant:normal;font-weight:normal;font-stretch:normal;font-size:70px;line-height:1.25;font-family:Combah;-inkscape-font-specification:Combah;fill:#ffffff;fill-opacity:1;stroke:#000000;stroke-width:0.64952803;stroke-opacity:1"><tspan
           style="font-style:normal;font-variant:normal;font-weight:normal;font-stretch:normal;font-size:93.14949799px;font-family:Combah;-inkscape-font-specification:Combah;fill:#ffffff;fill-opacity:1;stroke:#000000;stroke-width:0.64952803;stroke-opacity:1"
           id="tspan4315-8-0">KLANG</tspan><tspan
           style="font-style:normal;font-variant:normal;font-weight:normal;font-stretch:normal;font-size:114.73200226px;font-family:Combah;-inkscape-font-specification:Combah;fill:#ffffff;fill-opacity:1;stroke:#000000;stroke-width:0.64952803;stroke-opacity:1"
           id="tspan4313-2-6">!</tspan></tspan></text>
  </g>
</svg>
