<?xml version="1.0" encoding="UTF-8" standalone="no"?>
<!-- Created with Inkscape (http://www.inkscape.org/) -->

<svg
   id="svg2"
   version="1.1"
   inkscape:version="1.3 (0e150ed6c4, 2023-07-21)"
   width="2481"
   height="3503"
   sodipodi:docname="E29P03.svg"
   xmlns:inkscape="http://www.inkscape.org/namespaces/inkscape"
   xmlns:sodipodi="http://sodipodi.sourceforge.net/DTD/sodipodi-0.dtd"
   xmlns:xlink="http://www.w3.org/1999/xlink"
   xmlns="http://www.w3.org/2000/svg"
   xmlns:svg="http://www.w3.org/2000/svg"
   xmlns:rdf="http://www.w3.org/1999/02/22-rdf-syntax-ns#"
   xmlns:cc="http://creativecommons.org/ns#"
   xmlns:dc="http://purl.org/dc/elements/1.1/">
  <metadata
     id="metadata8">
    <rdf:RDF>
      <cc:Work
         rdf:about="">
        <dc:format>image/svg+xml</dc:format>
        <dc:type
           rdf:resource="http://purl.org/dc/dcmitype/StillImage" />
        <dc:title />
      </cc:Work>
    </rdf:RDF>
  </metadata>
  <defs
     id="defs6" />
  <sodipodi:namedview
     pagecolor="#ffffff"
     bordercolor="#666666"
     borderopacity="1"
     objecttolerance="10"
     gridtolerance="10"
     guidetolerance="10"
     inkscape:pageopacity="0"
     inkscape:pageshadow="2"
     inkscape:window-width="1888"
     inkscape:window-height="1144"
     id="namedview4"
     showgrid="false"
     inkscape:zoom="0.96415908"
     inkscape:cx="2113.2405"
     inkscape:cy="457.3934"
     inkscape:window-x="32"
     inkscape:window-y="0"
     inkscape:window-maximized="1"
     inkscape:current-layer="layer1"
     inkscape:snap-global="false"
     inkscape:showpageshadow="0"
     inkscape:pagecheckerboard="0"
     inkscape:deskcolor="#d1d1d1" />
  <g
     inkscape:groupmode="layer"
     id="layer2"
     inkscape:label="artwork"
     sodipodi:insensitive="true">
    <image
       xlink:href="../gfx_Pepper-and-Carrot_by-David-Revoy_E29P03.png"
       y="0"
       x="0"
       id="image10"
       height="3503"
       width="2481" />
  </g>
  <g
     inkscape:groupmode="layer"
     id="layer3"
     inkscape:label="speechbubbles">
    <path
       style="color:#000000;display:inline;overflow:visible;visibility:visible;fill:#ffffff;fill-opacity:1;fill-rule:nonzero;stroke:none;stroke-width:1.03702748px;marker:none;enable-background:accumulate"
       d="m 164.56062,203.28558 c 3.80339,-26.62382 -1.34362,-57.915 43.12412,-72.94279 44.46774,-15.02779 138.55024,-17.7922 236.28341,-12.51509 52.35114,2.8267 138.93693,-0.0987 179.06092,15.19077 26.21525,9.98947 39.63902,33.31133 34.67555,72.31502 -4.96345,39.00365 -28.69215,59.31682 -77.123,68.66575 -48.43086,9.34893 -96.97671,9.03196 -139.25303,8.59783 -40.81919,-0.41917 -72.47651,3.12535 -126.77191,-2.15834 -54.2954,-5.28369 -108.09883,-14.11222 -123.82012,-27.42734 -9.84112,-8.33494 -16.64352,-16.64272 -20.85642,-24.9286 -4.2129,-8.28588 -5.83634,-16.54986 -5.31952,-24.79721 z"
       id="path4546-6"
       inkscape:connector-curvature="0"
       sodipodi:nodetypes="csssssssssc" />
    <path
       style="fill:#ffffff;stroke:none;stroke-width:1"
       d="m 240.20205,385.06686 c -58.13838,-27.45721 -59.25417,-104.2317 6.40363,-135.1495 33.25786,-15.66089 31.21798,-5.00947 31.21798,-5.00947 l -6.80518,-52.3863 c 0,0 17.27652,-20.93641 -34.72953,12.43271 -52.00605,33.36911 -110.96723,129.16604 3.9131,180.11256 z"
       id="path3063"
       inkscape:connector-curvature="0"
       sodipodi:nodetypes="cscczc" />
    <path
       style="color:#000000;display:inline;overflow:visible;visibility:visible;fill:#ffffff;fill-opacity:1;fill-rule:nonzero;stroke:none;stroke-width:1.01756573px;marker:none;enable-background:accumulate"
       d="m 1813.7267,161.70482 c 32.1949,-35.7225 451.6362,-57.75144 509.8215,19.47099 36.9223,49.0024 22.4754,234.3177 -24.6687,269.827 -55.4838,41.79071 -365.5875,30.46494 -443.5786,7.17083 -74.2007,-22.16198 -76.9416,-98.07112 -80.6838,-171.81292 -1.5273,-30.0969 6.9145,-88.9333 39.1096,-124.6559 z"
       id="path4040-4"
       inkscape:connector-curvature="0"
       sodipodi:nodetypes="zssssz" />
    <path
       style="color:#000000;display:inline;overflow:visible;visibility:visible;fill:#ffffff;fill-opacity:1;fill-rule:nonzero;stroke:none;stroke-width:0.99999994px;marker:none;enable-background:accumulate"
       d="m 1521.7564,267.86763 c 32.5901,-37.14844 120.5249,-77.58678 199.7918,-73.40468 42.0311,2.21755 81.2853,18.77332 113.3871,43.73164 54.8474,16.58165 18.1095,-34.39627 18.1095,-34.39627 -9.1911,-10.4538 -45.1517,-22.91599 -79.6603,-28.40181 -77.1713,-12.26787 -186.4105,2.0063 -251.6281,92.47112 z"
       id="path3984"
       inkscape:connector-curvature="0"
       sodipodi:nodetypes="csccsc" />
    <path
       style="color:#000000;display:inline;overflow:visible;visibility:visible;fill:#ffffff;fill-opacity:1;fill-rule:nonzero;stroke:none;stroke-width:0.99999994px;marker:none;enable-background:accumulate"
       d="m 1899.5058,526.03993 c 3.1313,-27.92669 10.1908,-50.08154 49.0299,-62.36647 38.8392,-12.28493 109.458,-14.69995 199.051,-9.86734 47.9909,2.58861 112.0091,6.35815 150.2539,18.02744 38.245,11.6693 50.7165,31.23838 46.6866,72.1464 -4.0299,40.908 -18.1234,62.69956 -62.362,72.842 -44.2386,10.14243 -118.6224,8.63574 -134.8142,9.66758 -42.3371,-3.24918 -123.9719,1.35913 -175.8685,-7.24059 -51.8967,-8.59972 -74.0549,-30.40745 -71.9767,-93.20902 z"
       id="path4546-6-0"
       inkscape:connector-curvature="0"
       sodipodi:nodetypes="cssssscsc" />
    <path
       style="color:#000000;display:inline;overflow:visible;visibility:visible;fill:#ffffff;fill-opacity:1;fill-rule:nonzero;stroke:none;stroke-width:0.89805061px;marker:none;enable-background:accumulate"
       d="m 115.24712,1694.024 c 3.57203,-29.5773 4.08476,-58.1325 51.33113,-75.4938 47.24637,-17.3611 130.48169,-22.1677 235.03088,-17.8555 56.00218,2.3099 126.55041,5.4231 171.20776,17.4284 44.65734,12.0053 63.4238,32.9027 58.84109,76.2239 -4.58271,43.3211 -29.31298,62.2482 -80.90001,73.3756 -51.58701,11.1275 -130.03079,14.4554 -148.91993,15.6921 -18.88914,1.2365 -77.47489,0.171 -135.60044,-4.8322 -58.12556,-5.0031 -97.88315,-8.5012 -114.93159,-23.016 -26.72622,-18.3815 -37.68414,-39.9943 -36.05889,-61.5225 z"
       id="path4546-6-2"
       inkscape:connector-curvature="0"
       sodipodi:nodetypes="cssssssscc" />
    <path
       style="color:#000000;display:inline;overflow:visible;visibility:visible;fill:#ffffff;fill-opacity:1;fill-rule:nonzero;stroke:none;stroke-width:1px;marker:none;enable-background:accumulate"
       d="m 521.869,1649.1001 c 16.11108,-12.2669 15.86616,-23.0299 15.86632,-28.1369 10e-5,-5.107 -4.54529,-18.6761 -3.34265,-24.7247 1.02193,-4.995 3.12956,-18.1154 7.70997,-16.7463 4.58049,1.369 41.01203,26.2432 51.36903,17.3665 10.35713,-8.8768 11.10734,-20.8369 5.69423,-31.5145 -5.41309,-10.6777 -12.30128,-24.7121 -5.30101,-32.1137 7.00027,-7.4017 18.59276,-5.447 23.97197,-2.6844 5.3792,2.7626 35.49917,23.7296 45.22292,25.6243 9.7237,1.8947 23.71407,1.7027 43.50196,-19.9526 -14.8657,10.0411 -26.23617,15.9908 -34.47171,12.561 -8.23568,-3.4298 -23.77359,-8.4777 -30.56794,-16.4657 -6.79439,-7.9881 -19.06179,-24.7851 -27.96463,-25.3584 -8.9028,-0.5734 -30.44585,-2.3321 -37.17011,6.2487 -6.72431,8.5806 -9.50599,21.5672 -1.38826,37.7993 4.40691,11.1306 5.56687,16.9279 3.01621,18.7834 -2.55071,1.8553 -15.98612,-1.694 -23.40319,-10.6812 -7.41712,-8.9873 -15.67928,-14.4795 -30.30826,-9.5821 -15.5687,3.9577 -23.51473,25.3051 -27.43064,29.9131 -2.73121,11.1832 -10.25128,59.7905 -19.09981,53.7189 z"
       id="path5058"
       inkscape:connector-curvature="0"
       sodipodi:nodetypes="cscsssssscssssccscccc" />
    <path
       style="color:#000000;display:inline;overflow:visible;visibility:visible;fill:#ffffff;fill-opacity:1;fill-rule:nonzero;stroke:none;stroke-width:0.94894391px;marker:none;enable-background:accumulate"
       d="m 1770.82,1053.2341 c 6.9771,-8.2073 23.6519,-16.1303 61.6045,-20.6081 37.9524,-4.478 84.7367,-3.4365 135.3015,-2.4845 50.5647,0.952 50.3614,0.2001 96.3517,0.2078 48.9442,0.01 73.7289,7.7221 102.9376,33.4038 29.2088,25.6816 43.5564,50.3168 43.3878,82.4557 -0.1687,32.139 -6.5451,55.2101 -33.5772,76.8531 -27.0322,21.6429 -67.6144,38.114 -120.1621,41.6713 -52.5477,3.5575 -176.4796,5.498 -240.2736,-16.6429 -63.7943,-22.1412 -67.41,-37.9122 -70.654,-105.6803 -1.3239,-27.659 -2.8244,-56.347 25.0838,-89.1759 z"
       id="path4040"
       inkscape:connector-curvature="0"
       sodipodi:nodetypes="sssszzzzsss" />
    <path
       style="color:#000000;display:inline;overflow:visible;visibility:visible;fill:#ffffff;fill-opacity:1;fill-rule:nonzero;stroke:none;stroke-width:1.0653249px;marker:none;enable-background:accumulate"
       d="m 1881.5529,1219.0726 c -41.8665,122.7323 -35.3869,185.6777 42.5567,264.4098 -47.4291,-53.5721 -48.443,-140.458 -27.8836,-196.5656 17.5953,-48.018 24.528,-47.5096 24.528,-47.5096 z"
       id="path4440"
       inkscape:connector-curvature="0"
       sodipodi:nodetypes="ccscc" />
    <path
       style="color:#000000;display:inline;overflow:visible;visibility:visible;fill:#ffffff;fill-opacity:1;fill-rule:nonzero;stroke:none;stroke-width:0.90702653px;marker:none;enable-background:accumulate"
       d="m 637.09643,1948.5938 c 32.27582,-17.1309 314.84379,-15.2068 363.89097,-9.6943 37.5925,4.225 82.2354,4.4857 111.8583,19.6223 29.6227,15.1367 40.5178,38.4724 40.6662,86.0407 0.1495,47.9387 -16.216,90.6642 -51.3021,100.381 -48.4898,13.4289 -101.5813,12.6913 -149.38633,13.21 -28.6217,0.3106 -232.27034,5.8721 -276.22026,-13.4407 -50.14366,-22.0345 -71.48618,-47.0384 -74.53938,-88.4612 -2.74989,-69.989 13.9022,-95.6319 35.0326,-107.6578 z"
       id="path4546-6-28"
       inkscape:connector-curvature="0"
       sodipodi:nodetypes="csssssscc" />
    <path
       style="color:#000000;display:inline;overflow:visible;visibility:visible;fill:#ffffff;fill-opacity:1;fill-rule:nonzero;stroke:none;stroke-width:1px;marker:none;enable-background:accumulate"
       d="m 876.44075,2262.2076 c 27.46212,-10.0522 29.72719,-13.3589 28.53705,-27.8918 -1.19034,-14.5328 -9.92446,-26.5364 7.13822,-46.8557 17.0627,-20.3194 23.42581,-21.4269 33.84191,-22.8653 -10.7962,-15.1116 -24.19769,-37.3822 -37.83781,-39.5812 -13.64004,-2.1992 45.1695,-29.6441 45.1695,-29.6441 0,0 22.75583,46.3627 21.99513,70.4189 -5.53179,28.827 -31.7847,25.0277 -45.6068,37.2789 -13.82198,12.2511 -2.66123,31.1992 -11.63877,43.0536 -8.97788,11.8543 -27.71027,14.1688 -41.59843,16.0867 z"
       id="path4538"
       inkscape:connector-curvature="0"
       sodipodi:nodetypes="cccccccscc" />
    <path
       style="fill:#ffffff;fill-rule:evenodd;stroke:none;stroke-width:1px;stroke-linecap:butt;stroke-linejoin:miter;stroke-opacity:1"
       d="m 1323.8016,1984.7216 c 28.8356,-4.5331 58.196,-6.8902 29.1661,-39.0973 40.2304,15.9013 101.614,24.7011 127.3674,-9.3315 21.0416,32.4151 72.5215,18.1393 103.6089,9.2863 -22.7459,39.1099 18.3414,35.1498 48.6838,26.2972 -58.1387,44.4003 -27.6095,58.521 -4.7008,75.2441 -57.1366,-12.3727 -96.278,-0.2731 -77.1628,27.9538 -47.2189,-29.2045 -101.7044,-23.5745 -85.7998,4.2937 -11.7134,-13.2298 -10.4746,-40.9431 -73.6465,1.7915 19.9656,-44.5555 -6.2049,-39.8788 -48.5754,-17.9152 6.6404,-15.1762 46.1072,-38.2538 -20.3703,-35.8306 41.5231,-14.4273 55.9482,-25.3946 1.4294,-42.692 z"
       id="path4584"
       inkscape:connector-curvature="0"
       sodipodi:nodetypes="cccccccccccc" />
    <path
       style="color:#000000;display:inline;overflow:visible;visibility:visible;fill:#ffffff;fill-opacity:1;fill-rule:nonzero;stroke:none;stroke-width:1px;marker:none;enable-background:accumulate"
       d="m 1472.7384,2047.3416 c 0.2312,29.9074 3.2778,68.8487 8.7074,74.7102 -9.1366,-3.6864 -17.8817,-5.2616 -24.6773,-6.6173 -2.08,14.7875 9.0067,61.8116 14.5567,88.5609 -25.1053,-37.9041 -39.0273,-94.4 -38.8725,-117.7051 8.4834,5.8822 16.5056,8.882 21.4065,8.8433 5.497,-10.4938 -6.7061,-51.3933 -7.3939,-51.6226 z"
       id="path5066"
       inkscape:connector-curvature="0"
       sodipodi:nodetypes="cccccccc" />
    <path
       style="color:#000000;display:inline;overflow:visible;visibility:visible;fill:#ffffff;fill-opacity:1;fill-rule:nonzero;stroke:none;stroke-width:1px;marker:none;enable-background:accumulate"
       d="m 226.06862,2871.1843 c 32.22727,-24.4433 452.09061,-39.5168 510.33447,13.3232 36.95935,33.5303 22.49799,160.3336 -24.6936,184.631 -55.53956,28.5956 -365.95535,20.846 -444.02488,4.9068 -74.27529,-15.1645 -77.01903,-67.106 -80.76496,-117.5643 -1.5289,-20.594 6.92144,-60.8532 39.14897,-85.2967 z"
       id="path4040-4-0"
       inkscape:connector-curvature="0"
       sodipodi:nodetypes="zssssz" />
    <path
       style="color:#000000;display:inline;overflow:visible;visibility:visible;fill:#ffffff;fill-opacity:1;fill-rule:nonzero;stroke:none;stroke-width:0.90364814px;marker:none;enable-background:accumulate"
       d="m 230.18052,3075.0205 c 51.81298,-20.3173 433.89309,-47.0203 511.34792,0.6945 62.1627,38.2944 39.62389,183.1142 -26.01084,210.864 -63.23442,26.735 -385.47668,23.8079 -467.71071,5.604 -78.23739,-17.3192 -81.26914,-58.9257 -85.07324,-114.6649 -1.73597,-25.4362 15.63389,-82.1804 67.44687,-102.4976 z"
       id="path4040-4-0-6"
       inkscape:connector-curvature="0"
       sodipodi:nodetypes="zssssz" />
    <path
       style="color:#000000;display:inline;overflow:visible;visibility:visible;fill:#ffffff;fill-opacity:1;fill-rule:nonzero;stroke:none;stroke-width:1.00305235px;marker:none;enable-background:accumulate"
       d="m 1737.3387,2896.9818 c 48.4101,-45.608 497.4949,-64.4139 581.2444,17.4157 57.3941,56.0783 42.8441,209.584 -28.1248,241.3451 -68.3733,30.5996 -416.8041,27.2493 -505.7212,6.4141 -84.5957,-19.8228 -87.7207,-87.7192 -91.9871,-153.6772 -1.7413,-26.9199 -3.8214,-65.8897 44.5887,-111.4977 z"
       id="path4040-4-0-6-3"
       inkscape:connector-curvature="0"
       sodipodi:nodetypes="zssssz" />
    <path
       style="display:inline;fill:#ffffff;fill-rule:evenodd;stroke:none;stroke-width:1.12052px;stroke-linecap:butt;stroke-linejoin:miter;stroke-opacity:1"
       d="m 1763.9651,3146.6884 c 52.6751,31.0625 65.9431,24.0525 65.0389,-48.1516 25.131,78.0253 62.3084,80.4845 72.6513,42.0409 33.2717,33.0438 54.0528,23.7749 70.5515,0 6.1494,30.576 19.3374,18.2374 30.7504,16.7187 3.759,6.9177 37.64,22.2302 89.7997,-0.6682 3.3785,9.1562 7.93,17.0412 38.4824,-3.2589 7.9153,37.1639 33.311,-2.0597 59.3276,-43.9964 -16.2092,51.5576 -9.4877,58.8398 11.2241,39.1079 -9.4693,21.2317 -15.133,37.6676 20.8445,1.6295 -12.3167,39.1895 19.9967,12.29 72.1552,-43.9962 -26.0905,41.6064 -95.2765,111.7309 -49.7068,105.9169 -6.3549,12.2656 -29.0228,22.9525 38.4826,42.3669 -12.6024,8.3231 -51.0769,-3.8396 -18.9822,31.4012 4.3001,4.1194 -10.0955,6.6351 17.3788,17.4834 -16.2184,-0.738 -26.1646,1.8985 -11.2241,17.9244 -29.6044,-0.8666 -18.5276,15.9849 3.2068,37.4783 -42.8715,-27.5699 -45.2306,-17.5498 -46.4998,-6.5179 -53.7305,-37.5871 -71.6608,-23.8792 -60.4435,6.4364 -23.7269,-40.9327 -79.4692,-19.4314 -82.263,13.1176 -8.279,-31.4757 -100.4739,-37.9839 -121.6662,-3.3406 13.1349,-36.9161 -14.4493,-19.5322 -42.1766,-5.8662 15.184,-41.4354 -23.3511,-29.2328 -72.1552,11.0806 27.3302,-45.7565 -3.7104,-29.228 -49.7066,3.259 17.3788,-44.951 -10.9242,-66.6898 -78.5688,-68.4387 32.3768,-16.2144 51.257,-36.6198 17.6382,-73.3271 37.8981,10.8086 28.2695,-19.8442 1.5149,-59.721 41.3371,32.7305 40.4747,15.2393 24.3459,-28.6789 z"
       id="path4508"
       inkscape:connector-curvature="0"
       sodipodi:nodetypes="cccccccccccccccccccccccccccc" />
    <path
       style="color:#000000;display:inline;overflow:visible;visibility:visible;fill:#ffffff;fill-opacity:1;fill-rule:nonzero;stroke:none;stroke-width:1px;marker:none;enable-background:accumulate"
       d="m 731.14816,2946.5981 c 58.74459,-31.8831 133.6737,-22.4689 151.46532,-4.8409 -26.0629,-31.5484 -110.87474,-48.9787 -156.02352,-29.9411 -36.86673,19.522 4.5582,34.782 4.5582,34.782 z"
       id="path4480"
       inkscape:connector-curvature="0"
       sodipodi:nodetypes="cccc" />
    <path
       style="color:#000000;display:inline;overflow:visible;visibility:visible;fill:#ffffff;fill-opacity:1;fill-rule:nonzero;stroke:none;stroke-width:0.99999994px;marker:none;enable-background:accumulate"
       d="m 1721.525,3105.1967 c -45.0341,26.3761 -102.4755,18.588 -116.1149,4.0048 19.9802,26.0992 84.9979,40.5188 119.6093,24.7695 28.2623,-16.1501 -3.4944,-28.7743 -3.4944,-28.7743 z"
       id="path4480-2"
       inkscape:connector-curvature="0"
       sodipodi:nodetypes="cccc"
       inkscape:transform-center-x="-155.62645"
       inkscape:transform-center-y="34.210293" />
  </g>
  <g
     inkscape:groupmode="layer"
     id="layer1"
     inkscape:label="txt">
    <text
       xml:space="preserve"
       style="font-style:normal;font-variant:normal;font-weight:normal;font-stretch:normal;line-height:0%;font-family:Lavi;-inkscape-font-specification:Lavi;text-align:center;letter-spacing:0px;word-spacing:0px;text-anchor:middle;fill:#000000;fill-opacity:1;stroke:none"
       x="410.61237"
       y="181.19055"
       id="text4246"><tspan
         sodipodi:role="line"
         style="font-size:45px;line-height:1.2"
         x="410.61237"
         y="181.19055"
         id="tspan7234">Haha, das ist etwas</tspan><tspan
         sodipodi:role="line"
         style="font-size:45px;line-height:1.2"
         x="410.61237"
         y="235.19055"
         id="tspan76">schwierig zu erklären.</tspan></text>
    <text
       xml:space="preserve"
       style="font-style:normal;font-variant:normal;font-weight:normal;font-stretch:normal;line-height:0%;font-family:Lavi;-inkscape-font-specification:Lavi;text-align:center;letter-spacing:0px;word-spacing:0px;text-anchor:middle;fill:#000000;fill-opacity:1;stroke:none"
       x="2066.687"
       y="206.01216"
       id="text4246-3"><tspan
         sodipodi:role="line"
         style="font-size:45px;line-height:1.2"
         x="2066.687"
         y="206.01216"
         id="tspan920">Nun, man könnte sagen,</tspan><tspan
         sodipodi:role="line"
         style="font-size:45px;line-height:1.2"
         x="2066.687"
         y="260.01218"
         id="tspan93">sie basiert auf dem</tspan><tspan
         sodipodi:role="line"
         style="font-size:45px;line-height:1.2"
         x="2066.687"
         y="314.01218"
         id="tspan95">Verständnis der grund-</tspan><tspan
         sodipodi:role="line"
         style="font-size:45px;line-height:1.2"
         x="2066.687"
         y="368.01218"
         id="tspan97">legenden Gesetze von</tspan><tspan
         sodipodi:role="line"
         style="font-size:45px;line-height:1.2"
         x="2066.687"
         y="422.01218"
         id="tspan99">chaotischen Systemen…</tspan></text>
    <text
       xml:space="preserve"
       style="font-style:normal;font-variant:normal;font-weight:normal;font-stretch:normal;line-height:0%;font-family:Lavi;-inkscape-font-specification:Lavi;text-align:center;letter-spacing:0px;word-spacing:0px;text-anchor:middle;fill:#000000;fill-opacity:1;stroke:none"
       x="2121.0273"
       y="529.94165"
       id="text4246-3-5"><tspan
         sodipodi:role="line"
         style="font-size:45px;line-height:1.2"
         x="2121.0273"
         y="529.94165"
         id="tspan924">…von den kleinsten</tspan><tspan
         sodipodi:role="line"
         style="font-size:45px;line-height:1.2"
         x="2121.0273"
         y="583.94165"
         id="tspan103">zu den größten.</tspan></text>
    <text
       xml:space="preserve"
       style="font-style:normal;font-variant:normal;font-weight:normal;font-stretch:normal;line-height:0%;font-family:Lavi;-inkscape-font-specification:Lavi;text-align:center;letter-spacing:0px;word-spacing:0px;text-anchor:middle;fill:#000000;fill-opacity:1;stroke:none"
       x="373.61032"
       y="1674.2904"
       id="text4246-3-5-1"><tspan
         sodipodi:role="line"
         style="font-size:45px;line-height:1.2"
         x="373.61032"
         y="1674.2904"
         id="tspan115">Viel schlauer bin ich</tspan><tspan
         sodipodi:role="line"
         style="font-size:45px;line-height:1.2"
         x="373.61032"
         y="1728.2904"
         id="tspan119">daraus nicht geworden.</tspan></text>
    <text
       xml:space="preserve"
       style="font-style:normal;font-variant:normal;font-weight:normal;font-stretch:normal;line-height:0%;font-family:Lavi;-inkscape-font-specification:Lavi;text-align:center;letter-spacing:0px;word-spacing:0px;text-anchor:middle;fill:#000000;fill-opacity:1;stroke:none"
       x="1973.4331"
       y="1108.4061"
       id="text4246-3-5-1-0"><tspan
         sodipodi:role="line"
         style="font-size:45px;line-height:1.2"
         x="1973.4331"
         y="1108.4061"
         id="tspan7258">Wartet, lasst mich</tspan><tspan
         sodipodi:role="line"
         style="font-size:45px;line-height:1.2"
         x="1973.4331"
         y="1162.4061"
         id="tspan126">ein einfaches</tspan><tspan
         sodipodi:role="line"
         style="font-size:45px;line-height:1.2"
         x="1973.4331"
         y="1216.4061"
         id="tspan128">Beispiel machen.</tspan></text>
    <text
       xml:space="preserve"
       style="font-style:normal;font-variant:normal;font-weight:normal;font-stretch:normal;line-height:0%;font-family:Lavi;-inkscape-font-specification:Lavi;text-align:center;letter-spacing:0px;word-spacing:0px;text-anchor:middle;fill:#000000;fill-opacity:1;stroke:none"
       x="875.14471"
       y="2008.6261"
       id="text4246-3-5-1-0-0"><tspan
         sodipodi:role="line"
         style="font-size:45px;line-height:1.2"
         x="875.14471"
         y="2008.6261"
         id="tspan87">Ich brauche nur einen</tspan><tspan
         sodipodi:role="line"
         style="font-size:45px;line-height:1.2"
         x="875.14471"
         y="2062.6262"
         id="tspan135">Moment mit meiner</tspan><tspan
         sodipodi:role="line"
         style="font-size:45px;line-height:1.2"
         x="875.14471"
         y="2116.6262"
         id="tspan137">Chaosāh-Intuition…</tspan></text>
    <text
       xml:space="preserve"
       style="font-style:normal;font-variant:normal;font-weight:normal;font-stretch:normal;line-height:0%;font-family:Lavi;-inkscape-font-specification:Lavi;text-align:center;letter-spacing:0px;word-spacing:0px;text-anchor:middle;fill:#000000;fill-opacity:1;stroke:none"
       x="1475.0964"
       y="2022.1494"
       id="text4246-3-5-1-0-0-8"><tspan
         sodipodi:role="line"
         style="font-size:45px;line-height:1.2"
         x="1475.0964"
         y="2022.1494"
         id="tspan1006-2">Da!</tspan></text>
    <text
       xml:space="preserve"
       style="font-style:normal;font-variant:normal;font-weight:normal;font-stretch:normal;font-size:10.1507px;line-height:0%;font-family:Lavi;-inkscape-font-specification:Lavi;text-align:center;letter-spacing:0px;word-spacing:0px;text-anchor:middle;opacity:0.5;fill:#000000;fill-opacity:1;stroke:none;stroke-width:1"
       x="1577.2253"
       y="1765.9481"
       id="text4246-37"
       transform="matrix(0.95687977,-0.3398346,0.04566864,1.0288442,0,0)"><tspan
         sodipodi:role="line"
         style="font-style:normal;font-variant:normal;font-weight:bold;font-stretch:normal;font-size:38.0653px;line-height:1.2;font-family:Lavi;-inkscape-font-specification:'Lavi Bold';stroke-width:1"
         x="1577.2253"
         y="1765.9481"
         id="tspan4252-5">KRATZ</tspan></text>
    <text
       xml:space="preserve"
       style="font-style:normal;font-variant:normal;font-weight:normal;font-stretch:normal;font-size:8.877px;line-height:0%;font-family:Lavi;-inkscape-font-specification:Lavi;text-align:center;letter-spacing:0px;word-spacing:0px;text-anchor:middle;opacity:0.5;fill:#000000;fill-opacity:1;stroke:none;stroke-width:1"
       x="1903.3949"
       y="1544.0555"
       id="text4246-37-9"
       transform="matrix(0.93691978,-0.1877366,-0.11760016,1.0908915,0,0)"><tspan
         sodipodi:role="line"
         style="font-style:normal;font-variant:normal;font-weight:bold;font-stretch:normal;font-size:33.2887px;line-height:1.2;font-family:Lavi;-inkscape-font-specification:'Lavi Bold';stroke-width:1"
         x="1903.3949"
         y="1544.0555"
         id="tspan4252-5-2">KRATZ</tspan></text>
    <text
       xml:space="preserve"
       style="font-style:normal;font-variant:normal;font-weight:normal;font-stretch:normal;line-height:0%;font-family:Lavi;-inkscape-font-specification:Lavi;text-align:center;letter-spacing:0px;word-spacing:0px;text-anchor:middle;fill:#000000;fill-opacity:1;stroke:none"
       x="468.62018"
       y="2927.6206"
       id="text4246-3-5-1-0-0-8-9"><tspan
         sodipodi:role="line"
         style="font-size:45px;line-height:1.2"
         x="468.62018"
         y="2927.6206"
         id="tspan7284">Seht ihr diesen Spieß,</tspan><tspan
         sodipodi:role="line"
         style="font-size:45px;line-height:1.2"
         x="468.62018"
         y="2981.6206"
         id="tspan144">der zwischen den</tspan><tspan
         sodipodi:role="line"
         style="font-size:45px;line-height:1.2"
         x="468.62018"
         y="3035.6206"
         id="tspan146">Pflastersteinen steckte?</tspan></text>
    <text
       xml:space="preserve"
       style="font-style:normal;font-variant:normal;font-weight:normal;font-stretch:normal;line-height:0%;font-family:Lavi;-inkscape-font-specification:Lavi;text-align:center;letter-spacing:0px;word-spacing:0px;text-anchor:middle;fill:#000000;fill-opacity:1;stroke:none"
       x="467.67493"
       y="3142.5361"
       id="text4246-3-5-1-0-0-8-9-3"><tspan
         sodipodi:role="line"
         style="font-size:45px;line-height:1.2"
         x="467.67493"
         y="3142.5361"
         id="tspan7303">Indem ich ihn aufgehoben</tspan><tspan
         sodipodi:role="line"
         style="font-size:45px;line-height:1.2"
         x="467.67493"
         y="3196.5361"
         id="tspan153">habe, verhindere ich, dass</tspan><tspan
         sodipodi:role="line"
         style="font-size:45px;line-height:1.2"
         x="467.67493"
         y="3250.5361"
         id="tspan155">jemand darauf tritt.</tspan></text>
    <text
       xml:space="preserve"
       style="font-style:normal;font-variant:normal;font-weight:normal;font-stretch:normal;line-height:0%;font-family:Lavi;-inkscape-font-specification:Lavi;text-align:center;letter-spacing:0px;word-spacing:0px;text-anchor:middle;fill:#000000;fill-opacity:1;stroke:none"
       x="2024.1924"
       y="2929.4167"
       id="text4246-3-5-1-0-0-8-9-3-9"><tspan
         sodipodi:role="line"
         style="font-size:45px;line-height:1.2"
         x="2024.1924"
         y="2929.4167"
         id="tspan1037">Eine kleine, positive</tspan><tspan
         sodipodi:role="line"
         style="font-size:45px;line-height:1.2"
         x="2024.1924"
         y="2983.4167"
         id="tspan166">Veränderung im großen,</tspan><tspan
         sodipodi:role="line"
         style="font-size:45px;line-height:1.2"
         x="2024.1924"
         y="3037.4167"
         id="tspan168">chaotischen System der</tspan><tspan
         sodipodi:role="line"
         style="font-size:45px;line-height:1.2"
         x="2024.1924"
         y="3091.4167"
         id="tspan170">Existenz kann bedeutende</tspan><tspan
         sodipodi:role="line"
         style="font-size:45px;line-height:1.2"
         x="2024.1924"
         y="3145.4167"
         id="tspan172">Konsequenzen haben.</tspan></text>
    <text
       xml:space="preserve"
       style="font-style:normal;font-variant:normal;font-weight:normal;font-stretch:normal;font-size:53.3333px;line-height:0%;font-family:Lavi;-inkscape-font-specification:Lavi;text-align:center;letter-spacing:0px;word-spacing:0px;text-anchor:middle;fill:#000000;fill-opacity:1;stroke:none"
       x="2003.845"
       y="3233.6782"
       id="text4246-3-5-1-0-0-8-9-3-9-8"><tspan
         sodipodi:role="line"
         style="font-size:53.3333px;line-height:1.2"
         x="2003.845"
         y="3233.6782"
         id="tspan1041">Darum geht es</tspan><tspan
         sodipodi:role="line"
         style="font-size:53.3333px;line-height:1.2"
         x="2003.845"
         y="3297.6782"
         id="tspan176">bei Chaosāh!</tspan></text>
  </g>
</svg>
