<?xml version="1.0" encoding="UTF-8" standalone="no"?>
<!-- Created with Inkscape (http://www.inkscape.org/) -->

<svg
   id="svg2"
   version="1.1"
   inkscape:version="1.3 (0e150ed6c4, 2023-07-21)"
   width="2481"
   height="3503"
   sodipodi:docname="E24P06.svg"
   xmlns:inkscape="http://www.inkscape.org/namespaces/inkscape"
   xmlns:sodipodi="http://sodipodi.sourceforge.net/DTD/sodipodi-0.dtd"
   xmlns:xlink="http://www.w3.org/1999/xlink"
   xmlns="http://www.w3.org/2000/svg"
   xmlns:svg="http://www.w3.org/2000/svg"
   xmlns:rdf="http://www.w3.org/1999/02/22-rdf-syntax-ns#"
   xmlns:cc="http://creativecommons.org/ns#"
   xmlns:dc="http://purl.org/dc/elements/1.1/">
  <metadata
     id="metadata8">
    <rdf:RDF>
      <cc:Work
         rdf:about="">
        <dc:format>image/svg+xml</dc:format>
        <dc:type
           rdf:resource="http://purl.org/dc/dcmitype/StillImage" />
        <dc:title />
      </cc:Work>
    </rdf:RDF>
  </metadata>
  <defs
     id="defs6">
    <filter
       style="color-interpolation-filters:sRGB"
       id="filter4375-4-1-1-1-9"
       inkscape:label="deevad outline effect">
      <feFlood
         id="feFlood4377-7-9-0-8-1"
         flood-opacity="1"
         flood-color="rgb(0,0,0)"
         result="flood" />
      <feComposite
         id="feComposite4379-3-8-8-2-77"
         in2="SourceGraphic"
         in="flood"
         operator="in"
         result="composite1" />
      <feMorphology
         id="feMorphology4393-1-0-49-8-9"
         operator="dilate"
         radius="4"
         result="result3" />
      <feComposite
         id="feComposite4385-9-5-7-0-8"
         in2="result3"
         in="SourceGraphic"
         operator="over"
         result="composite2" />
    </filter>
    <filter
       inkscape:label="deevad trembling effect"
       inkscape:menu="Distort"
       inkscape:menu-tooltip="Paint objects with a transparent turbulence which wraps around color edges"
       height="1.0043702"
       y="-0.0021850919"
       width="1.0014586"
       x="-0.00072930019"
       style="color-interpolation-filters:sRGB;"
       id="filter1125">
      <feGaussianBlur
         stdDeviation="0.01"
         result="result10"
         id="feGaussianBlur1107"
         baseFrequency="0.019" />
      <feBlend
         in2="result10"
         mode="normal"
         in="result10"
         result="fbSourceGraphic"
         id="feBlend1109" />
      <feGaussianBlur
         stdDeviation="0.01"
         result="result8"
         in="fbSourceGraphic"
         id="feGaussianBlur1111" />
      <feTurbulence
         seed="0"
         result="result7"
         type="fractalNoise"
         numOctaves="1"
         baseFrequency="0.0040000000000000001"
         id="feTurbulence1113" />
      <feComposite
         in2="result8"
         result="result6"
         operator="in"
         in="result8"
         id="feComposite1115"
         baseFrequency="0.0089999999999999993" />
      <feDisplacementMap
         in2="result6"
         in="result7"
         xChannelSelector="R"
         yChannelSelector="G"
         scale="41.013071895424837"
         result="result4"
         id="feDisplacementMap1117" />
      <feComposite
         in2="result4"
         result="result2"
         operator="arithmetic"
         in="result8"
         k1="1"
         k3="1"
         id="feComposite1119"
         scale="41"
         k2="0"
         k4="0" />
      <feComposite
         in2="result2"
         result="fbSourceGraphic"
         in="fbSourceGraphic"
         operator="in"
         id="feComposite1121" />
      <feDisplacementMap
         in2="result4"
         yChannelSelector="G"
         scale="49.700000000000003"
         xChannelSelector="R"
         id="feDisplacementMap1123" />
    </filter>
    <filter
       style="color-interpolation-filters:sRGB"
       id="filter4375-4-1-1-1-9-5-8"
       inkscape:label="Drop Shadow">
      <feFlood
         id="feFlood4377-7-9-0-8-1-7-3"
         flood-opacity="1"
         flood-color="rgb(200,55,55)"
         result="flood" />
      <feComposite
         id="feComposite4379-3-8-8-2-77-4-1"
         in2="SourceGraphic"
         in="flood"
         operator="in"
         result="composite1" />
      <feMorphology
         id="feMorphology4393-1-0-49-8-9-3-0"
         operator="dilate"
         radius="6.2000000000000002"
         result="result3" />
      <feComposite
         id="feComposite4385-9-5-7-0-8-8-7"
         in2="result3"
         in="SourceGraphic"
         operator="over"
         result="fbSourceGraphic" />
      <feColorMatrix
         result="fbSourceGraphicAlpha"
         in="fbSourceGraphic"
         values="0 0 0 -1 0 0 0 0 -1 0 0 0 0 -1 0 0 0 0 1 0"
         id="feColorMatrix4544" />
      <feTurbulence
         id="feTurbulence4546"
         type="fractalNoise"
         numOctaves="3"
         seed="37"
         baseFrequency="0.129 0.0050000000000000001"
         result="turbulence" />
      <feDisplacementMap
         id="feDisplacementMap4548"
         in2="turbulence"
         in="fbSourceGraphic"
         scale="6.6"
         yChannelSelector="G"
         xChannelSelector="R"
         result="fbSourceGraphic" />
      <feColorMatrix
         result="fbSourceGraphicAlpha"
         in="fbSourceGraphic"
         values="0 0 0 -1 0 0 0 0 -1 0 0 0 0 -1 0 0 0 0 1 0"
         id="feColorMatrix4670" />
      <feFlood
         id="feFlood4672"
         flood-opacity="1"
         flood-color="rgb(80,22,22)"
         result="flood"
         in="fbSourceGraphic" />
      <feComposite
         id="feComposite4674"
         in2="fbSourceGraphic"
         in="flood"
         operator="in"
         result="composite1" />
      <feGaussianBlur
         id="feGaussianBlur4676"
         in="composite1"
         stdDeviation="0"
         result="blur" />
      <feOffset
         id="feOffset4678"
         dx="6"
         dy="6"
         result="offset" />
      <feComposite
         id="feComposite4680"
         in2="offset"
         in="fbSourceGraphic"
         operator="over"
         result="composite2" />
    </filter>
    <filter
       inkscape:label="deevad trembling effect"
       inkscape:menu="Distort"
       inkscape:menu-tooltip="Paint objects with a transparent turbulence which wraps around color edges"
       height="1.0034562"
       y="-0.0017281082"
       width="1.0009515"
       x="-0.00047573692"
       style="color-interpolation-filters:sRGB"
       id="filter1125-2">
      <feGaussianBlur
         stdDeviation="0.01"
         result="result10"
         id="feGaussianBlur1107-0"
         baseFrequency="0.019" />
      <feBlend
         in2="result10"
         mode="normal"
         in="result10"
         result="fbSourceGraphic"
         id="feBlend1109-2" />
      <feGaussianBlur
         stdDeviation="0.01"
         result="result8"
         in="fbSourceGraphic"
         id="feGaussianBlur1111-3" />
      <feTurbulence
         seed="0"
         result="result7"
         type="fractalNoise"
         numOctaves="1"
         baseFrequency="0.0040000000000000001"
         id="feTurbulence1113-7" />
      <feComposite
         in2="result8"
         result="result6"
         operator="in"
         in="result8"
         id="feComposite1115-5"
         baseFrequency="0.0089999999999999993" />
      <feDisplacementMap
         in2="result6"
         in="result7"
         xChannelSelector="R"
         yChannelSelector="G"
         scale="41.013072"
         result="result4"
         id="feDisplacementMap1117-9" />
      <feComposite
         k4="0"
         k2="0"
         in2="result4"
         result="result2"
         operator="arithmetic"
         in="result8"
         k1="1"
         k3="1"
         id="feComposite1119-2"
         scale="41" />
      <feComposite
         in2="result2"
         result="fbSourceGraphic"
         in="fbSourceGraphic"
         operator="in"
         id="feComposite1121-2" />
      <feDisplacementMap
         in2="result4"
         yChannelSelector="G"
         scale="49.7"
         xChannelSelector="R"
         id="feDisplacementMap1123-8" />
    </filter>
    <filter
       inkscape:label="deevad trembling effect"
       inkscape:menu="Distort"
       inkscape:menu-tooltip="Paint objects with a transparent turbulence which wraps around color edges"
       height="1.0043702"
       y="-0.0021850919"
       width="1.0013491"
       x="-0.00067453403"
       style="color-interpolation-filters:sRGB"
       id="filter1125-1">
      <feGaussianBlur
         stdDeviation="0.01"
         result="result10"
         id="feGaussianBlur1107-2"
         baseFrequency="0.019" />
      <feBlend
         in2="result10"
         mode="normal"
         in="result10"
         result="fbSourceGraphic"
         id="feBlend1109-9" />
      <feGaussianBlur
         stdDeviation="0.01"
         result="result8"
         in="fbSourceGraphic"
         id="feGaussianBlur1111-31" />
      <feTurbulence
         seed="0"
         result="result7"
         type="fractalNoise"
         numOctaves="1"
         baseFrequency="0.0040000000000000001"
         id="feTurbulence1113-9" />
      <feComposite
         in2="result8"
         result="result6"
         operator="in"
         in="result8"
         id="feComposite1115-4"
         baseFrequency="0.0089999999999999993" />
      <feDisplacementMap
         in2="result6"
         in="result7"
         xChannelSelector="R"
         yChannelSelector="G"
         scale="41.013072"
         result="result4"
         id="feDisplacementMap1117-7" />
      <feComposite
         k4="0"
         k2="0"
         in2="result4"
         result="result2"
         operator="arithmetic"
         in="result8"
         k1="1"
         k3="1"
         id="feComposite1119-8"
         scale="41" />
      <feComposite
         in2="result2"
         result="fbSourceGraphic"
         in="fbSourceGraphic"
         operator="in"
         id="feComposite1121-4" />
      <feDisplacementMap
         in2="result4"
         yChannelSelector="G"
         scale="49.7"
         xChannelSelector="R"
         id="feDisplacementMap1123-5" />
    </filter>
    <filter
       inkscape:label="deevad trembling effect"
       inkscape:menu="Distort"
       inkscape:menu-tooltip="Paint objects with a transparent turbulence which wraps around color edges"
       height="1.0043702"
       y="-0.0021850919"
       width="1.0008522"
       x="-0.00042607927"
       style="color-interpolation-filters:sRGB"
       id="filter1125-1-1">
      <feGaussianBlur
         stdDeviation="0.01"
         result="result10"
         id="feGaussianBlur1107-2-0"
         baseFrequency="0.019" />
      <feBlend
         in2="result10"
         mode="normal"
         in="result10"
         result="fbSourceGraphic"
         id="feBlend1109-9-6" />
      <feGaussianBlur
         stdDeviation="0.01"
         result="result8"
         in="fbSourceGraphic"
         id="feGaussianBlur1111-31-3" />
      <feTurbulence
         seed="0"
         result="result7"
         type="fractalNoise"
         numOctaves="1"
         baseFrequency="0.0040000000000000001"
         id="feTurbulence1113-9-2" />
      <feComposite
         in2="result8"
         result="result6"
         operator="in"
         in="result8"
         id="feComposite1115-4-0"
         baseFrequency="0.0089999999999999993" />
      <feDisplacementMap
         in2="result6"
         in="result7"
         xChannelSelector="R"
         yChannelSelector="G"
         scale="41.013072"
         result="result4"
         id="feDisplacementMap1117-7-6" />
      <feComposite
         k4="0"
         k2="0"
         in2="result4"
         result="result2"
         operator="arithmetic"
         in="result8"
         k1="1"
         k3="1"
         id="feComposite1119-8-1"
         scale="41" />
      <feComposite
         in2="result2"
         result="fbSourceGraphic"
         in="fbSourceGraphic"
         operator="in"
         id="feComposite1121-4-5" />
      <feDisplacementMap
         in2="result4"
         yChannelSelector="G"
         scale="49.7"
         xChannelSelector="R"
         id="feDisplacementMap1123-5-5" />
    </filter>
  </defs>
  <sodipodi:namedview
     pagecolor="#ffffff"
     bordercolor="#666666"
     borderopacity="1"
     objecttolerance="10"
     gridtolerance="10"
     guidetolerance="10"
     inkscape:pageopacity="0"
     inkscape:pageshadow="2"
     inkscape:window-width="1888"
     inkscape:window-height="1144"
     id="namedview4"
     showgrid="false"
     inkscape:zoom="0.37194736"
     inkscape:cx="1063.3225"
     inkscape:cy="1958.6105"
     inkscape:window-x="32"
     inkscape:window-y="0"
     inkscape:window-maximized="1"
     inkscape:current-layer="layer1"
     inkscape:showpageshadow="0"
     inkscape:pagecheckerboard="0"
     inkscape:deskcolor="#d1d1d1" />
  <g
     inkscape:groupmode="layer"
     id="layer2"
     inkscape:label="artwork"
     sodipodi:insensitive="true">
    <image
       xlink:href="../gfx_Pepper-and-Carrot_by-David-Revoy_E24P06.png"
       y="0"
       x="0"
       id="image10"
       height="3503"
       width="2481" />
  </g>
  <g
     inkscape:groupmode="layer"
     id="layer3"
     inkscape:label="speechbubbles"
     style="display:inline">
    <path
       style="color:#000000;display:inline;overflow:visible;visibility:visible;fill:#ffffff;fill-opacity:1;fill-rule:nonzero;stroke:none;stroke-width:1px;marker:none;enable-background:accumulate"
       d="m 1100.5127,479.07026 c -86.099,0.72897 -213.90415,-12.81892 -243.2999,-60.49329 -29.3956,-47.67438 -32.16658,-126.19684 14.66924,-159.0664 46.83567,-32.86956 131.54366,-49.93021 206.38406,-48.44461 74.8402,1.48559 174.9803,25.18044 202.6341,69.92999 27.6539,44.74943 16.8301,147.3874 -76.3246,176.82062 -93.1548,29.43336 -104.0629,21.25369 -104.0629,21.25369 z"
       id="path3970"
       inkscape:connector-curvature="0"
       sodipodi:nodetypes="cccscsc" />
    <path
       style="color:#000000;display:inline;overflow:visible;visibility:visible;fill:#ffffff;fill-opacity:1;fill-rule:nonzero;stroke:none;stroke-width:0.99999994px;marker:none;enable-background:accumulate"
       d="m 1073.1411,605.46735 c -1.6407,-74.36595 15.5322,-163.97241 183.4615,-173.10608 115.9136,-6.30453 224.3024,64.25156 208.2007,150.02691 -14.3033,76.19493 -69.1662,151.29644 -165.964,153.86077 -96.7976,2.56433 -215.8544,-17.95051 -225.6982,-130.7816 z"
       id="path3565"
       inkscape:connector-curvature="0"
       sodipodi:nodetypes="csssc" />
    <path
       style="fill:#ffffff;fill-rule:evenodd;stroke:none;stroke-width:1.11384px;stroke-linecap:butt;stroke-linejoin:miter;stroke-opacity:1"
       d="m 1068.8502,224.52905 c -35.8452,-1.88303 -87.82597,11.5448 -57.6769,50.296 -65.82646,-25.39403 -158.2077,-34.5111 -179.94331,7.79105 -3.65795,-51.73967 -47.77828,-37.69039 -84.19348,-25.2315 34.65671,-21.24192 -29.08035,-31.70774 -63.20271,-32.16467 70.71138,-45.85796 32.40421,-59.20123 3.46679,-75.339 71.25164,10.92223 53.3258,-13.7893 61.34442,-28.13373 61.79863,30.86852 105.76768,22.34544 139.75532,-8.22912 18.77692,15.86671 25.56532,49.31402 91.28314,-3.65542 -23.36282,45.04669 8.94798,39.70893 60.80783,16.67968 -7.7591,15.33945 -55.9825,39.40883 26.3895,35.30341 -51.0457,15.47391 -61.2313,35.23169 1.9694,62.6833 z"
       id="path4584"
       inkscape:connector-curvature="0"
       sodipodi:nodetypes="cccccccccccc" />
    <path
       style="fill:#ffffff;fill-rule:evenodd;stroke:none;stroke-width:1px;stroke-linecap:butt;stroke-linejoin:miter;stroke-opacity:1"
       d="m 1472.9644,689.69787 c 0,0 -18.7783,34.21336 -32.6212,27.91452 -13.843,-6.29892 -20.1572,-51.27318 -20.1572,-51.27318 0,0 -32.4046,35.857 -65.1595,12.26987 -32.7549,-23.58713 -32.8885,-75.08869 -12.3448,-56.25529 20.5438,18.83335 46.1365,71.22989 89.4202,2.96484 3.1607,69.22326 7.7961,64.32775 13.5666,66.07787 5.7706,1.75017 32.6213,-27.91444 40.3036,-37.66207 0.7828,49.71 2.2491,82.99287 66.864,59.24511 -31.5265,23.16855 -74.9291,26.8574 -79.8717,-23.28167 z"
       id="path4394"
       inkscape:connector-curvature="0"
       sodipodi:nodetypes="cscsscsccc" />
    <path
       style="color:#000000;display:inline;overflow:visible;visibility:visible;fill:#ffffff;fill-opacity:1;fill-rule:nonzero;stroke:none;stroke-width:1px;marker:none;enable-background:accumulate"
       d="m 303.67498,2319.4386 c 4.33643,50.9299 56.12899,88.3748 190.5859,79.3028 72.02235,-4.8595 153.81,-7.9166 148.29317,-82.5223 -5.51692,-74.6055 -123.07966,-73.1311 -147.35483,-74.9667 -24.27517,-1.8358 -150.66656,5.5095 -172.71157,30.7977 -13.79967,15.8296 -19.24728,31.6187 -18.81267,47.3885 z"
       id="path4546-6"
       inkscape:connector-curvature="0"
       sodipodi:nodetypes="cssssc" />
    <path
       style="color:#000000;display:inline;overflow:visible;visibility:visible;fill:#ffffff;fill-opacity:1;fill-rule:nonzero;stroke:none;stroke-width:1px;marker:none;enable-background:accumulate"
       d="m 534.38829,2463.1918 c -5.60468,-24.2441 -12.05036,-25.1738 -25.83978,-29.9145 -13.78934,-4.7407 -29.4176,-13.271 -41.18387,-37.0527 -10.53976,-33.3197 -47.6517,-107.184 10.02392,-71.238 21.72968,10.3487 11.80541,52.372 17.48145,69.9483 5.67608,17.5761 30.50929,21.843 37.76565,34.8227 7.25638,12.9796 5.56819,19.9435 1.75263,33.4342 z"
       id="path4538"
       inkscape:connector-curvature="0"
       sodipodi:nodetypes="ccccccc" />
    <text
       xml:space="preserve"
       style="font-style:normal;font-variant:normal;font-weight:normal;font-stretch:normal;line-height:0%;font-family:Lavi;-inkscape-font-specification:Lavi;text-align:center;letter-spacing:0px;word-spacing:0px;text-anchor:middle;fill:#d16044;fill-opacity:1;stroke:none;stroke-width:1;filter:url(#filter1125)"
       x="410.73367"
       y="1900.4603"
       id="text4246-3-7-9-5-1-6-2-1"
       transform="matrix(0.85125208,-0.62031869,0.33985863,0.92708066,7.5614365,3.7807182)"><tspan
         sodipodi:role="line"
         style="font-size:28.8758px;line-height:1.25;fill:#d16044;fill-opacity:1;stroke-width:0.824252"
         x="410.73367"
         y="1900.4603"
         id="tspan1222-5">BRRrrr</tspan></text>
    <text
       xml:space="preserve"
       style="font-style:normal;font-variant:normal;font-weight:normal;font-stretch:normal;line-height:0%;font-family:Lavi;-inkscape-font-specification:Lavi;text-align:center;letter-spacing:0px;word-spacing:0px;text-anchor:middle;fill:#d16044;fill-opacity:1;stroke:none;stroke-width:1;filter:url(#filter1125)"
       x="1985.7361"
       y="1448.5387"
       id="text4246-3-7-9-5-1-6-2-1-2"
       transform="matrix(1.0442184,0.1379611,-0.3933369,0.90568678,0,0)"><tspan
         sodipodi:role="line"
         style="font-size:28.8758px;line-height:1.25;fill:#d16044;fill-opacity:1;stroke-width:0.824252"
         x="1985.7361"
         y="1448.5387"
         id="tspan1222-5-7">BRRr</tspan></text>
    <text
       xml:space="preserve"
       style="font-style:normal;font-variant:normal;font-weight:normal;font-stretch:normal;line-height:0%;font-family:Lavi;-inkscape-font-specification:Lavi;text-align:center;letter-spacing:0px;word-spacing:0px;text-anchor:middle;fill:#d16044;fill-opacity:1;stroke:none;stroke-width:1;filter:url(#filter1125)"
       x="655.12885"
       y="1771.0082"
       id="text4246-3-7-9-5-1-6-2-1-2-0"
       transform="matrix(0.87668998,-0.58381506,0.30040284,0.94060651,1.8903591,-5.6710774)"><tspan
         sodipodi:role="line"
         style="font-size:28.8758px;line-height:1.25;fill:#d16044;fill-opacity:1;stroke-width:0.824252"
         x="655.12885"
         y="1771.0082"
         id="tspan1222-5-7-9">BRRrrr</tspan></text>
    <text
       xml:space="preserve"
       style="font-style:normal;font-variant:normal;font-weight:normal;font-stretch:normal;line-height:0%;font-family:Lavi;-inkscape-font-specification:Lavi;text-align:center;letter-spacing:0px;word-spacing:0px;text-anchor:middle;fill:#d16044;fill-opacity:1;stroke:none;stroke-width:1;filter:url(#filter1125)"
       x="777.14801"
       y="1966.9062"
       id="text4246-3-7-9-5-1-6-2-1-2-0-3"
       transform="matrix(0.98150035,-0.38220729,0.09168173,0.98314644,15.122873,-5.6710774)"><tspan
         sodipodi:role="line"
         style="font-size:28.8758px;line-height:1.25;fill:#d16044;fill-opacity:1;stroke-width:0.824252"
         x="777.14801"
         y="1966.9062"
         id="tspan1222-5-7-9-6">BRRrrr</tspan></text>
    <text
       xml:space="preserve"
       style="font-style:normal;font-variant:normal;font-weight:normal;font-stretch:normal;line-height:0%;font-family:Lavi;-inkscape-font-specification:Lavi;text-align:center;letter-spacing:0px;word-spacing:0px;text-anchor:middle;fill:#d16044;fill-opacity:1;stroke:none;stroke-width:1;filter:url(#filter1125)"
       x="1923.7697"
       y="875.89478"
       id="text4246-3-7-9-5-1-6-2-1-2-06"
       transform="matrix(0.99644593,0.34135151,-0.56436057,0.8102343,1.8903591,-1.8903591)"><tspan
         sodipodi:role="line"
         style="font-size:28.8758px;line-height:1.25;fill:#d16044;fill-opacity:1;stroke-width:0.824252"
         x="1923.7697"
         y="875.89478"
         id="tspan1222-5-7-2">BRRrrr</tspan></text>
    <text
       xml:space="preserve"
       style="font-style:normal;font-variant:normal;font-weight:normal;font-stretch:normal;line-height:0%;font-family:Lavi;-inkscape-font-specification:Lavi;text-align:center;letter-spacing:0px;word-spacing:0px;text-anchor:middle;fill:#d16044;fill-opacity:1;stroke:none;stroke-width:1;filter:url(#filter1125)"
       x="2065.241"
       y="1539.2544"
       id="text4246-3-7-9-5-1-6-2-1-2-06-6"
       transform="matrix(1.0442184,0.1379611,-0.3933369,0.90568678,0,0)"><tspan
         sodipodi:role="line"
         style="font-size:28.8758px;line-height:1.25;fill:#d16044;fill-opacity:1;stroke-width:0.824252"
         x="2065.241"
         y="1539.2544"
         id="tspan1222-5-7-2-1">BRrr</tspan></text>
    <text
       xml:space="preserve"
       style="font-style:normal;font-variant:normal;font-weight:normal;font-stretch:normal;line-height:0%;font-family:Lavi;-inkscape-font-specification:Lavi;text-align:center;letter-spacing:0px;word-spacing:0px;text-anchor:middle;fill:#ebe9e2;fill-opacity:1;stroke:none;stroke-width:1"
       x="1686.5544"
       y="2585.2935"
       id="text4246-3-7-9-5-1-6-2-1-8"
       transform="matrix(1.0600479,-0.23035956,-0.08957656,0.96281952,0,0)"><tspan
         sodipodi:role="line"
         style="font-size:54.595px;line-height:1.25;fill:#ebe9e2;fill-opacity:1;stroke-width:0.824252"
         x="1686.5544"
         y="2585.2935"
         id="tspan1222-5-79">¿?</tspan></text>
    <text
       xml:space="preserve"
       style="font-style:normal;font-variant:normal;font-weight:normal;font-stretch:normal;line-height:0%;font-family:Lavi;-inkscape-font-specification:Lavi;text-align:center;letter-spacing:0px;word-spacing:0px;text-anchor:middle;fill:#ebe9e2;fill-opacity:1;stroke:none;stroke-width:1"
       x="2356.5422"
       y="2734.1533"
       id="text4246-3-7-9-5-1-6-2-1-8-3"
       transform="matrix(1.0600479,-0.23035956,-0.08957656,0.96281952,0,0)"><tspan
         sodipodi:role="line"
         style="font-size:54.595px;line-height:1.25;fill:#ebe9e2;fill-opacity:1;stroke-width:0.824252"
         x="2356.5422"
         y="2734.1533"
         id="tspan1222-5-79-6">¡¡!!</tspan></text>
    <text
       xml:space="preserve"
       style="font-style:normal;font-variant:normal;font-weight:normal;font-stretch:normal;line-height:0%;font-family:Lavi;-inkscape-font-specification:Lavi;text-align:center;letter-spacing:0px;word-spacing:0px;text-anchor:middle;opacity:0.626;fill:#d0be4d;fill-opacity:1;stroke:none;stroke-width:0.611505;filter:url(#filter1125-1)"
       x="1985.7361"
       y="1448.5387"
       id="text4246-3-7-9-5-1-6-2-1-2-03"
       transform="matrix(1.652839,0.44181846,-0.82392782,1.3977215,-1562.5452,-302.4474)"><tspan
         sodipodi:role="line"
         style="font-size:28.8758px;line-height:1.25;fill:#d0be4d;fill-opacity:1;stroke-width:0.504034"
         x="1985.7361"
         y="1448.5387"
         id="tspan1222-5-7-6">BRRr</tspan></text>
    <text
       xml:space="preserve"
       style="font-style:normal;font-variant:normal;font-weight:normal;font-stretch:normal;line-height:0%;font-family:Lavi;-inkscape-font-specification:Lavi;text-align:center;letter-spacing:0px;word-spacing:0px;text-anchor:middle;opacity:0.752;fill:#d0be4d;fill-opacity:1;stroke:none;stroke-width:0.63965;filter:url(#filter1125-1-1)"
       x="1985.7361"
       y="1448.5387"
       id="text4246-3-7-9-5-1-6-2-1-2-03-4"
       transform="matrix(1.5358218,0.41629511,-0.77005201,1.3826539,-1269.5728,-224.41367)"><tspan
         sodipodi:role="line"
         style="font-size:28.8758px;line-height:1.25;fill:#d0be4d;fill-opacity:1;stroke-width:0.527232"
         x="1985.7361"
         y="1448.5387"
         id="tspan1222-5-7-6-7">BRRrrrr</tspan></text>
    <text
       xml:space="preserve"
       style="font-style:normal;font-variant:normal;font-weight:normal;font-stretch:normal;line-height:0%;font-family:Lavi;-inkscape-font-specification:Lavi;text-align:center;letter-spacing:0px;word-spacing:0px;text-anchor:middle;fill:#d5b179;fill-opacity:1;stroke:none;stroke-width:1"
       x="1044.0333"
       y="3546.3018"
       id="text4246-3-7-9-5-1-6-2-1-8-3-6"
       transform="matrix(1.2153283,-0.20092692,-0.10269811,0.83980175,0,0)"><tspan
         sodipodi:role="line"
         style="font-size:45.0256px;line-height:1.25;fill:#d5b179;fill-opacity:1;stroke-width:0.824252"
         x="1044.0333"
         y="3546.3018"
         id="tspan1222-5-79-6-5">!!</tspan></text>
    <path
       style="fill:#ffffff;stroke:none;stroke-width:1.00712"
       d="m 1523.8319,2702.4602 c -2.5426,-51.3252 2.6373,-162.8605 279.5628,-158.8841 278.9071,4.005 301.4643,81.8717 317.3486,172.37 28.2137,160.7391 -170.0281,156.6463 -338.3203,156.035 -229.9917,-0.8352 -261.2788,-76.7843 -258.5911,-169.5209 z"
       id="path3280-8"
       inkscape:connector-curvature="0"
       sodipodi:nodetypes="csssc" />
    <path
       style="color:#000000;display:inline;overflow:visible;visibility:visible;fill:#ffffff;fill-opacity:1;fill-rule:nonzero;stroke:none;stroke-width:0.99999994px;marker:none;enable-background:accumulate"
       d="m 1586.2949,2874.6555 c 8.3375,-70.0133 78.2694,-118.8359 254.2968,-98.9843 94.2898,10.6336 201.4919,19.314 190.3752,121.9196 -11.1168,102.6056 -165.3624,94.1558 -197.3231,95.3629 -31.9609,1.2072 -197.4907,-15.8224 -225.1152,-51.9065 -17.2923,-22.5877 -23.6233,-44.6635 -22.2337,-66.3917 z"
       id="path4546"
       inkscape:connector-curvature="0"
       sodipodi:nodetypes="cssssc" />
    <path
       style="color:#000000;display:inline;overflow:visible;visibility:visible;fill:#ffffff;fill-opacity:1;fill-rule:nonzero;stroke:none;stroke-width:1px;marker:none;enable-background:accumulate"
       d="m 1405.2078,2785.0833 c 27.2189,10.6931 31.1073,9.721 39.8563,-1.9442 8.7489,-11.6652 17.4978,-31.1073 43.7446,-34.9957 26.2468,-3.8884 38.8841,5.8326 47.633,11.6652 1.9442,-18.4699 21.8114,-47.3326 13.0625,-58.0257 -8.7489,-10.6932 23.8774,9.4206 23.8774,9.4206 0,0 8.749,47.633 -7.7768,65.1309 -16.5257,17.4978 -53.4656,-4.8605 -71.9356,-4.8605 -18.4699,0 -32.0794,26.2467 -46.6609,29.163 -14.5816,2.9163 -30.1352,-7.7768 -41.8005,-15.5536 z"
       id="path4538-7"
       inkscape:connector-curvature="0"
       sodipodi:nodetypes="ccscccsscc" />
  </g>
  <g
     inkscape:groupmode="layer"
     id="layer1"
     inkscape:label="txt"
     style="display:inline">
    <text
       xml:space="preserve"
       style="font-style:normal;font-variant:normal;font-weight:normal;font-stretch:normal;font-size:48px;line-height:0%;font-family:Lavi;-inkscape-font-specification:Lavi;text-align:center;letter-spacing:0px;word-spacing:0px;text-anchor:middle;fill:#000000;fill-opacity:1;stroke:#000000;stroke-width:1.8;stroke-miterlimit:4;stroke-dasharray:none;stroke-opacity:1"
       x="972.01514"
       y="194.14804"
       id="text4246-3-7-9-5-1-6-2"
       transform="matrix(0.92840736,0,-0.16338778,1.0771134,0,0)"><tspan
         sodipodi:role="line"
         style="font-size:48px;line-height:1.25;stroke:#000000;stroke-width:1.8;stroke-miterlimit:4;stroke-dasharray:none;stroke-opacity:1"
         x="972.01514"
         y="194.14804"
         id="tspan1222">¡ZANAHORIA!</tspan></text>
    <text
       xml:space="preserve"
       style="font-style:normal;font-variant:normal;font-weight:normal;font-stretch:normal;line-height:0%;font-family:Lavi;-inkscape-font-specification:Lavi;text-align:center;letter-spacing:0px;word-spacing:0px;text-anchor:middle;fill:#000000;fill-opacity:1;stroke:none"
       x="1071.491"
       y="297.9256"
       id="text4246-7-6-1-7-6"><tspan
         sodipodi:role="line"
         style="font-size:45px;line-height:1.25"
         x="1071.491"
         y="297.9256"
         id="tspan1111">Vuelvo en unos </tspan><tspan
         sodipodi:role="line"
         style="font-size:45px;line-height:1.25"
         x="1071.491"
         y="354.1756"
         id="tspan3453">minutos con Tomillo, </tspan><tspan
         sodipodi:role="line"
         style="font-size:45px;line-height:1.25"
         x="1071.491"
         y="410.4256"
         id="tspan852">Cayena y Comino.</tspan></text>
    <text
       xml:space="preserve"
       style="font-style:normal;font-variant:normal;font-weight:normal;font-stretch:normal;line-height:0%;font-family:Lavi;-inkscape-font-specification:Lavi;text-align:center;letter-spacing:0px;word-spacing:0px;text-anchor:middle;fill:#000000;fill-opacity:1;stroke:none"
       x="1268.3435"
       y="515.34467"
       id="text4246-7-6-1-7-6-3"><tspan
         sodipodi:role="line"
         style="font-size:45px;line-height:1.25"
         x="1268.3435"
         y="515.34467"
         id="tspan852-3">No toques</tspan><tspan
         sodipodi:role="line"
         style="font-size:45px;line-height:1.25"
         x="1268.3435"
         y="571.59467"
         id="tspan3467">el árbol hasta</tspan><tspan
         sodipodi:role="line"
         style="font-size:45px;line-height:1.25"
         x="1268.3435"
         y="627.84467"
         id="tspan3469">que vuelva,</tspan><tspan
         sodipodi:role="line"
         style="font-size:45px;line-height:1.25"
         x="1268.3435"
         y="684.09467"
         id="tspan894">¿entendido?</tspan></text>
    <text
       xml:space="preserve"
       style="font-style:normal;font-variant:normal;font-weight:normal;font-stretch:normal;line-height:0%;font-family:Lavi;-inkscape-font-specification:Lavi;text-align:center;letter-spacing:0px;word-spacing:0px;text-anchor:middle;fill:#000000;fill-opacity:1;stroke:none"
       x="473.20154"
       y="2303.4502"
       id="text4246-7-6-1-7-6-3-5"><tspan
         sodipodi:role="line"
         style="font-size:45px;line-height:1.25"
         x="473.20154"
         y="2303.4502"
         id="tspan976">OK, ¡vuelvo</tspan><tspan
         sodipodi:role="line"
         style="font-size:45px;line-height:1.25"
         x="481.11169"
         y="2359.7002"
         id="tspan980">enseguida! </tspan></text>
    <text
       xml:space="preserve"
       style="font-style:normal;font-variant:normal;font-weight:normal;font-stretch:normal;line-height:0%;font-family:Lavi;-inkscape-font-specification:Lavi;text-align:center;letter-spacing:0px;word-spacing:0px;text-anchor:middle;fill:#000000;fill-opacity:1;stroke:none"
       x="1829.7512"
       y="2621.8315"
       id="text4246-7-6-1-7-6-3-5-6"><tspan
         sodipodi:role="line"
         style="font-size:45px;line-height:1.25"
         x="1829.7512"
         y="2621.8315"
         id="tspan3483">¡Preparaos para </tspan><tspan
         sodipodi:role="line"
         style="font-size:45px;line-height:1.25"
         x="1829.7512"
         y="2678.0815"
         id="tspan3485">quedaros asombradas y </tspan><tspan
         sodipodi:role="line"
         style="font-size:45px;line-height:1.25"
         x="1829.7512"
         y="2734.3315"
         id="tspan773">boquiabiertas! Nunca habéis </tspan><tspan
         sodipodi:role="line"
         style="font-size:45px;line-height:1.25"
         x="1829.7512"
         y="2790.5815"
         id="tspan775">visto nada parecido.</tspan></text>
    <text
       xml:space="preserve"
       style="font-style:normal;font-variant:normal;font-weight:normal;font-stretch:normal;line-height:0%;font-family:Lavi;-inkscape-font-specification:Lavi;text-align:center;letter-spacing:0px;word-spacing:0px;text-anchor:middle;fill:#000000;fill-opacity:1;stroke:none"
       x="1813.9817"
       y="2825.6907"
       id="text4246-7-6-1-7-6-3-5-6-4"><tspan
         sodipodi:role="line"
         style="font-size:45px;line-height:1.25"
         x="1821.8918"
         y="2825.6907"
         id="tspan1456-4"> </tspan><tspan
         sodipodi:role="line"
         style="font-size:45px;line-height:1.25"
         x="1813.9817"
         y="2881.9407"
         id="tspan3517">Por favor, venid</tspan><tspan
         sodipodi:role="line"
         style="font-size:45px;line-height:1.25"
         x="1813.9817"
         y="2938.1907"
         id="tspan1458-4">conmigo arriba...</tspan><tspan
         sodipodi:role="line"
         style="font-size:45px;line-height:1.25"
         x="1821.8918"
         y="2994.4407"
         id="tspan1454-4"> </tspan></text>
    <text
       xml:space="preserve"
       style="font-style:normal;font-variant:normal;font-weight:normal;font-stretch:normal;line-height:0%;font-family:Lavi;-inkscape-font-specification:Lavi;text-align:center;letter-spacing:0px;word-spacing:0px;text-anchor:middle;fill:#653b1f;fill-opacity:1;stroke:none;stroke-width:0.328084;stroke-miterlimit:4;stroke-dasharray:none;stroke-opacity:1;filter:url(#filter1125-2)"
       x="1985.7361"
       y="1448.5387"
       id="text4246-3-7-9-5-1-6-2-1-2-9"
       transform="matrix(3.1180716,-0.69723004,-0.16135131,3.0155836,-3916.2401,-1479.3735)"
       inkscape:transform-center-x="-27.787838"
       inkscape:transform-center-y="38.482173"><tspan
         sodipodi:role="line"
         style="font-size:28.8758px;line-height:1.25;fill:#653b1f;fill-opacity:1;stroke:none;stroke-width:0.328084;stroke-miterlimit:4;stroke-dasharray:none;stroke-opacity:1"
         x="1985.7361"
         y="1448.5387"
         id="tspan1222-5-7-7">¡¡Shruf!!</tspan></text>
  </g>
</svg>
