<?xml version="1.0" encoding="UTF-8" standalone="no"?>
<!-- Created with Inkscape (http://www.inkscape.org/) -->

<svg
   id="svg2"
   version="1.1"
   inkscape:version="1.1.2 (0a00cf5339, 2022-02-04)"
   width="2481"
   height="3503"
   sodipodi:docname="E06P07.svg"
   xmlns:inkscape="http://www.inkscape.org/namespaces/inkscape"
   xmlns:sodipodi="http://sodipodi.sourceforge.net/DTD/sodipodi-0.dtd"
   xmlns:xlink="http://www.w3.org/1999/xlink"
   xmlns="http://www.w3.org/2000/svg"
   xmlns:svg="http://www.w3.org/2000/svg"
   xmlns:rdf="http://www.w3.org/1999/02/22-rdf-syntax-ns#"
   xmlns:cc="http://creativecommons.org/ns#"
   xmlns:dc="http://purl.org/dc/elements/1.1/">
  <sodipodi:namedview
     pagecolor="#ffffff"
     bordercolor="#666666"
     inkscape:pageopacity="0"
     inkscape:pageshadow="2"
     inkscape:window-width="1920"
     inkscape:window-height="1036"
     id="namedview70"
     showgrid="false"
     inkscape:zoom="0.56249125"
     inkscape:cx="2102.2549"
     inkscape:cy="3100.4927"
     inkscape:current-layer="layer3"
     inkscape:window-x="0"
     inkscape:window-y="44"
     inkscape:window-maximized="1"
     borderopacity="1"
     inkscape:pagecheckerboard="1" />
  <metadata
     id="metadata8">
    <rdf:RDF>
      <cc:Work
         rdf:about="">
        <dc:format>image/svg+xml</dc:format>
        <dc:type
           rdf:resource="http://purl.org/dc/dcmitype/StillImage" />
      </cc:Work>
    </rdf:RDF>
  </metadata>
  <defs
     id="defs6">
    <filter
       color-interpolation-filters="sRGB"
       id="filter4375-4-1-1-15-1-3"
       inkscape:label="deevad outline effect"
       x="-0.00025983039"
       y="-0.0035461113"
       width="1.0005197"
       height="1.0070922">
      <feFlood
         id="feFlood4377-7-9-0-4-4-4"
         flood-opacity="1"
         flood-color="rgb(0,0,0)"
         result="flood" />
      <feComposite
         id="feComposite4379-3-8-8-6-0-7"
         in2="SourceGraphic"
         in="flood"
         operator="in"
         result="composite1" />
      <feMorphology
         id="feMorphology4393-1-0-49-8-2-7"
         operator="dilate"
         radius="0.69999999999999996"
         result="result3" />
      <feComposite
         id="feComposite4385-9-5-7-2-1-2"
         in2="result3"
         in="SourceGraphic"
         operator="over"
         result="composite2" />
    </filter>
    <filter
       color-interpolation-filters="sRGB"
       id="filter6713"
       inkscape:label="deevad outline effect">
      <feFlood
         id="feFlood6715"
         flood-opacity="1"
         flood-color="rgb(0,0,0)"
         result="flood" />
      <feComposite
         id="feComposite6717"
         in2="SourceGraphic"
         in="flood"
         operator="in"
         result="composite1" />
      <feMorphology
         id="feMorphology6719"
         operator="dilate"
         radius="0.321"
         result="result3" />
      <feComposite
         id="feComposite6721"
         in2="result3"
         in="SourceGraphic"
         operator="over"
         result="composite2" />
    </filter>
    <filter
       color-interpolation-filters="sRGB"
       id="filter6723"
       inkscape:label="deevad outline effect">
      <feFlood
         id="feFlood6725"
         flood-opacity="1"
         flood-color="rgb(0,0,0)"
         result="flood" />
      <feComposite
         id="feComposite6727"
         in2="SourceGraphic"
         in="flood"
         operator="in"
         result="composite1" />
      <feMorphology
         id="feMorphology6729"
         operator="dilate"
         radius="0.321"
         result="result3" />
      <feComposite
         id="feComposite6731"
         in2="result3"
         in="SourceGraphic"
         operator="over"
         result="composite2" />
    </filter>
    <filter
       color-interpolation-filters="sRGB"
       id="filter6733"
       inkscape:label="deevad outline effect">
      <feFlood
         id="feFlood6735"
         flood-opacity="1"
         flood-color="rgb(0,0,0)"
         result="flood" />
      <feComposite
         id="feComposite6737"
         in2="SourceGraphic"
         in="flood"
         operator="in"
         result="composite1" />
      <feMorphology
         id="feMorphology6739"
         operator="dilate"
         radius="0.321"
         result="result3" />
      <feComposite
         id="feComposite6741"
         in2="result3"
         in="SourceGraphic"
         operator="over"
         result="composite2" />
    </filter>
    <filter
       color-interpolation-filters="sRGB"
       id="filter6743"
       inkscape:label="deevad outline effect">
      <feFlood
         id="feFlood6745"
         flood-opacity="1"
         flood-color="rgb(0,0,0)"
         result="flood" />
      <feComposite
         id="feComposite6747"
         in2="SourceGraphic"
         in="flood"
         operator="in"
         result="composite1" />
      <feMorphology
         id="feMorphology6749"
         operator="dilate"
         radius="0.321"
         result="result3" />
      <feComposite
         id="feComposite6751"
         in2="result3"
         in="SourceGraphic"
         operator="over"
         result="composite2" />
    </filter>
    <filter
       color-interpolation-filters="sRGB"
       id="filter6753"
       inkscape:label="deevad outline effect">
      <feFlood
         id="feFlood6755"
         flood-opacity="1"
         flood-color="rgb(0,0,0)"
         result="flood" />
      <feComposite
         id="feComposite6757"
         in2="SourceGraphic"
         in="flood"
         operator="in"
         result="composite1" />
      <feMorphology
         id="feMorphology6759"
         operator="dilate"
         radius="0.321"
         result="result3" />
      <feComposite
         id="feComposite6761"
         in2="result3"
         in="SourceGraphic"
         operator="over"
         result="composite2" />
    </filter>
    <filter
       color-interpolation-filters="sRGB"
       id="filter6763"
       inkscape:label="deevad outline effect">
      <feFlood
         id="feFlood6765"
         flood-opacity="1"
         flood-color="rgb(0,0,0)"
         result="flood" />
      <feComposite
         id="feComposite6767"
         in2="SourceGraphic"
         in="flood"
         operator="in"
         result="composite1" />
      <feMorphology
         id="feMorphology6769"
         operator="dilate"
         radius="0.321"
         result="result3" />
      <feComposite
         id="feComposite6771"
         in2="result3"
         in="SourceGraphic"
         operator="over"
         result="composite2" />
    </filter>
    <filter
       color-interpolation-filters="sRGB"
       id="filter6773"
       inkscape:label="deevad outline effect">
      <feFlood
         id="feFlood6775"
         flood-opacity="1"
         flood-color="rgb(0,0,0)"
         result="flood" />
      <feComposite
         id="feComposite6777"
         in2="SourceGraphic"
         in="flood"
         operator="in"
         result="composite1" />
      <feMorphology
         id="feMorphology6779"
         operator="dilate"
         radius="0.321"
         result="result3" />
      <feComposite
         id="feComposite6781"
         in2="result3"
         in="SourceGraphic"
         operator="over"
         result="composite2" />
    </filter>
    <filter
       color-interpolation-filters="sRGB"
       id="filter4375-4-1-1-1-1"
       inkscape:label="deevad outline effect">
      <feFlood
         id="feFlood4377-7-9-0-8-5"
         flood-opacity="1"
         flood-color="rgb(0,0,0)"
         result="flood" />
      <feComposite
         id="feComposite4379-3-8-8-2-7"
         in2="SourceGraphic"
         in="flood"
         operator="in"
         result="composite1" />
      <feMorphology
         id="feMorphology4393-1-0-49-8-7"
         operator="dilate"
         radius="4"
         result="result3" />
      <feComposite
         id="feComposite4385-9-5-7-0-3"
         in2="result3"
         in="SourceGraphic"
         operator="over"
         result="composite2" />
    </filter>
    <filter
       color-interpolation-filters="sRGB"
       id="filter4375-4-1-1-1-1-3"
       inkscape:label="deevad outline effect">
      <feFlood
         id="feFlood4377-7-9-0-8-5-5"
         flood-opacity="1"
         flood-color="rgb(0,0,0)"
         result="flood" />
      <feComposite
         id="feComposite4379-3-8-8-2-7-8"
         in2="SourceGraphic"
         in="flood"
         operator="in"
         result="composite1" />
      <feMorphology
         id="feMorphology4393-1-0-49-8-7-1"
         operator="dilate"
         radius="4"
         result="result3" />
      <feComposite
         id="feComposite4385-9-5-7-0-3-6"
         in2="result3"
         in="SourceGraphic"
         operator="over"
         result="composite2" />
    </filter>
    <filter
       color-interpolation-filters="sRGB"
       id="filter4375-4-1-1-15-1-3-3"
       inkscape:label="deevad outline effect"
       x="-0.0009589024"
       y="-0.0030063877"
       width="1.0019178"
       height="1.0060128">
      <feFlood
         id="feFlood4377-7-9-0-4-4-4-9"
         flood-opacity="1"
         flood-color="rgb(0,0,0)"
         result="flood" />
      <feComposite
         id="feComposite4379-3-8-8-6-0-7-6"
         in2="SourceGraphic"
         in="flood"
         operator="in"
         result="composite1" />
      <feMorphology
         id="feMorphology4393-1-0-49-8-2-7-6"
         operator="dilate"
         radius="0.321"
         result="result3" />
      <feComposite
         id="feComposite4385-9-5-7-2-1-2-4"
         in2="result3"
         in="SourceGraphic"
         operator="over"
         result="composite2" />
    </filter>
    <filter
       color-interpolation-filters="sRGB"
       id="filter6892"
       inkscape:label="deevad outline effect">
      <feFlood
         id="feFlood6894"
         flood-opacity="1"
         flood-color="rgb(0,0,0)"
         result="flood" />
      <feComposite
         id="feComposite6896"
         in2="SourceGraphic"
         in="flood"
         operator="in"
         result="composite1" />
      <feMorphology
         id="feMorphology6898"
         operator="dilate"
         radius="0.321"
         result="result3" />
      <feComposite
         id="feComposite6900"
         in2="result3"
         in="SourceGraphic"
         operator="over"
         result="composite2" />
    </filter>
    <filter
       color-interpolation-filters="sRGB"
       id="filter6902"
       inkscape:label="deevad outline effect">
      <feFlood
         id="feFlood6904"
         flood-opacity="1"
         flood-color="rgb(0,0,0)"
         result="flood" />
      <feComposite
         id="feComposite6906"
         in2="SourceGraphic"
         in="flood"
         operator="in"
         result="composite1" />
      <feMorphology
         id="feMorphology6908"
         operator="dilate"
         radius="0.321"
         result="result3" />
      <feComposite
         id="feComposite6910"
         in2="result3"
         in="SourceGraphic"
         operator="over"
         result="composite2" />
    </filter>
    <filter
       color-interpolation-filters="sRGB"
       id="filter6912"
       inkscape:label="deevad outline effect">
      <feFlood
         id="feFlood6914"
         flood-opacity="1"
         flood-color="rgb(0,0,0)"
         result="flood" />
      <feComposite
         id="feComposite6916"
         in2="SourceGraphic"
         in="flood"
         operator="in"
         result="composite1" />
      <feMorphology
         id="feMorphology6918"
         operator="dilate"
         radius="0.321"
         result="result3" />
      <feComposite
         id="feComposite6920"
         in2="result3"
         in="SourceGraphic"
         operator="over"
         result="composite2" />
    </filter>
    <filter
       color-interpolation-filters="sRGB"
       id="filter6922"
       inkscape:label="deevad outline effect">
      <feFlood
         id="feFlood6924"
         flood-opacity="1"
         flood-color="rgb(0,0,0)"
         result="flood" />
      <feComposite
         id="feComposite6926"
         in2="SourceGraphic"
         in="flood"
         operator="in"
         result="composite1" />
      <feMorphology
         id="feMorphology6928"
         operator="dilate"
         radius="0.321"
         result="result3" />
      <feComposite
         id="feComposite6930"
         in2="result3"
         in="SourceGraphic"
         operator="over"
         result="composite2" />
    </filter>
    <filter
       color-interpolation-filters="sRGB"
       id="filter6932"
       inkscape:label="deevad outline effect">
      <feFlood
         id="feFlood6934"
         flood-opacity="1"
         flood-color="rgb(0,0,0)"
         result="flood" />
      <feComposite
         id="feComposite6936"
         in2="SourceGraphic"
         in="flood"
         operator="in"
         result="composite1" />
      <feMorphology
         id="feMorphology6938"
         operator="dilate"
         radius="0.321"
         result="result3" />
      <feComposite
         id="feComposite6940"
         in2="result3"
         in="SourceGraphic"
         operator="over"
         result="composite2" />
    </filter>
    <filter
       color-interpolation-filters="sRGB"
       id="filter6942"
       inkscape:label="deevad outline effect">
      <feFlood
         id="feFlood6944"
         flood-opacity="1"
         flood-color="rgb(0,0,0)"
         result="flood" />
      <feComposite
         id="feComposite6946"
         in2="SourceGraphic"
         in="flood"
         operator="in"
         result="composite1" />
      <feMorphology
         id="feMorphology6948"
         operator="dilate"
         radius="0.321"
         result="result3" />
      <feComposite
         id="feComposite6950"
         in2="result3"
         in="SourceGraphic"
         operator="over"
         result="composite2" />
    </filter>
    <filter
       color-interpolation-filters="sRGB"
       id="filter6952"
       inkscape:label="deevad outline effect">
      <feFlood
         id="feFlood6954"
         flood-opacity="1"
         flood-color="rgb(0,0,0)"
         result="flood" />
      <feComposite
         id="feComposite6956"
         in2="SourceGraphic"
         in="flood"
         operator="in"
         result="composite1" />
      <feMorphology
         id="feMorphology6958"
         operator="dilate"
         radius="0.321"
         result="result3" />
      <feComposite
         id="feComposite6960"
         in2="result3"
         in="SourceGraphic"
         operator="over"
         result="composite2" />
    </filter>
  </defs>
  <sodipodi:namedview
     pagecolor="#ffffff"
     bordercolor="#666666"
     borderopacity="1"
     objecttolerance="10"
     gridtolerance="10"
     guidetolerance="10"
     inkscape:pageopacity="0"
     inkscape:pageshadow="2"
     inkscape:window-width="519"
     inkscape:window-height="420"
     id="namedview4"
     showgrid="false"
     inkscape:zoom="0.46000002"
     inkscape:cx="902.19673"
     inkscape:cy="409.28024"
     inkscape:window-x="0"
     inkscape:window-y="27"
     inkscape:window-maximized="0"
     inkscape:current-layer="layer3" />
  <g
     inkscape:groupmode="layer"
     id="layer2"
     inkscape:label="artwork"
     sodipodi:insensitive="true">
    <image
       xlink:href="../gfx_Pepper-and-Carrot_by-David-Revoy_E06P07.png"
       width="2481"
       height="3503"
       id="image10"
       x="0"
       y="0" />
  </g>
  <g
     inkscape:groupmode="layer"
     id="layer3"
     inkscape:label="speechbubbles">
    <path
       style="fill:#ffffff;fill-opacity:1;stroke:none;stroke-width:1"
       d="m 1763.2946,3290.818 c 33.8752,7.5046 46.904,14.473 40.8237,18.7613 13.8975,2.1443 19.1092,57.8924 6.0803,68.0772 -0.8685,1.0723 -6.9488,4.2885 -4.3429,4.8244 2.6056,0.5362 18.2403,-1.0719 20.8461,1.0721 2.6058,2.1444 -23.452,32.6986 -19.9778,33.7708 3.4746,1.072 83.3851,-19.2976 94.6767,-14.4732 11.2917,4.8243 5.2118,17.1532 8.6861,17.6895 3.474,0.536 35.6123,-2.6803 39.9553,-2.1443 4.3428,0.536 12.1602,16.6172 16.503,17.1533 4.3431,0.5361 24.3208,-6.9684 27.795,-6.4325 3.4745,0.5362 1.7372,13.937 6.0802,14.4731 4.3429,0.5361 23.4521,-11.2567 26.0579,-10.7208 2.6056,0.5361 12.1603,27.3382 16.5033,28.9461 4.343,1.6084 32.1378,-29.482 34.7437,-30.0182 2.6058,-0.5361 19.1088,36.4508 22.5834,36.9869 3.4744,0.536 20.8463,-25.194 23.4521,-24.6579 2.6058,0.5359 19.1089,15.5454 22.5832,16.6172 3.4745,1.072 26.0579,-33.2346 29.5321,-33.2346 3.4746,0 33.0067,14.4731 35.6125,17.1533 2.6058,2.6802 5.2115,-13.9369 8.6858,-13.9369 3.4744,0 43.4297,9.6487 44.2984,9.1128 0.8685,-0.5363 -6.0802,-10.721 -3.4743,-10.721 2.6056,0 43.4295,13.4011 45.1668,10.721 1.7372,-2.6803 88.5965,13.4009 94.6766,11.2568 6.0802,-2.1443 -39.0867,-43.9554 -34.7439,-47.1716 4.3428,-3.2164 19.9778,0.5359 20.8463,-1.0722 0.8687,-1.6081 -9.5545,-8.5767 -6.949,-10.7208 2.6061,-2.1443 32.1383,-10.7208 34.7439,-13.401 2.6059,-2.6801 -13.0289,-9.6489 -9.5546,-11.2571 3.4745,-1.608 54.7218,-11.7928 55.5903,-14.4729 0.8685,-2.6803 -26.0578,-15.545 -22.5837,-19.2974 3.4746,-3.7523 13.0291,-5.3604 12.1604,-8.0407 -0.8687,-2.6802 -17.3718,-5.8965 -16.5034,-8.5767 0.8689,-2.6803 9.5547,-16.0812 12.1603,-18.2254 2.606,-2.1441 -18.2403,-1.072 -18.2403,-3.2163 0,-2.144 76.4364,-59.5006 74.699,-75.5818 -26.9263,10.1849 -118.9972,28.4102 -147.6607,24.122 -28.6637,-4.2885 -17.3718,-31.0904 -21.7149,-32.6986 -4.3428,-1.6083 -36.4811,9.1127 -40.824,5.3604 -4.343,-3.7522 -6.0799,-10.7209 -9.5543,-10.7209 -3.4743,0 -23.4524,15.0091 -27.795,14.4732 -4.343,-0.5361 -45.1668,-24.1217 -51.2471,-24.6579 -6.0801,-0.536 -29.5321,9.1128 -34.7436,9.6487 -5.2118,0.536 -9.5547,-12.8649 -13.8976,-11.7928 -4.3432,1.072 -31.1728,15.6665 -35.2832,14.0549 -23.0403,-10.8358 -30.3934,-14.6979 -48.3277,-25.2856 0.9734,8.6888 2.9052,15.2073 3.899,23.0556 0,0 -28.915,-13.233 -34.1265,-13.233 -5.2115,0 -10.3702,26.6021 -14.7133,27.674 -4.343,1.072 -70.0681,-25.0232 -67.4621,-28.2395 2.6058,-3.2161 -7.9246,23.8319 -14.0046,25.44 -6.0802,1.608 -53.4719,-28.3569 -55.2092,-26.7489 -1.7371,1.6081 17.3257,36.5614 12.1141,37.0974 -5.2117,0.5361 -15.2818,6.3881 -15.2818,6.3881 l -2.0265,-0.5547 c 0,0 -76.6534,-42.5241 -80.9963,-45.7402 -4.3429,-3.2162 46.5421,51.6552 49.1477,55.9436 -15.6344,-4.2884 -61.6702,-13.4009 -65.1442,-16.0813 -3.4746,-2.6801 6.0798,9.6489 11.2916,13.4012 -6.9488,-1.6083 -13.029,-2.1443 -13.029,-2.1443 l 19.9778,12.8652 -6.0803,1.0721 c 0,0 13.0288,5.8963 13.0288,8.5765 0,2.6802 -33.875,5.8965 -33.875,5.8965 0,0 13.8976,4.8243 10.4232,7.5045 -3.4745,2.6801 -12.1605,4.2883 -12.1605,4.2883 l -1.737,6.9687 z"
       id="path5888"
       inkscape:connector-curvature="0"
       sodipodi:nodetypes="ccccccccccccccscccscscscccccccccsccscscssccsccccsccccsccsccccccsccccc" />
    <path
       style="color:#000000;display:inline;overflow:visible;visibility:visible;fill:#ffffff;fill-opacity:1;fill-rule:nonzero;stroke:none;stroke-width:1px;marker:none;enable-background:accumulate"
       d="m 1908.9856,2974.383 c 72.6262,-37.5124 130.5208,-73.4479 123.7791,-31.0404 73.6393,-48.9326 125.0053,-23.7285 177.6371,-2.7383 18.2401,-15.1576 25.4345,-40.4694 71.7012,-29.8618 -3.1527,-17.0938 15.276,-26.8334 52.9619,-30.0118 -46.0503,-14.6295 -52.7009,-25.7369 39.1009,-28.0432 -67.8354,-7.7019 -130.8803,-16.0842 -42.9932,-45.9022 -24.8578,-3.3523 -90.9984,22.2316 -43.6668,-66.8911 -49.3592,25.1966 -98.7699,36.9392 -143.2525,-30.2576 -22.9099,22.5868 -52.8952,36.4226 -96.7661,-1.719 -16.055,23.0709 -77.9723,19.0733 -99.5536,11.9617 39.8473,31.4446 34.6973,48.0616 -27.7924,44.6285 93.4673,58.782 10.1588,43.172 -9.2184,53.8779 77.9689,24.7184 37.0279,42.0009 18.0703,61.3595 93.5832,9.8517 33.3922,43.612 -20.0075,94.6378 z"
       id="path3549-3"
       inkscape:connector-curvature="0"
       sodipodi:nodetypes="ccccccccccccccc" />
    <path
       style="font-size:medium;font-style:normal;font-variant:normal;font-weight:normal;font-stretch:normal;text-indent:0;text-align:start;text-decoration:none;line-height:normal;letter-spacing:normal;word-spacing:normal;text-transform:none;direction:ltr;block-progression:tb;writing-mode:lr-tb;text-anchor:start;baseline-shift:baseline;color:#000000;fill:#ffffff;fill-opacity:1;fill-rule:nonzero;stroke:none;stroke-width:31.89999962;marker:none;visibility:visible;display:inline;overflow:visible;enable-background:accumulate;font-family:Sans;-inkscape-font-specification:Sans"
       d="m 474.97795,3335.9786 24.83976,-5.1644 c -7.52154,-36.3794 -13.68595,-61.4776 -23.72462,-81.0826 -10.03874,-19.6049 -24.78048,-32.9577 -45.01348,-42.6286 -36.41666,-17.4064 -81.45734,-43.8096 -98.20961,-81.2528 -9.61408,-21.4887 -22.76449,-50.8123 -27.78998,-78.1209 -5.02531,-27.3087 -2.60105,-50.1072 16.31939,-65.7124 21.65864,-17.864 37.8212,-21.9983 54.99629,-30.0165 17.17499,-8.0183 34.11021,-21.3877 47.0396,-51.6191 l -23.31225,-9.9869 c -11.16692,26.1102 -20.11927,31.9206 -34.46319,38.6172 -14.34395,6.6965 -35.34811,12.7782 -60.39708,33.4383 -27.78728,22.9188 -30.96496,58.119 -25.12384,89.8598 5.84096,31.7408 20.02505,62.525 29.58101,83.8835 21.58785,48.2512 72.67834,75.742 110.42217,93.7827 16.84727,8.0525 25.51902,15.9996 33.37048,31.333 7.8515,15.3334 14.04893,38.7986 21.46535,74.6697 z"
       id="path3381"
       inkscape:connector-curvature="0" />
    <path
       style="color:#000000;fill:#ffffff;fill-opacity:1;fill-rule:nonzero;stroke:none;stroke-width:1px;marker:none;visibility:visible;display:inline;overflow:visible;enable-background:accumulate"
       d="m 640.14442,3225.1944 c 31.90532,21.8232 91.48732,27.3927 175.59217,-36.4776 -62.83193,74.6779 -138.38416,82.5141 -160.72924,83.0755 -22.34519,0.5613 -14.86293,-46.5979 -14.86293,-46.5979 z"
       id="path4008"
       inkscape:connector-curvature="0" />
    <path
       style="color:#000000;display:inline;overflow:visible;visibility:visible;fill:#ffffff;fill-opacity:1;fill-rule:nonzero;stroke:none;stroke-width:1px;marker:none;enable-background:accumulate"
       d="m 149.05585,2964.7316 c 8.77872,-49.837 82.41068,-84.5897 267.75199,-70.459 99.2788,7.5691 212.15308,13.7481 200.44814,86.7849 -11.70505,73.0368 -174.11183,67.0221 -207.76376,67.8813 -33.65194,0.8595 -207.94005,-11.2627 -237.02628,-36.9481 -18.20731,-16.0783 -24.8732,-31.7925 -23.41009,-47.2591 z"
       id="path4546"
       inkscape:connector-curvature="0"
       sodipodi:nodetypes="cssssc" />
    <flowRoot
       xml:space="preserve"
       id="flowRoot4133-6-9-4-8-5"
       style="color:#000000;font-style:normal;font-variant:normal;font-weight:normal;font-stretch:normal;line-height:0.01%;font-family:Arial;-inkscape-font-specification:Arial;letter-spacing:0.00204969px;word-spacing:0px;display:inline;overflow:visible;visibility:visible;fill:#ffffff;fill-opacity:1;fill-rule:nonzero;stroke:#ffffff;stroke-width:0.0836072;stroke-linecap:butt;stroke-linejoin:miter;stroke-miterlimit:4;stroke-dasharray:none;stroke-dashoffset:0;stroke-opacity:1;marker:none;filter:url(#filter4375-4-1-1-15-1-3);enable-background:accumulate"
       transform="matrix(7.6482385,-5.1449885,-0.24346263,15.163814,-8182.3884,-9737.3574)"><flowRegion
         id="flowRegion4135-2-9-3-5-2"
         style="stroke-width:0.866467"><rect
           id="rect4137-1-7-1-2-1"
           width="200.00224"
           height="39.051064"
           x="1125.3193"
           y="1078.5308"
           style="color:#000000;letter-spacing:0.00204969px;display:inline;overflow:visible;visibility:visible;fill:#ffffff;fill-opacity:1;fill-rule:nonzero;stroke:#ffffff;stroke-width:0.0836072;stroke-linecap:butt;stroke-linejoin:miter;stroke-miterlimit:4;stroke-dasharray:none;stroke-dashoffset:0;stroke-opacity:1;marker:none;filter:url(#filter4375-4-1-1-15-1-3);enable-background:accumulate" /></flowRegion><flowPara
         id="flowPara4139-2-8-6-8-6"
         style="color:#000000;font-style:normal;font-variant:normal;font-weight:normal;font-stretch:normal;font-size:17.8541px;line-height:125%;font-family:Lavi;-inkscape-font-specification:Lavi;letter-spacing:0.00204969px;word-spacing:0.00204969px;display:inline;overflow:visible;visibility:visible;fill:#ffffff;fill-opacity:1;fill-rule:nonzero;stroke:#ffffff;stroke-width:0.0836072;stroke-linecap:butt;stroke-linejoin:miter;stroke-miterlimit:4;stroke-dasharray:none;stroke-dashoffset:0;stroke-opacity:1;marker:none;enable-background:accumulate"><flowSpan
           style="font-size:15.7181px"
           id="flowSpan3145">CAW-CAW-C</flowSpan><flowSpan
           style="font-size:15.0061px"
           id="flowSpan3141">aa</flowSpan><flowSpan
           style="font-size:13.5821px"
           id="flowSpan3139">aa</flowSpan><flowSpan
           style="font-size:10.7341px"
           id="flowSpan3137">aa</flowSpan><flowSpan
           style="font-size:9.31012px"
           id="flowSpan3135">aa</flowSpan><flowSpan
           style="font-size:7.88612px"
           id="flowSpan3133">w</flowSpan><flowSpan
           style="font-size:6.46213px"
           id="flowSpan3127">w</flowSpan><flowSpan
           style="font-size:5.03813px"
           id="flowSpan3125">ww</flowSpan></flowPara></flowRoot>
    <flowRoot
       xml:space="preserve"
       id="flowRoot4133-6-9-4-8-5-3"
       style="color:#000000;font-style:normal;font-variant:normal;font-weight:normal;font-stretch:normal;line-height:0.01%;font-family:Arial;-inkscape-font-specification:Arial;letter-spacing:0.00204969px;word-spacing:0px;display:inline;overflow:visible;visibility:visible;fill:#ffffff;fill-opacity:1;fill-rule:nonzero;stroke:#ffffff;stroke-width:0.0836072;stroke-linecap:butt;stroke-linejoin:miter;stroke-miterlimit:4;stroke-dasharray:none;stroke-dashoffset:0;stroke-opacity:1;marker:none;filter:url(#filter4375-4-1-1-15-1-3-3);enable-background:accumulate"
       transform="matrix(8.2641452,-1.3438843,-5.2137327,13.33714,-1953.353,-10705.818)"><flowRegion
         id="flowRegion4135-2-9-3-5-2-5"
         style="stroke-width:0.866467"><rect
           id="rect4137-1-7-1-2-1-3"
           width="99.622368"
           height="30.005394"
           x="1125.3193"
           y="1078.5308"
           style="color:#000000;letter-spacing:0.00204969px;display:inline;overflow:visible;visibility:visible;fill:#ffffff;fill-opacity:1;fill-rule:nonzero;stroke:#ffffff;stroke-width:0.0836072;stroke-linecap:butt;stroke-linejoin:miter;stroke-miterlimit:4;stroke-dasharray:none;stroke-dashoffset:0;stroke-opacity:1;marker:none;filter:url(#filter4375-4-1-1-15-1-3-3);enable-background:accumulate" /></flowRegion><flowPara
         id="flowPara4139-2-8-6-8-6-3"
         style="color:#000000;font-style:normal;font-variant:normal;font-weight:normal;font-stretch:normal;font-size:12px;line-height:125%;font-family:Lavi;-inkscape-font-specification:Lavi;letter-spacing:0.00204969px;word-spacing:0.00204969px;display:inline;overflow:visible;visibility:visible;fill:#ffffff;fill-opacity:1;fill-rule:nonzero;stroke:#ffffff;stroke-width:0.0836072;stroke-linecap:butt;stroke-linejoin:miter;stroke-miterlimit:4;stroke-dasharray:none;stroke-dashoffset:0;stroke-opacity:1;marker:none;filter:url(#filter4375-4-1-1-15-1-3-3);enable-background:accumulate"><flowSpan
           id="flowSpan4277-2"
           style="color:#000000;font-size:17.8541px;display:inline;overflow:visible;visibility:visible;fill:#ffffff;fill-opacity:1;fill-rule:nonzero;stroke:#ffffff;stroke-width:0.0836072;stroke-linecap:butt;stroke-linejoin:miter;stroke-miterlimit:4;stroke-dasharray:none;stroke-dashoffset:0;stroke-opacity:1;marker:none;filter:url(#filter4375-4-1-1-15-1-3-3);enable-background:accumulate">BAM!</flowSpan></flowPara></flowRoot>
    <path
       style="color:#000000;fill:#ffffff;fill-opacity:1;fill-rule:nonzero;stroke:none;stroke-width:1px;marker:none;visibility:visible;display:inline;overflow:visible;enable-background:accumulate"
       d="m 69.497434,2869.3681 c -6.82553,-70.4477 53.019506,-92.8941 178.782896,-92.3501 169.34697,0.7326 165.84117,43.7737 167.11329,85.2452 2.14923,70.0656 -86.80268,83.7178 -173.6869,80.7916 -103.60538,-3.4893 -163.207706,2.0204 -172.209286,-73.6867 z"
       id="path5026"
       inkscape:connector-curvature="0"
       sodipodi:nodetypes="csssc" />
    <flowRoot
       xml:space="preserve"
       id="flowRoot2987-4-9-3"
       style="font-style:normal;font-variant:normal;font-weight:normal;font-stretch:normal;line-height:0.01%;font-family:Lavi;-inkscape-font-specification:Lavi;text-align:center;letter-spacing:0px;word-spacing:0px;text-anchor:middle;fill:#000000;fill-opacity:1;stroke:none"
       transform="translate(-174.19924,2571.3262)"><flowRegion
         id="flowRegion2989-5-4-5"><rect
           id="rect2991-7-9-6"
           width="602.40173"
           height="310.73996"
           x="120.55251"
           y="265.53046"
           style="font-style:normal;font-variant:normal;font-weight:normal;font-stretch:normal;font-family:Lavi;-inkscape-font-specification:Lavi;text-align:center;text-anchor:middle" /></flowRegion><flowPara
         style="font-size:48px;line-height:1.25;text-align:center;text-anchor:middle"
         id="flowPara3443">...¡Uy, genial! </flowPara></flowRoot>
    <path
       style="color:#000000;fill:#ffffff;fill-opacity:1;fill-rule:nonzero;stroke:none;stroke-width:1px;marker:none;visibility:visible;display:inline;overflow:visible;enable-background:accumulate"
       d="m 51.900363,3279.0459 c 12.052725,-107.5371 113.145547,-182.526 367.609427,-152.0352 136.30457,16.3326 291.27504,29.6654 275.20476,187.2629 -16.07043,157.5971 -239.04641,144.6186 -285.24872,146.4726 -46.20235,1.8546 -285.49077,-24.3023 -325.424643,-79.7258 -24.997681,-34.6934 -34.149599,-68.601 -32.140824,-101.9745 z"
       id="path4546-6"
       inkscape:connector-curvature="0"
       sodipodi:nodetypes="cssssc" />
    <flowRoot
       xml:space="preserve"
       id="flowRoot3482"
       style="font-style:normal;font-variant:normal;font-weight:normal;font-stretch:normal;line-height:0.01%;font-family:Lavi;-inkscape-font-specification:Lavi;text-align:center;letter-spacing:0px;word-spacing:0px;text-anchor:middle;fill:#000000;fill-opacity:1;stroke:none"
       transform="translate(0.8007555,2856.3262)"><flowRegion
         id="flowRegion3484"><rect
           id="rect3486"
           width="514.90173"
           height="288.23993"
           x="120.55251"
           y="265.53046"
           style="font-style:normal;font-variant:normal;font-weight:normal;font-stretch:normal;font-family:Lavi;-inkscape-font-specification:Lavi;text-align:center;text-anchor:middle" /></flowRegion><flowPara
         id="flowPara3490"
         style="font-size:48px;line-height:1.25;text-align:center;text-anchor:middle"> </flowPara><flowPara
         style="font-size:48px;line-height:1.25;text-align:center;text-anchor:middle"
         id="flowPara3494">...Mi poción los </flowPara><flowPara
         style="font-size:48px;line-height:1.25;text-align:center;text-anchor:middle"
         id="flowPara11437">hará reír un poco porqué... </flowPara></flowRoot>
    <flowRoot
       transform="matrix(0.85222813,0,0,0.85222813,21.079885,2701.879)"
       style="font-style:normal;font-variant:normal;font-weight:normal;font-stretch:normal;line-height:0.01%;font-family:Lavi;-inkscape-font-specification:Lavi;text-align:center;letter-spacing:0px;word-spacing:0px;text-anchor:middle;fill:#000000;fill-opacity:1;stroke:none"
       id="flowRoot3447"
       xml:space="preserve"><flowRegion
         id="flowRegion3449"><rect
           style="font-style:normal;font-variant:normal;font-weight:normal;font-stretch:normal;font-family:Lavi;-inkscape-font-specification:Lavi;text-align:center;text-anchor:middle"
           y="265.53046"
           x="120.55251"
           height="310.73996"
           width="602.40173"
           id="rect3451" /></flowRegion><flowPara
         style="font-size:48px;line-height:1.25;text-align:center;text-anchor:middle"
         id="flowPara3455">entonces, ¿es mi turno ahora? </flowPara></flowRoot>
    <flowRoot
       transform="matrix(1.3182804,0,0,1.3182804,1780.191,2479.4254)"
       style="font-style:normal;font-variant:normal;font-weight:normal;font-stretch:normal;font-size:36.4111px;line-height:0.01%;font-family:Lavi;-inkscape-font-specification:Lavi;text-align:center;letter-spacing:0px;word-spacing:0px;text-anchor:middle;fill:#000000;fill-opacity:1;stroke:none;stroke-width:0.758564"
       id="flowRoot3447-0"
       xml:space="preserve"><flowRegion
         id="flowRegion3449-7"
         style="stroke-width:0.758564"><rect
           style="font-style:normal;font-variant:normal;font-weight:normal;font-stretch:normal;font-family:Lavi;-inkscape-font-specification:Lavi;text-align:center;text-anchor:middle;stroke-width:0.758564"
           y="265.53046"
           x="120.55251"
           height="65.739944"
           width="279.90173"
           id="rect3451-7" /></flowRegion><flowPara
         style="font-size:36.4111px;line-height:1.25;text-align:center;text-anchor:middle;stroke-width:0.758564"
         id="flowPara3455-8">¡Corre, tonta! </flowPara></flowRoot>
    <flowRoot
       transform="matrix(1.3242477,0,0,1.3242477,1640.8455,2902.1213)"
       style="font-style:normal;font-variant:normal;font-weight:normal;font-stretch:normal;font-size:36.247px;line-height:0.01%;font-family:Lavi;-inkscape-font-specification:Lavi;text-align:center;letter-spacing:0px;word-spacing:0px;text-anchor:middle;fill:#000000;fill-opacity:1;stroke:none;stroke-width:0.755146"
       id="flowRoot3447-0-3"
       xml:space="preserve"><flowRegion
         id="flowRegion3449-7-4"
         style="stroke-width:0.755146"><rect
           style="font-style:normal;font-variant:normal;font-weight:normal;font-stretch:normal;font-family:Lavi;-inkscape-font-specification:Lavi;text-align:center;text-anchor:middle;stroke-width:0.755146"
           y="265.53046"
           x="120.55251"
           height="178.23993"
           width="472.40173"
           id="rect3451-7-5" /></flowRegion><flowPara
         style="font-size:36.247px;line-height:1.25;text-align:center;text-anchor:middle;stroke-width:0.755146"
         id="flowPara987">¡La competición terminó!... ¡sálvate como puedas!</flowPara></flowRoot>
  </g>
  <g
     inkscape:groupmode="layer"
     id="layer1"
     inkscape:label="txt" />
</svg>
