<?xml version="1.0" encoding="UTF-8" standalone="no"?>
<svg
   id="svg2"
   version="1.1"
   inkscape:version="1.2 (1:1.2.1+202207142221+cd75a1ee6d)"
   width="2481"
   height="3503"
   sodipodi:docname="E37P06.svg"
   xmlns:inkscape="http://www.inkscape.org/namespaces/inkscape"
   xmlns:sodipodi="http://sodipodi.sourceforge.net/DTD/sodipodi-0.dtd"
   xmlns:xlink="http://www.w3.org/1999/xlink"
   xmlns="http://www.w3.org/2000/svg"
   xmlns:svg="http://www.w3.org/2000/svg"
   xmlns:rdf="http://www.w3.org/1999/02/22-rdf-syntax-ns#"
   xmlns:cc="http://creativecommons.org/ns#"
   xmlns:dc="http://purl.org/dc/elements/1.1/">
  <metadata
     id="metadata8">
    <rdf:RDF>
      <cc:Work
         rdf:about="">
        <dc:format>image/svg+xml</dc:format>
        <dc:type
           rdf:resource="http://purl.org/dc/dcmitype/StillImage" />
        <dc:title />
      </cc:Work>
    </rdf:RDF>
  </metadata>
  <defs
     id="defs6" />
  <sodipodi:namedview
     pagecolor="#ffffff"
     bordercolor="#666666"
     borderopacity="1"
     objecttolerance="10"
     gridtolerance="10"
     guidetolerance="10"
     inkscape:pageopacity="0"
     inkscape:pageshadow="2"
     inkscape:window-width="1216"
     inkscape:window-height="704"
     id="namedview4"
     showgrid="false"
     inkscape:zoom="0.49469369"
     inkscape:cx="579.14626"
     inkscape:cy="97.02974"
     inkscape:window-x="0"
     inkscape:window-y="0"
     inkscape:window-maximized="0"
     inkscape:current-layer="layer1"
     inkscape:pagecheckerboard="0"
     inkscape:showpageshadow="0"
     inkscape:deskcolor="#d1d1d1"
     inkscape:document-rotation="0" />
  <g
     inkscape:groupmode="layer"
     id="layer2"
     inkscape:label="artwork"
     sodipodi:insensitive="true">
    <image
       xlink:href="../gfx_Pepper-and-Carrot_by-David-Revoy_E37P06.png"
       width="2481"
       height="3503"
       id="image10"
       x="0"
       y="0" />
  </g>
  <g
     inkscape:groupmode="layer"
     id="layer3"
     inkscape:label="speechbubbles">
    <path
       style="fill:#ffffff;fill-rule:evenodd;stroke:none;stroke-width:1.66364px;stroke-linecap:butt;stroke-linejoin:miter;stroke-opacity:1"
       d="m 120.60299,236.83696 c -1.73772,48.23179 43.44647,56.74226 67.77631,59.58024 24.33003,2.83625 125.12551,17.02268 163.35832,-5.67422 38.23281,-22.69691 48.66009,-60.99837 31.28143,-75.1848 -17.37845,-14.1847 -72.98995,-35.46348 -107.74706,-36.8816 -34.75692,-1.41812 -109.4848,7.09235 -133.81464,26.95301 -24.33004,19.85891 -20.85436,31.20737 -20.85436,31.20737 z"
       id="path1365"
       inkscape:connector-curvature="0" />
    <path
       style="fill:#ffffff;fill-rule:evenodd;stroke:none;stroke-width:1.18625px;stroke-linecap:butt;stroke-linejoin:miter;stroke-opacity:1"
       d="m 280.57128,286.65867 c 0,0 -8.31854,14.71485 -3.94644,34.32306 4.3721,19.60821 13.90542,39.57744 34.7933,54.14841 -41.89702,-20.22752 -65.69947,-37.55159 -66.67128,-74.5854 -0.97218,-37.03494 35.82442,-13.88607 35.82442,-13.88607 z"
       id="path1357"
       inkscape:connector-curvature="0" />
    <path
       style="fill:#ffffff;fill-rule:evenodd;stroke:none;stroke-width:0.785069px;stroke-linecap:butt;stroke-linejoin:miter;stroke-opacity:1"
       d="m 993.26171,186.69449 c -40.63103,1.19933 -81.73707,1.06407 -121.60006,7.17005 -17.92906,3.00488 -36.14035,7.33198 -49.90747,15.91505 -14.81571,9.96483 -22.77784,23.4875 -27.43469,36.97735 -8.87885,25.3834 -8.20968,52.74566 6.14029,77.18691 6.96681,11.80298 17.70936,23.15357 33.85608,30.17922 16.64296,7.03635 35.65567,10.91293 54.40237,14.57496 32.00518,5.31467 65.28633,4.83621 97.98087,3.84562 29.1145,-0.93525 58.7033,-3.13143 85.8474,-10.68482 15.013,-4.07172 29.8947,-9.24132 41.0504,-17.2826 11.9221,-9.16557 17.9964,-21.02196 21.4554,-32.78302 5.6692,-20.11772 3.7795,-40.79732 -0.5528,-60.94206 -1.9382,-10.05474 -3.4905,-20.58654 -11.3687,-29.48613 -7.8118,-8.41882 -20.8665,-13.75329 -33.7782,-18.10981 -29.6592,-10.12528 -62.5692,-16.84501 -96.09089,-16.56072 z"
       id="path1353"
       inkscape:connector-curvature="0"
       sodipodi:nodetypes="csssscscsscsc" />
    <path
       style="color:#000000;display:inline;overflow:visible;visibility:visible;fill:#ffffff;fill-opacity:1;fill-rule:nonzero;stroke:none;stroke-width:0.861851px;marker:none;enable-background:accumulate"
       d="m 953.70508,340.64258 c -7.89156,5.93196 -11.59104,16.28682 -10.73276,25.94957 0.42223,4.4898 2.07058,8.76171 2.48862,13.25746 1.01197,7.55227 1.05293,15.42171 -1.40821,22.71484 -1.20442,1.72882 -3.79048,1.05453 -5.01568,-0.29626 -10.07465,-6.60916 -20.06188,-13.83162 -31.69135,-17.45527 -3.79347,-0.92218 -7.49599,1.78526 -9.23632,5.00153 -1.4402,2.77657 -2.01316,5.92993 -2.32924,9.01606 -0.55273,6.5806 1.28554,13.1049 3.96106,19.05818 3.14714,8.05533 6.31422,16.4571 5.93458,25.25193 -0.84545,6.13098 -8.24835,10.22802 -13.88693,7.6472 -6.28697,-1.87961 -10.73205,-6.98767 -15.56562,-11.11151 -8.86497,-7.84865 -17.5953,-16.18188 -28.30526,-21.49467 -7.38254,-2.49937 -15.71863,0.24411 -21.23633,5.4668 -3.28278,2.9805 -6.07223,6.44058 -8.94141,9.80664 5.8814,-4.02407 11.87998,-8.29236 18.92579,-9.9668 5.92728,0.27474 10.83062,3.99283 15.65346,7.04174 9.22342,6.01627 16.39972,14.65414 22.20637,23.90936 3.76567,5.4691 7.51953,11.12941 12.67093,15.3981 3.2658,1.63675 6.90342,2.34098 10.46142,3.03947 5.33481,0.86184 10.93374,1.00049 16.1436,-0.58041 5.05084,-2.68449 7.63974,-8.48655 7.90731,-14.00736 1.31557,-10.50648 -1.34041,-20.96489 -4.32747,-30.9597 -1.34044,-4.77497 -2.55206,-9.60437 -3.14531,-14.53651 1.14339,-2.41987 4.68319,-2.64674 6.56055,-0.98047 7.59492,3.4498 13.00439,10.01681 19.08789,15.47852 8.59672,6.12612 21.82202,3.74033 27.89071,-4.84806 5.2193,-6.70376 6.94821,-15.35423 7.43486,-23.65494 0.82894,-10.02392 1.61175,-20.28559 5.5879,-29.65192 1.16442,-3.02572 2.64205,-5.92432 4.30918,-8.70251 -0.35144,-1.98682 -2.65366,-2.40619 -4.00685,-3.52799 -9.0205,-5.41384 -18.041,-10.82769 -27.06151,-16.24154 l -0.16601,-0.0293 z m 33.15039,19.79687 c -0.62158,0.68067 0.23902,-0.002 0,0 z"
       id="path5058-2"
       inkscape:connector-curvature="0"
       sodipodi:nodetypes="cscsssssscssssccscccc" />
    <path
       style="display:inline;fill:#ffffff;fill-rule:evenodd;stroke:none;stroke-width:0.961943px;stroke-linecap:butt;stroke-linejoin:miter;stroke-opacity:1"
       d="m 1173.0894,85.39196 c 43.1992,-0.445833 57.7564,0.331655 67.7607,1.303578 -1.8575,-2.376753 59.117,-1.363732 127.6424,0.05667 -20.3883,-1.740496 33.9525,-1.855474 101.5975,-0.882036 -7.6508,-0.839656 9.8258,56.670918 81.9013,21.912468 -21.7757,44.22292 -55.4149,73.38852 100.9874,20.26641 -45.7926,29.64036 -117.8811,67.09533 -17.9577,93.33965 -89.9826,11.56932 -112.9886,65.74702 -89.517,91.41849 -42.8691,-51.95608 -80.0459,-43.41087 -63.3388,39.47432 -43.1208,-39.35263 -78.4584,-65.93387 -86.6708,-21.15443 -17.0006,-25.17263 -57.2825,-26.38853 -77.3357,28.52045 -30.5426,-52.624 -63.9086,-65.03687 -97.5817,1.889 -0.4763,-42.9405 -17.0212,-73.60983 -48.8507,-51.5638 z"
       id="path1100"
       inkscape:connector-curvature="0"
       sodipodi:nodetypes="cccccccccccccc" />
    <path
       style="display:inline;fill:#ffffff;fill-rule:evenodd;stroke:none;stroke-width:1.08703px;stroke-linecap:butt;stroke-linejoin:miter;stroke-opacity:1"
       d="m 2394.0377,802.66902 c -48.1131,0.57491 -64.3261,-0.42767 -75.4685,-1.68097 2.0688,3.06484 -65.8416,1.75854 -142.1618,-0.0731 22.7073,2.24438 -110.1149,12.60536 -185.4546,11.35011 6.8125,-10.18279 -54.2439,-10.17152 -82.9478,-0.15757 82.428,-32.45072 111.4634,-98.5348 8.7162,-124.01874 73.0313,-4.85589 90.5662,-55.87849 -10.2078,-87.15318 92.6302,7.45346 88.3897,-15.36555 21.1644,-63.01035 78.8336,29.93175 144.3685,4.51295 98.5618,-58.17298 60.16,35.31915 151.3973,77.20862 114.6127,-24.06269 64.0037,74.78739 87.2462,84.93972 109.5806,14.13424 34.0168,67.85899 80.5382,59.05285 99.8805,15.25449 -3.5852,45.57622 11.9869,72.74359 47.437,44.31509 z"
       id="path1100-1"
       inkscape:connector-curvature="0"
       sodipodi:nodetypes="cccccccccccccc" />
    <path
       style="display:inline;fill:#ffffff;fill-rule:evenodd;stroke:none;stroke-width:1.21129px;stroke-linecap:butt;stroke-linejoin:miter;stroke-opacity:1"
       d="m 1418.7386,299.99278 c 32.8791,33.53516 56.7879,77.06946 103.0231,108.5417 l -39.4041,4.85315 c 33.1236,33.29864 86.1701,72.49084 86.1701,72.49084 0,0 -36.1582,-9.1905 -137.95,-87.08512 l 35.6661,-4.58596 c -28.5603,-35.78999 -82.3648,-65.49689 -123.704,-98.20746 z"
       id="path957"
       sodipodi:nodetypes="cccccccc" />
    <path
       style="display:inline;fill:#ffffff;fill-rule:evenodd;stroke:none;stroke-width:1.15094px;stroke-linecap:butt;stroke-linejoin:miter;stroke-opacity:1"
       d="m 2135.3316,677.94435 c -94.5252,-53.78313 -255.9511,-97.55437 -255.9511,-97.55437 0,0 30.8361,-7.14437 136.3682,19.77436 l 147.9944,28.48852 c 276.9342,105.20644 -79.315,87.53799 -28.4115,49.29149 z"
       id="path957-2"
       sodipodi:nodetypes="ccccc" />
    <path
       style="fill:#ffffff;fill-rule:evenodd;stroke:none;stroke-width:2.1084px;stroke-linecap:butt;stroke-linejoin:miter;stroke-opacity:1"
       d="m 1318.8858,982.24084 c 9.109,-54.8862 47.8224,-82.3284 100.1996,-88.21 52.3772,-5.8798 277.8263,-1.9587 307.4306,11.7614 29.6048,13.722 91.0906,45.0853 63.7637,109.77236 -27.3274,64.6872 -122.9726,54.8863 -170.7952,54.8863 -47.8223,0 -230.0036,5.8816 -259.6078,-19.6018 -29.6045,-25.4835 -38.7134,-5.8799 -40.9909,-68.60826 z"
       id="path1297"
       inkscape:connector-curvature="0" />
    <path
       style="fill:#ffffff;fill-rule:evenodd;stroke:none;stroke-width:0.989485px;stroke-linecap:butt;stroke-linejoin:miter;stroke-opacity:1"
       d="m 1763.2585,1028.0138 c -44.1943,0.4776 -88.2501,4.4721 -132.3793,6.3997 -17.8399,3.2608 -35.7582,8.5253 -50.9365,18.6533 -11.9275,11.8857 -18.883,27.5524 -25.3416,42.7933 -5.6704,17.9917 -1.6704,37.0434 2.1145,54.9799 3.101,13.4516 9.4876,26.4406 19.9623,35.7311 9.0462,9.0827 20.2489,17.1447 33.4249,18.3904 12.4726,1.7647 25.0699,2.5188 37.517,4.482 25.5943,2.9413 51.3275,7.2967 77.1671,5.3437 35.2311,-3.4753 70.2482,-9.046 104.9202,-16.1266 9.1978,-2.1013 18.5013,-6.6801 23.2064,-15.2103 5.0168,-7.7973 9.4563,-16.0168 13.1648,-24.4921 4.4491,-13.6935 2.3424,-28.2568 2.8118,-42.3754 -0.1919,-11.669 0.2171,-24.209 -6.2762,-34.4855 -6.335,-10.6355 -15.5998,-19.1342 -24.5975,-27.5061 -9.7617,-8.49 -21.5607,-14.2286 -33.7611,-18.3694 -13.0771,-4.9184 -26.9082,-8.5816 -40.9968,-8.208 z"
       id="path1299"
       inkscape:connector-curvature="0"
       sodipodi:nodetypes="ccssssssscscc" />
    <path
       style="display:inline;fill:#ffffff;fill-rule:evenodd;stroke:none;stroke-width:1.59214px;stroke-linecap:butt;stroke-linejoin:miter;stroke-opacity:1"
       d="m 1636.9829,1117.0506 c 43.2011,26.7075 83.0256,19.7454 82.284,-39.6058 20.611,64.6794 34.9139,79.4106 43.3966,48.0532 27.2877,27.8998 44.3312,20.7498 57.8624,1.5849 5.0435,25.2625 15.8592,15.4205 25.2196,14.4285 3.0829,5.7695 -7.5056,19.6011 35.2727,1.9574 2.7711,7.5991 6.5037,14.1808 31.5611,-1.8135 6.4918,30.7158 27.3197,-0.9446 48.6571,-34.8196 -13.2937,42.0008 -7.7814,48.1362 9.2054,32.388 -7.7664,17.2334 -12.4114,30.6118 17.0957,1.8067 -10.1018,31.9255 16.3999,10.5482 59.1771,-34.5313 -31.9604,38.1584 -60.8481,95.6848 12.5002,76.4166 -20.5,13.1987 -54.9884,54.7231 0.3757,72.1924 -10.3357,6.5569 -41.8903,-4.3023 -15.5681,25.3768 3.5266,3.4816 -8.2796,5.2255 14.2531,14.7569 -13.3013,-0.9713 -21.4586,0.9723 -9.2054,14.4759 -24.2799,-1.3764 -34.9946,30.0889 -17.1689,48.2378 -35.1609,-23.6177 -37.0957,-15.437 -38.1367,-6.3999 -44.0666,-32.0934 -46.6533,-22.4398 -52.6018,-16.1697 -21.4793,-0.3477 -42.9585,-4.825 -64.4377,29.0312 -5.6252,-21.5776 -16.9029,-38.3774 -64.4375,-24.5271 20.8714,-26.6838 -8.8209,-10.1324 -31.5611,0.474 12.453,-33.707 -19.151,-12.2271 -59.1773,19.8026 22.4145,-36.9846 -3.0432,-24.1001 -40.7666,1.5613 28.7505,-66.8582 2.1083,-78.1859 -64.4376,-58.0023 26.5535,-12.5955 43.6055,-61.9501 16.0331,-92.8682 31.082,9.7324 42.0062,-17.1386 6.8579,-34.501 46.5573,13.3182 31.0858,-32.0489 -2.253,-59.3058 z"
       id="path4508-2"
       inkscape:connector-curvature="0"
       sodipodi:nodetypes="cccccccccccccccccccccccccccc" />
    <path
       style="display:inline;fill:#ffffff;fill-rule:evenodd;stroke:none;stroke-width:1.51816px;stroke-linecap:butt;stroke-linejoin:miter;stroke-opacity:1"
       d="m 1694.1647,1228.435 c 54.7183,27.5102 105.1598,20.3389 104.2204,-40.7962 26.1061,66.6234 44.2221,81.7973 54.9662,49.4975 34.5625,28.7383 56.1495,21.3734 73.2883,1.6325 6.388,26.0218 20.087,15.884 31.9429,14.8622 3.9049,5.9429 -9.5064,20.1902 44.6763,2.0162 3.5098,7.8275 8.2377,14.607 39.9751,-1.868 8.2226,31.639 34.6031,-0.973 61.6289,-35.8661 -16.8378,43.2631 -9.856,49.5829 11.6595,33.3614 -9.8369,17.7514 -15.7201,31.5319 21.6534,1.861 -12.7949,32.885 20.7719,10.8652 74.9535,-35.5691 -40.4809,39.3052 -77.0698,98.5606 15.8327,78.7133 -25.9651,13.5954 -69.648,56.3678 0.4758,74.3621 -13.091,6.754 -53.0582,-4.4316 -19.7183,26.1396 4.4668,3.5862 -10.487,5.3825 18.0528,15.2004 -16.8474,-1.0005 -27.1794,1.0015 -11.6596,14.911 -30.7528,-1.4178 -44.3239,30.9932 -21.7459,49.6875 -44.5347,-24.3275 -46.9853,-15.9009 -48.3039,-6.5922 -55.8146,-33.058 -59.0909,-23.1142 -66.6252,-16.6557 -27.2056,-0.3581 -54.411,-4.97 -81.6166,29.9038 -7.1247,-22.2262 -21.4091,-39.5309 -81.6162,-25.2643 26.4355,-27.4858 -11.1725,-10.4369 -39.9752,0.4882 15.7729,-34.72 -24.2568,-12.5946 -74.9538,20.3978 28.3902,-38.0962 -3.8544,-24.8244 -51.6349,1.6082 36.4155,-68.8676 2.6704,-80.5358 -81.6163,-59.7455 33.6328,-12.9741 55.2306,-63.8121 20.3075,-95.6594 39.3683,10.0249 53.2048,-17.6537 8.6861,-35.5379 58.9695,13.7184 39.3732,-33.0122 -2.8535,-61.0883 z"
       id="path4508-2-3"
       inkscape:connector-curvature="0"
       sodipodi:nodetypes="cccccccccccccccccccccccccccc" />
    <path
       style="color:#000000;display:inline;overflow:visible;visibility:visible;fill:#ffffff;fill-opacity:1;fill-rule:nonzero;stroke:none;stroke-width:0.969926px;marker:none;enable-background:accumulate"
       d="m 1246.2312,1001.9329 c 22.2211,-34.14103 39.9857,-36.59103 52.6492,-39.61603 1.7643,3.396 6.1135,8.794 6.1135,8.794 1.3611,-5.44434 56.7367,-23.68633 64.0338,-12.39927 10.1747,-0.224 10.4078,17.98503 10.4078,17.98503 -1.59,-7.94978 -77.0372,12.13063 -85.791,20.76224 -4.4313,-9.518 -7.9052,-13.563 -7.9875,-17.682 -7.6447,-0.519 -31.1799,10.299 -39.4258,22.15603 z"
       id="path4456-5"
       inkscape:connector-curvature="0"
       sodipodi:nodetypes="cccccccc" />
    <path
       style="display:inline;fill:#ffffff;fill-rule:evenodd;stroke:none;stroke-width:0.82688px;stroke-linecap:butt;stroke-linejoin:miter;stroke-opacity:1"
       d="m 223.03839,2049.9977 c 44.40963,1.9562 108.39666,5.8779 57.9817,-1.6857 32.66257,1.8313 74.4298,5.4214 86.29409,2.504 11.54755,1.0885 18.41219,0.7184 12.62143,-1.5634 31.52989,2.8416 47.3862,1.7361 66.08925,1.3475 21.2963,2.0346 36.6284,1.6171 46.39705,-1.0877 -7.1015,5.6406 50.2879,1.5728 95.63051,-0.7951 -3.07518,1.2879 -30.40238,4.8783 16.18142,1.4514 -4.39723,1.8574 -3.94257,3.3811 100.135,-2.2207 -45.96467,5.0275 -24.28187,3.8873 -0.012,2.5113 -38.82049,5.4257 29.77888,9.4415 55.83106,8.9116 -77.90021,15.1943 -113.62842,42.3338 12.24418,88.4165 -49.05016,0.2837 -123.65447,-22.422 -98.99442,77.9462 -73.57472,-54.7599 -108.93439,-5.4464 -93.80044,40.6583 -43.95744,-62.393 -71.64944,-62.0197 -80.92629,9.4158 -25.33646,-60.767 -52.20379,-72.9244 -81.34293,-12.945 10.95777,-89.6863 -56.59211,-63.2022 -89.46096,-23.7851 25.74854,-41.6566 -20.31954,-48.5646 -72.57645,-9.3964 63.90502,-63.2583 18.53891,-58.536 -56.43499,-35.3941 89.38703,-46.0158 76.25662,-65.3801 -14.79036,-64.4883 111.07935,-6.0948 89.32452,-76.0106 38.93318,-79.8011 z"
       id="path740849"
       sodipodi:nodetypes="cccccccccccccccccccccc" />
    <path
       style="color:#000000;display:inline;overflow:visible;visibility:visible;fill:#ffffff;fill-opacity:1;fill-rule:nonzero;stroke:none;stroke-width:1px;marker:none;enable-background:accumulate"
       d="m 625.17576,2198.464 c 32.4119,11.8493 68.59806,43.3077 68.15392,52.5243 2.57923,-9.5085 6.6039,-17.4308 9.62749,-23.6657 13.04254,7.2714 43.8298,44.5047 61.80037,65.0819 -15.05247,-42.9 -51.67758,-88.1131 -70.34793,-102.0634 -0.43359,10.3146 -2.88747,18.5199 -5.87724,22.4034 -19.74556,7.9495 -28.17774,-60.2326 -25.11612,-64.3964 z"
       id="path5066-6"
       inkscape:connector-curvature="0"
       sodipodi:nodetypes="cccccccc" />
    <path
       style="color:#000000;display:inline;overflow:visible;visibility:visible;fill:#ffffff;fill-opacity:1;fill-rule:nonzero;stroke:none;stroke-width:1.71778px;marker:none;enable-background:accumulate"
       d="m 1876.7755,2268.1362 c 11.7561,76.7939 -80.6656,46.5565 -111.8121,31.507 63.0292,40.8155 94.4663,69.9248 -22.5914,68.0358 115.6097,58.0789 20.6766,60.3091 0.7095,78.5943 93.9627,11.6338 52.5463,93.5064 34.9161,96.2133 109.5495,0.03 72.5004,2.1424 76.1711,3.8204 9.7338,-0.789 55.2188,-3.1932 56.3665,-0.5235 73.9154,-2.5576 162.1416,-4.2154 166.5562,0.2415 30.4686,-2.2467 98.0865,0.9233 56.3667,-0.5235 74.3184,-3.4891 138.6314,-2.246 203.4819,-1.2719 17.7712,-1.0525 20.6837,-2.6659 76.0465,-2.2956 -7.2048,-1.0397 -12.7199,-66.3049 -7.9448,-76.2806 -6.2698,-14.3738 -7.3916,-29.3556 4.3679,-45.8568 -8.9105,-1.3044 -17.2147,-4.2642 -6.6052,-59.6777 -14.6023,2.9472 -104.9075,10.7526 -20.6806,-87.0778 -63.7337,45.3282 -187.9919,81.096 -170.8929,-22.8262 -35.6174,61.4705 -92.1787,88.3576 -111.5259,11.4433 -37.6563,69.8993 -84.0492,43.9845 -111.404,-4.9652 -21.7717,36.7737 -58.586,89.9323 -111.5255,11.4432 z"
       id="path3549-3-7-5"
       inkscape:connector-curvature="0"
       sodipodi:nodetypes="ccccccccccccccccccc" />
    <path
       style="display:inline;fill:#ffffff;fill-rule:evenodd;stroke:none;stroke-width:1.21419px;stroke-linecap:butt;stroke-linejoin:miter;stroke-opacity:1"
       d="m 1636.5226,2851.0879 c 21.774,-17.5421 20.3717,-56.2808 -6.3018,-68.6302 57.8746,-6.8043 13.0235,-36.2852 -16.4355,-70.6616 44.0346,20.9428 97.9946,59.1249 75.3907,-44.1382 31.2374,29.3266 56.7506,54.8915 76.3203,10.9689 9.9324,20.5299 30.3058,39.644 52.668,5.748 7.843,16.8092 16.7725,10.2693 26.8401,-20.7305 9.1423,38.2507 30.873,37.7324 53.5479,-3.0234 15.8866,41.8271 33.3992,76.5636 72.0236,19.2446 -5.9374,42.8166 14.0697,40.9106 45.8036,18.7903 -4.7817,18.5992 0.5687,24.7809 37.9905,9.9228 -9.9509,17.9945 -23.4241,28.8096 12.6562,23.41 -16.0334,16.3572 -33.626,52.5399 21.0054,43.5697 -42.861,27.6514 -18.4657,38.7879 -17.5436,54.8278 -30.6711,-9.6423 -44.8693,-5.4783 -14.1469,36.3353 -15.9289,-0.6819 -57.9551,-46.4501 -38.8072,13.4668 -24.3772,-33.6181 -51.7536,6.8157 -37.847,8.3712 l -57.9095,11.8883 -90.5652,-11.5149 -64.474,-0.1188 -54.1069,7.2007 c 8.8514,-26.0708 -9.8166,-17.0264 -24.373,-13.2285 -4.3063,-7.7029 6.753,-26.1596 -24.9519,-14.6865 1.7327,-18.9066 -13.662,-16.5481 -26.7838,-17.0118 z"
       id="path1058"
       sodipodi:nodetypes="cccccccccccccccccccccccc" />
    <path
       style="display:inline;fill:#ffffff;fill-rule:evenodd;stroke:none;stroke-width:1.71488px;stroke-linecap:butt;stroke-linejoin:miter;stroke-opacity:1"
       d="m 1718.6503,2964.7212 c 56.466,-0.5825 48.9848,25.1211 28.6499,56.1081 15.6433,-2.5793 52.2298,-31.8994 30.5356,13.1946 47.369,-17.7526 18.1863,15.8546 14.3371,32.3774 19.0943,-4.1122 30.7833,10.3273 7.56,66.3481 23.4509,-13.8076 59.2864,-63.8358 56.616,-1.2467 18.9848,-8.4161 43.9285,-39.1703 47.0942,11.7153 31.6837,-44.3356 60.6845,-49.506 66.9564,29.9854 23.3221,-52.0871 43.6308,-62.3489 59.5814,-12.1101 22.2099,-34.4734 53.8964,-44.3548 81.8167,19.1568 -8.151,-50.7943 4.2227,-82.9111 95.5628,-43.1701 -0.6625,-44.9451 18.3971,-65.7223 94.5671,-16.5146 -16.1887,-29.367 -55.3287,-75.659 35.7848,-25.8987 -47.9186,-62.0503 4.0731,-103.0987 43.9727,-146.6891 -48.5845,31.1181 -53.7307,19.8062 -35.4254,-14.4129 -77.2578,42.0069 -69.155,-17.995 -48.5975,-92.8809 -56.5723,41.2157 -48.4569,18.0913 -34.8942,-3.2564 -100.5483,44.738 -58.6128,-22.0051 -49.3283,-47.7773 -72.8371,116.8676 -51.4222,45.5195 -43.3818,0.8802 -41.3506,69.5897 -58.7814,70.1223 -50.8909,2.8224 -69.3445,84.2327 -38.6496,6.6372 -61.289,10.4049 l -283.7927,82.0931 -31.3237,32.4733 c 29.0765,10.0402 27.7461,37.6944 -24.1112,46.3972 z"
       id="path961"
       sodipodi:nodetypes="cccccccccccccccccccccccc" />
    <path
       style="display:inline;fill:#ffffff;fill-rule:evenodd;stroke:none;stroke-width:1px;stroke-linecap:butt;stroke-linejoin:miter;stroke-opacity:1"
       d="m 1487.7373,2719.1203 100.518,94.2706 6.505,-33.2379 70.6075,62.6158 11.5455,-27.2884 -90.5705,-67.709 -8.6863,37.6437 z"
       id="path4667-2"
       inkscape:connector-curvature="0" />
  </g>
  <g
     inkscape:groupmode="layer"
     id="layer1"
     inkscape:label="txt"
     style="display:inline">
    <text
       xml:space="preserve"
       style="font-style:normal;font-variant:normal;font-weight:normal;font-stretch:normal;font-size:45.3333px;line-height:125%;font-family:Lavi;-inkscape-font-specification:Lavi;text-align:center;letter-spacing:0px;word-spacing:0px;text-anchor:middle;fill:#000000;fill-opacity:1;stroke:none"
       x="252.18468"
       y="256.47888"
       id="text4246-70-2-2-2-7-4-9-9-6-1-2-3-9-2-7-9"><tspan
         sodipodi:role="line"
         style="font-size:45.3333px"
         x="252.18468"
         y="256.47888"
         id="tspan448">Do, kielis ?</tspan></text>
    <text
       xml:space="preserve"
       style="font-style:normal;font-variant:normal;font-weight:normal;font-stretch:normal;font-size:45.3333px;line-height:125%;font-family:Lavi;-inkscape-font-specification:Lavi;text-align:center;letter-spacing:0px;word-spacing:0px;text-anchor:middle;fill:#000000;fill-opacity:1;stroke:none"
       x="971.63519"
       y="262.15771"
       id="text4246-70-2-2-2-7-4-9-9-6-1-2-3-9-2-7-9-3"><tspan
         sodipodi:role="line"
         style="font-size:45.3333px"
         x="971.63519"
         y="262.15771"
         id="tspan1010">Ĉu tio ne</tspan><tspan
         sodipodi:role="line"
         style="font-size:45.3333px"
         x="971.63519"
         y="318.82434"
         id="tspan1018">plorigas vin ?</tspan></text>
    <text
       xml:space="preserve"
       style="font-style:normal;font-variant:normal;font-weight:normal;font-stretch:normal;font-size:62.7287px;line-height:125%;font-family:Lavi;-inkscape-font-specification:Lavi;text-align:center;letter-spacing:0px;word-spacing:0px;text-anchor:middle;fill:#000000;fill-opacity:1;stroke:none;stroke-width:0.807928"
       x="1378.577"
       y="232.73439"
       id="text4246-70-2-2-2-7-4-9-9-6-1-2-3-9-2-7-9-3-7"><tspan
         sodipodi:role="line"
         style="font-style:normal;font-variant:normal;font-weight:bold;font-stretch:normal;font-size:62.7287px;font-family:Lavi;-inkscape-font-specification:'Lavi Bold';stroke-width:0.807928"
         x="1378.577"
         y="232.73439"
         id="tspan1088">ĈU VERE ?!</tspan></text>
    <text
       xml:space="preserve"
       style="font-style:normal;font-variant:normal;font-weight:normal;font-stretch:normal;font-size:62.2419px;line-height:125%;font-family:Lavi;-inkscape-font-specification:Lavi;text-align:center;letter-spacing:0px;word-spacing:0px;text-anchor:middle;fill:#000000;fill-opacity:1;stroke:none;stroke-width:0.83075"
       x="2193.5474"
       y="615.70679"
       id="text4246-70-2-2-2-7-4-9-9-6-1-2-3-9-2-7-9-3-7-6"><tspan
         sodipodi:role="line"
         style="font-style:normal;font-variant:normal;font-weight:bold;font-stretch:normal;font-size:53.3333px;font-family:Lavi;-inkscape-font-specification:'Lavi Bold';stroke-width:0.83075"
         x="2193.5474"
         y="615.70679"
         id="tspan921">ĈU TIO ESTAS </tspan><tspan
         sodipodi:role="line"
         style="font-style:normal;font-variant:normal;font-weight:bold;font-stretch:normal;font-size:53.3333px;font-family:Lavi;-inkscape-font-specification:'Lavi Bold';stroke-width:0.83075"
         x="2193.5474"
         y="695.9942"
         id="tspan927">ĈIO, KION</tspan><tspan
         sodipodi:role="line"
         style="font-style:normal;font-variant:normal;font-weight:bold;font-stretch:normal;font-size:53.3333px;font-family:Lavi;-inkscape-font-specification:'Lavi Bold';stroke-width:0.83075"
         x="2193.5474"
         y="776.28162"
         id="tspan915">VI HAVAS ?!</tspan></text>
    <text
       xml:space="preserve"
       style="font-style:normal;font-variant:normal;font-weight:normal;font-stretch:normal;font-size:49.902px;line-height:125%;font-family:Lavi;-inkscape-font-specification:Lavi;text-align:center;letter-spacing:0px;word-spacing:0px;text-anchor:middle;fill:#000000;fill-opacity:1;stroke:none;stroke-width:1.10078"
       x="1559.5663"
       y="960.03656"
       id="text4246-70-2-2-2-7-4-9-9-6-1-2-3-9-2-7-9-3-2"><tspan
         sodipodi:role="line"
         style="font-style:normal;font-variant:normal;font-weight:normal;font-stretch:normal;font-size:49.902px;font-family:Lavi;-inkscape-font-specification:Lavi;stroke-width:1.10078"
         x="1559.5663"
         y="960.03656"
         id="tspan1229">Ili almenaŭ</tspan><tspan
         sodipodi:role="line"
         style="font-style:normal;font-variant:normal;font-weight:normal;font-stretch:normal;font-size:49.902px;font-family:Lavi;-inkscape-font-specification:Lavi;stroke-width:1.10078"
         x="1559.5663"
         y="1022.4141"
         id="tspan931">provis per poezio !</tspan></text>
    <text
       xml:space="preserve"
       style="font-style:normal;font-variant:normal;font-weight:normal;font-stretch:normal;font-size:49.902px;line-height:125%;font-family:Lavi;-inkscape-font-specification:Lavi;text-align:center;letter-spacing:0px;word-spacing:0px;text-anchor:middle;fill:#000000;fill-opacity:1;stroke:none;stroke-width:1.10078"
       x="1722.0437"
       y="1109.8541"
       id="text4246-70-2-2-2-7-4-9-9-6-1-2-3-9-2-7-9-3-2-3"><tspan
         sodipodi:role="line"
         style="font-style:normal;font-variant:normal;font-weight:normal;font-stretch:normal;font-size:49.902px;font-family:Lavi;-inkscape-font-specification:Lavi;stroke-width:1.10078"
         x="1722.0437"
         y="1109.8541"
         id="tspan1233">Skribante </tspan><tspan
         sodipodi:role="line"
         style="font-style:normal;font-variant:normal;font-weight:normal;font-stretch:normal;font-size:49.902px;font-family:Lavi;-inkscape-font-specification:Lavi;stroke-width:1.10078"
         x="1722.0437"
         y="1172.2316"
         id="tspan1237">tragediojn !</tspan></text>
    <text
       xml:space="preserve"
       style="font-style:normal;font-variant:normal;font-weight:normal;font-stretch:normal;font-size:83.9231px;line-height:125%;font-family:Lavi;-inkscape-font-specification:Lavi;text-align:center;letter-spacing:0px;word-spacing:0px;text-anchor:middle;fill:#000000;fill-opacity:1;stroke:none;stroke-width:1.5433"
       x="1838.3158"
       y="1287.4948"
       id="text4246-70-2-2-2-7-4-9-9-6-1-2-3-9-2-7-9-3-2-3-6-1"><tspan
         sodipodi:role="line"
         style="font-style:normal;font-variant:normal;font-weight:bold;font-stretch:normal;font-size:83.9231px;font-family:Lavi;-inkscape-font-specification:'Lavi Bold';stroke-width:1.5433"
         x="1838.3158"
         y="1287.4948"
         id="tspan37654-7">ARTON !</tspan></text>
    <text
       xml:space="preserve"
       style="font-style:normal;font-variant:normal;font-weight:normal;font-stretch:normal;font-size:85.7143px;line-height:125%;font-family:Lavi;-inkscape-font-specification:Lavi;text-align:center;letter-spacing:0px;word-spacing:0px;text-anchor:middle;fill:#000000;fill-opacity:1;stroke:none;stroke-width:1.57622"
       x="1949.1381"
       y="1395.4756"
       id="text4246-70-2-2-2-7-4-9-9-6-1-2-3-9-2-7-9-3-2-3-6-1-9"><tspan
         sodipodi:role="line"
         style="font-style:normal;font-variant:normal;font-weight:bold;font-stretch:normal;font-size:85.7143px;font-family:Lavi;-inkscape-font-specification:'Lavi Bold';stroke-width:1.57622"
         x="1949.1381"
         y="1395.4756"
         id="tspan37654-7-2">DRAMON !</tspan></text>
    <text
       xml:space="preserve"
       style="font-style:normal;font-variant:normal;font-weight:normal;font-stretch:normal;font-size:63.2403px;line-height:125%;font-family:Lavi;-inkscape-font-specification:Lavi;text-align:center;letter-spacing:0px;word-spacing:0px;text-anchor:middle;fill:#000000;fill-opacity:1;stroke:none;stroke-width:1.39501"
       x="479.78723"
       y="2154.6296"
       id="text4246-70-2-2-2-7-4-9-9-6-1-2-3-9-2-7-9-3-2-3-0-7"><tspan
         sodipodi:role="line"
         style="font-style:normal;font-variant:normal;font-weight:bold;font-stretch:normal;font-size:63.2403px;font-family:Lavi;-inkscape-font-specification:'Lavi Bold';stroke-width:1.39501"
         x="479.78723"
         y="2154.6296"
         id="tspan100735-9">SED VI ?!</tspan></text>
    <text
       xml:space="preserve"
       style="font-style:normal;font-variant:normal;font-weight:normal;font-stretch:normal;font-size:63.2403px;line-height:125%;font-family:Lavi;-inkscape-font-specification:Lavi;text-align:center;letter-spacing:0px;word-spacing:0px;text-anchor:middle;fill:#000000;fill-opacity:1;stroke:none;stroke-width:1.39501"
       x="2081.9277"
       y="2395.3088"
       id="text4246-70-2-2-2-7-4-9-9-6-1-2-3-9-2-7-9-3-2-3-0"><tspan
         sodipodi:role="line"
         style="font-style:normal;font-variant:normal;font-weight:bold;font-stretch:normal;font-size:63.2403px;font-family:Lavi;-inkscape-font-specification:'Lavi Bold';stroke-width:1.39501"
         x="2081.9277"
         y="2395.3088"
         id="tspan100735">VI VENAS </tspan><tspan
         sodipodi:role="line"
         style="font-style:normal;font-variant:normal;font-weight:bold;font-stretch:normal;font-size:63.2403px;font-family:Lavi;-inkscape-font-specification:'Lavi Bold';stroke-width:1.39501"
         x="2081.9277"
         y="2474.3591"
         id="tspan1360">NEPREPARITA !</tspan></text>
    <text
       xml:space="preserve"
       style="font-style:normal;font-variant:normal;font-weight:normal;font-stretch:normal;font-size:51.0809px;line-height:125%;font-family:Lavi;-inkscape-font-specification:Lavi;text-align:center;letter-spacing:0px;word-spacing:0px;text-anchor:middle;fill:#000000;fill-opacity:1;stroke:none;stroke-width:1.01681"
       x="1853.8928"
       y="2779.1357"
       id="text4246-70-2-2-2-7-4-9-9-6-1-2-3-9-2-7-9-3-2-3-0-2"><tspan
         sodipodi:role="line"
         style="font-style:normal;font-variant:normal;font-weight:bold;font-stretch:normal;font-size:51.0809px;font-family:Lavi;-inkscape-font-specification:'Lavi Bold';stroke-width:1.01681"
         x="1853.8928"
         y="2779.1357"
         id="tspan1430">JES, FARU </tspan><tspan
         sodipodi:role="line"
         style="font-style:normal;font-variant:normal;font-weight:bold;font-stretch:normal;font-size:51.0809px;font-family:Lavi;-inkscape-font-specification:'Lavi Bold';stroke-width:1.01681"
         x="1853.8928"
         y="2842.9868"
         id="tspan935">TION ; FOR !</tspan></text>
    <text
       xml:space="preserve"
       style="font-style:normal;font-variant:normal;font-weight:normal;font-stretch:normal;font-size:49.6865px;line-height:125%;font-family:Lavi;-inkscape-font-specification:Lavi;text-align:center;letter-spacing:0px;word-spacing:0px;text-anchor:middle;fill:#000000;fill-opacity:1;stroke:none;stroke-width:0.946337"
       x="2042.4871"
       y="2936.5046"
       id="text4246-70-2-2-2-7-4-9-9-6-1-2-3-9-2-7-9-3-2-3-0-2-9"><tspan
         sodipodi:role="line"
         style="font-style:normal;font-variant:normal;font-weight:bold;font-stretch:normal;font-size:49.6865px;font-family:Lavi;-inkscape-font-specification:'Lavi Bold';stroke-width:0.946337"
         x="2042.4871"
         y="2936.5046"
         id="tspan571">IRU HEJMEN KAJ</tspan><tspan
         sodipodi:role="line"
         style="font-style:normal;font-variant:normal;font-weight:bold;font-stretch:normal;font-size:49.6865px;font-family:Lavi;-inkscape-font-specification:'Lavi Bold';stroke-width:0.946337"
         x="2042.4871"
         y="2998.6128"
         id="tspan937">REVENU, KIAM VI</tspan><tspan
         sodipodi:role="line"
         style="font-style:normal;font-variant:normal;font-weight:bold;font-stretch:normal;font-size:49.6865px;font-family:Lavi;-inkscape-font-specification:'Lavi Bold';stroke-width:0.946337"
         x="2042.4871"
         y="3060.7209"
         id="tspan1505">PRETU !</tspan></text>
  </g>
</svg>
