<?xml version="1.0" encoding="UTF-8" standalone="no"?>
<!-- Created with Inkscape (http://www.inkscape.org/) -->

<svg
   xmlns:dc="http://purl.org/dc/elements/1.1/"
   xmlns:cc="http://creativecommons.org/ns#"
   xmlns:rdf="http://www.w3.org/1999/02/22-rdf-syntax-ns#"
   xmlns:svg="http://www.w3.org/2000/svg"
   xmlns="http://www.w3.org/2000/svg"
   xmlns:xlink="http://www.w3.org/1999/xlink"
   xmlns:sodipodi="http://sodipodi.sourceforge.net/DTD/sodipodi-0.dtd"
   xmlns:inkscape="http://www.inkscape.org/namespaces/inkscape"
   id="svg2"
   version="1.1"
   inkscape:version="0.92.2 2405546, 2018-03-11"
   width="2481"
   height="3503"
   sodipodi:docname="E27P06.svg">
  <metadata
     id="metadata8">
    <rdf:RDF>
      <cc:Work
         rdf:about="">
        <dc:format>image/svg+xml</dc:format>
        <dc:type
           rdf:resource="http://purl.org/dc/dcmitype/StillImage" />
        <dc:title />
      </cc:Work>
    </rdf:RDF>
  </metadata>
  <defs
     id="defs6">
    <filter
       style="color-interpolation-filters:sRGB"
       id="filter4375-4-1-1-1-9"
       inkscape:label="deevad outline effect">
      <feFlood
         id="feFlood4377-7-9-0-8-1"
         flood-opacity="1"
         flood-color="rgb(0,0,0)"
         result="flood" />
      <feComposite
         id="feComposite4379-3-8-8-2-77"
         in2="SourceGraphic"
         in="flood"
         operator="in"
         result="composite1" />
      <feMorphology
         id="feMorphology4393-1-0-49-8-9"
         operator="dilate"
         radius="4"
         result="result3" />
      <feComposite
         id="feComposite4385-9-5-7-0-8"
         in2="result3"
         in="SourceGraphic"
         operator="over"
         result="composite2" />
    </filter>
    <filter
       style="color-interpolation-filters:sRGB"
       id="filter4375-4-1-1-1-9-7-7-0-3"
       inkscape:label="deevad outline effect">
      <feFlood
         id="feFlood4377-7-9-0-8-1-4-8-3-2"
         flood-opacity="1"
         flood-color="rgb(0,0,0)"
         result="flood" />
      <feComposite
         id="feComposite4379-3-8-8-2-77-7-8-1-2"
         in2="SourceGraphic"
         in="flood"
         operator="in"
         result="composite1" />
      <feMorphology
         id="feMorphology4393-1-0-49-8-9-3-9-0-1"
         operator="dilate"
         radius="4"
         result="result3" />
      <feComposite
         id="feComposite4385-9-5-7-0-8-0-0-3-5"
         in2="result3"
         in="SourceGraphic"
         operator="over"
         result="composite2" />
    </filter>
    <filter
       style="color-interpolation-filters:sRGB"
       id="filter4375-4-1-1-1-9-7-7-0"
       inkscape:label="deevad outline effect">
      <feFlood
         id="feFlood4377-7-9-0-8-1-4-8-3"
         flood-opacity="1"
         flood-color="rgb(0,0,0)"
         result="flood" />
      <feComposite
         id="feComposite4379-3-8-8-2-77-7-8-1"
         in2="SourceGraphic"
         in="flood"
         operator="in"
         result="composite1" />
      <feMorphology
         id="feMorphology4393-1-0-49-8-9-3-9-0"
         operator="dilate"
         radius="4"
         result="result3" />
      <feComposite
         id="feComposite4385-9-5-7-0-8-0-0-3"
         in2="result3"
         in="SourceGraphic"
         operator="over"
         result="composite2" />
    </filter>
    <filter
       style="color-interpolation-filters:sRGB"
       id="filter4375-4-1-1-1-9-7-7"
       inkscape:label="deevad outline effect">
      <feFlood
         id="feFlood4377-7-9-0-8-1-4-8"
         flood-opacity="1"
         flood-color="rgb(0,0,0)"
         result="flood" />
      <feComposite
         id="feComposite4379-3-8-8-2-77-7-8"
         in2="SourceGraphic"
         in="flood"
         operator="in"
         result="composite1" />
      <feMorphology
         id="feMorphology4393-1-0-49-8-9-3-9"
         operator="dilate"
         radius="4"
         result="result3" />
      <feComposite
         id="feComposite4385-9-5-7-0-8-0-0"
         in2="result3"
         in="SourceGraphic"
         operator="over"
         result="composite2" />
    </filter>
    <filter
       style="color-interpolation-filters:sRGB"
       id="filter4375-4-1-1-1-9-7"
       inkscape:label="deevad outline effect">
      <feFlood
         id="feFlood4377-7-9-0-8-1-4"
         flood-opacity="1"
         flood-color="rgb(0,0,0)"
         result="flood" />
      <feComposite
         id="feComposite4379-3-8-8-2-77-7"
         in2="SourceGraphic"
         in="flood"
         operator="in"
         result="composite1" />
      <feMorphology
         id="feMorphology4393-1-0-49-8-9-3"
         operator="dilate"
         radius="4"
         result="result3" />
      <feComposite
         id="feComposite4385-9-5-7-0-8-0"
         in2="result3"
         in="SourceGraphic"
         operator="over"
         result="composite2" />
    </filter>
    <filter
       style="color-interpolation-filters:sRGB"
       id="filter4375-4-1-1-1-9-75"
       inkscape:label="deevad outline effect">
      <feFlood
         id="feFlood4377-7-9-0-8-1-3"
         flood-opacity="1"
         flood-color="rgb(0,0,0)"
         result="flood" />
      <feComposite
         id="feComposite4379-3-8-8-2-77-5"
         in2="SourceGraphic"
         in="flood"
         operator="in"
         result="composite1" />
      <feMorphology
         id="feMorphology4393-1-0-49-8-9-6"
         operator="dilate"
         radius="4"
         result="result3" />
      <feComposite
         id="feComposite4385-9-5-7-0-8-2"
         in2="result3"
         in="SourceGraphic"
         operator="over"
         result="composite2" />
    </filter>
    <linearGradient
       gradientTransform="matrix(0.9620232,0,0,1.1282469,-764.28464,-38.250005)"
       inkscape:collect="always"
       xlink:href="#linearGradient964"
       id="linearGradient966"
       x1="483.93088"
       y1="252.79726"
       x2="521.5141"
       y2="254.66634"
       gradientUnits="userSpaceOnUse" />
    <linearGradient
       inkscape:collect="always"
       id="linearGradient964">
      <stop
         style="stop-color:#918a6f;stop-opacity:1;"
         offset="0"
         id="stop960" />
      <stop
         style="stop-color:#c2bb9f;stop-opacity:1"
         offset="1"
         id="stop962" />
    </linearGradient>
    <radialGradient
       inkscape:collect="always"
       xlink:href="#linearGradient928"
       id="radialGradient932"
       cx="322.14978"
       cy="230.87151"
       fx="322.14978"
       fy="230.87151"
       r="182.11266"
       gradientTransform="matrix(1.0760297,-0.00865386,0.00801478,1.3707011,-845.99625,-48.45967)"
       gradientUnits="userSpaceOnUse" />
    <linearGradient
       inkscape:collect="always"
       id="linearGradient928">
      <stop
         style="stop-color:#f3efe0;stop-opacity:1"
         offset="0"
         id="stop924" />
      <stop
         style="stop-color:#d9cc9d;stop-opacity:1"
         offset="1"
         id="stop926" />
    </linearGradient>
    <filter
       style="color-interpolation-filters:sRGB"
       id="filter4375-4-1-1-1-9-30-2-7-6"
       inkscape:label="Roughen">
      <feFlood
         id="feFlood4377-7-9-0-8-1-78-6-7-3"
         flood-opacity="1"
         flood-color="rgb(0,0,0)"
         result="flood" />
      <feComposite
         id="feComposite4379-3-8-8-2-77-68-1-1-9"
         in2="SourceGraphic"
         in="flood"
         operator="in"
         result="composite1" />
      <feMorphology
         id="feMorphology4393-1-0-49-8-9-8-0-1-4"
         operator="dilate"
         radius="4"
         result="result3" />
      <feComposite
         id="feComposite4385-9-5-7-0-8-4-6-5-8"
         in2="result3"
         in="SourceGraphic"
         operator="over"
         result="fbSourceGraphic" />
      <feColorMatrix
         result="fbSourceGraphicAlpha"
         in="fbSourceGraphic"
         values="0 0 0 -1 0 0 0 0 -1 0 0 0 0 -1 0 0 0 0 1 0"
         id="feColorMatrix333-3-1-9-1" />
      <feTurbulence
         id="feTurbulence335-1-5-7-2"
         type="fractalNoise"
         numOctaves="5"
         seed="1"
         baseFrequency="0.013 0.013"
         result="turbulence" />
      <feDisplacementMap
         in2="turbulence"
         id="feDisplacementMap337-4-9-7-9"
         in="fbSourceGraphic"
         scale="6.6"
         yChannelSelector="G"
         xChannelSelector="R"
         result="fbSourceGraphic" />
      <feColorMatrix
         result="fbSourceGraphicAlpha"
         in="fbSourceGraphic"
         values="0 0 0 -1 0 0 0 0 -1 0 0 0 0 -1 0 0 0 0 1 0"
         id="feColorMatrix435-92-4-6-3" />
      <feTurbulence
         id="feTurbulence437-06-9-7-9"
         type="fractalNoise"
         numOctaves="5"
         seed="27"
         baseFrequency="0.001 0.4414"
         result="turbulence" />
      <feDisplacementMap
         in2="turbulence"
         id="feDisplacementMap439-8-0-3-0"
         in="fbSourceGraphic"
         scale="4.27461"
         yChannelSelector="G"
         xChannelSelector="R" />
    </filter>
    <filter
       style="color-interpolation-filters:sRGB"
       id="filter4375-4-1-1-1-9-30-2-7"
       inkscape:label="Roughen">
      <feFlood
         id="feFlood4377-7-9-0-8-1-78-6-7"
         flood-opacity="1"
         flood-color="rgb(0,0,0)"
         result="flood" />
      <feComposite
         id="feComposite4379-3-8-8-2-77-68-1-1"
         in2="SourceGraphic"
         in="flood"
         operator="in"
         result="composite1" />
      <feMorphology
         id="feMorphology4393-1-0-49-8-9-8-0-1"
         operator="dilate"
         radius="4"
         result="result3" />
      <feComposite
         id="feComposite4385-9-5-7-0-8-4-6-5"
         in2="result3"
         in="SourceGraphic"
         operator="over"
         result="fbSourceGraphic" />
      <feColorMatrix
         result="fbSourceGraphicAlpha"
         in="fbSourceGraphic"
         values="0 0 0 -1 0 0 0 0 -1 0 0 0 0 -1 0 0 0 0 1 0"
         id="feColorMatrix333-3-1-9" />
      <feTurbulence
         id="feTurbulence335-1-5-7"
         type="fractalNoise"
         numOctaves="5"
         seed="1"
         baseFrequency="0.013 0.013"
         result="turbulence" />
      <feDisplacementMap
         in2="turbulence"
         id="feDisplacementMap337-4-9-7"
         in="fbSourceGraphic"
         scale="6.6"
         yChannelSelector="G"
         xChannelSelector="R"
         result="fbSourceGraphic" />
      <feColorMatrix
         result="fbSourceGraphicAlpha"
         in="fbSourceGraphic"
         values="0 0 0 -1 0 0 0 0 -1 0 0 0 0 -1 0 0 0 0 1 0"
         id="feColorMatrix435-92-4-6" />
      <feTurbulence
         id="feTurbulence437-06-9-7"
         type="fractalNoise"
         numOctaves="5"
         seed="27"
         baseFrequency="0.001 0.4414"
         result="turbulence" />
      <feDisplacementMap
         in2="turbulence"
         id="feDisplacementMap439-8-0-3"
         in="fbSourceGraphic"
         scale="4.27461"
         yChannelSelector="G"
         xChannelSelector="R" />
    </filter>
    <filter
       style="color-interpolation-filters:sRGB"
       id="filter4375-4-1-1-1-9-30-2"
       inkscape:label="Roughen">
      <feFlood
         id="feFlood4377-7-9-0-8-1-78-6"
         flood-opacity="1"
         flood-color="rgb(0,0,0)"
         result="flood" />
      <feComposite
         id="feComposite4379-3-8-8-2-77-68-1"
         in2="SourceGraphic"
         in="flood"
         operator="in"
         result="composite1" />
      <feMorphology
         id="feMorphology4393-1-0-49-8-9-8-0"
         operator="dilate"
         radius="4"
         result="result3" />
      <feComposite
         id="feComposite4385-9-5-7-0-8-4-6"
         in2="result3"
         in="SourceGraphic"
         operator="over"
         result="fbSourceGraphic" />
      <feColorMatrix
         result="fbSourceGraphicAlpha"
         in="fbSourceGraphic"
         values="0 0 0 -1 0 0 0 0 -1 0 0 0 0 -1 0 0 0 0 1 0"
         id="feColorMatrix333-3-1" />
      <feTurbulence
         id="feTurbulence335-1-5"
         type="fractalNoise"
         numOctaves="5"
         seed="1"
         baseFrequency="0.013 0.013"
         result="turbulence" />
      <feDisplacementMap
         in2="turbulence"
         id="feDisplacementMap337-4-9"
         in="fbSourceGraphic"
         scale="6.6"
         yChannelSelector="G"
         xChannelSelector="R"
         result="fbSourceGraphic" />
      <feColorMatrix
         result="fbSourceGraphicAlpha"
         in="fbSourceGraphic"
         values="0 0 0 -1 0 0 0 0 -1 0 0 0 0 -1 0 0 0 0 1 0"
         id="feColorMatrix435-92-4" />
      <feTurbulence
         id="feTurbulence437-06-9"
         type="fractalNoise"
         numOctaves="5"
         seed="27"
         baseFrequency="0.001 0.4414"
         result="turbulence" />
      <feDisplacementMap
         in2="turbulence"
         id="feDisplacementMap439-8-0"
         in="fbSourceGraphic"
         scale="4.27461"
         yChannelSelector="G"
         xChannelSelector="R" />
    </filter>
    <filter
       style="color-interpolation-filters:sRGB"
       id="filter4375-4-1-1-1-9-30"
       inkscape:label="Roughen">
      <feFlood
         id="feFlood4377-7-9-0-8-1-78"
         flood-opacity="1"
         flood-color="rgb(0,0,0)"
         result="flood" />
      <feComposite
         id="feComposite4379-3-8-8-2-77-68"
         in2="SourceGraphic"
         in="flood"
         operator="in"
         result="composite1" />
      <feMorphology
         id="feMorphology4393-1-0-49-8-9-8"
         operator="dilate"
         radius="4"
         result="result3" />
      <feComposite
         id="feComposite4385-9-5-7-0-8-4"
         in2="result3"
         in="SourceGraphic"
         operator="over"
         result="fbSourceGraphic" />
      <feColorMatrix
         result="fbSourceGraphicAlpha"
         in="fbSourceGraphic"
         values="0 0 0 -1 0 0 0 0 -1 0 0 0 0 -1 0 0 0 0 1 0"
         id="feColorMatrix333-3" />
      <feTurbulence
         id="feTurbulence335-1"
         type="fractalNoise"
         numOctaves="5"
         seed="1"
         baseFrequency="0.013 0.013"
         result="turbulence" />
      <feDisplacementMap
         in2="turbulence"
         id="feDisplacementMap337-4"
         in="fbSourceGraphic"
         scale="6.6"
         yChannelSelector="G"
         xChannelSelector="R"
         result="fbSourceGraphic" />
      <feColorMatrix
         result="fbSourceGraphicAlpha"
         in="fbSourceGraphic"
         values="0 0 0 -1 0 0 0 0 -1 0 0 0 0 -1 0 0 0 0 1 0"
         id="feColorMatrix435-92" />
      <feTurbulence
         id="feTurbulence437-06"
         type="fractalNoise"
         numOctaves="5"
         seed="27"
         baseFrequency="0.001 0.4414"
         result="turbulence" />
      <feDisplacementMap
         in2="turbulence"
         id="feDisplacementMap439-8"
         in="fbSourceGraphic"
         scale="4.27461"
         yChannelSelector="G"
         xChannelSelector="R" />
    </filter>
    <filter
       style="color-interpolation-filters:sRGB"
       id="filter4375-4-1-1-1-9-3"
       inkscape:label="Roughen">
      <feFlood
         id="feFlood4377-7-9-0-8-1-6"
         flood-opacity="1"
         flood-color="rgb(0,0,0)"
         result="flood" />
      <feComposite
         id="feComposite4379-3-8-8-2-77-75"
         in2="SourceGraphic"
         in="flood"
         operator="in"
         result="composite1" />
      <feMorphology
         id="feMorphology4393-1-0-49-8-9-35"
         operator="dilate"
         radius="4"
         result="result3" />
      <feComposite
         id="feComposite4385-9-5-7-0-8-6"
         in2="result3"
         in="SourceGraphic"
         operator="over"
         result="fbSourceGraphic" />
      <feColorMatrix
         result="fbSourceGraphicAlpha"
         in="fbSourceGraphic"
         values="0 0 0 -1 0 0 0 0 -1 0 0 0 0 -1 0 0 0 0 1 0"
         id="feColorMatrix333" />
      <feTurbulence
         id="feTurbulence335"
         type="fractalNoise"
         numOctaves="5"
         seed="1"
         baseFrequency="0.013 0.013"
         result="turbulence" />
      <feDisplacementMap
         in2="turbulence"
         id="feDisplacementMap337"
         in="fbSourceGraphic"
         scale="6.6"
         yChannelSelector="G"
         xChannelSelector="R"
         result="fbSourceGraphic" />
      <feColorMatrix
         result="fbSourceGraphicAlpha"
         in="fbSourceGraphic"
         values="0 0 0 -1 0 0 0 0 -1 0 0 0 0 -1 0 0 0 0 1 0"
         id="feColorMatrix435" />
      <feTurbulence
         id="feTurbulence437"
         type="fractalNoise"
         numOctaves="5"
         seed="27"
         baseFrequency="0.001 0.4414"
         result="turbulence" />
      <feDisplacementMap
         in2="turbulence"
         id="feDisplacementMap439"
         in="fbSourceGraphic"
         scale="4.27461"
         yChannelSelector="G"
         xChannelSelector="R" />
    </filter>
    <filter
       inkscape:collect="always"
       style="color-interpolation-filters:sRGB"
       id="filter4210-3"
       x="-0.0015578248"
       width="1.0031157"
       y="-0.0045528179"
       height="1.0091056">
      <feGaussianBlur
         inkscape:collect="always"
         stdDeviation="0.2079876"
         id="feGaussianBlur4212-9" />
    </filter>
    <filter
       inkscape:collect="always"
       style="color-interpolation-filters:sRGB"
       id="filter4210"
       x="-0.0015578248"
       width="1.0031157"
       y="-0.0045528179"
       height="1.0091056">
      <feGaussianBlur
         inkscape:collect="always"
         stdDeviation="0.2079876"
         id="feGaussianBlur4212" />
    </filter>
  </defs>
  <sodipodi:namedview
     pagecolor="#ffffff"
     bordercolor="#666666"
     borderopacity="1"
     objecttolerance="10"
     gridtolerance="10"
     guidetolerance="10"
     inkscape:pageopacity="0"
     inkscape:pageshadow="2"
     inkscape:window-width="1920"
     inkscape:window-height="1070"
     id="namedview4"
     showgrid="false"
     inkscape:zoom="0.31979025"
     inkscape:cx="1842.5332"
     inkscape:cy="860.64971"
     inkscape:window-x="0"
     inkscape:window-y="27"
     inkscape:window-maximized="1"
     inkscape:current-layer="layer1"
     inkscape:snap-global="false" />
  <g
     inkscape:groupmode="layer"
     id="layer2"
     inkscape:label="artwork"
     sodipodi:insensitive="true">
    <image
       sodipodi:absref="/home/midgard/git/peppercarrot/comics/ep27_Coriander-s-Invention/lang/no/../gfx_Pepper-and-Carrot_by-David-Revoy_E27P06.png"
       xlink:href="../gfx_Pepper-and-Carrot_by-David-Revoy_E27P06.png"
       width="2481"
       height="3503"
       id="image10"
       x="0"
       y="0" />
  </g>
  <g
     inkscape:groupmode="layer"
     id="layer3"
     inkscape:label="speechbubbles">
    <path
       style="fill:#ffffff;fill-rule:evenodd;stroke:none;stroke-width:1.12946117px;stroke-linecap:butt;stroke-linejoin:miter;stroke-opacity:1"
       d="m 112.00759,219.51687 c 0,-61.68735 14.55999,-89.54615 33.97327,-103.47556 19.41331,-13.92939 87.35985,-23.878966 119.71535,-17.90922 32.3555,5.96974 63.09322,-3.979834 76.03543,-3.979834 12.94219,0 87.58797,-17.163267 115.09014,-9.203605 27.50218,7.95966 45.06958,15.173339 59.62956,23.132999 14.55997,7.95966 55.00434,67.65709 55.00434,95.5159 0,27.85879 -17.79551,109.44528 -38.8266,121.38477 -21.03108,11.93948 -92.21317,29.84872 -127.80422,29.84872 -35.59104,0 -92.21316,0 -145.59974,-7.95967 -53.38658,-7.95966 -100.30205,-15.9193 -121.33313,-47.75793 -21.03108,-31.83864 -24.26663,-39.7983 -25.8844,-79.59657 z"
       id="path1055"
       inkscape:connector-curvature="0"
       sodipodi:nodetypes="ccsssssssssc" />
    <path
       style="fill:#ffffff;fill-rule:evenodd;stroke:none;stroke-width:1px;stroke-linecap:butt;stroke-linejoin:miter;stroke-opacity:1"
       d="m 331.00243,306.49609 c 0,0 -11.34439,15.12497 -17.23952,40.59312 -5.89513,25.46814 -7.35913,39.49755 -2.53393,61.15161 3.67951,16.51251 22.29674,57.72327 31.08248,67.32511 -23.57697,-24.17146 -47.44853,-51.19112 -54.87711,-89.33367 -3.46351,-17.78368 11.1671,-71.13643 15.72728,-83.70363 4.56019,-12.56722 27.8408,3.96746 27.8408,3.96746 z"
       id="path1057"
       inkscape:connector-curvature="0"
       sodipodi:nodetypes="csscssc" />
    <g
       transform="matrix(1.1976784,0,0,0.88633082,814.69908,-4.1908013)"
       id="g975">
      <path
         inkscape:connector-curvature="0"
         id="path101"
         d="m 524.22751,191.63146 c -3.54348,-0.0348 -7.29462,0.1157 -11.15995,0.53804 0,0 -30.0934,62.27058 -34.39246,76.5103 11.46417,0 17.19658,2.58826 28.66075,3.88278 11.46419,1.29452 32.95953,-2.58907 41.55766,-3.23633 8.59813,-0.64726 15.76193,2.58904 44.42238,0 -2.86603,0.64726 -12.18043,-6.47148 -16.47949,-9.06051 -4.29907,-2.58904 -2.86564,-7.7685 -5.73169,-13.59384 -7.1651,4.53081 -12.18133,-3e-5 -15.76388,-3.23633 -3.58256,-3.2363 0,-6.73429 0,-6.73429 l 12.77953,-8.85507 c -3.1956,-18.67125 -9.78598,-23.87711 1.97813,-29.67315 l 19.34646,-0.64645 10.74778,-5.82622 -16.48174,0.64645 c -12.78626,1.01278 -21.80405,1.84038 -32.66837,1.29495 0,0 -11.46004,-1.8597 -26.81511,-2.01033 z m 14.40511,17.99219 c 0,0 11.92148,1.46891 13.54683,3.42659 1.62535,1.95768 4.33226,0.4895 6.4994,1.95776 2.16714,1.46826 4.87786,9.7878 2.71073,10.76663 -2.16714,0.97885 -5.41927,3.42554 -7.58642,2.44669 -2.16713,-0.97883 -4.87568,-5.87327 -4.87568,-5.87327 -0.54179,-4.40479 0,-6.85113 0,-6.85113 z"
         style="fill:url(#linearGradient966);fill-opacity:1;fill-rule:evenodd;stroke:none;stroke-width:0.99999994px;stroke-linecap:butt;stroke-linejoin:miter;stroke-opacity:1"
         sodipodi:nodetypes="cccsscscccccccccccssccccc" />
      <path
         inkscape:connector-curvature="0"
         id="path958"
         d="m 479.1379,267.64029 c 0,0 8.1984,-5.23752 15.06909,-6.63932 6.87069,-1.40181 24.66762,-6.18478 30.68906,-7.94356 6.02146,-1.75878 6.02146,-1.75878 6.02146,-1.75878 l -4.64731,-30.01543 -8.70287,-22.89613 -30.68908,2.80361 -5.49655,49.06313 z"
         style="fill:#6c6753;fill-rule:evenodd;stroke:#6c6753;stroke-width:1px;stroke-linecap:butt;stroke-linejoin:miter;stroke-opacity:1" />
      <path
         inkscape:connector-curvature="0"
         id="path99"
         d="m 541.89921,152.34375 c -0.14714,0.0194 -0.29648,0.0584 -0.44937,0.11719 -4.89222,1.87969 -40.11706,-0.93945 -46.96617,3.75976 -6.84911,4.69921 -102.98621,-0.94062 -119.61976,-2.82031 -16.63354,-1.87968 -98.82297,7.8e-4 -112.52117,2.82031 -13.69822,2.81953 -48.9227,6.57969 -91.97424,2.82032 l 2.93411,9.39843 0.98007,7.51758 -3.91418,7.51953 h 2.93411 l 15.65675,5.63867 v 8.45899 l -6.85034,6.57812 -10.76248,1.88086 c 0,16.44857 -8.57201,31.59947 -15.89192,50.34227 18.59043,-1.87969 21.76302,-3.75937 44.26723,-4.69922 22.50421,-0.93984 93.93032,10.33789 108.60698,10.33789 14.67666,0 46.9658,-2.81915 67.51312,-5.63867 20.54732,-2.81953 105.92276,1.14917 116.68564,0.20932 10.76288,-0.93985 24.46114,-7.51873 39.1378,-4.69921 l 10.76249,-41.15316 c 0,-4.69921 4.89223,-6.58008 4.89223,-6.58008 l -4.89223,-9.39843 c 0,0 3.91378,-12.21799 4.89223,-18.79688 0.94786,-6.37331 -0.85928,-24.21344 -5.4209,-23.61328 z m -352.27346,74.98942 c 1.88302,0.02 3.3984,0.6712 3.61122,2.30664 0.48646,3.73815 2.43327,8.87803 -0.97194,11.68164 -3.40522,2.80361 -12.16143,-0.46687 -12.16143,-2.33594 0,-1.86907 2.43188,-9.3457 2.43188,-9.3457 1.64181,-1.31419 4.66925,-2.33231 7.09027,-2.30664 z"
         style="fill:url(#radialGradient932);fill-opacity:1;fill-rule:evenodd;stroke:none;stroke-width:0.99999994px;stroke-linecap:butt;stroke-linejoin:miter;stroke-opacity:1"
         sodipodi:nodetypes="ccsssccccccccccsssscccccccccscc" />
      <path
         inkscape:connector-curvature="0"
         id="path111"
         d="m 515.27248,172.97336 c 7.29689,-4.20541 14.59379,-4.20541 16.05316,0.93454 1.45939,5.13994 4.8646,8.87808 0.48646,10.74716 -4.37813,1.86907 -10.7021,9.81262 -13.62086,4.20541 -2.91876,-5.60722 -9.72919,-8.41082 -8.75627,-9.81263 0.97291,-1.4018 5.83751,-6.07448 5.83751,-6.07448 z"
         style="opacity:0.53299997;vector-effect:none;fill:#cbc29a;fill-opacity:1;fill-rule:evenodd;stroke:none;stroke-width:0.99999994px;stroke-linecap:butt;stroke-linejoin:miter;stroke-miterlimit:4;stroke-dasharray:none;stroke-dashoffset:0;stroke-opacity:1" />
      <path
         inkscape:connector-curvature="0"
         id="path113"
         d="m 508.02036,204.75351 c 4.8646,-2.80361 8.75627,0 8.75627,3.27087 0,3.27088 2.4323,6.54175 -2.91875,6.54175 -5.35106,0 -9.72919,0.46727 -9.72919,-3.27087 0,-3.73814 3.89167,-6.54175 3.89167,-6.54175 z"
         style="opacity:0.53299997;vector-effect:none;fill:#cbc29a;fill-opacity:1;fill-rule:evenodd;stroke:none;stroke-width:0.99999994px;stroke-linecap:butt;stroke-linejoin:miter;stroke-miterlimit:4;stroke-dasharray:none;stroke-dashoffset:0;stroke-opacity:1" />
      <path
         inkscape:connector-curvature="0"
         id="path115"
         d="m 487.65472,226.68348 c 3.40522,-6.07449 6.81043,-4.67268 6.81043,-4.67268 l 4.37813,4.67268 -5.35104,5.60721 z"
         style="opacity:0.53299997;vector-effect:none;fill:#cbc29a;fill-opacity:1;fill-rule:evenodd;stroke:none;stroke-width:0.99999994px;stroke-linecap:butt;stroke-linejoin:miter;stroke-miterlimit:4;stroke-dasharray:none;stroke-dashoffset:0;stroke-opacity:1" />
    </g>
    <path
       style="fill:#ffffff;fill-rule:evenodd;stroke:none;stroke-width:1px;stroke-linecap:butt;stroke-linejoin:miter;stroke-opacity:1"
       d="m 192.38578,1169.5119 c 24.85883,-24.8589 149.15301,-34.5862 174.01185,-34.5862 24.85883,0 146.99138,3.2424 159.9612,49.7176 12.96983,46.4752 6.48492,63.7683 -25.93965,83.2231 -32.42457,19.4547 -95.11207,43.2327 -136.18319,42.1519 -41.07112,-1.0808 -137.26401,-17.2931 -161.04203,-36.7478 -23.77801,-19.4548 -36.74784,-59.4451 -10.80818,-103.7586 z"
       id="path1095"
       inkscape:connector-curvature="0" />
    <path
       style="fill:#ffffff;fill-rule:evenodd;stroke:none;stroke-width:1px;stroke-linecap:butt;stroke-linejoin:miter;stroke-opacity:1"
       d="m 482.13924,1201.3255 c 0,0 -8.62566,-5.3172 28.0282,-19.4148 36.65386,-14.0977 107.9013,-25.0538 135.15673,-23.1741 27.25544,1.8796 110.30926,1.2359 170.45918,31.3108 60.14993,30.075 115.60064,56.3906 153.19434,105.2624 -49.81165,-46.0523 -134.66245,-85.1159 -164.66532,-93.6365 -53.48105,-15.1883 -115.40776,-21.0243 -146.42257,-21.0243 -31.0148,0 -99.62331,14.0976 -140.03654,27.2554 -40.41323,13.1578 -69.54835,14.0977 -69.54835,14.0977 z"
       id="path1097"
       inkscape:connector-curvature="0"
       sodipodi:nodetypes="cccccssscc" />
    <path
       style="fill:#ffffff;fill-rule:evenodd;stroke:none;stroke-width:1px;stroke-linecap:butt;stroke-linejoin:miter;stroke-opacity:1"
       d="m 2258.0739,1501.5439 c 18.7969,6.5381 45.7663,17.1624 49.0353,28.6039 3.269,11.4416 20.4314,32.6902 14.7106,51.4871 -5.7208,18.7968 -22.0659,37.5937 -37.5937,48.218 -15.5279,10.6243 -44.949,18.7968 -63.7459,20.4313 -18.7968,1.6346 -67.0148,-9.807 -80.9081,-6.538 -13.8934,3.269 -64.5631,4.9035 -89.898,-3.269 -25.3349,-8.1726 -53.9388,-38.411 -58.0251,-57.2078 -4.0863,-18.7969 13.8933,-56.3906 17.1623,-66.1976 3.2691,-9.8071 17.1624,-13.0761 17.1624,-13.0761 38.7893,-5.6098 174.943,-10.8872 232.1002,-2.4518 z"
       id="path1099"
       inkscape:connector-curvature="0"
       sodipodi:nodetypes="ccccccccccc" />
    <path
       style="fill:#ffffff;fill-rule:evenodd;stroke:none;stroke-width:1.03345728px;stroke-linecap:butt;stroke-linejoin:miter;stroke-opacity:1"
       d="m 2035.8798,1513.8738 c -22.7702,-11.3705 -43.2634,-16.3451 -51.6124,-24.1623 -8.349,-7.8172 -13.6621,-25.5836 -12.903,-31.2688 0.759,-5.6853 9.108,-30.5583 18.9751,-33.4009 9.867,-2.8426 42.5042,-17.7664 57.6843,-22.0303 15.1801,-4.2639 78.1776,-4.2639 93.3576,-1.4213 15.1801,2.8426 26.5652,7.1065 30.3603,7.1065 3.7949,0 16.698,-1.4213 25.8061,0 9.108,1.4213 24.2881,5.6853 31.1192,6.3959 6.831,0.7107 13.6621,-3.5532 24.2882,0.7107 10.6259,4.2639 25.0471,9.2385 32.6371,20.609 7.5901,11.3705 18.9752,14.9238 14.4211,35.5328 -4.554,20.609 -12.9791,26.5074 -22.4286,29.5988 -9.4496,3.0914 -47.3998,11.6193 -61.0618,10.9086 -13.6621,-0.7106 -116.8869,-2.8426 -116.8869,-2.8426 l -45.5402,3.5533 z"
       id="path1101"
       inkscape:connector-curvature="0" />
    <path
       style="fill:#ffffff;fill-rule:evenodd;stroke:none;stroke-width:1px;stroke-linecap:butt;stroke-linejoin:miter;stroke-opacity:1"
       d="m 2009.0245,1445.6508 c -21.3196,-32.6901 -31.2688,-43.35 -49.7459,-55.4311 -18.477,-12.0812 -45.482,-11.3705 -78.8828,-5.6853 54.7205,-1.4213 65.3804,11.3705 73.9082,17.7664 8.5279,6.3959 29.1369,31.2689 35.5328,50.4566 6.3959,19.1877 19.1877,-7.1066 19.1877,-7.1066 z"
       id="path1103"
       inkscape:connector-curvature="0" />
    <path
       style="fill:#ffffff;fill-rule:evenodd;stroke:none;stroke-width:1.05486381px;stroke-linecap:butt;stroke-linejoin:miter;stroke-opacity:1"
       d="m 575.60905,1880.4969 12.44761,8.7006 -24.89522,6.2147 6.91533,43.503 -2.76612,31.0735 1.38306,24.8589 -4.1492,7.4576 19.36295,1.2429 33.19363,-1.2429 81.60104,1.2429 17.97987,-7.4576 60.85501,3.7288 62.23807,-12.4294 52.5566,2.4859 -5.53228,-8.7006 12.44761,-11.1865 -9.68147,-52.2035 5.53226,-19.8871 -5.53226,-4.9718 6.91533,-7.4576 -103.73011,-4.9718 h -24.89523 l -6.91534,-3.7288 -20.74602,2.4859 -41.49204,3.7288 -22.12909,-3.7288 -24.89524,8.7006 -22.12908,1.2429 z"
       id="path1105"
       inkscape:connector-curvature="0" />
    <path
       style="fill:#ffffff;fill-rule:evenodd;stroke:none;stroke-width:1px;stroke-linecap:butt;stroke-linejoin:miter;stroke-opacity:1"
       d="m 698.50993,2022.2441 58.41827,-11.1864 36.04531,1.2429 60.90415,-6.2147 79.54827,1.2429 13.67236,1.243 -2.48588,33.5594 -26.10178,2.4859 28.58766,9.9435 -4.97177,29.8306 -8.70059,3.7289 12.42942,4.9717 -8.70059,4.9718 h -70.84769 l -43.50296,-2.4859 -26.10178,1.243 -49.71767,6.2147 -19.88707,1.2429 -28.58766,-7.4576 4.97177,-31.0736 17.40118,-8.7006 -21.13001,-4.9718 z"
       id="path1107"
       inkscape:connector-curvature="0" />
    <path
       style="fill:#ffffff;fill-rule:evenodd;stroke:none;stroke-width:1.13603401px;stroke-linecap:butt;stroke-linejoin:miter;stroke-opacity:1"
       d="m 667.22908,2118.1159 82.14509,4.1111 2.93376,-6.1667 19.0694,3.0834 h 107.082 l 57.20818,-9.2499 26.40378,-4.1111 14.66872,9.25 66.00959,-11.3055 10.268,-3.0834 73.3438,2.0556 -2.9337,7.1944 45.4733,5.1389 -1.4669,11.3054 -2.9339,12.3331 -24.9369,3.0834 -2.9336,5.1388 32.2713,4.111 -2.9337,14.3888 -2.934,6.1666 -22.0031,3.0834 22.0031,6.1665 2.934,11.3055 -1.4671,36.9996 v 35.9718 l 5.8676,17.4721 v 9.2499 l -14.6688,-2.0555 7.3343,11.3054 -68.9431,-1.0278 -63.0757,4.1111 h -27.8707 l -54.2744,-1.0277 -36.6719,6.1665 -54.27444,-5.1388 -45.47318,1.0278 -49.87382,2.0556 -83.61197,-1.0278 -14.66877,2.0554 v -12.3331 l 7.33439,-2.0555 -7.33439,-5.1388 -4.40062,-33.9165 22.00315,-7.1943 -2.93376,-8.2221 -14.66877,-1.0278 -7.33437,-28.7775 2.93375,-7.1944 20.53627,-4.111 v -4.1111 l -26.40378,-7.1943 2.93376,-8.2222 8.80125,-33.9163 z"
       id="path1109"
       inkscape:connector-curvature="0" />
    <path
       style="fill:#ffffff;fill-rule:evenodd;stroke:none;stroke-width:1px;stroke-linecap:butt;stroke-linejoin:miter;stroke-opacity:1"
       d="m 1192.053,2451.3632 -38.9095,-116.7285 -20.5355,-3.2425 -1.0808,35.6671 -159.9612,-194.5474 -27.02047,37.8286 -86.46552,-154.5571 -20.53556,19.4548 -32.42457,-110.2436 -50.79849,-8.6465 77.81896,143.7489 16.33097,-14.4505 85.04421,161.7527 40.21211,-44.6244 154.55706,190.2241 12.9698,3.2425 3.2425,-25.9397 z"
       id="path1111"
       inkscape:connector-curvature="0"
       sodipodi:nodetypes="cccccccccccccccccc" />
  </g>
  <g
     inkscape:groupmode="layer"
     id="layer1"
     inkscape:label="txt">
    <text
       xml:space="preserve"
       style="font-style:normal;font-variant:normal;font-weight:normal;font-stretch:normal;line-height:0%;font-family:Lavi;-inkscape-font-specification:Lavi;text-align:center;letter-spacing:0px;word-spacing:0px;text-anchor:middle;fill:#000000;fill-opacity:1;stroke:none"
       x="338.591"
       y="163.69423"
       id="text4246"><tspan
         sodipodi:role="line"
         style="font-size:45px;line-height:1.20000005"
         x="338.591"
         y="163.69423"
         id="tspan762">Jeg har en idé om</tspan><tspan
         sodipodi:role="line"
         style="font-size:45px;line-height:1.20000005"
         x="338.591"
         y="217.69423"
         id="tspan983">hvordan vi kan bruke</tspan><tspan
         sodipodi:role="line"
         style="font-size:45px;line-height:1.20000005"
         x="338.591"
         y="271.69424"
         id="tspan985">denne feilen til vår</tspan><tspan
         sodipodi:role="line"
         style="font-size:45px;line-height:1.20000005"
         x="338.591"
         y="325.69424"
         id="tspan987">fordel.</tspan></text>
    <text
       xml:space="preserve"
       style="font-style:normal;font-variant:normal;font-weight:normal;font-stretch:normal;line-height:0%;font-family:Lavi;-inkscape-font-specification:Lavi;letter-spacing:0px;word-spacing:0px;fill:#000000;fill-opacity:1;stroke:#000000;stroke-width:0.99236238;stroke-miterlimit:4;stroke-dasharray:none;stroke-opacity:1;filter:url(#filter4375-4-1-1-1-9)"
       x="787.65729"
       y="1584.5073"
       id="text4580"
       transform="matrix(0.77821249,-0.28959874,-0.30299683,1.0489343,541.49337,-699.9517)"><tspan
         sodipodi:role="line"
         id="tspan4582"
         x="787.65729"
         y="1584.5073"
         style="font-size:70px;line-height:1.25;fill:#ffffff"><tspan
           style="font-size:80.40014648px"
           id="tspan4617">Ting!</tspan></tspan></text>
    <text
       xml:space="preserve"
       style="font-style:normal;font-variant:normal;font-weight:normal;font-stretch:normal;line-height:1.20000005;font-family:Lavi;-inkscape-font-specification:Lavi;text-align:center;letter-spacing:0px;word-spacing:0px;text-anchor:middle;fill:#000000;fill-opacity:1;stroke:none"
       x="1248.0911"
       y="189.73299"
       id="text4246-3"><tspan
         sodipodi:role="line"
         style="font-style:italic;font-variant:normal;font-weight:normal;font-stretch:normal;font-size:45px;line-height:1.20000005;font-family:Fondamento;-inkscape-font-specification:'Fondamento Italic'"
         x="1248.0911"
         y="189.73299"
         id="tspan18">Om ettermiddagen...</tspan></text>
    <text
       xml:space="preserve"
       style="font-style:normal;font-variant:normal;font-weight:normal;font-stretch:normal;line-height:0%;font-family:Lavi;-inkscape-font-specification:Lavi;text-align:center;letter-spacing:0px;word-spacing:0px;text-anchor:middle;fill:#000000;fill-opacity:1;stroke:none"
       x="352.16574"
       y="1213.2815"
       id="text4246-2"><tspan
         sodipodi:role="line"
         style="font-size:45px;line-height:1.20000005"
         x="352.16574"
         y="1213.2815"
         id="tspan939">Pepper, du er</tspan><tspan
         sodipodi:role="line"
         style="font-size:45px;line-height:1.20000005"
         x="352.16574"
         y="1267.2815"
         id="tspan980">et geni!</tspan></text>
    <text
       xml:space="preserve"
       style="font-style:normal;font-variant:normal;font-weight:normal;font-stretch:normal;line-height:0%;font-family:Lavi;-inkscape-font-specification:Lavi;text-align:center;letter-spacing:0px;word-spacing:0px;text-anchor:middle;fill:#000000;fill-opacity:1;stroke:none"
       x="2141.4392"
       y="1472.0195"
       id="text4246-2-0"><tspan
         sodipodi:role="line"
         style="font-size:45px;line-height:1.20000005"
         x="2141.4392"
         y="1472.0195"
         id="tspan939-3">Nei, du er...</tspan></text>
    <text
       xml:space="preserve"
       style="font-style:normal;font-variant:normal;font-weight:normal;font-stretch:normal;line-height:0%;font-family:Lavi;-inkscape-font-specification:Lavi;text-align:center;letter-spacing:0px;word-spacing:0px;text-anchor:middle;fill:#000000;fill-opacity:1;stroke:none"
       x="2155.2898"
       y="1555.3123"
       id="text4246-2-0-6"><tspan
         sodipodi:role="line"
         style="font-size:45px;line-height:1.20000005"
         x="2155.2898"
         y="1555.3123"
         id="tspan982">Det er jo din</tspan><tspan
         sodipodi:role="line"
         style="font-size:45px;line-height:1.20000005"
         x="2155.2898"
         y="1609.3123"
         id="tspan991">oppfinnelse!</tspan></text>
    <text
       xml:space="preserve"
       style="font-style:normal;font-variant:normal;font-weight:normal;font-stretch:normal;line-height:0%;font-family:Lavi;-inkscape-font-specification:Lavi;text-align:center;letter-spacing:0px;word-spacing:0px;text-anchor:middle;fill:#000000;fill-opacity:1;stroke:none"
       x="738.25122"
       y="1938.5652"
       id="text4246-3-3-2"><tspan
         sodipodi:role="line"
         style="font-style:normal;font-variant:normal;font-weight:normal;font-stretch:normal;font-size:32px;line-height:1.39999998;font-family:'Press Start 2P';-inkscape-font-specification:'Press Start 2P'"
         x="738.25122"
         y="1938.5652"
         id="tspan999">Værsågod,</tspan><tspan
         sodipodi:role="line"
         style="font-style:normal;font-variant:normal;font-weight:normal;font-stretch:normal;font-size:32px;line-height:1.39999998;font-family:'Press Start 2P';-inkscape-font-specification:'Press Start 2P'"
         x="738.25122"
         y="1983.3652"
         id="tspan1007"> neste.</tspan></text>
    <text
       xml:space="preserve"
       style="font-style:normal;font-variant:normal;font-weight:normal;font-stretch:normal;line-height:0%;font-family:Lavi;-inkscape-font-specification:Lavi;text-align:center;letter-spacing:0px;word-spacing:0px;text-anchor:middle;fill:#000000;fill-opacity:1;stroke:none"
       x="835.06958"
       y="2071.354"
       id="text4246-3-3-2-6"><tspan
         sodipodi:role="line"
         style="font-style:normal;font-variant:normal;font-weight:normal;font-stretch:normal;font-size:32px;line-height:1.39999998;font-family:'Press Start 2P';-inkscape-font-specification:'Press Start 2P'"
         x="835.06958"
         y="2071.354"
         id="tspan1009">Hallo,</tspan></text>
    <text
       xml:space="preserve"
       style="font-style:normal;font-variant:normal;font-weight:normal;font-stretch:normal;line-height:0%;font-family:Lavi;-inkscape-font-specification:Lavi;text-align:center;letter-spacing:0px;word-spacing:0px;text-anchor:middle;fill:#000000;fill-opacity:1;stroke:none"
       x="916.5"
       y="2181.4502"
       id="text4246-3-3-2-6-1"><tspan
         sodipodi:role="line"
         style="font-style:normal;font-variant:normal;font-weight:normal;font-stretch:normal;font-size:32px;line-height:1.39999998;font-family:'Press Start 2P';-inkscape-font-specification:'Press Start 2P'"
         x="916.5"
         y="2181.4502"
         id="tspan128">har du planer</tspan><tspan
         sodipodi:role="line"
         style="font-style:normal;font-variant:normal;font-weight:normal;font-stretch:normal;font-size:32px;line-height:1.39999998;font-family:'Press Start 2P';-inkscape-font-specification:'Press Start 2P'"
         x="916.5"
         y="2226.2502"
         id="tspan1022">om å henrette</tspan><tspan
         sodipodi:role="line"
         style="font-style:normal;font-variant:normal;font-weight:normal;font-stretch:normal;font-size:32px;line-height:1.39999998;font-family:'Press Start 2P';-inkscape-font-specification:'Press Start 2P'"
         x="916.5"
         y="2271.0503"
         id="tspan1024">noen i kveld?</tspan></text>
    <text
       xml:space="preserve"
       style="font-style:normal;font-variant:normal;font-weight:normal;font-stretch:normal;font-size:43.85733414px;line-height:0%;font-family:Lavi;-inkscape-font-specification:'Lavi, Normal';font-variant-ligatures:normal;font-variant-caps:normal;font-variant-numeric:normal;font-feature-settings:normal;text-align:center;letter-spacing:0px;word-spacing:0px;writing-mode:lr-tb;text-anchor:middle;display:inline;fill:#241c1c;fill-opacity:1;stroke:#000000;stroke-width:0.82200003;stroke-miterlimit:4;stroke-dasharray:none;stroke-opacity:1"
       x="2423.5745"
       y="3318.4402"
       id="text4213"
       transform="matrix(0.96049651,0,-0.32716292,1.0411282,0,0)"><tspan
         sodipodi:role="line"
         id="tspan3562"
         x="2423.5745"
         y="3318.4402"
         style="font-style:normal;font-variant:normal;font-weight:normal;font-stretch:normal;font-size:43.85733414px;line-height:1.25;font-family:Lavi;-inkscape-font-specification:'Lavi, Normal';font-variant-ligatures:normal;font-variant-caps:normal;font-variant-numeric:normal;font-feature-settings:normal;text-align:center;writing-mode:lr-tb;text-anchor:middle;stroke-width:0.82200003">Fortsettelse følger...</tspan></text>
    <text
       xml:space="preserve"
       style="font-style:normal;font-variant:normal;font-weight:normal;font-stretch:normal;line-height:0%;font-family:Lavi;-inkscape-font-specification:Lavi;letter-spacing:0px;word-spacing:0px;fill:#000000;fill-opacity:1;stroke:#000000;stroke-width:0;stroke-linecap:square;stroke-miterlimit:4;stroke-dasharray:none;stroke-opacity:1;filter:url(#filter4375-4-1-1-1-9-3)"
       x="787.65729"
       y="1584.5073"
       id="text4580-2"
       transform="matrix(1.1613654,-0.69321719,0.44569052,1.6077045,-156.83333,-1430.875)"><tspan
         sodipodi:role="line"
         id="tspan4582-9"
         x="787.65729"
         y="1584.5073"
         style="font-style:normal;font-variant:normal;font-weight:normal;font-stretch:normal;font-size:70px;line-height:1.25;font-family:ComicSpice;-inkscape-font-specification:ComicSpice;fill:#ffffff;stroke-width:0;stroke-linecap:square;stroke-miterlimit:4;stroke-dasharray:none">B</tspan></text>
    <text
       xml:space="preserve"
       style="font-style:normal;font-variant:normal;font-weight:normal;font-stretch:normal;line-height:0%;font-family:Lavi;-inkscape-font-specification:Lavi;letter-spacing:0px;word-spacing:0px;fill:#000000;fill-opacity:1;stroke:#000000;stroke-width:0;stroke-linecap:square;stroke-miterlimit:4;stroke-dasharray:none;stroke-opacity:1;filter:url(#filter4375-4-1-1-1-9-30)"
       x="787.65729"
       y="1584.5073"
       id="text4580-9-1"
       transform="matrix(1.0231831,-0.61448535,0.39266108,1.4251102,81.385407,-1213.691)"><tspan
         sodipodi:role="line"
         id="tspan4582-26"
         x="787.65729"
         y="1584.5073"
         style="font-style:normal;font-variant:normal;font-weight:normal;font-stretch:normal;font-size:70px;line-height:1.25;font-family:ComicSpice;-inkscape-font-specification:ComicSpice;fill:#ffffff;stroke-width:0;stroke-linecap:square;stroke-miterlimit:4;stroke-dasharray:none">Z</tspan></text>
    <text
       xml:space="preserve"
       style="font-style:normal;font-variant:normal;font-weight:normal;font-stretch:normal;line-height:0%;font-family:Lavi;-inkscape-font-specification:Lavi;letter-spacing:0px;word-spacing:0px;fill:#000000;fill-opacity:1;stroke:#000000;stroke-width:0;stroke-linecap:square;stroke-miterlimit:4;stroke-dasharray:none;stroke-opacity:1;filter:url(#filter4375-4-1-1-1-9-30-2)"
       x="787.65729"
       y="1584.5073"
       id="text4580-9-9"
       transform="matrix(0.96706972,-0.54046136,0.32409822,1.325527,277.0066,-1122.6108)"><tspan
         sodipodi:role="line"
         id="tspan4582-26-1"
         x="787.65729"
         y="1584.5073"
         style="font-style:normal;font-variant:normal;font-weight:normal;font-stretch:normal;font-size:70px;line-height:1.25;font-family:ComicSpice;-inkscape-font-specification:ComicSpice;fill:#ffffff;stroke-width:0;stroke-linecap:square;stroke-miterlimit:4;stroke-dasharray:none">Z</tspan></text>
    <text
       xml:space="preserve"
       style="font-style:normal;font-variant:normal;font-weight:normal;font-stretch:normal;line-height:0%;font-family:Lavi;-inkscape-font-specification:Lavi;letter-spacing:0px;word-spacing:0px;fill:#000000;fill-opacity:1;stroke:#000000;stroke-width:0;stroke-linecap:square;stroke-miterlimit:4;stroke-dasharray:none;stroke-opacity:1;filter:url(#filter4375-4-1-1-1-9-30-2-7)"
       x="787.65729"
       y="1584.5073"
       id="text4580-9-9-6"
       transform="matrix(0.79978398,-0.46065546,0.26803503,1.1297963,538.53638,-881.29232)"><tspan
         sodipodi:role="line"
         id="tspan4582-26-1-5"
         x="787.65729"
         y="1584.5073"
         style="font-style:normal;font-variant:normal;font-weight:normal;font-stretch:normal;font-size:70px;line-height:1.25;font-family:ComicSpice;-inkscape-font-specification:ComicSpice;fill:#ffffff;stroke-width:0;stroke-linecap:square;stroke-miterlimit:4;stroke-dasharray:none">Z</tspan></text>
    <text
       xml:space="preserve"
       style="font-style:normal;font-variant:normal;font-weight:normal;font-stretch:normal;line-height:0%;font-family:Lavi;-inkscape-font-specification:Lavi;letter-spacing:0px;word-spacing:0px;fill:#000000;fill-opacity:1;stroke:#000000;stroke-width:0;stroke-linecap:square;stroke-miterlimit:4;stroke-dasharray:none;stroke-opacity:1;filter:url(#filter4375-4-1-1-1-9-30-2-7-6)"
       x="787.65729"
       y="1584.5073"
       id="text4580-9-9-6-8"
       transform="matrix(1.2353491,-0.45667938,0.06126805,1.7149541,559.73632,-1837.3338)"><tspan
         sodipodi:role="line"
         id="tspan4582-26-1-5-8"
         x="787.65729"
         y="1584.5073"
         style="font-style:normal;font-variant:normal;font-weight:normal;font-stretch:normal;font-size:70px;line-height:1.25;font-family:ComicSpice;-inkscape-font-specification:ComicSpice;fill:#ffffff;stroke-width:0;stroke-linecap:square;stroke-miterlimit:4;stroke-dasharray:none">!</tspan></text>
    <text
       xml:space="preserve"
       style="font-style:normal;font-variant:normal;font-weight:normal;font-stretch:normal;line-height:0%;font-family:Lavi;-inkscape-font-specification:Lavi;text-align:center;letter-spacing:0px;word-spacing:0px;text-anchor:middle;display:inline;opacity:0.6;fill:#c9bbb2;fill-opacity:1;stroke:#c9bbb2;stroke-width:2.68153024;stroke-miterlimit:4;stroke-dasharray:none;stroke-opacity:1;filter:url(#filter4210)"
       x="1174.0292"
       y="1085.962"
       id="text4246-5-9"
       transform="matrix(0.43806884,-0.0642896,-0.00211348,0.65091426,1442.8283,-228.32097)"><tspan
         sodipodi:role="line"
         style="font-style:normal;font-variant:normal;font-weight:normal;font-stretch:normal;font-size:45.00812149px;line-height:1;font-family:Fondamento;-inkscape-font-specification:Fondamento;fill:#c9bbb2;fill-opacity:1;stroke:#c9bbb2;stroke-width:2.68153024;stroke-miterlimit:4;stroke-dasharray:none;stroke-opacity:1"
         x="1174.0292"
         y="1085.962"
         id="tspan754-5">KRONING</tspan><tspan
         sodipodi:role="line"
         style="font-style:normal;font-variant:normal;font-weight:normal;font-stretch:normal;font-size:45.00812149px;line-height:1;font-family:Fondamento;-inkscape-font-specification:Fondamento;fill:#c9bbb2;fill-opacity:1;stroke:#c9bbb2;stroke-width:2.68153024;stroke-miterlimit:4;stroke-dasharray:none;stroke-opacity:1"
         x="1174.0292"
         y="1130.9702"
         id="tspan1031">AV HENNES</tspan><tspan
         sodipodi:role="line"
         style="font-style:normal;font-variant:normal;font-weight:normal;font-stretch:normal;font-size:45.00812149px;line-height:1;font-family:Fondamento;-inkscape-font-specification:Fondamento;fill:#c9bbb2;fill-opacity:1;stroke:#c9bbb2;stroke-width:2.68153024;stroke-miterlimit:4;stroke-dasharray:none;stroke-opacity:1"
         x="1174.0292"
         y="1175.9783"
         id="tspan1033">MAJESTET</tspan></text>
    <text
       xml:space="preserve"
       style="font-style:normal;font-variant:normal;font-weight:normal;font-stretch:normal;line-height:0%;font-family:Lavi;-inkscape-font-specification:Lavi;text-align:center;letter-spacing:0px;word-spacing:0px;text-anchor:middle;display:inline;opacity:0.6;fill:#fff6d5;fill-opacity:1;stroke:#fff6d5;stroke-width:2.70249391;stroke-miterlimit:4;stroke-dasharray:none;filter:url(#filter4210-3)"
       x="1174.0292"
       y="1085.962"
       id="text4246-5-9-4"
       transform="matrix(0.51278087,-0.03586668,-0.01317943,0.74688801,1369.9321,-59.005938)"><tspan
         sodipodi:role="line"
         style="font-style:normal;font-variant:normal;font-weight:normal;font-stretch:normal;font-size:45.00812149px;line-height:1;font-family:Fondamento;-inkscape-font-specification:Fondamento;fill:#fff6d5;stroke:#fff6d5;stroke-width:2.70249391;stroke-miterlimit:4;stroke-dasharray:none;stroke-opacity:1"
         x="1174.0292"
         y="1085.962"
         id="tspan115-8">DRONNING</tspan><tspan
         sodipodi:role="line"
         style="font-style:normal;font-variant:normal;font-weight:normal;font-stretch:normal;font-size:45.00812149px;line-height:1;font-family:Fondamento;-inkscape-font-specification:Fondamento;fill:#fff6d5;stroke:#fff6d5;stroke-width:2.70249391;stroke-miterlimit:4;stroke-dasharray:none;stroke-opacity:1"
         x="1174.0292"
         y="1130.9702"
         id="tspan121-0">KORIANDER</tspan></text>
  </g>
</svg>
