<?xml version="1.0" encoding="UTF-8" standalone="no"?>
<svg
   id="svg2"
   version="1.1"
   inkscape:version="1.3 (1:1.3+202307231459+0e150ed6c4)"
   width="2481"
   height="3503"
   sodipodi:docname="E34P04.svg"
   xmlns:inkscape="http://www.inkscape.org/namespaces/inkscape"
   xmlns:sodipodi="http://sodipodi.sourceforge.net/DTD/sodipodi-0.dtd"
   xmlns:xlink="http://www.w3.org/1999/xlink"
   xmlns="http://www.w3.org/2000/svg"
   xmlns:svg="http://www.w3.org/2000/svg"
   xmlns:rdf="http://www.w3.org/1999/02/22-rdf-syntax-ns#"
   xmlns:cc="http://creativecommons.org/ns#"
   xmlns:dc="http://purl.org/dc/elements/1.1/">
  <metadata
     id="metadata8">
    <rdf:RDF>
      <cc:Work
         rdf:about="">
        <dc:format>image/svg+xml</dc:format>
        <dc:type
           rdf:resource="http://purl.org/dc/dcmitype/StillImage" />
        <dc:title />
      </cc:Work>
    </rdf:RDF>
  </metadata>
  <defs
     id="defs6">
    <filter
       style="color-interpolation-filters:sRGB"
       id="filter4375-4-1-1-1-9-5-8-8-5-5-3-8"
       inkscape:label="soundFX1"
       x="-0.064098823"
       y="-0.022195587"
       width="1.0862208"
       height="1.0843383">
      <feFlood
         id="feFlood4377-7-9-0-8-1-7-3-1-2-7-6-7"
         flood-opacity="1"
         flood-color="rgb(255,255,255)"
         result="flood" />
      <feComposite
         id="feComposite4379-3-8-8-2-77-4-1-0-6-4-7-9"
         in2="SourceGraphic"
         in="flood"
         operator="in"
         result="composite1"
         baseFrequency="0.053999999999999999 0.053999999999999999" />
      <feMorphology
         id="feMorphology4393-1-0-49-8-9-3-0-1-9-9-5-2"
         operator="dilate"
         radius="2.9756367599225957"
         result="result3" />
      <feComposite
         id="feComposite4385-9-5-7-0-8-8-7-5-4-9-3-0"
         in2="result3"
         in="SourceGraphic"
         operator="over"
         result="fbSourceGraphic" />
      <feColorMatrix
         result="fbSourceGraphicAlpha"
         in="fbSourceGraphic"
         values="0 0 0 -1 0 0 0 0 -1 0 0 0 0 -1 0 0 0 0 1 0"
         id="feColorMatrix4544-9-4-4-5-2" />
      <feTurbulence
         id="feTurbulence4546-3-6-5-6-3"
         type="fractalNoise"
         numOctaves="5"
         seed="174"
         baseFrequency="0.053999999999999999 0.054054054054054057"
         result="turbulence" />
      <feDisplacementMap
         id="feDisplacementMap4548-8-0-9-2-7"
         in2="turbulence"
         in="fbSourceGraphic"
         scale="6.6"
         yChannelSelector="G"
         xChannelSelector="R"
         result="fbSourceGraphic" />
      <feColorMatrix
         result="fbSourceGraphicAlpha"
         in="fbSourceGraphic"
         values="0 0 0 -1 0 0 0 0 -1 0 0 0 0 -1 0 0 0 0 1 0"
         id="feColorMatrix4670-7-7-3-9-5" />
      <feFlood
         id="feFlood4672-4-4-5-1-9"
         flood-opacity="1"
         flood-color="rgb(255,255,255)"
         result="flood"
         in="fbSourceGraphic" />
      <feComposite
         id="feComposite4674-8-3-7-2-22"
         in2="fbSourceGraphic"
         in="flood"
         operator="in"
         result="composite1" />
      <feGaussianBlur
         id="feGaussianBlur4676-3-7-08-7-8"
         in="composite1"
         stdDeviation="0"
         result="blur" />
      <feOffset
         id="feOffset4678-6-9-1-0-9"
         dx="-6.3258232761971414"
         dy="6"
         result="offset" />
      <feComposite
         id="feComposite4680-4-0-9-9-7"
         in2="offset"
         in="fbSourceGraphic"
         operator="over"
         result="composite2" />
    </filter>
  </defs>
  <sodipodi:namedview
     pagecolor="#ffffff"
     bordercolor="#666666"
     borderopacity="1"
     objecttolerance="10"
     gridtolerance="10"
     guidetolerance="10"
     inkscape:pageopacity="0"
     inkscape:pageshadow="2"
     inkscape:window-width="1920"
     inkscape:window-height="997"
     id="namedview4"
     showgrid="false"
     inkscape:zoom="0.3740595"
     inkscape:cx="1245.7911"
     inkscape:cy="2534.3562"
     inkscape:window-x="0"
     inkscape:window-y="0"
     inkscape:window-maximized="1"
     inkscape:current-layer="layer3"
     inkscape:document-rotation="0"
     borderlayer="true"
     inkscape:snap-global="false"
     inkscape:pagecheckerboard="0"
     inkscape:showpageshadow="0"
     inkscape:deskcolor="#d1d1d1" />
  <g
     inkscape:groupmode="layer"
     id="layer2"
     inkscape:label="artwork"
     sodipodi:insensitive="true">
    <image
       xlink:href="../gfx_Pepper-and-Carrot_by-David-Revoy_E34P04.png"
       width="2481"
       height="3503"
       id="image10"
       x="0"
       y="0" />
  </g>
  <g
     inkscape:groupmode="layer"
     id="layer3"
     inkscape:label="speechbubbles"
     style="display:inline">
    <path
       style="color:#000000;display:inline;overflow:visible;visibility:visible;fill:#d5faff;fill-opacity:1;fill-rule:nonzero;stroke:none;stroke-width:0.771972px;marker:none;enable-background:accumulate"
       d="m 942.00596,161.07596 c -28.41127,0.18837 -57.39429,4.42461 -83.12012,17.07786 -19.19091,9.69733 -33.51347,28.01801 -39.23952,48.70023 -5.65504,17.99606 -6.20409,38.27366 1.67335,55.70123 8.01786,16.7172 24.03642,28.51556 41.43815,33.96613 36.30202,13.29837 75.16708,18.11032 113.6517,18.43526 30.61068,-0.48222 61.69178,-8.24083 87.25878,-25.55631 12.523,-8.76969 22.2829,-21.77859 26.0612,-36.7251 6.7602,-24.07685 1.5312,-51.05613 -13.1338,-71.19589 -9.5408,-12.7977 -23.3343,-22.26699 -38.6444,-26.66428 -16.5718,-5.41618 -33.8476,-8.17666 -51.02484,-10.85683 -14.88569,-1.98048 -29.90361,-2.96657 -44.9205,-2.8823 z"
       id="path4040-4-5-3-5"
       inkscape:connector-curvature="0"
       sodipodi:nodetypes="zssssz" />
    <path
       style="color:#000000;display:inline;overflow:visible;visibility:visible;fill:#d5faff;fill-opacity:1;fill-rule:nonzero;stroke:none;stroke-width:1.05711px;marker:none;enable-background:accumulate"
       d="m 976.90667,313.60892 c -35.15439,1.42059 -69.79727,9.20301 -103.88822,18.40183 -19.54911,6.20575 -37.6354,18.03522 -51.85599,34.20454 -16.55313,17.91864 -29.40536,41.13788 -32.56452,66.89956 -3.6437,29.11296 5.04522,60.42241 24.56477,80.65552 16.37063,17.27595 38.67922,26.45589 61.00178,28.1377 42.86127,4.77283 85.88364,8.0457 128.96941,8.49205 25.6818,0.27772 51.3952,-0.10046 77.0191,-2.12932 23.5133,-2.83328 46.9458,-9.43655 67.8588,-21.95149 17.4856,-12.03967 27.975,-34.74674 27.9705,-57.42868 0.5094,-26.05999 -5.6214,-52.3773 -18.284,-74.40139 -10.4364,-18.2416 -23.1267,-35.4305 -39.5273,-47.39066 -13.5147,-9.98053 -29.3308,-15.05873 -44.9456,-19.27096 -16.676,-4.23261 -33.4029,-8.35694 -50.381,-10.80697 -15.2193,-2.28903 -30.57559,-3.53812 -45.93773,-3.41173 z"
       id="path4040-4-5-3"
       inkscape:connector-curvature="0"
       sodipodi:nodetypes="zssssz" />
    <path
       style="color:#000000;display:inline;overflow:visible;visibility:visible;fill:#d5faff;fill-opacity:1;fill-rule:nonzero;stroke:none;stroke-width:1px;marker:none;enable-background:accumulate"
       d="m 883.20886,587.44869 c 72.99905,-2.53565 65.7638,-63.19299 71.48587,-78.47444 l 37.78086,7.15422 c 0,0 -26.16471,95.6219 -109.26673,71.32022 z"
       id="path3072-5-5"
       inkscape:connector-curvature="0"
       sodipodi:nodetypes="cccc" />
    <path
       style="display:inline;fill:#d6ffba;fill-rule:evenodd;stroke:none;stroke-width:1.408px;stroke-linecap:butt;stroke-linejoin:miter;stroke-opacity:1;fill-opacity:1"
       d="m 1729.4941,1533.8343 c -263.4619,-188.6648 -719.6026,-198.4778 -988.12534,-169.638 l -8.73311,23.8296 c 289.95695,-44.5653 772.14605,6.8513 996.85845,145.8084 z"
       id="path1094"
       inkscape:connector-curvature="0"
       sodipodi:nodetypes="cccc" />
    <path
       style="color:#000000;display:inline;overflow:visible;visibility:visible;fill:#d6ffba;fill-opacity:1;fill-rule:nonzero;stroke:none;stroke-width:1.14938px;marker:none;enable-background:accumulate"
       d="m 1183.8277,1271.7689 c -37.6046,-0.2726 -75.6631,3.442 -110.3547,13.9554 -22.0287,6.7268 -42.2373,17.2852 -55.9159,31.6132 -16.2875,16.9322 -20.76922,39.9674 -9.9166,59.4755 10.6003,19.0512 31.3161,34.6611 55.7179,44.8368 20.2887,8.3109 43.4857,11.8302 66.3889,13.1863 30.0241,1.9736 60.211,1.4012 90.1265,-0.5593 15.7428,-1.0347 31.469,-2.2629 47.0931,-3.9454 24.162,-3.0425 47.8226,-9.9727 66.0493,-21.9723 16.9514,-10.886 30.7545,-24.8923 36.5433,-40.9802 4.8882,-14.6292 -0.4156,-30.9186 -13.8978,-42.5787 -20.7495,-19.9371 -50.129,-34.9635 -82.5916,-42.9868 -28.6902,-7.1998 -59.1322,-9.8419 -89.2424,-10.0445 z"
       id="path3365-3"
       inkscape:connector-curvature="0"
       sodipodi:nodetypes="cssccc" />
    <path
       style="fill:#d6ffba;fill-rule:evenodd;stroke:none;stroke-width:0.932549px;stroke-linecap:butt;stroke-linejoin:miter;stroke-opacity:1;fill-opacity:1"
       d="m 546.24323,1247.5075 c -38.29325,0.54 -76.6414,-0.1586 -114.8722,2.6749 -21.23699,2.3873 -42.65268,4.8148 -63.18053,11.4359 -21.12765,8.5146 -41.48061,20.7348 -56.91733,38.7335 -12.29282,15.0346 -21.00012,33.9844 -22.60743,54.0983 -0.64803,14.5754 4.34525,28.6174 10.59213,41.2856 9.41012,19.4087 23.52383,36.5852 41.58399,46.9828 15.53745,9.0935 33.08072,13.043 50.39043,16.0006 19.99526,3.2302 40.21288,4.3835 60.38638,5.4769 59.8762,2.5339 119.8144,-1.3956 179.39828,-7.6531 23.61895,-2.8514 47.37255,-6.2829 70.06242,-14.1821 17.00638,-6.6532 32.91553,-18.1123 42.97233,-34.5769 8.19254,-13.7778 12.71799,-29.5826 16.82403,-45.2009 2.15101,-11.9715 -1.37814,-24.0762 -5.86706,-34.9336 -5.82273,-14.1939 -13.65174,-27.4927 -23.38335,-38.951 -6.77768,-7.5936 -15.2471,-13.2275 -24.2798,-17.1576 -13.71389,-6.4013 -28.08388,-10.9872 -42.48177,-15.2143 -22.18402,-6.0763 -45.11341,-8.8088 -67.99036,-8.5389 -16.87471,-0.3439 -33.75333,-0.279 -50.63016,-0.2801 z"
       id="path1079"
       inkscape:connector-curvature="0" />
    <path
       id="path5050-5"
       style="color:#000000;display:inline;overflow:visible;visibility:visible;fill:#d5faff;fill-opacity:1;fill-rule:nonzero;stroke:none;stroke-width:1.10542px;marker:none;enable-background:accumulate"
       d="m 1055.3066,2327.9473 c -6.7695,3.1849 -13.5391,6.3698 -20.3086,9.5547 -5.4515,8.7234 -8.4665,18.631 -12.08,28.1855 0.2877,8.9888 4.778,17.1081 7.4112,25.5492 4.8043,13.3509 10.142,27.6669 6.8338,42.0256 -3.4158,16.5674 -11.898,31.5008 -16.4345,47.7397 -0.956,12.8214 5.6959,25.4955 16.2957,32.604 7.6345,5.5383 17.8577,10.6572 22.2668,17.4448 4.4091,6.7876 3.9198,12.9565 3.0275,20.0069 -0.8923,7.0504 -6.8233,13.4216 -10.106,20.1773 -2.5543,5.2297 -6.5724,10.2065 -4.8898,16.3644 0.5485,8.6419 3.5528,16.9498 8.2569,24.18 1.9155,5.167 7.5375,11.5732 1.5157,15.9953 -3.2977,3.3341 -6.6403,6.6236 -10.0035,9.8933 6.6199,-4.2691 13.2848,-8.7213 18.4668,-14.7364 2.2175,-7.1316 -0.2102,-14.5787 -3.3587,-21.0008 -3.3881,-9.4513 -0.8017,-19.8562 4.2602,-28.1901 5.6073,-9.9289 13.8919,-19.3951 13.8982,-31.4245 0.5595,-12.2965 -5.2038,-24.6049 -15.0512,-32.0084 -6.3523,-5.6552 -13.9693,-10.3956 -18.4457,-17.7889 -5.2096,-11.3685 -1.3783,-24.1347 3.0069,-35.0894 5.3982,-14.2627 13.5704,-28.4586 12.1858,-44.2358 -1.3898,-17.7099 -13.4465,-33.5966 -10.8255,-51.7808 1.5634,-10.2967 5.5548,-20.0386 7.2382,-30.3113 -0.044,-1.6098 -1.4268,-3.3809 -3.1602,-3.1543 z"
       sodipodi:nodetypes="ccccccczzcccccccccccccccc" />
    <path
       id="path1086-2"
       style="display:inline;fill:#d5faff;fill-rule:evenodd;stroke:none;stroke-width:1.75651px;stroke-linecap:butt;stroke-linejoin:miter;stroke-opacity:1;fill-opacity:1"
       d="m 967.74937,2362.244 c -22.95414,2.072 -44.85862,11.2864 -68.19582,10.1905 -16.84394,-0.046 -34.72882,-3.2616 -50.49681,4.1788 -12.26294,5.7666 -25.15922,12.7516 -32.17017,24.4734 -7.69487,14.5227 -10.32475,33.1117 -0.79614,47.4824 12.91312,19.6335 36.54841,32.5447 60.82255,32.4581 20.60398,0.1222 41.22568,2.0994 61.20336,7.0853 15.93554,3.5903 32.72314,5.4007 48.73966,1.128 15.5281,-3.5641 31.5301,-7.7909 47.584,-4.9333 20.2296,2.8709 40.4353,8.7921 61.0804,5.9357 25.4366,-2.8639 50.2639,-12.2598 76.2078,-9.4962 15.309,1.1364 32.1561,2.2363 45.3444,-6.8501 21.5934,-13.656 29.9521,-43.783 18.1466,-65.8698 -9.0614,-13.4201 -25.4792,-19.8261 -40.6894,-24.6114 -23.0298,-6.8718 -47.8987,-1.9296 -70.8322,-9.3646 -14.2597,-4.261 -28.9806,-8.1533 -44.0728,-6.9259 -26.9333,1.1429 -54.3251,6.2281 -80.9432,-0.3296 -10.19545,-2.1008 -20.44285,-4.5119 -30.93225,-4.5513 z" />
    <path
       id="path1086"
       style="display:inline;fill:#d5faff;fill-rule:evenodd;stroke:none;stroke-width:1.15229px;stroke-linecap:butt;stroke-linejoin:miter;stroke-opacity:1;fill-opacity:1"
       d="m 930.8344,2287.7817 c 11.5444,-13.0131 30.85394,-20.4085 49.92799,-25.1206 19.70371,-4.8304 40.42501,-6.7484 61.06231,-6.9132 19.0807,-0.3452 38.8142,-1.505 57.201,3.2629 8.8905,2.5751 17.0854,6.3476 25.3986,9.8373 11.1035,5.0191 22.6942,11.2049 27.1362,20.9226 2.8969,6.2472 0.714,12.8861 0.7429,19.3176 -0.5263,9.8612 -1.2089,20.7155 -10.0358,28.5913 -8.5492,8.1476 -22.1667,11.2975 -34.7049,14.2544 -20.7135,4.4306 -41.97,7.4298 -63.3719,9.0531 -13.7804,1.0974 -27.8708,2.1776 -41.5319,-0.2271 -16.38297,-2.6873 -31.10394,-9.3127 -44.74714,-16.513 -10.99001,-6.1764 -21.8911,-13.394 -27.30252,-23.2141 -3.24333,-7.1043 -2.60789,-14.833 -1.91489,-22.2214 0.46505,-3.7008 1.14319,-7.3899 2.14005,-11.0298 z" />
    <path
       style="color:#000000;display:inline;overflow:visible;visibility:visible;fill:#d6ffba;fill-opacity:1;fill-rule:nonzero;stroke:none;stroke-width:1.00142px;marker:none;enable-background:accumulate"
       d="m 1516.9649,2907.4058 c -26.8681,26.3341 -43.8455,65.9906 -27.9619,106.1587 15.8839,40.168 -2.7967,41.867 -2.7967,41.867 l -38.7428,-11.8655 c 0,0 -15.1358,-89.5331 69.5014,-136.1602 z"
       id="path3072-6"
       inkscape:connector-curvature="0"
       sodipodi:nodetypes="csccc" />
    <path
       style="display:inline;fill:#d6ffba;stroke:none;stroke-width:0.570446;fill-opacity:1"
       d="m 1410.8955,3098.0529 c -22.9553,0.8866 -46.0729,11.2103 -65.5489,32.7326 -15.287,17.5406 -26.9468,45.3308 -30.5269,76.7818 -2.1228,20.5986 0.096,41.5271 2.5164,61.7304 3.1424,25.7241 6.7687,47.4379 18.1202,69.5348 8.7624,13.8799 18.8436,19.3689 30.4205,24.2967 12.2047,4.4977 27.3437,7.6029 40.3272,8.0435 21.4388,1.5191 42.904,0.6931 64.3426,-0.373 18.2627,-1.5077 36.7754,-5.6443 53.7506,-18.0537 17.5749,-13.0377 32.8291,-36.6598 40.9978,-66.9266 7.4926,-27.8622 8.6552,-61.1789 2.0002,-89.878 -5.8488,-24.0518 -16.9898,-43.1148 -29.4998,-56.9909 -12.1673,-13.4843 -26.0739,-21.5403 -40.1975,-26.096 -15.5841,-5.3772 -31.386,-8.4928 -47.1515,-11.7475 -13.138,-2.281 -26.3482,-3.2908 -39.5509,-3.0541 z"
       id="path3280-5"
       inkscape:connector-curvature="0"
       sodipodi:nodetypes="csssccccccccccc" />
    <path
       style="fill:#d6ffba;stroke:none;stroke-width:0.394774;fill-opacity:1"
       d="m 1425.4407,3023.6629 c -23.9706,0.4739 -48.3439,2.7722 -70.8012,10.4538 -12.6277,4.3405 -25.0592,9.7977 -34.9054,17.9315 -6.1361,5.0705 -10.7981,11.4109 -13.1798,18.3778 -3.3782,9.4662 -3.5964,19.6495 -1.1787,29.2491 1.9648,7.1067 6.8218,13.7771 14.2136,17.6868 9.9126,5.7135 21.5663,8.722 33.0567,11.3608 23.1703,4.668 47.1974,4.4724 70.9105,4.8574 27.2056,0.3226 54.4875,0.5837 81.6243,-1.7321 15.731,-1.4063 31.81,-2.7239 46.5792,-7.9435 9.3183,-3.3623 17.6479,-9.0569 22.5594,-16.6384 9.3255,-13.8537 8.3906,-32.4471 -3.4561,-44.8722 -9.6101,-10.2486 -23.455,-16.8357 -37.5018,-21.8805 -25.0622,-9.1775 -52.0101,-14.6251 -79.3121,-16.315 -9.5122,-0.6184 -19.0647,-0.7346 -28.6086,-0.5355 z"
       id="path3280-8-0"
       inkscape:connector-curvature="0"
       sodipodi:nodetypes="csssc" />
  </g>
  <g
     inkscape:groupmode="layer"
     id="layer1"
     inkscape:label="txt">
    <text
       xml:space="preserve"
       style="font-style:normal;font-variant:normal;font-weight:normal;font-stretch:normal;font-size:45px;line-height:1.25;font-family:Lavi;-inkscape-font-specification:Lavi;text-align:center;letter-spacing:0px;word-spacing:0px;text-anchor:middle;fill:#000000;fill-opacity:1;stroke:none"
       x="956.604"
       y="230.24884"
       id="text4246-3-2-2-6-3-7-9-3"><tspan
         style="font-size:45px"
         sodipodi:role="line"
         x="956.604"
         y="230.24884"
         id="tspan68">Da, vaša</tspan><tspan
         style="font-size:45px"
         sodipodi:role="line"
         x="956.604"
         y="286.49884"
         id="tspan60048">visokost.</tspan></text>
    <text
       xml:space="preserve"
       style="font-style:normal;font-variant:normal;font-weight:normal;font-stretch:normal;font-size:45px;line-height:1.25;font-family:Lavi;-inkscape-font-specification:Lavi;text-align:center;letter-spacing:0px;word-spacing:0px;text-anchor:middle;fill:#000000;fill-opacity:1;stroke:none"
       x="984.47687"
       y="378.7301"
       id="text4246-3-2-2-6-3-7-9-3-3"><tspan
         style="font-size:45px"
         sodipodi:role="line"
         x="984.47687"
         y="378.7301"
         id="tspan77">Ime ji je</tspan><tspan
         style="font-size:45px"
         sodipodi:role="line"
         x="984.47687"
         y="434.9801"
         id="tspan398">Paprika. Iz šole</tspan><tspan
         style="font-size:45px"
         sodipodi:role="line"
         x="984.47687"
         y="491.2301"
         id="tspan400">Kaosaha prihaja.</tspan></text>
    <text
       xml:space="preserve"
       style="font-style:normal;font-variant:normal;font-weight:normal;font-stretch:normal;font-size:45px;line-height:1.25;font-family:Lavi;-inkscape-font-specification:Lavi;text-align:center;letter-spacing:0px;word-spacing:0px;text-anchor:middle;fill:#000000;fill-opacity:1;stroke:none"
       x="522.53113"
       y="1318.7725"
       id="text4246-3-2-2-6-3-7-9-3-3-3"><tspan
         style="font-size:45px"
         sodipodi:role="line"
         x="522.53113"
         y="1318.7725"
         id="tspan54402">Njena navzočnost</tspan><tspan
         style="font-size:45px"
         sodipodi:role="line"
         x="522.53113"
         y="1375.0225"
         id="tspan463">kazi sveto ravnovesje</tspan><tspan
         style="font-size:45px"
         sodipodi:role="line"
         x="522.53113"
         y="1431.2725"
         id="tspan461">naše šole.</tspan></text>
    <text
       xml:space="preserve"
       style="font-style:normal;font-variant:normal;font-weight:normal;font-stretch:normal;font-size:45px;line-height:1.25;font-family:Lavi;-inkscape-font-specification:Lavi;text-align:center;letter-spacing:0px;word-spacing:0px;text-anchor:middle;fill:#000000;fill-opacity:1;stroke:none"
       x="1185.7289"
       y="1344.0664"
       id="text4246-3-2-2-6-3-7-9-3-3-3-9"><tspan
         style="font-size:45px"
         sodipodi:role="line"
         x="1185.7289"
         y="1344.0664"
         id="tspan28121">Pri tej priči jo</tspan><tspan
         style="font-size:45px"
         sodipodi:role="line"
         x="1185.7289"
         y="1400.3164"
         id="tspan467">spodi proč.</tspan></text>
    <text
       xml:space="preserve"
       style="font-style:normal;font-variant:normal;font-weight:normal;font-stretch:normal;font-size:45px;line-height:1.25;font-family:Lavi;-inkscape-font-specification:Lavi;text-align:center;letter-spacing:0px;word-spacing:0px;text-anchor:middle;fill:#000000;fill-opacity:1;stroke:none"
       x="1041.905"
       y="2320.762"
       id="text4246-3-2-2-6-3-7-9-3-3-3-9-0-0"><tspan
         style="font-size:45px"
         sodipodi:role="line"
         x="1041.905"
         y="2320.762"
         id="tspan1031-6-6">Ampak …</tspan></text>
    <text
       xml:space="preserve"
       style="font-style:normal;font-variant:normal;font-weight:normal;font-stretch:normal;font-size:45px;line-height:1.25;font-family:Lavi;-inkscape-font-specification:Lavi;text-align:center;letter-spacing:0px;word-spacing:0px;text-anchor:middle;fill:#000000;fill-opacity:1;stroke:none"
       x="1028.5508"
       y="2444.2068"
       id="text4246-3-2-2-6-3-7-9-3-3-3-9-0"><tspan
         style="font-size:45px"
         sodipodi:role="line"
         x="1028.5508"
         y="2444.2068"
         id="tspan1031-6">Mojstrica Vasabi …</tspan></text>
    <text
       xml:space="preserve"
       style="font-style:normal;font-variant:normal;font-weight:normal;font-stretch:normal;font-size:45px;line-height:1.25;font-family:Lavi;-inkscape-font-specification:Lavi;text-align:center;letter-spacing:0px;word-spacing:0px;text-anchor:middle;fill:#000000;fill-opacity:1;stroke:none"
       x="1440.9805"
       y="3094.23"
       id="text4246-3-2-2-6-3-7-9-3-3-3-9-0-6"><tspan
         style="font-size:45px"
         sodipodi:role="line"
         x="1440.9805"
         y="3094.23"
         id="tspan1199">Ampak kaj?</tspan></text>
    <text
       xml:space="preserve"
       style="font-style:normal;font-variant:normal;font-weight:normal;font-stretch:normal;font-size:45px;line-height:1.25;font-family:Lavi;-inkscape-font-specification:Lavi;text-align:center;letter-spacing:0px;word-spacing:0px;text-anchor:middle;fill:#000000;fill-opacity:1;stroke:none"
       x="1442.152"
       y="3167.8699"
       id="text4246-3-2-2-6-3-7-9-3-3-3-9-0-6-8"><tspan
         style="font-size:45px"
         sodipodi:role="line"
         x="1442.152"
         y="3167.8699"
         id="tspan41258">Bi raje</tspan><tspan
         style="font-size:45px"
         sodipodi:role="line"
         x="1442.152"
         y="3224.1199"
         id="tspan474">tvegala</tspan><tspan
         style="font-size:45px"
         sodipodi:role="line"
         x="1442.152"
         y="3280.3699"
         id="tspan478">izključitev</tspan><tspan
         style="font-size:45px"
         sodipodi:role="line"
         x="1442.152"
         y="3336.6199"
         id="tspan476">iz šole?</tspan></text>
    <text
       xml:space="preserve"
       style="font-style:normal;font-variant:normal;font-weight:normal;font-stretch:normal;font-size:105.817px;line-height:1.25;font-family:Lavi;-inkscape-font-specification:Lavi;letter-spacing:0px;word-spacing:0px;fill:#000000;fill-opacity:1;stroke:#030303;stroke-width:0.716208;stroke-miterlimit:4;stroke-dasharray:none;stroke-opacity:1;filter:url(#filter4375-4-1-1-1-9-5-8-8-5-5-3-8)"
       x="787.65729"
       y="1584.5073"
       id="text4580-6-0-0-0-9-3-36"
       transform="matrix(0.78722097,-0.19942868,-0.30990333,0.91892591,1994.5561,1995.3356)"><tspan
         style="font-size:195.17px;fill:#000000;fill-opacity:1;stroke:#030303;stroke-width:0.716208;stroke-miterlimit:4;stroke-dasharray:none;stroke-opacity:1"
         sodipodi:role="line"
         id="tspan876-6-1"
         x="787.65729"
         y="1584.5073">!<tspan
   style="font-size:173.821px;fill:#000000;stroke:#030303;stroke-opacity:1"
   id="tspan1317">!</tspan><tspan
   id="tspan1322"
   style="font-size:152.472px;fill:#000000;stroke:#030303;stroke-opacity:1">!</tspan></tspan></text>
  </g>
</svg>
