<?xml version="1.0" encoding="UTF-8" standalone="no"?>
<!-- Created with Inkscape (http://www.inkscape.org/) -->

<svg
   id="svg2"
   version="1.1"
   inkscape:version="1.3 (0e150ed6c4, 2023-07-21)"
   width="2481"
   height="3503"
   sodipodi:docname="E13P01.svg"
   xmlns:inkscape="http://www.inkscape.org/namespaces/inkscape"
   xmlns:sodipodi="http://sodipodi.sourceforge.net/DTD/sodipodi-0.dtd"
   xmlns:xlink="http://www.w3.org/1999/xlink"
   xmlns="http://www.w3.org/2000/svg"
   xmlns:svg="http://www.w3.org/2000/svg"
   xmlns:rdf="http://www.w3.org/1999/02/22-rdf-syntax-ns#"
   xmlns:cc="http://creativecommons.org/ns#"
   xmlns:dc="http://purl.org/dc/elements/1.1/">
  <metadata
     id="metadata8">
    <rdf:RDF>
      <cc:Work
         rdf:about="">
        <dc:format>image/svg+xml</dc:format>
        <dc:type
           rdf:resource="http://purl.org/dc/dcmitype/StillImage" />
        <dc:title />
      </cc:Work>
    </rdf:RDF>
  </metadata>
  <defs
     id="defs6" />
  <sodipodi:namedview
     pagecolor="#ffffff"
     bordercolor="#666666"
     borderopacity="1"
     objecttolerance="10"
     gridtolerance="10"
     guidetolerance="10"
     inkscape:pageopacity="0"
     inkscape:pageshadow="2"
     inkscape:window-width="1888"
     inkscape:window-height="1144"
     id="namedview4"
     showgrid="false"
     inkscape:zoom="0.37194736"
     inkscape:cx="1185.6516"
     inkscape:cy="2503.0424"
     inkscape:window-x="32"
     inkscape:window-y="0"
     inkscape:window-maximized="1"
     inkscape:current-layer="layer1"
     inkscape:showpageshadow="2"
     inkscape:pagecheckerboard="0"
     inkscape:deskcolor="#d1d1d1" />
  <g
     inkscape:groupmode="layer"
     id="layer2"
     inkscape:label="artwork"
     sodipodi:insensitive="true">
    <image
       xlink:href="../gfx_Pepper-and-Carrot_by-David-Revoy_E13P01.png"
       y="0"
       x="0"
       id="image10"
       height="3503"
       width="2481" />
  </g>
  <g
     inkscape:groupmode="layer"
     id="layer3"
     inkscape:label="speechbubbles" />
  <g
     inkscape:groupmode="layer"
     id="layer1"
     inkscape:label="txt">
    <path
       style="fill:#ffffff;fill-opacity:1;stroke:none"
       d="M 722.80334,769.26331 C 733.56619,710.8626 664.86577,709.5295 536.01621,705.7578 c -123.15479,-3.6049 -147.59936,9.0774 -164.20957,33.63651 -19.17918,28.3574 -25.58937,73.8614 72.62101,88.2487 78.08081,11.4386 216.48911,0.6814 234.20072,-11.7527 17.7116,-12.4341 38.78082,-15.271 44.17497,-46.627 z"
       id="path3238-1-6"
       inkscape:connector-curvature="0"
       sodipodi:nodetypes="cssssc" />
    <path
       style="fill:#ffffff;fill-opacity:1;stroke:none"
       d="m 742.40267,1108.9836 c 11.24939,-62.1699 -60.55671,-63.589 -195.23107,-67.6041 -128.72214,-3.8376 -154.27175,9.6632 -171.63285,35.8074 -20.04619,30.1876 -26.74616,78.6284 75.90393,93.9443 81.61054,12.1768 223.87245,-3.5418 244.78803,-12.5112 22.22005,-9.5288 40.53396,-16.2566 46.17196,-49.6364 z"
       id="path3238-1"
       inkscape:connector-curvature="0"
       sodipodi:nodetypes="cssssc" />
    <path
       style="fill:#ffffff;stroke:none;stroke-width:0.843662"
       d="m 2021.694,3331.2207 c -8.4385,-53.4949 10.0788,-98.453 22.399,-109.9353 12.3202,-11.4821 33.7063,-25.8103 44.4814,-28.7102 10.775,-2.9 182.105,-15.9847 192.4906,-9.4855 10.3856,6.4992 57.006,29.7758 67.8997,62.7127 10.8938,32.937 26.0288,129.0381 12.7166,148.2317 -13.312,19.1937 -47.7361,8.4525 -125.6857,16.0314 -77.9495,7.579 -171.5794,7.8048 -194.5675,-30.8267 -12.9593,-21.7781 -19.7341,-48.0181 -19.7341,-48.0181 z"
       id="path3286"
       inkscape:connector-curvature="0"
       sodipodi:nodetypes="csssssssc" />
    <path
       style="color:#000000;fill:#ffffff;fill-opacity:1;fill-rule:nonzero;stroke:none;stroke-width:1px;marker:none;visibility:visible;display:inline;overflow:visible;enable-background:accumulate"
       d="m 2065.3434,2938.9931 c 59.1369,57.7184 84.0546,81.7232 70.3501,131.5639 -13.7043,49.8409 29.5777,21.853 29.5777,21.853 0,0 27.6302,-106.7588 -99.9278,-153.4169 z"
       id="path3984"
       inkscape:connector-curvature="0"
       sodipodi:nodetypes="cscc" />
    <path
       style="color:#000000;display:inline;overflow:visible;visibility:visible;fill:#ffffff;fill-opacity:1;fill-rule:nonzero;stroke:none;stroke-width:0.978974px;marker:none;enable-background:accumulate"
       d="m 2038.3029,3130.2902 c 1.5181,-46.2937 36.5659,-75.9434 73.5298,-82.6721 37.9489,-6.9083 57.7153,-4.2419 68.2532,-1.7228 10.5379,2.5193 92.248,-3.4862 123.6964,0.7803 30.2766,4.1076 75.5662,30.7103 72.6922,89.9125 -2.8741,59.2022 -45.9838,84.3947 -90.0514,88.1735 -44.0679,3.779 -123.5723,2.5293 -146.6617,1.658 -34.2367,-1.2919 -94.7524,0.8614 -101.4585,-96.1297 z"
       id="path5034"
       inkscape:connector-curvature="0"
       sodipodi:nodetypes="cscsssscc" />
    <path
       style="fill:#ffffff;fill-opacity:1;stroke:none"
       d="m 454.24095,1449.7348 c -9.43381,58.7809 56.34042,59.0418 179.72071,60.8072 117.92725,1.6871 141.13519,-11.4244 156.66832,-36.3328 17.9355,-28.7607 23.39487,-74.5301 -70.8178,-87.4297 -74.90248,-10.256 -164.94283,-6.0398 -210.59575,5.4897 -36.70416,9.2695 -50.27842,25.9115 -54.97548,57.4656 z"
       id="path3238"
       inkscape:connector-curvature="0"
       sodipodi:nodetypes="cssssc" />
    <path
       style="color:#000000;display:inline;overflow:visible;visibility:visible;fill:#ffffff;fill-opacity:1;fill-rule:nonzero;stroke:none;stroke-width:1px;marker:none;enable-background:accumulate"
       d="M 537.20621,747.31481 C 497.18166,1119.9729 723.58268,1848.6244 747.8049,2074.1644 760.10221,1890.5729 526.40737,1185.705 565.75742,742.84162 c -24.19123,-4.10336 -28.55121,4.47319 -28.55121,4.47319 z"
       id="path4008"
       inkscape:connector-curvature="0"
       sodipodi:nodetypes="cccc" />
    <text
       xml:space="preserve"
       style="color:#000000;font-style:normal;font-variant:normal;font-weight:normal;font-stretch:normal;line-height:0%;font-family:Lavi;-inkscape-font-specification:Lavi;text-indent:0;text-align:center;text-decoration:none;text-decoration-line:none;letter-spacing:0px;word-spacing:0px;text-transform:none;writing-mode:lr-tb;direction:ltr;baseline-shift:baseline;text-anchor:middle;display:inline;overflow:visible;visibility:visible;fill:#000000;fill-opacity:1;fill-rule:nonzero;stroke:none;enable-background:accumulate"
       x="2209.7122"
       y="3110.8286"
       id="text4159"><tspan
         sodipodi:role="line"
         x="2209.7122"
         y="3110.8286"
         id="tspan3737"
         style="font-size:45px;line-height:1.25">Hier ist es</tspan><tspan
         sodipodi:role="line"
         x="2209.7122"
         y="3167.0786"
         id="tspan3414"
         style="font-size:45px;line-height:1.25">einfach schön!</tspan></text>
    <text
       xml:space="preserve"
       style="font-style:normal;font-variant:normal;font-weight:normal;font-stretch:normal;line-height:0%;font-family:Lavi;-inkscape-font-specification:'Lavi, Normal';text-align:center;letter-spacing:0px;word-spacing:0px;writing-mode:lr-tb;text-anchor:middle;fill:#000000;fill-opacity:1;stroke:none;stroke-width:1px;stroke-linecap:butt;stroke-linejoin:miter;stroke-opacity:1"
       x="2232.5"
       y="3110.5"
       id="text4169"><tspan
         sodipodi:role="line"
         id="tspan4171"
         x="2232.5"
         y="3110.5"
         style="font-size:47.0037px;line-height:1.25"> </tspan><tspan
         sodipodi:role="line"
         x="2239.8442"
         y="3169.2546"
         id="tspan4173"
         style="font-size:47.0037px;line-height:1.25"> </tspan></text>
    <text
       xml:space="preserve"
       style="color:#000000;font-style:normal;font-variant:normal;font-weight:normal;font-stretch:normal;line-height:0%;font-family:Lavi;-inkscape-font-specification:Lavi;text-indent:0;text-align:center;text-decoration:none;text-decoration-line:none;letter-spacing:0px;word-spacing:0px;text-transform:none;writing-mode:lr-tb;direction:ltr;baseline-shift:baseline;text-anchor:middle;display:inline;overflow:visible;visibility:visible;fill:#000000;fill-opacity:1;fill-rule:nonzero;stroke:none;enable-background:accumulate"
       x="2197.1897"
       y="3258.6807"
       id="text4177"><tspan
         sodipodi:role="line"
         x="2197.1897"
         y="3258.6807"
         id="tspan3748"
         style="font-size:45px;line-height:1.25">Danke für</tspan><tspan
         sodipodi:role="line"
         x="2197.1897"
         y="3314.9307"
         id="tspan3386"
         style="font-size:45px;line-height:1.25">die Einladung,</tspan><tspan
         sodipodi:role="line"
         x="2197.1897"
         y="3371.1807"
         style="font-size:45px;line-height:1.25"
         id="tspan2">Coriander!</tspan></text>
    <text
       xml:space="preserve"
       style="color:#000000;font-style:normal;font-variant:normal;font-weight:normal;font-stretch:normal;line-height:0%;font-family:Lavi;-inkscape-font-specification:Lavi;text-indent:0;text-align:center;text-decoration:none;text-decoration-line:none;letter-spacing:0px;word-spacing:0px;text-transform:none;writing-mode:lr-tb;direction:ltr;baseline-shift:baseline;text-anchor:middle;display:inline;overflow:visible;visibility:visible;fill:#000000;fill-opacity:1;fill-rule:nonzero;stroke:#000000;stroke-width:1.15539;stroke-linecap:butt;stroke-linejoin:miter;stroke-miterlimit:4;stroke-dasharray:none;stroke-dashoffset:0;stroke-opacity:1;enable-background:accumulate"
       x="627.89648"
       y="1448.4253"
       id="text4201"
       transform="scale(0.99121656,1.0088613)"><tspan
         sodipodi:role="line"
         x="627.89648"
         y="1448.4253"
         id="tspan4183"
         style="font-size:47.266px;line-height:1.25;stroke-width:1.15539">... überhaupt!</tspan></text>
    <text
       xml:space="preserve"
       style="color:#000000;font-style:normal;font-variant:normal;font-weight:normal;font-stretch:normal;line-height:0%;font-family:Lavi;-inkscape-font-specification:Lavi;text-indent:0;text-align:center;text-decoration:none;text-decoration-line:none;letter-spacing:0px;word-spacing:0px;text-transform:none;writing-mode:lr-tb;direction:ltr;baseline-shift:baseline;text-anchor:middle;display:inline;overflow:visible;visibility:visible;fill:#000000;fill-opacity:1;fill-rule:nonzero;stroke:none;enable-background:accumulate"
       x="535.90729"
       y="784.47363"
       id="text4201-8"><tspan
         sodipodi:role="line"
         x="535.90729"
         y="784.47363"
         id="tspan4183-9"
         style="font-size:45px;line-height:1.25">Beste ...</tspan></text>
    <text
       xml:space="preserve"
       style="color:#000000;font-style:normal;font-variant:normal;font-weight:normal;font-stretch:normal;line-height:0%;font-family:Lavi;-inkscape-font-specification:Lavi;text-indent:0;text-align:center;text-decoration:none;text-decoration-line:none;letter-spacing:0px;word-spacing:0px;text-transform:none;writing-mode:lr-tb;direction:ltr;baseline-shift:baseline;text-anchor:middle;display:inline;overflow:visible;visibility:visible;fill:#000000;fill-opacity:1;fill-rule:nonzero;stroke:none;enable-background:accumulate"
       x="552.08148"
       y="1121.1799"
       id="text4201-2"><tspan
         sodipodi:role="line"
         x="552.08148"
         y="1121.1799"
         id="tspan4183-92"
         style="font-size:45px;line-height:1.25">... Ferien ...</tspan></text>
    <text
       xml:space="preserve"
       style="font-style:normal;font-weight:normal;line-height:0%;font-family:sans-serif;letter-spacing:0px;word-spacing:0px;fill:#000000;fill-opacity:1;stroke:none;stroke-width:1px;stroke-linecap:butt;stroke-linejoin:miter;stroke-opacity:1"
       x="556.5304"
       y="784.87341"
       id="text3359"><tspan
         sodipodi:role="line"
         id="tspan3361"
         x="556.5304"
         y="784.87341"
         style="font-size:40px;line-height:1.25;font-family:sans-serif"> </tspan></text>
  </g>
</svg>
