<?xml version="1.0" encoding="UTF-8" standalone="no"?>
<!-- Created with Inkscape (http://www.inkscape.org/) -->

<svg
   id="svg2"
   version="1.1"
   inkscape:version="1.2.1 (9c6d41e410, 2022-07-14)"
   width="2481"
   height="3503"
   sodipodi:docname="E36P06.svg"
   xmlns:inkscape="http://www.inkscape.org/namespaces/inkscape"
   xmlns:sodipodi="http://sodipodi.sourceforge.net/DTD/sodipodi-0.dtd"
   xmlns:xlink="http://www.w3.org/1999/xlink"
   xmlns="http://www.w3.org/2000/svg"
   xmlns:svg="http://www.w3.org/2000/svg"
   xmlns:rdf="http://www.w3.org/1999/02/22-rdf-syntax-ns#"
   xmlns:cc="http://creativecommons.org/ns#"
   xmlns:dc="http://purl.org/dc/elements/1.1/">
  <metadata
     id="metadata8">
    <rdf:RDF>
      <cc:Work
         rdf:about="">
        <dc:format>image/svg+xml</dc:format>
        <dc:type
           rdf:resource="http://purl.org/dc/dcmitype/StillImage" />
        <dc:title />
      </cc:Work>
    </rdf:RDF>
  </metadata>
  <defs
     id="defs6" />
  <sodipodi:namedview
     pagecolor="#1e1e1e"
     bordercolor="#111111"
     borderopacity="1"
     objecttolerance="10"
     gridtolerance="10"
     guidetolerance="10"
     inkscape:pageopacity="0"
     inkscape:pageshadow="2"
     inkscape:window-width="1261"
     inkscape:window-height="1388"
     id="namedview4"
     showgrid="false"
     inkscape:zoom="0.46000002"
     inkscape:cx="1238.0434"
     inkscape:cy="2331.5216"
     inkscape:window-x="1283"
     inkscape:window-y="36"
     inkscape:window-maximized="1"
     inkscape:current-layer="layer3"
     inkscape:pagecheckerboard="0"
     inkscape:snap-global="false"
     inkscape:showpageshadow="2"
     inkscape:deskcolor="#1e1e1e" />
  <g
     inkscape:groupmode="layer"
     id="layer2"
     inkscape:label="artwork"
     sodipodi:insensitive="true">
    <image
       xlink:href="../gfx_Pepper-and-Carrot_by-David-Revoy_E36P06.png"
       y="0"
       x="0"
       id="image10"
       height="3503"
       width="2481" />
  </g>
  <g
     inkscape:groupmode="layer"
     id="layer3"
     inkscape:label="speechbubbles"
     style="display:inline">
    <path
       style="color:#000000;display:inline;overflow:visible;visibility:visible;fill:#ffffff;fill-opacity:1;fill-rule:nonzero;stroke:none;stroke-width:0.825943px;marker:none;enable-background:accumulate"
       d="m 577.39062,1890.3496 c 13.55459,4.6614 27.39899,10.6876 36.98583,21.7461 6.87829,8.625 7.56098,20.6709 4.66066,30.9708 -1.44275,5.9611 -3.11819,12.8374 0.29351,18.4496 3.25292,4.4413 8.97247,5.7004 13.65335,8.0759 1.68146,0.5503 3.16657,2.0604 4.93205,2.0447 3.65441,-0.7862 8.30688,-4.5636 7.78517,-7.7805 0.4108,-14.3571 1.10006,-28.425 -3.6806,-42.3235 -4.09402,-10.8462 -16.4336,-19.4968 -27.02744,-23.2608 -13.09899,-5.2184 -27.0995,-7.7878 -41.09862,-9.0336 1.16537,0.3704 2.33073,0.7409 3.49609,1.1113 z"
       id="path4064-5-5"
       inkscape:connector-curvature="0"
       sodipodi:nodetypes="ccszccccccc" />
    <path
       style="color:#000000;display:inline;overflow:visible;visibility:visible;fill:#ffffff;fill-opacity:1;fill-rule:nonzero;stroke:none;stroke-width:1.44581px;marker:none;enable-background:accumulate"
       d="m 435.12108,2072.4923 c -0.0365,-45.0514 27.51395,-87.9009 67.404,-113.9953 29.8113,-19.7807 67.29669,-30.3819 104.31005,-27.6838 40.89438,1.6551 81.96592,11.8868 115.86327,33.1033 29.63903,18.281 54.17932,45.6422 60.85611,78.1336 7.65197,35.2659 -9.48723,72.1995 -38.33754,95.9525 -17.86034,14.9641 -40.33785,25.0295 -64.13164,29.5122 -51.80802,10.2179 -106.2602,9.8144 -157.72007,-1.9131 -44.49901,-14.6618 -77.68157,-51.8164 -88.24418,-93.1094 z"
       id="path3365-8"
       inkscape:connector-curvature="0"
       sodipodi:nodetypes="cssccsc" />
    <path
       style="color:#000000;display:inline;overflow:visible;visibility:visible;fill:#ffffff;fill-opacity:1;fill-rule:nonzero;stroke:none;stroke-width:1.47795px;marker:none;enable-background:accumulate"
       d="m 1900.1746,1570.3017 c -58.7861,5.8982 -130.8013,-1.144 -172.3771,45.3012 -41.1971,52.9171 -34.2028,131.1014 9.7883,180.6585 46.1949,37.9591 113.4735,33.8588 171.6045,39.1068 64.2782,1.4045 131.4406,0.2309 191.9743,-20.9302 53.3861,-27.8135 66.2783,-90.4199 54.9473,-141.4819 -4.4522,-47.4166 -43.7079,-90.9127 -97.7296,-94.263 -52.2412,-7.6805 -105.5499,-5.4684 -158.2077,-8.3914 z"
       id="path3525-1"
       inkscape:connector-curvature="0"
       sodipodi:nodetypes="ccccc" />
    <path
       style="color:#000000;display:inline;overflow:visible;visibility:visible;fill:#ffffff;fill-opacity:1;fill-rule:nonzero;stroke:none;stroke-width:0.844663px;marker:none;enable-background:accumulate"
       d="m 1967.6691,1870.5868 c -18.1752,-11.0216 -34.1079,-35.6909 -38.6041,-62.1813 -3.212,-15.891 -4.9491,-32.3534 -3.0603,-47.1809 2.5292,-4.9506 8.5452,-3.2093 12.36,1.2176 6.174,5.2735 12.9392,8.5628 18.8573,14.6149 3.5725,5.1778 3.8133,12.417 2.6585,17.788 -1.1636,10.2097 -2.5765,21.1708 0.8478,32.3369 4.2315,15.7365 13.9898,28.6271 24.2515,37.2817 12.3531,10.7595 26.1526,15.1864 39.0912,15.7949 0.045,0.4487 -1.409,0.4203 -1.8941,0.6592 -17.1414,4.2654 -36.4098,1.3261 -54.5078,-10.331 z"
       id="path4064-5"
       inkscape:connector-curvature="0"
       sodipodi:nodetypes="ccszc" />
    <path
       style="fill:#ffffff;stroke:none;stroke-width:1.24574"
       d="m 453.16107,2274.0132 c -62.04696,0.6541 -124.57584,0.4179 -185.81516,9.0403 -22.49014,3.1771 -45.167,7.5483 -65.02573,16.4307 -15.33833,6.863 -28.26459,16.9618 -35.94594,29.1923 -10.43543,16.5263 -12.13288,35.7209 -7.27924,53.5219 6.13435,22.3066 23.54864,43.0763 49.07724,55.43 19.62745,9.6566 42.88543,14.3414 66.07651,15.5462 43.66962,3.5188 87.44071,6.2966 131.27507,8.3256 30.59844,1.4525 61.20732,2.8715 91.8475,3.6969 63.13791,1.109 126.39183,-2.1908 188.7942,-9.5018 22.9307,-3.1095 46.04232,-8.9046 64.00467,-20.5285 16.77109,-10.8488 26.80347,-26.6198 31.11757,-42.7955 3.90217,-13.8265 4.96666,-28.1338 3.07533,-42.1995 -2.14854,-12.9084 -8.67963,-25.71 -20.74539,-35.1775 -13.40057,-11.151 -31.5871,-18.6955 -50.90254,-22.1063 -20.58142,-4.298 -41.83447,-6.2087 -62.83125,-8.9431 -65.07873,-7.3609 -130.95753,-10.1701 -196.72284,-9.9317 z"
       id="path3100-2"
       inkscape:connector-curvature="0" />
    <path
       style="fill:#ffffff;stroke:none;stroke-width:1.12996"
       d="m 438.1815,2391.2197 c -50.35727,1.5705 -101.42031,1.7539 -150.41344,16.4826 -19.92095,6.1528 -39.81299,17.7471 -51.52139,38.1255 -15.88517,29.6664 -13.93762,69.1962 0.70657,99.3107 13.22736,27.5038 38.68934,45.9942 65.45985,48.9789 35.33712,4.7106 70.82053,7.6045 106.32566,9.464 18.36669,0.9208 36.71873,2.3486 55.08673,3.1541 46.621,1.3418 93.26657,-2.5653 139.30482,-10.4784 19.55301,-3.5128 39.61562,-9.8429 54.86794,-25.0997 10.65032,-10.366 17.40967,-25.1356 20.91533,-40.6297 4.95584,-21.2688 5.03347,-43.8199 2.39076,-65.6086 -2.56725,-17.3876 -9.59658,-35.3923 -23.21491,-44.6457 -14.58899,-10.0153 -31.84129,-11.2143 -48.04527,-15.0308 -56.75561,-11.4069 -114.42272,-15.3829 -171.86265,-14.0229 z"
       id="path3100-2-1"
       inkscape:connector-curvature="0" />
    <path
       style="fill:#ffffff;stroke:none;stroke-width:1.30923"
       d="m 556.47899,2519.1217 c -73.83425,3.2397 -151.47821,-0.022 -220.09613,30.6791 -35.77476,18.6571 -51.5879,59.9179 -47.9301,97.61 1.82741,49.3587 36.39644,101.9817 90.25583,108.2252 54.72001,6.6516 109.929,9.8701 165.02662,12.3628 72.32426,2.0034 146.30327,-0.3701 215.82737,-21.3455 35.29945,-13.6954 55.19944,-49.5803 57.47051,-85.0029 7.48813,-44.3983 -8.32704,-96.7459 -52.53773,-117.8441 -38.97603,-15.3951 -82.05827,-16.8672 -123.44262,-21.712 -28.12346,-2.2574 -56.35555,-3.2195 -84.57375,-2.9726 z"
       id="path3100-2-1-9"
       inkscape:connector-curvature="0" />
    <path
       style="fill:#ffffff;fill-rule:evenodd;stroke:none;stroke-width:1px;stroke-linecap:butt;stroke-linejoin:miter;stroke-opacity:1"
       d="m 565.35803,2748.8183 c 0,0 15.49435,31.1557 18.76123,47.2541 3.26688,16.0984 -2.23396,98.2886 -54.0297,124.672 60.58129,-13.8373 97.25045,-97.2182 74.9118,-174.2445 -8.13467,-28.0492 -39.64333,2.3184 -39.64333,2.3184 z"
       id="path1357"
       inkscape:connector-curvature="0"
       sodipodi:nodetypes="cscsc" />
    <path
       style="color:#000000;display:inline;overflow:visible;visibility:visible;fill:#ffffff;fill-opacity:1;fill-rule:nonzero;stroke:none;stroke-width:1.03864px;marker:none;enable-background:accumulate"
       d="m 1105.6621,1613.416 c -27.3074,0.665 -55.2641,4.8405 -79.6671,17.7518 -20.9178,11.7343 -35.48479,32.595 -42.92872,55.0672 -5.21266,14.3929 -8.21701,30.6636 -2.8761,45.4728 6.59215,18.412 23.13312,31.7974 41.28642,37.9765 29.138,11.2748 60.784,12.4073 91.6361,13.4689 33.4435,0.8833 66.9833,1.6213 100.3641,-1.086 18.1912,-1.7873 36.6147,-6.7791 51.3797,-17.9635 12.1435,-8.7548 22.0772,-21.8232 23.7559,-37.0517 2.4369,-17.9924 -2.3337,-36.2294 -9.9127,-52.4672 -10.3009,-21.0264 -28.628,-38.1831 -50.7572,-46.1168 -28.177,-10.962 -58.7375,-12.5985 -88.5948,-14.3303 -11.2167,-0.5894 -22.4527,-0.9884 -33.6856,-0.7217 z"
       id="path4546-6-89"
       inkscape:connector-curvature="0"
       sodipodi:nodetypes="cssssc" />
    <path
       style="color:#000000;display:inline;overflow:visible;visibility:visible;fill:#ffffff;fill-opacity:1;fill-rule:nonzero;stroke:none;stroke-width:1px;marker:none;enable-background:accumulate"
       d="m 1191.4693,1723.1631 c 34.2678,49.2543 68.9523,97.6924 121.3421,87.479 -53.9312,29.956 -129.2913,-39.4416 -157.7344,-79.0515 -24.1583,-33.6427 36.3923,-8.4275 36.3923,-8.4275 z"
       id="path4480-3"
       inkscape:connector-curvature="0"
       sodipodi:nodetypes="ccsc" />
    <path
       style="color:#000000;display:inline;overflow:visible;visibility:visible;fill:#ffffff;fill-opacity:1;fill-rule:nonzero;stroke:none;stroke-width:0.888144px;marker:none;enable-background:accumulate"
       d="m 926.821,2389.163 c 0.96989,-38.6448 51.23545,-67.0932 188.9303,-60.311 73.7568,3.6336 157.3472,5.8914 156.7784,62.5005 -0.569,56.609 -120.5252,55.5781 -145.1498,56.9891 -24.6242,1.411 -153.97911,-4.0672 -178.16782,-23.2372 -15.14161,-12.0003 -21.76544,-23.9756 -22.39108,-35.9414 z"
       id="path4546-6-89-3"
       inkscape:connector-curvature="0"
       sodipodi:nodetypes="cssssc" />
    <path
       style="fill:#ffffff;stroke:none;stroke-width:0.97537"
       d="m 1184.5517,2419.2665 c 152.3637,-0.4235 209.929,11.3404 229.7934,167.8019 27.4938,216.5425 -100.5005,234.3292 -279.3164,233.8332 -192.93103,-0.5351 -204.95042,-128.3331 -208.38632,-232.9304 -5.92992,-180.5006 101.95162,-163.9115 257.90932,-168.7047 z"
       id="path3280-8-0"
       inkscape:connector-curvature="0"
       sodipodi:nodetypes="csssc" />
    <path
       style="color:#000000;display:inline;overflow:visible;visibility:visible;fill:#ffffff;fill-opacity:1;fill-rule:nonzero;stroke:none;stroke-width:1px;marker:none;enable-background:accumulate"
       d="m 1257.3576,2740.959 c -14.7937,34.7302 -29.7284,103.9977 49.732,149.2666 -38.7431,-11.0789 -115.7589,-45.8618 -84.4037,-150.4179 9.0983,-30.339 16.322,-15.8945 23.6557,-14.9665 7.3338,0.9279 11.016,16.1178 11.016,16.1178 z"
       id="path4064-3"
       inkscape:connector-curvature="0"
       sodipodi:nodetypes="ccszc" />
    <path
       style="color:#000000;display:inline;overflow:visible;visibility:visible;fill:#ffffff;fill-opacity:1;fill-rule:nonzero;stroke:none;stroke-width:0.800752px;marker:none;enable-background:accumulate"
       d="m 1651.2761,2304.8762 c 32.6168,-39.6682 88.4024,-42.2159 135.8304,-42.2394 44.6528,1.0129 91.3023,3.7125 132.3042,22.7913 26.4222,12.2041 44.2843,44.8101 29.4638,72.1033 -18.2817,23.4202 -51.4037,23.0482 -78.0181,29.5615 -52.513,7.4345 -105.6559,0.6211 -157.9247,-5.5691 -23.8316,-4.6029 -53.1587,-9.8591 -62.9091,-35.6353 -5.5358,-12.5917 -8.0263,-29.5328 1.2535,-41.0123 z"
       id="path3533-6"
       inkscape:connector-curvature="0" />
    <path
       style="fill:#ffffff;fill-rule:evenodd;stroke:none;stroke-width:1.38581px;stroke-linecap:butt;stroke-linejoin:miter;stroke-opacity:1"
       d="m 1882.582,2368.8585 c 33.9534,32.2939 25.2378,98.5148 5.21,126.3583 16.6982,-13.5989 67.5762,-88.6625 18.8996,-149.3734 -40.0561,-49.9592 -29.2155,15.9213 -29.2155,15.9213 z"
       id="path4248"
       inkscape:connector-curvature="0"
       sodipodi:nodetypes="ccscc" />
    <path
       style="display:inline;fill:#ffffff;stroke:none;stroke-width:0.914114"
       d="m 2086.163,2368.0999 c 0.5449,-44.1029 20.652,-83.7587 111.9969,-76.6805 91.3452,7.0781 121.342,11.8299 121.5288,71.9622 0.1955,62.9313 -45.2284,77.7326 -114.3682,80.1685 -71.2755,2.511 -118.8754,-23.0636 -119.1575,-75.4502 z"
       id="path3280-64"
       inkscape:connector-curvature="0"
       sodipodi:nodetypes="csssc" />
    <path
       style="color:#000000;display:inline;overflow:visible;visibility:visible;fill:#ffffff;fill-opacity:1;fill-rule:nonzero;stroke:none;stroke-width:1.00876px;marker:none;enable-background:accumulate"
       d="m 2225.6941,2499.207 c 29.3281,-35.4419 42.8909,-48.473 14.1537,-86.3903 -28.7372,-37.9162 -14.1521,-48.0944 -14.1521,-48.0944 l 30.5785,11.3041 c 0,0 63.9999,68.3303 -30.5801,123.1806 z"
       id="path3072-56"
       inkscape:connector-curvature="0"
       sodipodi:nodetypes="ccccc" />
    <path
       style="color:#000000;display:inline;overflow:visible;visibility:visible;fill:#ffffff;fill-opacity:1;fill-rule:nonzero;stroke:none;stroke-width:0.67124px;marker:none;enable-background:accumulate"
       d="m 2121.8448,2844.4879 c 14.5963,-9.9895 118.7077,-19.5563 148.2592,6.1257 24.6662,21.4363 23.0835,63.4313 0.4928,79.2151 -23.0149,16.0793 -110.7216,10.4002 -144.6205,2.6999 -31.9221,-7.2509 -31.3445,-24.7778 -30.4738,-55.3282 0.3554,-12.4682 11.746,-22.7237 26.3423,-32.7125 z"
       id="path4040-4-5-3-6"
       inkscape:connector-curvature="0"
       sodipodi:nodetypes="zssssz" />
    <path
       style="color:#000000;display:inline;overflow:visible;visibility:visible;fill:#ffffff;fill-opacity:1;fill-rule:nonzero;stroke:none;stroke-width:0.750712px;marker:none;enable-background:accumulate"
       d="m 2200.4729,2907.5442 c -23.2908,0.6111 -46.7433,2.8853 -69.3151,10.557 -13.3493,3.9231 -27.363,6.3322 -39.3813,15.2096 -10.055,7.279 -19.1275,16.7625 -26.6849,27.849 -4.5686,7.5396 -6.6579,17.1125 -6.6007,26.5301 -0.8398,14.9965 1.0782,30.9757 8.2594,43.3523 7.3379,12.6451 18.7103,20.4179 30.3089,25.1794 29.9246,13.633 62.0167,16.9166 93.5999,17.5357 26.0762,0.2707 52.4488,0.3102 78.0373,-6.8695 10.4189,-2.9709 20.7319,-6.9515 30.3489,-12.8685 15.1799,-10.8107 24.6736,-32.1706 25.6916,-53.9061 1.1696,-19.1773 -3.6533,-39.4829 -14.7277,-53.0753 -8.989,-10.5237 -20.9684,-15.3895 -32.5735,-19.293 -20.2399,-6.5152 -40.083,-15.403 -60.8492,-18.9998 -5.3383,-0.9046 -10.7286,-1.2885 -16.1136,-1.2009 z"
       id="path4040-4-5-3"
       inkscape:connector-curvature="0"
       sodipodi:nodetypes="zssssz" />
    <path
       style="display:inline;fill:#ffffff;fill-rule:evenodd;stroke:none;stroke-width:1px;stroke-linecap:butt;stroke-linejoin:miter;stroke-opacity:1"
       d="m 2230.8069,2888.0547 c -59.0902,-10.6562 16.1202,-61.0715 -1.0396,-83.0609 -8.296,-10.6309 -45.3019,13.7249 -85.4552,-27.1328 44.274,25.5713 73.4492,-3.2499 94.1628,5.6982 39.3401,16.9937 6.1746,61.0235 5.4438,70.8494 -0.9776,13.1415 -13.1118,33.6461 -13.1118,33.6461 z"
       id="path4186-80"
       inkscape:connector-curvature="0"
       sodipodi:nodetypes="cscssc" />
  </g>
  <g
     inkscape:groupmode="layer"
     id="layer1"
     inkscape:label="txt"
     style="display:inline">
    <text
       id="text4246-4-2-7"
       y="2027.1888"
       x="610.88416"
       style="font-style:normal;font-variant:normal;font-weight:normal;font-stretch:normal;line-height:0%;font-family:Lavi;-inkscape-font-specification:Lavi;text-align:center;letter-spacing:0px;word-spacing:0px;text-anchor:middle;fill:#000000;fill-opacity:1;stroke:none"
       xml:space="preserve"
       inkscape:transform-center-x="-5.0863513"
       inkscape:transform-center-y="16.389664"><tspan
         y="2027.1888"
         x="610.88416"
         style="font-size:45px;line-height:1.25"
         sodipodi:role="line"
         id="tspan2677">Zo dichtbij...</tspan><tspan
         y="2083.439"
         x="610.88416"
         style="font-size:45px;line-height:1.25"
         sodipodi:role="line"
         id="tspan285">we waren bijna</tspan><tspan
         y="2139.689"
         x="610.88416"
         style="font-size:45px;line-height:1.25"
         sodipodi:role="line"
         id="tspan287">ontsnapt.</tspan></text>
    <text
       id="text4246-4-2-7-3-2"
       y="1678.9263"
       x="1137.0778"
       style="font-style:normal;font-variant:normal;font-weight:normal;font-stretch:normal;line-height:0%;font-family:Lavi;-inkscape-font-specification:Lavi;text-align:center;letter-spacing:0px;word-spacing:0px;text-anchor:middle;fill:#000000;fill-opacity:1;stroke:none"
       xml:space="preserve"><tspan
         y="1678.9263"
         x="1137.0778"
         style="font-size:45px;line-height:1.25"
         sodipodi:role="line"
         id="tspan99796">Ja, </tspan><tspan
         y="1735.1763"
         x="1137.0778"
         style="font-size:45px;line-height:1.25"
         sodipodi:role="line"
         id="tspan103302">zo dichtbij...</tspan></text>
    <text
       id="text4246-4-2-7-3"
       y="1641.3301"
       x="1934.0005"
       style="font-style:normal;font-variant:normal;font-weight:normal;font-stretch:normal;line-height:0%;font-family:Lavi;-inkscape-font-specification:Lavi;text-align:center;letter-spacing:0px;word-spacing:0px;text-anchor:middle;fill:#000000;fill-opacity:1;stroke:none"
       xml:space="preserve"><tspan
         y="1641.3301"
         x="1934.0005"
         style="font-size:45px;line-height:1.25"
         sodipodi:role="line"
         id="tspan14192">Weet je trouwens</tspan><tspan
         y="1697.5801"
         x="1934.0005"
         style="font-size:45px;line-height:1.25"
         sodipodi:role="line"
         id="tspan412">waarom Wasabi het</tspan><tspan
         y="1753.8301"
         x="1934.0005"
         style="font-size:45px;line-height:1.25"
         sodipodi:role="line"
         id="tspan414">zo op mij voorzien</tspan><tspan
         y="1810.0801"
         x="1934.0005"
         style="font-size:45px;line-height:1.25"
         sodipodi:role="line"
         id="tspan416">heeft?</tspan></text>
    <text
       id="text4246-4-2-7-3-6-7"
       y="2355.5146"
       x="470.07233"
       style="font-style:normal;font-variant:normal;font-weight:normal;font-stretch:normal;line-height:0%;font-family:Lavi;-inkscape-font-specification:Lavi;text-align:center;letter-spacing:0px;word-spacing:0px;text-anchor:middle;fill:#000000;fill-opacity:1;stroke:none"
       xml:space="preserve"><tspan
         y="2355.5146"
         x="470.07233"
         style="font-size:45px;line-height:1.25;fill:#000000"
         sodipodi:role="line"
         id="tspan568">Ze is bang voor de heksen</tspan><tspan
         y="2411.7646"
         x="470.07233"
         style="font-size:45px;line-height:1.25;fill:#000000"
         sodipodi:role="line"
         id="tspan278">van Chaosah, Pepper...</tspan></text>
    <text
       id="text4246-4-2-7-3-6-7-6"
       y="2493.5869"
       x="456.50583"
       style="font-style:normal;font-variant:normal;font-weight:normal;font-stretch:normal;line-height:0%;font-family:Lavi;-inkscape-font-specification:Lavi;text-align:center;letter-spacing:0px;word-spacing:0px;text-anchor:middle;fill:#000000;fill-opacity:1;stroke:none"
       xml:space="preserve"><tspan
         y="2493.5869"
         x="456.50583"
         style="font-size:45px;line-height:1.25;fill:#000000"
         sodipodi:role="line"
         id="tspan107372">En doodsbang voor</tspan><tspan
         y="2549.8369"
         x="456.50583"
         style="font-size:45px;line-height:1.25;fill:#000000"
         sodipodi:role="line"
         id="tspan83621">die <tspan
   style="font-weight:bold"
   id="tspan175408">kettingreacties</tspan></tspan></text>
    <text
       id="text4246-4-2-7-3-6-7-6-6"
       y="2604.5764"
       x="558.68231"
       style="font-style:normal;font-variant:normal;font-weight:normal;font-stretch:normal;line-height:0%;font-family:Lavi;-inkscape-font-specification:Lavi;text-align:center;letter-spacing:0px;word-spacing:0px;text-anchor:middle;fill:#000000;fill-opacity:1;stroke:none"
       xml:space="preserve"><tspan
         y="2604.5764"
         x="558.68231"
         style="font-size:45px;line-height:1.25;fill:#000000"
         sodipodi:role="line"
         id="tspan787"> van jullie, dat die een</tspan><tspan
         y="2660.8264"
         x="558.68231"
         style="font-size:45px;line-height:1.25;fill:#000000"
         sodipodi:role="line"
         id="tspan791">grote bedreiging voor</tspan><tspan
         y="2717.0764"
         x="558.68231"
         style="font-size:45px;line-height:1.25;fill:#000000"
         sodipodi:role="line"
         id="tspan793">haar plannen vormen.</tspan></text>
    <text
       id="text4246-4-2-7-3-6-7-6-6-4"
       y="2401.1436"
       x="1106.911"
       style="font-style:normal;font-variant:normal;font-weight:normal;font-stretch:normal;line-height:0%;font-family:Lavi;-inkscape-font-specification:Lavi;text-align:center;letter-spacing:0px;word-spacing:0px;text-anchor:middle;fill:#000000;fill-opacity:1;stroke:none"
       xml:space="preserve"><tspan
         y="2401.1436"
         x="1106.911"
         style="font-size:45px;line-height:1.25;fill:#000000"
         sodipodi:role="line"
         id="tspan83621-1-4">Ah, die, pfff...</tspan></text>
    <text
       id="text4246-4-2-7-3-6-7-6-6-4-5"
       y="2497.7285"
       x="1168.6005"
       style="font-style:normal;font-variant:normal;font-weight:normal;font-stretch:normal;line-height:0%;font-family:Lavi;-inkscape-font-specification:Lavi;text-align:center;letter-spacing:0px;word-spacing:0px;text-anchor:middle;fill:#000000;fill-opacity:1;stroke:none"
       xml:space="preserve"><tspan
         y="2497.7285"
         x="1168.6005"
         style="font-size:45px;line-height:1.25;fill:#000000"
         sodipodi:role="line"
         id="tspan186796">Ze hoeft zich</tspan><tspan
         y="2553.9785"
         x="1168.6005"
         style="font-size:45px;line-height:1.25;fill:#000000"
         sodipodi:role="line"
         id="tspan866">heus geen zorgen te</tspan><tspan
         y="2610.2285"
         x="1168.6005"
         style="font-size:45px;line-height:1.25;fill:#000000"
         sodipodi:role="line"
         id="tspan8797">maken, hoor! Ik heb</tspan><tspan
         y="2666.4785"
         x="1168.6005"
         style="font-size:45px;line-height:1.25;fill:#000000"
         sodipodi:role="line"
         id="tspan877">er nog nooit zo een</tspan><tspan
         y="2722.7285"
         x="1168.6005"
         style="font-size:45px;line-height:1.25;fill:#000000"
         sodipodi:role="line"
         id="tspan879">in gang weten</tspan><tspan
         y="2778.9785"
         x="1168.6005"
         style="font-size:45px;line-height:1.25;fill:#000000"
         sodipodi:role="line"
         id="tspan881">te zetten.</tspan></text>
    <text
       id="text4246-4-2-7-3-6-7-6-6-4-5-1"
       y="2340.3459"
       x="1798.8441"
       style="font-style:normal;font-variant:normal;font-weight:normal;font-stretch:normal;line-height:0%;font-family:Lavi;-inkscape-font-specification:Lavi;text-align:center;letter-spacing:0px;word-spacing:0px;text-anchor:middle;fill:#000000;fill-opacity:1;stroke:none"
       xml:space="preserve"><tspan
         y="2340.3459"
         x="1798.8441"
         style="font-size:45px;line-height:1.25;fill:#000000"
         sodipodi:role="line"
         id="tspan186800-2">Echt niet?</tspan></text>
    <text
       id="text4246-4-2-7-3-6-7-6-6-4-5-1-6"
       y="2356.2756"
       x="2202.4138"
       style="font-style:normal;font-variant:normal;font-weight:normal;font-stretch:normal;font-size:39px;line-height:0%;font-family:Lavi;-inkscape-font-specification:Lavi;text-align:center;letter-spacing:0px;word-spacing:0px;text-anchor:middle;fill:#000000;fill-opacity:1;stroke:none"
       xml:space="preserve"><tspan
         y="2356.2756"
         x="2202.4138"
         style="font-size:39px;line-height:1.25;fill:#000000"
         sodipodi:role="line"
         id="tspan186800-2-1">Nee, echt,</tspan><tspan
         y="2405.0256"
         x="2202.4138"
         style="font-size:39px;line-height:1.25;fill:#000000"
         sodipodi:role="line"
         id="tspan201029">hahaha!</tspan></text>
    <text
       id="text4246-4-2-7-3-6-7-6-6-4-5-1-6-5"
       y="2903.6599"
       x="2194.6721"
       style="font-style:normal;font-variant:normal;font-weight:normal;font-stretch:normal;font-size:42.5063px;line-height:0%;font-family:Lavi;-inkscape-font-specification:Lavi;text-align:center;letter-spacing:0px;word-spacing:0px;text-anchor:middle;fill:#000000;fill-opacity:1;stroke:none;stroke-width:1.0899"
       xml:space="preserve"><tspan
         y="2903.6599"
         x="2194.6721"
         style="font-size:42.5063px;line-height:1.25;fill:#000000;stroke-width:1.0899"
         sodipodi:role="line"
         id="tspan201029-4">Hihihi!</tspan></text>
    <text
       id="text4246-4-2-7-3-6-7-6-6-4-5-1-6-5-7"
       y="2978.1711"
       x="2197.4834"
       style="font-style:normal;font-variant:normal;font-weight:normal;font-stretch:normal;font-size:39px;line-height:0%;font-family:Lavi;-inkscape-font-specification:Lavi;text-align:center;letter-spacing:0px;word-spacing:0px;text-anchor:middle;fill:#000000;fill-opacity:1;stroke:none"
       xml:space="preserve"><tspan
         y="2978.1711"
         x="2197.4834"
         style="font-size:39px;line-height:1.25;fill:#000000"
         sodipodi:role="line"
         id="tspan215195">Zij is zó</tspan><tspan
         y="3026.9211"
         x="2197.4834"
         style="font-size:39px;line-height:1.25;fill:#000000"
         sodipodi:role="line"
         id="tspan959">paranoïde...</tspan></text>
  </g>
</svg>
