<?xml version="1.0" encoding="UTF-8" standalone="no"?>
<!-- Created with Inkscape (http://www.inkscape.org/) -->

<svg
   xmlns:dc="http://purl.org/dc/elements/1.1/"
   xmlns:cc="http://creativecommons.org/ns#"
   xmlns:rdf="http://www.w3.org/1999/02/22-rdf-syntax-ns#"
   xmlns:svg="http://www.w3.org/2000/svg"
   xmlns="http://www.w3.org/2000/svg"
   xmlns:xlink="http://www.w3.org/1999/xlink"
   xmlns:sodipodi="http://sodipodi.sourceforge.net/DTD/sodipodi-0.dtd"
   xmlns:inkscape="http://www.inkscape.org/namespaces/inkscape"
   id="svg2"
   version="1.1"
   inkscape:version="0.92.2 2405546, 2018-03-11"
   width="2481"
   height="3503"
   sodipodi:docname="E26P01.svg">
  <metadata
     id="metadata8">
    <rdf:RDF>
      <cc:Work
         rdf:about="">
        <dc:format>image/svg+xml</dc:format>
        <dc:type
           rdf:resource="http://purl.org/dc/dcmitype/StillImage" />
        <dc:title />
      </cc:Work>
    </rdf:RDF>
  </metadata>
  <defs
     id="defs6" />
  <sodipodi:namedview
     pagecolor="#ffffff"
     bordercolor="#666666"
     borderopacity="1"
     objecttolerance="10"
     gridtolerance="10"
     guidetolerance="10"
     inkscape:pageopacity="0"
     inkscape:pageshadow="2"
     inkscape:window-width="956"
     inkscape:window-height="1022"
     id="namedview4"
     showgrid="false"
     inkscape:zoom="1.3834484"
     inkscape:cx="1779.7259"
     inkscape:cy="854.20775"
     inkscape:window-x="960"
     inkscape:window-y="24"
     inkscape:window-maximized="0"
     inkscape:current-layer="layer1"
     inkscape:snap-global="false" />
  <g
     inkscape:groupmode="layer"
     id="layer2"
     inkscape:label="artwork"
     sodipodi:insensitive="true">
    <image
       sodipodi:absref="/home/nightlock/peppercarrot/webcomics/new-ep26_Books-Are-Great/lang/kr/../gfx_Pepper-and-Carrot_by-David-Revoy_E26P01.png"
       xlink:href="../gfx_Pepper-and-Carrot_by-David-Revoy_E26P01.png"
       y="0"
       x="0"
       id="image10"
       height="3503"
       width="2481" />
  </g>
  <g
     inkscape:groupmode="layer"
     id="layer3"
     inkscape:label="speechbubbles"
     style="display:inline;opacity:1">
    <path
       style="fill:#ffffff;fill-opacity:1;stroke:none;stroke-width:1.19783747"
       d="m 261.30402,1886.1776 c -56.15542,0.4163 -82.5608,-10.1327 -95.76057,-19.4702 -21.90217,-15.4936 -26.18565,-108.6848 17.94676,-127.2534 44.36467,-18.6663 130.88186,-14.5153 166.39026,21.3805 35.50827,35.8958 10.18368,83.1585 2.01918,92.8715 -8.16463,9.7129 -29.84355,32.099 -90.59563,32.4716 z"
       id="path3659-8"
       inkscape:connector-curvature="0"
       sodipodi:nodetypes="cssssc" />
    <path
       style="color:#000000;display:inline;overflow:visible;visibility:visible;fill:#ffffff;fill-opacity:1;fill-rule:nonzero;stroke:none;stroke-width:0.77001458px;marker:none;enable-background:accumulate"
       d="m 274.67689,1855.3732 c 11.17842,15.8247 25.32183,43.4204 25.79652,49.4209 -6.73911,-0.5556 -13.09406,0.387 -18.03883,1.0204 1.81058,10.7946 32.21158,51.6223 41.64451,56.3046 -23.83945,-10.0592 -58.27989,-45.5693 -59.88737,-63.8703 6.68489,-2.1454 10.75049,-2.4727 14.26692,-3.6967 -0.36416,-9.3034 -20.80365,-30.8908 -20.80365,-30.8908 z"
       id="path5066"
       inkscape:connector-curvature="0"
       sodipodi:nodetypes="cccccccc" />
    <path
       style="color:#000000;display:inline;overflow:visible;visibility:visible;fill:#ffffff;fill-opacity:1;fill-rule:nonzero;stroke:none;stroke-width:1.03664148px;marker:none;enable-background:accumulate"
       d="m 1769.4196,1955.7976 c -40.2549,-41.8957 -38.839,-130.2522 -27.3374,-149.1052 17.9863,-35.2509 61.0791,-41.5421 115.7109,-41.5421 54.6317,0 442.4098,-21.4056 498.4792,22.5849 56.0693,43.9904 38.4195,125.9159 -10.4615,177.238 -48.8811,51.3222 -320.2658,40.8482 -320.2658,40.8482 0,0 -194.3052,3.3931 -256.1254,-50.0238 z"
       id="path3992"
       inkscape:connector-curvature="0"
       sodipodi:nodetypes="ccscccc" />
    <path
       style="color:#000000;display:inline;overflow:visible;visibility:visible;fill:#ffffff;fill-opacity:1;fill-rule:nonzero;stroke:none;stroke-width:1px;marker:none;enable-background:accumulate"
       d="m 1984.9695,2211.7966 c 97.5172,-13.4683 140.8945,-73.5032 173.5649,-113.8088 15.274,-18.8437 -32.2063,-50.3843 -32.2063,-50.3843 l -20.4844,64.3961 c 4.4776,5.3732 -31.2523,71.0033 -120.8742,99.797 z"
       id="path4000"
       inkscape:connector-curvature="0"
       sodipodi:nodetypes="csccc" />
    <path
       style="color:#000000;display:inline;overflow:visible;visibility:visible;fill:#ffffff;fill-opacity:1;fill-rule:nonzero;stroke:none;stroke-width:0.83059144px;marker:none;enable-background:accumulate"
       d="m 1986.9871,2032.8023 c 16.1003,-23.0063 28.0556,-67.3113 146.6344,-51.7323 63.5172,8.3448 135.7326,7.6994 128.2439,88.2216 -7.4887,80.5222 -112.6372,70.1622 -134.1673,71.1095 -21.53,0.9474 -123.0936,0.012 -141.7025,-28.3054 -11.6488,-17.7262 -15.0761,-57.9183 0.9915,-79.2934 z"
       id="path4546-6"
       inkscape:connector-curvature="0"
       sodipodi:nodetypes="cssssc" />
    <path
       style="color:#000000;display:inline;overflow:visible;visibility:visible;opacity:1;vector-effect:none;fill:#ffffff;fill-opacity:1;fill-rule:nonzero;stroke:none;stroke-width:1.09742534;stroke-linecap:butt;stroke-linejoin:miter;stroke-miterlimit:4;stroke-dasharray:none;stroke-dashoffset:0;stroke-opacity:1;marker:none;paint-order:stroke fill markers;enable-background:accumulate"
       d="m 892.15013,2690.5487 c -38.71503,-50.7299 -34.56706,-149.6531 -23.50553,-172.4815 -6.48685,-34.1094 17.8463,-62.4869 78.81276,-57.0711 52.33566,4.6491 433.72754,-15.396 487.65204,37.8703 53.9243,53.2664 46.3271,142.1194 -0.684,204.2635 -47.0112,62.1442 -308.6025,44.4898 -308.6025,44.4898 -0.247,0.3529 -182.98149,20.1295 -233.67277,-57.071 z"
       id="path3992-0"
       inkscape:connector-curvature="0"
       sodipodi:nodetypes="ccscscc" />
    <path
       style="color:#000000;display:inline;overflow:visible;visibility:visible;fill:#ffffff;fill-opacity:1;fill-rule:nonzero;stroke:none;stroke-width:1.1471467px;marker:none;enable-background:accumulate"
       d="m 1107.7917,2663.674 c -41.0805,41.3971 -74.3212,126.4523 -32.6058,262.3106 -64.481,-107.4324 -40.7404,-218.5665 -31.5488,-251.0486 9.1915,-32.4819 64.1546,-11.262 64.1546,-11.262 z"
       id="path4008"
       inkscape:connector-curvature="0" />
    <path
       style="color:#000000;display:inline;overflow:visible;visibility:visible;fill:#ffffff;fill-opacity:1;fill-rule:nonzero;stroke:none;stroke-width:1.1471467px;marker:none;enable-background:accumulate"
       d="m 1891.9827,2656.832 c -40.4116,58.3597 -53.3089,167.7072 24.2468,263.2149 -108.4132,-99.3198 -82.2954,-214.0613 -72.6196,-244.9782 2.0322,-33.6961 48.3728,-18.2367 48.3728,-18.2367 z"
       id="path4008-0"
       inkscape:connector-curvature="0"
       sodipodi:nodetypes="cccc" />
    <path
       style="color:#000000;display:inline;overflow:visible;visibility:visible;opacity:1;fill:#ffffff;fill-opacity:1;fill-rule:nonzero;stroke:none;stroke-width:1.3938657px;marker:none;enable-background:accumulate"
       d="m 1851.6429,2744.4158 c -89.8993,-11.4249 -104.8759,-33.2233 -126.3179,-85.7917 -21.442,-52.5684 18.6743,-199.8538 37.4398,-211.8218 11.9495,-4.5693 152.2364,-1.6759 229.9709,10.4072 77.7344,12.0833 169.1783,4.1407 194.7096,86.3811 22.1247,71.2666 -27.002,178.7306 -129.7978,195.4587 -102.796,16.7282 -206.0046,5.3665 -206.0046,5.3665 z"
       id="path3970"
       inkscape:connector-curvature="0"
       sodipodi:nodetypes="csccssc" />
  </g>
  <g
     inkscape:groupmode="layer"
     id="layer1"
     inkscape:label="txt">
    <text
       id="text850"
       y="1792.5261"
       x="254.96269"
       style="font-style:normal;font-variant:normal;font-weight:normal;font-stretch:normal;font-size:16.08179283px;line-height:100%;font-family:'Nanum Pen Script OTF';-inkscape-font-specification:'Nanum Pen Script OTF';text-align:center;letter-spacing:0px;word-spacing:0px;text-anchor:middle;fill:#000000;fill-opacity:1;stroke:none;stroke-width:1.3401494"
       xml:space="preserve"><tspan
         id="tspan848"
         y="1792.5261"
         x="254.96269"
         style="font-style:normal;font-variant:normal;font-weight:normal;font-stretch:normal;font-size:60.30672455px;line-height:100%;font-family:'Nanum Pen Script OTF';-inkscape-font-specification:'Nanum Pen Script OTF';stroke-width:1.3401494"
         sodipodi:role="line">책이</tspan><tspan
         y="1852.8329"
         x="254.96269"
         style="font-style:normal;font-variant:normal;font-weight:normal;font-stretch:normal;font-size:60.30672455px;line-height:100%;font-family:'Nanum Pen Script OTF';-inkscape-font-specification:'Nanum Pen Script OTF';stroke-width:1.3401494"
         sodipodi:role="line"
         id="tspan892">최고야!</tspan></text>
    <text
       id="text856"
       y="2051.9182"
       x="2124.9187"
       style="font-style:normal;font-variant:normal;font-weight:normal;font-stretch:normal;font-size:14.42215919px;line-height:100%;font-family:'Nanum Pen Script OTF';-inkscape-font-specification:'Nanum Pen Script OTF';text-align:center;letter-spacing:0px;word-spacing:0px;text-anchor:middle;fill:#000000;fill-opacity:1;stroke:none;stroke-width:1.20184636"
       xml:space="preserve"><tspan
         id="tspan854"
         y="2051.9182"
         x="2124.9187"
         style="font-style:normal;font-variant:normal;font-weight:normal;font-stretch:normal;font-size:54.08309174px;line-height:100%;font-family:'Nanum Pen Script OTF';-inkscape-font-specification:'Nanum Pen Script OTF';stroke-width:1.20184636"
         sodipodi:role="line">정말 귀한</tspan><tspan
         y="2106.0012"
         x="2124.9187"
         style="font-style:normal;font-variant:normal;font-weight:normal;font-stretch:normal;font-size:54.08309174px;line-height:100%;font-family:'Nanum Pen Script OTF';-inkscape-font-specification:'Nanum Pen Script OTF';stroke-width:1.20184636"
         sodipodi:role="line"
         id="tspan906">물건이야!</tspan></text>
    <text
       id="text866"
       y="1844.009"
       x="2062.3005"
       style="font-style:normal;font-variant:normal;font-weight:normal;font-stretch:normal;font-size:14.9924736px;line-height:100%;font-family:'Nanum Pen Script OTF';-inkscape-font-specification:'Nanum Pen Script OTF';text-align:center;letter-spacing:0px;word-spacing:0px;text-anchor:middle;fill:#000000;fill-opacity:1;stroke:none;stroke-width:1.24937284"
       xml:space="preserve"><tspan
         id="tspan864"
         y="1844.009"
         x="2062.3005"
         style="font-style:normal;font-variant:normal;font-weight:normal;font-stretch:normal;font-size:56.22177505px;line-height:100%;font-family:'Nanum Pen Script OTF';-inkscape-font-specification:'Nanum Pen Script OTF';stroke-width:1.24937284"
         sodipodi:role="line">이 희귀한 책은 전문 탐험가가 남겨둔</tspan><tspan
         y="1900.2308"
         x="2062.3005"
         style="font-style:normal;font-variant:normal;font-weight:normal;font-stretch:normal;font-size:56.22177505px;line-height:100%;font-family:'Nanum Pen Script OTF';-inkscape-font-specification:'Nanum Pen Script OTF';stroke-width:1.24937284"
         sodipodi:role="line"
         id="tspan900">노트인데 이 지하감옥의</tspan><tspan
         y="1956.4526"
         x="2062.3005"
         style="font-style:normal;font-variant:normal;font-weight:normal;font-stretch:normal;font-size:56.22177505px;line-height:100%;font-family:'Nanum Pen Script OTF';-inkscape-font-specification:'Nanum Pen Script OTF';stroke-width:1.24937284"
         sodipodi:role="line"
         id="tspan902">모든 걸 알려주고 있어.</tspan></text>
    <text
       id="text876"
       y="2543.9568"
       x="1163.4429"
       style="font-style:normal;font-variant:normal;font-weight:normal;font-stretch:normal;font-size:15.00623417px;line-height:100%;font-family:'Nanum Pen Script OTF';-inkscape-font-specification:'Nanum Pen Script OTF';text-align:center;letter-spacing:0px;word-spacing:0px;text-anchor:middle;fill:#000000;fill-opacity:1;stroke:none;stroke-width:1.25051951"
       xml:space="preserve"><tspan
         y="2543.9568"
         x="1163.4429"
         style="font-style:normal;font-variant:normal;font-weight:normal;font-stretch:normal;font-size:56.27337646px;line-height:100%;font-family:'Nanum Pen Script OTF';-inkscape-font-specification:'Nanum Pen Script OTF';stroke-width:1.25051951"
         sodipodi:role="line"
         id="tspan918">예를 들면: 정문에 붙어있는</tspan><tspan
         y="2600.2302"
         x="1163.4429"
         style="font-style:normal;font-variant:normal;font-weight:normal;font-stretch:normal;font-size:56.27337646px;line-height:100%;font-family:'Nanum Pen Script OTF';-inkscape-font-specification:'Nanum Pen Script OTF';stroke-width:1.25051951"
         sodipodi:role="line"
         id="tspan949">이 사악한 눈은</tspan><tspan
         y="2656.5034"
         x="1163.4429"
         style="font-style:normal;font-variant:normal;font-weight:normal;font-stretch:normal;font-size:56.27337646px;line-height:100%;font-family:'Nanum Pen Script OTF';-inkscape-font-specification:'Nanum Pen Script OTF';stroke-width:1.25051951"
         sodipodi:role="line"
         id="tspan951">죽음의 불덩이를 쏴서</tspan><tspan
         y="2712.7769"
         x="1163.4429"
         style="font-style:normal;font-variant:normal;font-weight:normal;font-stretch:normal;font-size:56.27337646px;line-height:100%;font-family:'Nanum Pen Script OTF';-inkscape-font-specification:'Nanum Pen Script OTF';stroke-width:1.25051951"
         sodipodi:role="line"
         id="tspan953">침입자를 쫒아내게 되어있어.</tspan></text>
    <text
       id="text888"
       y="2541.3455"
       x="1949.5385"
       style="font-style:normal;font-variant:normal;font-weight:normal;font-stretch:normal;font-size:14.89579201px;line-height:100%;font-family:'Nanum Pen Script OTF';-inkscape-font-specification:'Nanum Pen Script OTF';text-align:center;letter-spacing:0px;word-spacing:0px;text-anchor:middle;fill:#000000;fill-opacity:1;stroke:none;stroke-width:1.24131608"
       xml:space="preserve"><tspan
         y="2541.3455"
         x="1949.5385"
         style="font-style:normal;font-variant:normal;font-weight:normal;font-stretch:normal;font-size:55.85922241px;line-height:100%;font-family:'Nanum Pen Script OTF';-inkscape-font-specification:'Nanum Pen Script OTF';stroke-width:1.24131608"
         sodipodi:role="line"
         id="tspan961">하지만 조심스럽게</tspan><tspan
         y="2597.2046"
         x="1949.5385"
         style="font-style:normal;font-variant:normal;font-weight:normal;font-stretch:normal;font-size:55.85922241px;line-height:100%;font-family:'Nanum Pen Script OTF';-inkscape-font-specification:'Nanum Pen Script OTF';stroke-width:1.24131608"
         sodipodi:role="line"
         id="tspan965">옆에서</tspan><tspan
         y="2653.064"
         x="1949.5385"
         style="font-style:normal;font-variant:normal;font-weight:normal;font-stretch:normal;font-size:55.85922241px;line-height:100%;font-family:'Nanum Pen Script OTF';-inkscape-font-specification:'Nanum Pen Script OTF';stroke-width:1.24131608"
         sodipodi:role="line"
         id="tspan967">시야에 벗어나도록</tspan><tspan
         y="2708.9231"
         x="1949.5385"
         style="font-style:normal;font-variant:normal;font-weight:normal;font-stretch:normal;font-size:55.85922241px;line-height:100%;font-family:'Nanum Pen Script OTF';-inkscape-font-specification:'Nanum Pen Script OTF';stroke-width:1.24131608"
         sodipodi:role="line"
         id="tspan969">접근하고...</tspan><tspan
         id="tspan886"
         y="2734.9907"
         x="1949.5385"
         style="font-style:normal;font-variant:normal;font-weight:normal;font-stretch:normal;font-size:55.85922241px;line-height:100%;font-family:'Nanum Pen Script OTF';-inkscape-font-specification:'Nanum Pen Script OTF';stroke-width:1.24131608"
         sodipodi:role="line" /></text>
  </g>
</svg>
