<?xml version="1.0" encoding="UTF-8" standalone="no"?>
<!-- Created with Inkscape (http://www.inkscape.org/) -->

<svg
   id="svg2"
   version="1.1"
   inkscape:version="1.3 (0e150ed6c4, 2023-07-21)"
   width="2481"
   height="3503"
   sodipodi:docname="E11P01.svg"
   xmlns:inkscape="http://www.inkscape.org/namespaces/inkscape"
   xmlns:sodipodi="http://sodipodi.sourceforge.net/DTD/sodipodi-0.dtd"
   xmlns:xlink="http://www.w3.org/1999/xlink"
   xmlns="http://www.w3.org/2000/svg"
   xmlns:svg="http://www.w3.org/2000/svg"
   xmlns:rdf="http://www.w3.org/1999/02/22-rdf-syntax-ns#"
   xmlns:cc="http://creativecommons.org/ns#"
   xmlns:dc="http://purl.org/dc/elements/1.1/">
  <sodipodi:namedview
     pagecolor="#ffffff"
     bordercolor="#666666"
     inkscape:pageopacity="0"
     inkscape:pageshadow="2"
     inkscape:window-width="1888"
     inkscape:window-height="1144"
     id="namedview70"
     showgrid="false"
     inkscape:zoom="0.52325902"
     inkscape:cx="1257.5034"
     inkscape:cy="2369.7633"
     inkscape:current-layer="layer3"
     inkscape:window-x="32"
     inkscape:window-y="0"
     inkscape:window-maximized="1"
     borderopacity="1"
     inkscape:showpageshadow="0"
     inkscape:pagecheckerboard="0"
     inkscape:deskcolor="#d1d1d1" />
  <metadata
     id="metadata8">
    <rdf:RDF>
      <cc:Work
         rdf:about="">
        <dc:format>image/svg+xml</dc:format>
        <dc:type
           rdf:resource="http://purl.org/dc/dcmitype/StillImage" />
        <dc:title />
      </cc:Work>
    </rdf:RDF>
  </metadata>
  <defs
     id="defs6" />
  <sodipodi:namedview
     pagecolor="#ffffff"
     bordercolor="#666666"
     borderopacity="1"
     objecttolerance="10"
     gridtolerance="10"
     guidetolerance="10"
     inkscape:pageopacity="0"
     inkscape:pageshadow="2"
     inkscape:window-width="1920"
     inkscape:window-height="1025"
     id="namedview4"
     showgrid="false"
     inkscape:zoom="0.2630065"
     inkscape:cx="1058.2829"
     inkscape:cy="1322.7828"
     inkscape:window-x="0"
     inkscape:window-y="26"
     inkscape:window-maximized="1"
     inkscape:current-layer="layer1" />
  <g
     inkscape:groupmode="layer"
     id="layer2"
     inkscape:label="artwork"
     sodipodi:insensitive="true">
    <image
       xlink:href="../gfx_Pepper-and-Carrot_by-David-Revoy_E11P01.png"
       y="0"
       x="0"
       id="image10"
       height="3503"
       width="2481" />
  </g>
  <g
     inkscape:groupmode="layer"
     id="layer3"
     inkscape:label="speechbubbles">
    <path
       style="fill:#b6b6b6;fill-opacity:1;stroke:none;stroke-width:0.771891"
       d="m 88.261272,1731.9746 c -4.498479,75.588 35.768448,85.5994 216.313758,84.9654 180.54524,-0.6339 241.78275,-14.5329 247.62398,-64.0824 5.35236,-45.4024 -19.44062,-65.8381 -43.03597,-75.805 -33.766,-14.2628 -176.37361,-15.8171 -257.71294,-13.2526 -74.17533,2.3387 -168.298616,24.4296 -163.188828,68.1746 z"
       id="path3065"
       inkscape:connector-curvature="0"
       sodipodi:nodetypes="cssssc" />
    <path
       style="fill:#d3d3d3;fill-opacity:1;stroke:none;stroke-width:0.904854"
       d="m 953.76452,1771.1409 c 12.28754,-83.5866 93.15938,-97.4891 107.68108,-104.8955 14.5211,-7.4063 121.7809,-14.5651 131.8342,-13.5073 10.0534,1.0582 78.589,-5.3953 130.0459,-4.737 53.8358,0.6889 84.5382,-10.6197 157.598,25.4422 22.8024,11.2552 59.0096,52.8577 66.5977,122.8878 3.3091,30.5409 -8.4322,98.7053 -54.5356,127.689 -112.4665,70.7046 -211.3491,60.929 -290.6586,55.6386 -79.3098,-5.29 -156.1333,-19.6778 -196.7572,-54.5917 -43.91078,-37.7387 -62.97574,-112.662 -51.80548,-153.9261 z"
       id="path3061"
       inkscape:connector-curvature="0"
       sodipodi:nodetypes="cssssssssc" />
    <path
       style="color:#000000;display:inline;overflow:visible;visibility:visible;fill:#d3d3d3;fill-opacity:1;fill-rule:nonzero;stroke:none;stroke-width:0.765353px;marker:none;enable-background:accumulate"
       d="m 1815.0641,1745.3632 c 8.8896,-39.2888 8.6311,-107.1389 269.8611,-102.5668 261.2298,4.5723 250.8964,20.9226 255.8651,109.2938 4.9689,88.3712 -109.8585,100.159 -269.8804,100.3706 -185.8862,0.246 -258.7439,-42.7056 -255.8458,-107.0976 z"
       id="path5026"
       inkscape:connector-curvature="0"
       sodipodi:nodetypes="csssc" />
    <path
       style="color:#000000;display:inline;overflow:visible;visibility:visible;fill:#b6b6b6;fill-opacity:1;fill-rule:nonzero;stroke:none;stroke-width:1px;marker:none;enable-background:accumulate"
       d="m 277.32293,1796.3234 c 13.16752,17.6657 25.65642,40.2854 26.25269,45.414 0.59629,5.1285 -15.29835,31.0692 -11.61138,37.3422 3.68699,6.2731 20.16588,9.2519 21.49674,13.7602 1.33075,4.5082 -7.41284,25.6607 -4.16943,30.431 3.2434,4.7703 28.46824,19.7622 29.25855,23.4754 0.79021,3.7132 5.18503,23.782 15.89938,40.3905 -6.97399,-39.1676 -2.08221,-46.4283 -5.76919,-52.7012 -3.68698,-6.2732 -20.85912,-13.6728 -22.5366,-20.3916 -1.67749,-6.7186 6.33175,-27.2508 2.00713,-33.6111 -4.32449,-6.3604 -16.14676,-10.1432 -16.14676,-10.1432 5.23851,-5.0502 28.92171,-35.6915 12.44045,-71.8359 -16.48125,-36.1445 -47.12158,-2.1303 -47.12158,-2.1303 z"
       id="path5050"
       inkscape:connector-curvature="0" />
    <path
       style="color:#000000;fill:#d3d3d3;fill-opacity:1;fill-rule:nonzero;stroke:none;stroke-width:1px;marker:none;visibility:visible;display:inline;overflow:visible;enable-background:accumulate"
       d="m 1396.1772,2120.9882 c 68.3118,-74.6739 88.7022,-171.0856 50.2681,-232.2418 -12.9068,-20.5376 -46.5081,4.9084 -46.5081,4.9084 59.7063,72.6609 34.287,166.8134 -3.76,227.3334 z"
       id="path4000"
       inkscape:connector-curvature="0"
       sodipodi:nodetypes="cscc" />
    <path
       style="fill:#d3d3d3;stroke:none;fill-opacity:1"
       d="m 2295.182,1822.1558 c -15.4539,18.0781 -34.4193,44.3463 -33.8114,53.7712 0.8079,9.3246 11.6508,27.238 10.4321,49.7021 -1.0616,19.5667 -14.0824,60.651 -76.2349,91.1318 39.1463,-33.6868 47.3811,-82.8609 45.3101,-99.1786 -1.7861,-14.0729 -24.2104,-45.8128 -23.7763,-55.1893 -0.878,-26.1428 12.9745,-54.7358 37.3709,-63.0033 24.3967,-8.2674 40.7095,22.7661 40.7095,22.7661 z"
       id="path3272"
       inkscape:connector-curvature="0"
       sodipodi:nodetypes="ccscscsc" />
    <path
       style="color:#000000;display:inline;overflow:visible;visibility:visible;fill:#ffe4a0;fill-opacity:1;fill-rule:nonzero;stroke:none;stroke-width:0.92760158px;marker:none;enable-background:accumulate"
       d="m 1486.9757,2932.4412 c -0.798,-19.8961 13.5676,-33.4255 21.5485,-39.7923 7.981,-6.3667 58.2609,-20.692 76.6171,-20.692 18.3561,0 94.175,14.3253 107.7426,28.6505 13.5676,14.3252 31.1257,14.3252 22.3467,38.2007 -8.7791,23.8754 -63.8475,35.8131 -75.819,38.2007 -11.9714,2.3875 -46.2894,3.9791 -57.4628,3.1833 -11.1733,-0.7958 -97.3674,-15.1209 -94.9731,-47.7509 z"
       id="path3357"
       inkscape:connector-curvature="0" />
    <path
       style="color:#000000;display:inline;overflow:visible;visibility:visible;fill:#ffe4a0;fill-opacity:1;fill-rule:nonzero;stroke:none;stroke-width:0.77250624px;marker:none;enable-background:accumulate"
       d="m 1567.7437,3010.4958 c -0.9573,-18.7369 13.4027,-32.1204 53.6112,-44.3568 40.2085,-12.2364 95.7347,-9.1773 110.0946,-5.3535 14.3604,3.824 68.931,-6.0772 101.1036,16.7628 37.9616,21.5609 20.3401,67.2615 -7.2837,75.7749 -17.2321,4.5887 -139.7723,10.7069 -159.8766,7.6477 -20.1041,-3.059 -52.654,-3.8239 -69.8861,-13.0011 -17.47,-9.3039 -26.8057,-18.737 -27.763,-37.474 z"
       id="path3373"
       inkscape:connector-curvature="0"
       sodipodi:nodetypes="zssccssz" />
    <path
       style="color:#000000;display:inline;overflow:visible;visibility:visible;fill:#ffe4a0;fill-opacity:1;fill-rule:nonzero;stroke:none;stroke-width:1px;marker:none;enable-background:accumulate"
       d="m 1419.4955,3045.557 c 26.6325,12.0796 30.5658,11.3089 39.9035,0.1093 9.3376,-11.1995 19.0754,-30.1656 45.4875,-32.6982 26.4121,-2.5327 38.5324,7.8258 46.9696,14.1009 65.0939,-25.9629 72.6689,-29.5668 28.2741,18.0046 -17.4043,16.6242 -53.1447,-7.6054 -71.5902,-8.5558 -18.4454,-0.9505 -33.3875,24.5611 -48.0998,26.7232 -14.7123,2.1621 -29.6951,-9.3172 -40.9447,-17.684 z"
       id="path4538"
       inkscape:connector-curvature="0"
       sodipodi:nodetypes="cssccssc" />
  </g>
  <g
     inkscape:groupmode="layer"
     id="layer1"
     inkscape:label="txt">
    <flowRoot
       xml:space="preserve"
       id="flowRoot2987-4-9-3"
       style="font-style:normal;font-variant:normal;font-weight:normal;font-stretch:normal;line-height:0.01%;font-family:Lavi;-inkscape-font-specification:Lavi;text-align:center;letter-spacing:0px;word-spacing:0px;text-anchor:middle;fill:#000000;fill-opacity:1;stroke:none"
       transform="translate(2.6020144,1417.4749)"><flowRegion
         id="flowRegion2989-5-4-5"><rect
           id="rect2991-7-9-6"
           width="421.94736"
           height="222.77654"
           x="108.17815"
           y="262.87881"
           style="font-style:normal;font-variant:normal;font-weight:normal;font-stretch:normal;font-family:Lavi;-inkscape-font-specification:Lavi;text-align:center;text-anchor:middle;stroke-width:1" /></flowRegion><flowPara
         style="font-size:45px;line-height:1.25;text-align:center;text-anchor:middle"
         id="flowPara445">Paprika, ti si sramota za Kaosah.</flowPara></flowRoot>
    <flowRoot
       xml:space="preserve"
       id="flowRoot2987-4-9-3-9"
       style="font-style:normal;font-variant:normal;font-weight:normal;font-stretch:normal;line-height:0.01%;font-family:Lavi;-inkscape-font-specification:Lavi;text-align:center;letter-spacing:0px;word-spacing:0px;text-anchor:middle;fill:#000000;fill-opacity:1;stroke:none"
       transform="translate(860.44108,1409.266)"><flowRegion
         id="flowRegion2989-5-4-5-1"><rect
           id="rect2991-7-9-6-4"
           width="537.16528"
           height="297.96033"
           x="120.55252"
           y="265.53046"
           style="font-style:normal;font-variant:normal;font-weight:normal;font-stretch:normal;font-family:Lavi;-inkscape-font-specification:Lavi;text-align:center;text-anchor:middle;stroke-width:1" /></flowRegion><flowPara
         style="font-size:45px;line-height:1.25;text-align:center;text-anchor:middle"
         id="flowPara65">Kajenka ima prav.</flowPara><flowPara
         style="font-size:45px;line-height:1.25;text-align:center;text-anchor:middle"
         id="flowPara443">Vsaka poštena kaosaška čarovnica vzbuja v drugih strahospoštovanje in ponižnost.</flowPara><flowPara
         style="font-size:45px;line-height:1.25;text-align:center;text-anchor:middle"
         id="flowPara439" /><flowPara
         style="font-size:45px;line-height:1.25;text-align:center;text-anchor:middle"
         id="flowPara441" /></flowRoot>
    <flowRoot
       xml:space="preserve"
       id="flowRoot2987-4-9-3-9-7"
       style="font-style:normal;font-variant:normal;font-weight:normal;font-stretch:normal;line-height:0.01%;font-family:Lavi;-inkscape-font-specification:Lavi;text-align:center;letter-spacing:0px;word-spacing:0px;text-anchor:middle;fill:#000000;fill-opacity:1;stroke:none"
       transform="translate(1699.6175,1398.4297)"><flowRegion
         id="flowRegion2989-5-4-5-1-6"><rect
           id="rect2991-7-9-6-4-8"
           width="637.72778"
           height="262.47906"
           x="65.552513"
           y="268.03046"
           style="font-style:normal;font-variant:normal;font-weight:normal;font-stretch:normal;font-family:Lavi;-inkscape-font-specification:Lavi;text-align:center;text-anchor:middle;stroke-width:1" /></flowRegion><flowPara
         style="font-size:45px;line-height:1.25;text-align:center;text-anchor:middle"
         id="flowPara59" /><flowPara
         style="font-size:45px;line-height:1.25;text-align:center;text-anchor:middle"
         id="flowPara449">Ti pa medtem</flowPara><flowPara
         style="font-size:45px;line-height:1.25;text-align:center;text-anchor:middle"
         id="flowPara453">prirejaš čajanke našim demonom* …</flowPara></flowRoot>
    <flowRoot
       xml:space="preserve"
       id="flowRoot2987-4-9-9-9-9"
       style="font-style:normal;font-variant:normal;font-weight:normal;font-stretch:normal;line-height:0.01%;font-family:Lavi;-inkscape-font-specification:Lavi;text-align:center;letter-spacing:0px;word-spacing:0px;text-anchor:middle;fill:#000000;fill-opacity:1;stroke:none"
       transform="matrix(0.66530597,0,0,0.68592152,1595.393,2574.6539)"><flowRegion
         id="flowRegion2989-5-4-7-7-9"><rect
           id="rect2991-7-9-4-3-7"
           width="1100.3401"
           height="65.915588"
           x="120.55252"
           y="265.53046"
           style="font-style:normal;font-variant:normal;font-weight:normal;font-stretch:normal;font-family:Lavi;-inkscape-font-specification:Lavi;text-align:center;text-anchor:middle;stroke-width:1" /></flowRegion><flowPara
         style="font-size:48px;line-height:1.25;text-align:start;text-anchor:start;fill:#a0a0a0;fill-opacity:1"
         id="flowPara3080-9-7-0">* glej epizodo 8: Paprikina rojstnodnevna zabava</flowPara></flowRoot>
    <flowRoot
       xml:space="preserve"
       id="flowRoot2987-4-9-3-0"
       style="font-style:normal;font-variant:normal;font-weight:normal;font-stretch:normal;line-height:0.01%;font-family:Lavi;-inkscape-font-specification:Lavi;text-align:center;letter-spacing:0px;word-spacing:0px;text-anchor:middle;fill:#000000;fill-opacity:1;stroke:none"
       transform="translate(1383.3831,2633.8637)"><flowRegion
         id="flowRegion2989-5-4-5-4"><rect
           id="rect2991-7-9-6-8"
           width="199.90172"
           height="55.739929"
           x="120.55251"
           y="265.53046"
           style="font-style:normal;font-variant:normal;font-weight:normal;font-stretch:normal;font-family:Lavi;-inkscape-font-specification:Lavi;text-align:center;text-anchor:middle" /></flowRegion><flowPara
         style="font-size:45px;line-height:1.25;text-align:center;text-anchor:middle"
         id="flowPara3030-8-3">Ampak …</flowPara></flowRoot>
    <flowRoot
       xml:space="preserve"
       id="flowRoot2987-4-9-3-0-3"
       style="font-style:normal;font-variant:normal;font-weight:normal;font-stretch:normal;line-height:0.01%;font-family:Lavi;-inkscape-font-specification:Lavi;text-align:center;letter-spacing:0px;word-spacing:0px;text-anchor:middle;fill:#000000;fill-opacity:1;stroke:none"
       transform="translate(1412.4219,2718.5782)"><flowRegion
         id="flowRegion2989-5-4-5-4-2"><rect
           id="rect2991-7-9-6-8-8"
           width="347.4017"
           height="63.239929"
           x="120.55251"
           y="265.53046"
           style="font-style:normal;font-variant:normal;font-weight:normal;font-stretch:normal;font-family:Lavi;-inkscape-font-specification:Lavi;text-align:center;text-anchor:middle" /></flowRegion><flowPara
         style="font-size:45px;line-height:1.25;text-align:center;text-anchor:middle"
         id="flowPara3030-8-3-6">Botre …</flowPara></flowRoot>
  </g>
</svg>
