<?xml version="1.0" encoding="UTF-8" standalone="no"?>
<svg
   xmlns:dc="http://purl.org/dc/elements/1.1/"
   xmlns:cc="http://creativecommons.org/ns#"
   xmlns:rdf="http://www.w3.org/1999/02/22-rdf-syntax-ns#"
   xmlns:svg="http://www.w3.org/2000/svg"
   xmlns="http://www.w3.org/2000/svg"
   xmlns:xlink="http://www.w3.org/1999/xlink"
   xmlns:sodipodi="http://sodipodi.sourceforge.net/DTD/sodipodi-0.dtd"
   xmlns:inkscape="http://www.inkscape.org/namespaces/inkscape"
   id="svg2"
   version="1.1"
   inkscape:version="0.92.5 (2060ec1f9f, 2020-04-08)"
   width="2481"
   height="3503"
   sodipodi:docname="E35P10.svg">
  <metadata
     id="metadata8">
    <rdf:RDF>
      <cc:Work
         rdf:about="">
        <dc:format>image/svg+xml</dc:format>
        <dc:type
           rdf:resource="http://purl.org/dc/dcmitype/StillImage" />
        <dc:title />
      </cc:Work>
    </rdf:RDF>
  </metadata>
  <defs
     id="defs6" />
  <sodipodi:namedview
     pagecolor="#ffffff"
     bordercolor="#666666"
     borderopacity="1"
     objecttolerance="10"
     gridtolerance="10"
     guidetolerance="10"
     inkscape:pageopacity="0"
     inkscape:pageshadow="2"
     inkscape:window-width="1920"
     inkscape:window-height="1023"
     id="namedview4"
     showgrid="false"
     inkscape:zoom="0.37618364"
     inkscape:cx="1648.5315"
     inkscape:cy="1542.3458"
     inkscape:window-x="0"
     inkscape:window-y="0"
     inkscape:window-maximized="1"
     inkscape:current-layer="layer3"
     inkscape:document-rotation="0"
     inkscape:snap-global="false"
     inkscape:pagecheckerboard="0" />
  <g
     inkscape:groupmode="layer"
     id="layer2"
     inkscape:label="artwork"
     sodipodi:insensitive="true">
    <image
       sodipodi:absref="/home/peppercarrot/webcomics/"
       xlink:href="../gfx_Pepper-and-Carrot_by-David-Revoy_E35P10.png"
       width="2481"
       height="3503"
       id="image10"
       x="0"
       y="0" />
  </g>
  <g
     inkscape:groupmode="layer"
     id="layer3"
     inkscape:label="speechbubbles">
    <path
       style="fill:#ffffff;stroke:none;stroke-width:0.953514"
       d="M 1261.291 157.25391 C 1207.7357 157.54489 1153.594 156.77924 1100.9434 168.07031 C 1079.0515 172.63737 1056.7703 178.05516 1037.541 189.92578 C 1014.7661 204.15435 995.86341 225.73768 987.83184 251.63897 C 981.27062 274.19125 985.39243 298.69085 995.30674 319.62389 C 1007.0019 345.58404 1028.2668 367.35364 1054.5756 378.52378 C 1081.5622 391.2018 1110.2419 399.83365 1139.1015 407.07235 C 1181.0204 416.67526 1224.2013 418.26528 1267.0361 419.0483 C 1318.7866 420.54802 1370.8139 423.45207 1422.3754 417.1585 C 1454.2487 413.43906 1486.0071 408.45644 1517.3258 401.42549 C 1548.668 394.18699 1579.903 383.56425 1606.2534 364.65158 C 1618.3453 356.29101 1627.4265 344.1997 1633.6247 330.98008 C 1637.8988 321.88336 1640.9749 312.28247 1643.9727 302.70807 C 1649.4597 283.9668 1651.0927 263.63441 1645.5571 244.70093 C 1638.5385 219.47018 1619.7506 197.97675 1595.9061 187.24726 C 1571.7096 175.34708 1544.9375 170.37134 1518.594 165.73016 C 1480.2608 159.64674 1441.3661 158.84703 1402.6436 157.82525 C 1356.0424 157.11629 1309.4336 157.28069 1262.8288 157.24308 C 1262.3162 157.24669 1261.8036 157.2503 1261.291 157.25391 z "
       id="path3100-98"
       inkscape:connector-curvature="0"
       sodipodi:nodetypes="zsssssz" />
    <path
       style="color:#000000;display:inline;overflow:visible;visibility:visible;fill:#ffffff;fill-opacity:1;fill-rule:nonzero;stroke:none;stroke-width:0.83737px;marker:none;enable-background:accumulate"
       d="m 1448.7795,517.63055 c 2.403,-24.32977 -9.2766,-33.6163 -20.6628,-38.28253 -11.3869,-4.66626 -19.0826,-5.58729 -28.1978,-26.0826 -9.1142,-20.49521 -0.7357,-41.29642 -4.8853,-52.46499 -11.4569,-16.24953 -34.9307,-26.06627 -44.5289,-30.51513 -21.6856,-10.05119 11.3091,-23.29909 11.3091,-23.29909 8.77,-0.30545 47.7455,23.68713 57.7575,33.72157 14.4084,14.44054 -4.0636,48.20741 4.0399,65.52593 7.5675,16.17219 18.2749,17.40774 23.9472,28.63593 5.6729,11.22843 4.8219,31.66667 1.2211,42.76091 z"
       id="path4538-8"
       inkscape:connector-curvature="0"
       sodipodi:nodetypes="csscscsssc" />
    <path
       style="color:#000000;display:inline;overflow:visible;visibility:visible;fill:#ffffff;fill-opacity:1;fill-rule:nonzero;stroke:none;stroke-width:1.23645234px;marker:none;enable-background:accumulate"
       d="m 115.32112,1521.6618 c 4.21208,-52.835 4.81672,-103.8757 60.53,-134.3848 55.71316,-30.5077 153.8648,-38.1731 277.1499,-29.2988 66.03807,4.7531 149.22898,11.1057 201.88917,33.0647 52.66021,21.9591 74.78982,59.5245 69.38588,136.9162 -5.40396,77.3916 -34.56616,110.9507 -95.3979,130.2669 -60.83164,19.3177 -153.33304,24.3928 -175.60725,26.3926 -22.27418,1.9996 -91.35887,-0.5587 -159.90095,-10.1499 -68.54196,-9.5912 -115.42441,-16.2888 -135.52804,-42.4256 -31.51574,-33.1568 -44.43735,-71.9148 -42.52081,-110.3813 z"
       id="path4546-6-2-0"
       inkscape:connector-curvature="0"
       sodipodi:nodetypes="cssssssscc" />
    <path
       style="fill:#ffffff;fill-rule:evenodd;stroke:none;stroke-width:1.12465px;stroke-linecap:butt;stroke-linejoin:miter;stroke-opacity:1"
       d="m 566.83527,1651.6586 c 4.43847,-15.3188 61.8645,41.4938 43.56991,104.2767 2.42387,27.4208 22.18027,42.2423 21.12076,57.0045 -1.05963,24.2524 -9.53608,35.8508 -36.02508,55.8848 33.90594,-15.8168 54.23301,-33.7608 55.29264,-58.0121 1.05951,-24.2524 -17.71625,-25.1329 -17.14842,-60.0829 1.05952,-10.5449 25.79381,-65.3353 -26.69151,-120.7385 19.07205,-20.0341 -40.1183,21.6675 -40.1183,21.6675 z"
       id="path1303"
       inkscape:connector-curvature="0"
       sodipodi:nodetypes="cccccccc" />
    <path
       style="color:#000000;display:inline;overflow:visible;visibility:visible;fill:#ffffff;fill-opacity:1;fill-rule:nonzero;stroke:none;stroke-width:1.00505078px;marker:none;enable-background:accumulate"
       d="m 1271.1942,1582.2487 c 2.6221,-56.0755 -10.2928,-107.5882 24.3913,-139.9687 34.6837,-32.3787 109.0788,-43.1726 185.8291,-33.754 41.1116,5.0445 108.8512,11.787 141.6347,35.0926 32.7832,23.3059 30.61,63.1753 27.2459,145.3136 -3.364,82.1383 -21.5188,117.7556 -59.3892,138.2565 -37.8705,20.5026 -95.4566,25.8889 -109.3232,28.0113 -13.8666,2.1223 -56.8751,-0.593 -99.5455,-10.7724 -42.6704,-10.1794 -71.8566,-17.2878 -84.372,-45.0276 -19.6198,-35.1904 -27.6643,-76.3255 -26.4711,-117.1513 z"
       id="path4546-6-2-0-3"
       inkscape:connector-curvature="0"
       sodipodi:nodetypes="cssssssscc" />
    <path
       style="color:#000000;display:inline;overflow:visible;visibility:visible;fill:#ffffff;fill-opacity:1;fill-rule:nonzero;stroke:none;stroke-width:0.78102916px;marker:none;enable-background:accumulate"
       d="m 1292.8465,1794.8765 c 2.9913,-29.6854 3.4206,-58.3624 42.9864,-75.504 39.5656,-17.1406 109.2697,-21.4475 196.8223,-16.4614 46.8983,2.6706 105.9774,6.2397 143.3752,18.5774 37.3975,12.3376 53.1131,33.4437 49.2755,76.9261 -3.8378,43.4822 -24.5478,62.3373 -67.7483,73.1902 -43.2006,10.8536 -108.8922,13.7051 -124.7106,14.8285 -15.8183,1.1236 -64.8802,-0.3137 -113.5562,-5.7027 -48.6762,-5.3888 -81.9705,-9.1517 -96.2475,-23.8367 -22.3814,-18.629 -31.5578,-40.4051 -30.1968,-62.0174 z"
       id="path4546-6-2-0-3-6"
       inkscape:connector-curvature="0"
       sodipodi:nodetypes="cssssssscc" />
    <path
       style="color:#000000;display:inline;overflow:visible;visibility:visible;fill:#ffffff;fill-opacity:1;fill-rule:nonzero;stroke:none;stroke-width:1.47843px;marker:none;enable-background:accumulate"
       d="m 1474.8245,1844.8292 c 6.1533,73.3287 -47.1663,130.4434 -118.01,146.3855 114.7363,-9.2052 166.2605,-106.0374 160.9588,-137.1332 -5.191,-30.4467 -42.9488,-9.2523 -42.9488,-9.2523 z"
       id="path5010-4"
       inkscape:connector-curvature="0"
       sodipodi:nodetypes="ccsc" />
  </g>
  <g
     inkscape:groupmode="layer"
     id="layer1"
     inkscape:label="txt">
    <text
       xml:space="preserve"
       style="font-style:normal;font-variant:normal;font-weight:normal;font-stretch:normal;font-size:45px;line-height:1.25;font-family:Lavi;-inkscape-font-specification:Lavi;text-align:center;letter-spacing:0px;word-spacing:0px;text-anchor:middle;fill:#000000;fill-opacity:1;stroke:none"
       x="1317.0667"
       y="244.98175"
       id="text4246-3-2-2"><tspan
         style="font-size:45px"
         sodipodi:role="line"
         x="1324.0979"
         y="244.98175"
         id="tspan20039">Tha fhios a’d nach dèid </tspan><tspan
         style="font-size:45px"
         sodipodi:role="line"
         x="1324.0979"
         y="301.23175"
         id="tspan844">gu math leat ma ghèilleas tu ri </tspan><tspan
         style="font-size:45px"
         sodipodi:role="line"
         x="1317.0667"
         y="357.48175"
         id="tspan854">Maighstir Raidis, nach eil?</tspan></text>
    <text
       xml:space="preserve"
       style="font-style:normal;font-variant:normal;font-weight:normal;font-stretch:normal;font-size:45px;line-height:1.25;font-family:Lavi;-inkscape-font-specification:Lavi;text-align:center;letter-spacing:0px;word-spacing:0px;text-anchor:middle;fill:#000000;fill-opacity:1;stroke:none"
       x="415.41315"
       y="1452.8612"
       id="text4246-3-2-2-3"><tspan
         style="font-size:45px"
         sodipodi:role="line"
         x="422.4444"
         y="1452.8612"
         id="tspan873">Tha fhios a’m ach tha mi </tspan><tspan
         style="font-size:45px"
         sodipodi:role="line"
         x="422.4444"
         y="1509.1112"
         id="tspan881">fhathast a’ creidsinn gun </tspan><tspan
         style="font-size:45px"
         sodipodi:role="line"
         x="422.4444"
         y="1565.3612"
         id="tspan885">lorg mi dòigh sa bhruidhninn </tspan><tspan
         style="font-size:45px"
         sodipodi:role="line"
         x="415.41315"
         y="1621.6112"
         id="tspan869">rithe – ach an tuigeadh i.</tspan></text>
    <text
       xml:space="preserve"
       style="font-style:normal;font-variant:normal;font-weight:normal;font-stretch:normal;font-size:45px;line-height:1.25;font-family:Lavi;-inkscape-font-specification:Lavi;text-align:center;letter-spacing:0px;word-spacing:0px;text-anchor:middle;fill:#000000;fill-opacity:1;stroke:none"
       x="1460.6498"
       y="1490.1573"
       id="text4246-3-2-2-3-3"><tspan
         style="font-size:45px"
         sodipodi:role="line"
         x="1467.681"
         y="1490.1573"
         id="tspan896">Aig deireadh na </tspan><tspan
         style="font-size:45px"
         sodipodi:role="line"
         x="1467.681"
         y="1546.4073"
         id="tspan894">sgeòil, chan eil </tspan><tspan
         style="font-size:45px"
         sodipodi:role="line"
         x="1467.681"
         y="1602.6573"
         id="tspan908">rud fon ghrèin </tspan><tspan
         style="font-size:45px"
         sodipodi:role="line"
         x="1467.681"
         y="1658.9073"
         id="tspan892">nach gabhadh </tspan><tspan
         style="font-size:45px"
         sodipodi:role="line"
         x="1460.6498"
         y="1715.1573"
         id="tspan914">a chàradh.</tspan></text>
    <text
       xml:space="preserve"
       style="font-style:normal;font-variant:normal;font-weight:normal;font-stretch:normal;font-size:45px;line-height:1.25;font-family:Lavi;-inkscape-font-specification:Lavi;text-align:center;letter-spacing:0px;word-spacing:0px;text-anchor:middle;fill:#000000;fill-opacity:1;stroke:none"
       x="1516.4325"
       y="1785.9688"
       id="text4246-3-2-2-3-3-1"><tspan
         style="font-size:45px"
         sodipodi:role="line"
         x="1523.4637"
         y="1785.9688"
         id="tspan913">Dh’ionnsaich mi sin </tspan><tspan
         style="font-size:45px"
         sodipodi:role="line"
         x="1516.4325"
         y="1842.2188"
         id="tspan902">o dheagh charaid.</tspan></text>
  </g>
</svg>
