<?xml version="1.0" encoding="UTF-8" standalone="no"?>
<!-- Created with Inkscape (http://www.inkscape.org/) -->

<svg
   id="svg2"
   version="1.1"
   inkscape:version="1.1.1 (3bf5ae0d25, 2021-09-20)"
   width="2481"
   height="3503"
   sodipodi:docname="E36P03.svg"
   xmlns:inkscape="http://www.inkscape.org/namespaces/inkscape"
   xmlns:sodipodi="http://sodipodi.sourceforge.net/DTD/sodipodi-0.dtd"
   xmlns:xlink="http://www.w3.org/1999/xlink"
   xmlns="http://www.w3.org/2000/svg"
   xmlns:svg="http://www.w3.org/2000/svg"
   xmlns:rdf="http://www.w3.org/1999/02/22-rdf-syntax-ns#"
   xmlns:cc="http://creativecommons.org/ns#"
   xmlns:dc="http://purl.org/dc/elements/1.1/">
  <metadata
     id="metadata8">
    <rdf:RDF>
      <cc:Work
         rdf:about="">
        <dc:format>image/svg+xml</dc:format>
        <dc:type
           rdf:resource="http://purl.org/dc/dcmitype/StillImage" />
        <dc:title />
      </cc:Work>
    </rdf:RDF>
  </metadata>
  <defs
     id="defs6">
    <filter
       inkscape:collect="always"
       style="color-interpolation-filters:sRGB"
       id="filter51433"
       x="-0.024257822"
       y="-0.029242994"
       width="1.0485156"
       height="1.058486">
      <feGaussianBlur
         inkscape:collect="always"
         stdDeviation="2.6637087"
         id="feGaussianBlur51435" />
    </filter>
    <filter
       x="-0.029879212"
       width="1.0577694"
       height="1.2864548"
       inkscape:label="magic-Fx-blue"
       id="filter4375-4-1-1-1-9-5-8-8-3-3-3-6-6"
       style="color-interpolation-filters:sRGB"
       y="-0.099695398">
      <feFlood
         radius="5.0999999999999996"
         result="flood"
         flood-color="rgb(86,110,161)"
         flood-opacity="1"
         id="feFlood4377-7-9-0-8-1-7-3-1-6-61-6-2-1" />
      <feComposite
         baseFrequency="0.053999999999999999 0.053999999999999999"
         result="composite1"
         operator="in"
         in="flood"
         in2="SourceGraphic"
         id="feComposite4379-3-8-8-2-77-4-1-0-7-2-7-6-8" />
      <feMorphology
         result="result3"
         radius="0.96959439099754563"
         operator="dilate"
         id="feMorphology4393-1-0-49-8-9-3-0-1-5-9-5-1-7" />
      <feComposite
         numOctaves="4"
         result="fbSourceGraphic"
         operator="over"
         in="SourceGraphic"
         in2="result3"
         id="feComposite4385-9-5-7-0-8-8-7-5-3-3-3-8-9" />
      <feColorMatrix
         id="feColorMatrix4544-9-5-1-5-7-2"
         values="0 0 0 -1 0 0 0 0 -1 0 0 0 0 -1 0 0 0 0 1 0"
         in="fbSourceGraphic"
         result="fbSourceGraphicAlpha" />
      <feTurbulence
         result="turbulence"
         baseFrequency="0.062 0.054054054054054057"
         seed="172"
         numOctaves="4.4123222748815163"
         type="fractalNoise"
         id="feTurbulence4546-3-6-9-6-9-0" />
      <feDisplacementMap
         result="fbSourceGraphic"
         xChannelSelector="R"
         yChannelSelector="G"
         scale="11.642079"
         in="fbSourceGraphic"
         in2="turbulence"
         id="feDisplacementMap4548-8-2-4-2-2-2" />
      <feColorMatrix
         scale="10.800000000000001"
         id="feColorMatrix4670-7-9-7-9-0-3"
         values="0 0 0 -1 0 0 0 0 -1 0 0 0 0 -1 0 0 0 0 1 0"
         in="fbSourceGraphic"
         result="fbSourceGraphicAlpha" />
      <feComposite
         result="composite1"
         operator="in"
         in="flood"
         in2="fbSourceGraphic"
         id="feComposite4674-8-2-4-1-2-7" />
      <feGaussianBlur
         result="blur"
         stdDeviation="1.6836129"
         in="composite1"
         id="feGaussianBlur4676-3-7-50-2-3-5" />
      <feOffset
         result="offset"
         dy="5.2374444725016502"
         dx="-0.42771311737301687"
         id="feOffset4678-6-0-3-7-7-9" />
      <feComposite
         result="composite2"
         operator="over"
         in="fbSourceGraphic"
         in2="offset"
         id="feComposite4680-4-9-6-0-5-2" />
      <feGaussianBlur
         stdDeviation="0.60935760846819198"
         id="feGaussianBlur58-9-9-2" />
      <feOffset
         dx="0"
         dy="0"
         id="feOffset60-3-2-8" />
    </filter>
  </defs>
  <sodipodi:namedview
     pagecolor="#1e1e1e"
     bordercolor="#111111"
     borderopacity="1"
     objecttolerance="10"
     gridtolerance="10"
     guidetolerance="10"
     inkscape:pageopacity="0"
     inkscape:pageshadow="2"
     inkscape:window-width="1920"
     inkscape:window-height="967"
     id="namedview4"
     showgrid="false"
     inkscape:zoom="0.26450001"
     inkscape:cx="217.3913"
     inkscape:cy="2561.4366"
     inkscape:window-x="0"
     inkscape:window-y="72"
     inkscape:window-maximized="1"
     inkscape:current-layer="layer1"
     inkscape:pagecheckerboard="0"
     inkscape:snap-global="false" />
  <g
     inkscape:groupmode="layer"
     id="layer2"
     inkscape:label="artwork"
     sodipodi:insensitive="true">
    <image
       xlink:href="../gfx_Pepper-and-Carrot_by-David-Revoy_E36P03.png"
       y="0"
       x="0"
       id="image10"
       height="3503"
       width="2481" />
  </g>
  <g
     inkscape:groupmode="layer"
     id="layer4"
     inkscape:label="speechbubble-whisper"
     style="display:inline;opacity:0.7;mix-blend-mode:screen;filter:url(#filter51433)">
    <path
       style="display:inline;fill:#cdf0ff;fill-opacity:1;stroke:none;stroke-width:0.501375"
       d="m 1742.4351,217.99542 c -27.6312,1.19634 -56.2626,6.74378 -79.4672,22.58638 -19.7317,16.10123 -25.8865,42.78697 -27.2787,67.15373 -0.9611,22.33136 1.5417,44.92701 7.6018,66.43121 4.6801,14.35588 15.9418,25.6551 29.4557,31.9267 27.9579,14.08761 59.9612,17.1004 90.8195,17.01822 28.4471,-0.80127 57.8196,-3.44247 83.7775,-16.05195 16.9036,-8.02252 29.9444,-24.144 32.5453,-42.91789 4.2483,-26.06401 2.5287,-52.70324 -1.0685,-78.72589 -3.7765,-20.93023 -15.2583,-41.73958 -34.8408,-51.42711 -24.9344,-13.36511 -53.9877,-13.94817 -81.5282,-15.66713 -6.6686,-0.25691 -13.3429,-0.36658 -20.0164,-0.32627 z"
       id="path3280-5"
       inkscape:connector-curvature="0"
       sodipodi:nodetypes="csssc" />
    <path
       style="display:inline;opacity:1;fill:#cdf0ff;fill-opacity:1;stroke:none;stroke-width:0.522052;filter:url(#filter51433)"
       d="m 1708.9863,394.91211 c -28.6289,1.41051 -57.9874,7.77024 -82.0896,23.91063 -21.878,17.61185 -28.0694,47.08568 -29.3856,73.78778 -0.819,23.28018 1.9507,46.79415 8.4069,69.17298 5.0997,15.56893 17.5867,27.59295 32.3165,34.23134 33.0998,16.06632 70.8778,18.15667 107.0647,17.36983 28.0108,-1.4647 57.9867,-5.61777 80.2927,-24.16397 18.9047,-14.83119 30.8715,-37.4229 33.57,-61.21118 3.2126,-25.33324 2.6561,-52.184 -7.2872,-76.06123 -9.8072,-23.8171 -30.4068,-43.43965 -55.8409,-49.3229 -28.3333,-6.89167 -57.997,-7.5903 -87.0475,-7.71328 z"
       id="path3280-5-2"
       inkscape:connector-curvature="0"
       sodipodi:nodetypes="csssc"
       transform="matrix(0.94566411,0,0,0.79536214,122.359,82.645572)" />
    <path
       style="color:#000000;display:inline;overflow:visible;visibility:visible;fill:#cdf0ff;fill-opacity:1;fill-rule:nonzero;stroke:none;stroke-width:1.0259px;marker:none;enable-background:accumulate"
       d="m 1719.3194,532.89168 c 36.6025,26.98252 13.0291,94.40607 -44.5247,110.04187 25.0213,-8.11557 100.3251,-9.20388 96.6789,-117.06904 -1.8701,-55.32427 -32.7694,7.35791 -32.7694,7.35791 z"
       id="path4035-4"
       inkscape:connector-curvature="0"
       sodipodi:nodetypes="ccscc" />
    <path
       style="color:#000000;display:inline;overflow:visible;visibility:visible;fill:#cdf0ff;fill-opacity:1;fill-rule:nonzero;stroke:none;stroke-width:0.854102px;marker:none;enable-background:accumulate"
       d="m 379.24217,2256.6925 c 29.7365,-35.192 194.63165,-29.8096 245.92078,-20.7454 55.97281,9.8917 73.20601,23.9076 75.7089,54.6269 0.77312,9.4884 -3.75437,52.5162 -31.28694,60.9868 -27.53251,8.4701 -106.3755,12.7054 -133.90806,12.7054 -27.53248,0 -115.42227,-5.391 -137.66271,-17.788 -21.27509,-11.8581 -48.50854,-54.5943 -18.77197,-89.7857 z"
       id="path3330-0"
       inkscape:connector-curvature="0"
       sodipodi:nodetypes="zsssssz" />
    <path
       style="color:#000000;display:inline;overflow:visible;visibility:visible;fill:#cdf0ff;fill-opacity:1;fill-rule:nonzero;stroke:none;stroke-width:0.986119px;marker:none;enable-background:accumulate"
       d="m 538.91094,2388.0382 c -1.79027,-13.7834 17.83876,-71.8044 127.04742,-62.6151 109.20866,9.1892 120.61527,20.7582 125.5983,70.2306 1.8417,18.2833 -15.1532,44.9219 -31.26598,49.5159 -16.11277,4.5951 -63.22357,17.5654 -90.0781,13.8895 -26.85458,-3.6759 -66.49574,-2.8033 -106.00696,-22.0762 -23.84712,-11.6326 -23.50434,-45.2689 -25.29468,-48.9447 z"
       id="path3365-74"
       inkscape:connector-curvature="0"
       sodipodi:nodetypes="csssssc" />
    <path
       style="color:#000000;display:inline;overflow:visible;visibility:visible;fill:#cdf0ff;fill-opacity:1;fill-rule:nonzero;stroke:none;stroke-width:0.89211px;marker:none;enable-background:accumulate"
       d="m 844.10639,2442.2025 c -1.00799,-68.5776 43.12175,-110.349 164.21951,-98.9976 62.8177,5.8885 139.2439,12.6543 128.8668,115.6138 -9.1458,90.7454 -111.7494,77.3087 -132.4993,78.3795 -20.75023,1.0709 -128.21743,-4.0898 -146.15223,-36.0993 -11.22669,-20.0378 -15.33692,-39.6212 -14.43478,-58.8964 z"
       id="path4546-6-5-3"
       inkscape:connector-curvature="0"
       sodipodi:nodetypes="cssssc" />
    <path
       style="fill:#cdf0ff;fill-opacity:1;fill-rule:evenodd;stroke:none;stroke-width:0.992195px;stroke-linecap:butt;stroke-linejoin:miter;stroke-opacity:1"
       d="m 502.9297,2296.4413 c 77.73786,71.3301 343.81979,137.4338 468.03666,123.7816 56.20704,1.4325 107.09184,112.3825 -77.57388,181.9225 103.18653,-73.9231 107.10902,-112.2062 84.55661,-152.9846 -231.13158,-14.8725 -410.95516,-78.9759 -490.52973,-138.3793 -1.44988,-34.5447 15.51034,-14.3402 15.51034,-14.3402 z"
       id="path66187" />
    <path
       style="color:#000000;display:inline;overflow:visible;visibility:visible;fill:#cdf0ff;fill-opacity:1;fill-rule:nonzero;stroke:none;stroke-width:0.863748px;marker:none;enable-background:accumulate"
       d="m 1478.5165,3074.7623 c -0.9245,-25.7873 3.7901,-42.8878 24.9632,-56.5883 19.2751,-12.4718 61.7195,-15.9189 90.0411,-15.9189 45.7779,-0.1761 163.2869,-4.8173 149.4207,75.7445 -0.5476,38.2111 -68.833,39.8773 -82.7015,42.9714 -13.8684,3.0942 -69.3094,3.777 -82.2533,2.7457 -47.5853,1.8751 -97.8174,-17.5274 -99.4702,-48.9544 z"
       id="path3357-3"
       inkscape:connector-curvature="0"
       sodipodi:nodetypes="csccscc" />
    <path
       style="fill:#cdf0ff;fill-opacity:1;stroke:none;stroke-width:0.742591"
       d="m 1793.5726,3174.4599 c -12.6309,0.9948 -21.7509,-0.1689 -30.6236,-4.0923 -5.2932,-2.3406 -7.6656,-9.8926 -9.5288,-15.0858 -2.9414,-8.0739 -4.6252,-17.2277 -11.1432,-23.3655 -5.5035,-4.7753 -12.7976,-6.8331 -19.8235,-8.1246 -4.9899,-0.7939 -10.0745,-0.9258 -15.1082,-0.5301 -12.5231,-2.2362 -12.1613,-15.2606 -16.0589,-20.888 -3.2358,-4.3315 -6.0568,-1.4455 -9.6096,-5.5051 -6.9289,-7.2641 -9.6595,-1.2352 -14.3778,5.5886 -4.8023,6.9455 -3.5286,10.258 5.0592,26.7368 5.5996,11.3289 18.3851,19.618 31.2363,17.5947 3.9927,-0.6908 7.5859,-2.9978 11.7217,-3.0257 6.5594,-0.6097 13.6771,2.3908 16.7872,8.4135 4.512,6.5347 6.7951,14.4886 12.1799,20.426 2.8451,3.1564 6.8355,4.9172 10.9372,5.738 12.7279,3.2922 26.4259,1.3706 38.3521,-3.8805 z"
       id="path3023"
       inkscape:connector-curvature="0"
       sodipodi:nodetypes="csssscsssssscccc" />
  </g>
  <g
     inkscape:groupmode="layer"
     id="layer3"
     inkscape:label="speechbubbles"
     style="display:inline;mix-blend-mode:normal">
    <path
       sodipodi:nodetypes="ccccccccccccccccccccccccccc"
       id="path1399"
       d="m 658.3639,183.04069 c 48.64101,26.59206 33.73142,-8.97924 34.57641,-34.40104 18.1667,31.63264 41.58065,60.82384 41.91104,-1.28998 16.25982,44.46902 24.32496,71.34803 44.68285,10.48266 8.86306,36.17003 12.69497,50.61883 55.72743,-14.70168 -4.88472,29.99689 -14.22712,70.52187 55.51363,3.5087 -1.51355,18.71431 -27.77274,78.17292 49.58239,6.31253 -29.57677,47.63315 -54.03803,70.39573 14.29299,49.81059 -34.47815,43.53094 -47.42145,63.67452 17.97515,64.60319 -26.01753,28.2427 -51.34319,56.3055 3.10034,63.62447 -25.21244,1.86441 -48.29533,10.87416 -5.36924,37.93495 -38.81179,-14.80588 -51.83322,3.5138 -16.40019,37.7711 -50.33539,-6.48542 -61.36281,-19.01743 -20.38115,36.62648 -37.50301,-27.45735 -53.74147,-27.77658 -47.48792,5.73233 -42.21547,-59.64886 -33.34722,-2.10287 -26.91945,14.11461 -43.37722,-70.28218 -46.21772,-14.56518 -50.9469,0.22158 -24.21594,-58.27452 -75.46876,-66.96654 -88.38074,-0.0265 -7.34925,-35.88641 -31.14489,-50.23829 -65.03262,-3.49993 10.42256,-41.37686 -7.60663,-58.50892 -43.97256,-38.50534 26.98682,-35.76473 2.94024,-43.5072 -33.19839,-26.43108 24.50916,-32.29352 23.68613,-45.48275 0.36108,-49.32003 39.41389,-28.56815 12.14329,-46.56694 -29.18097,-62.33835 29.29976,-7.38233 67.04701,-11.82429 18.80927,-46.19538 38.51793,6.46828 57.96494,3.98783 20.88704,-25.01613 25.51554,10.93173 52.46874,6.84424 30.08428,-28.91622 47.31561,30.74214 45.40901,10.17331 39.76623,-0.10121 z"
       style="display:inline;fill:#ffffff;fill-rule:evenodd;stroke:none;stroke-width:0.803966px;stroke-linecap:butt;stroke-linejoin:miter;stroke-opacity:1" />
    <path
       style="color:#000000;display:inline;overflow:visible;visibility:visible;fill:#ffffff;fill-opacity:1;fill-rule:nonzero;stroke:none;stroke-width:0.617876px;marker:none;enable-background:accumulate"
       d="m 846.24295,369.92151 c 7.72209,41.35398 49.55771,207.43487 191.58005,156.97532 C 870.99201,610.00659 809.89776,366.2342 800.59804,338.37279 c -11.65313,-16.49189 45.64491,31.54872 45.64491,31.54872 z"
       id="path4008-4"
       inkscape:connector-curvature="0"
       sodipodi:nodetypes="cccc" />
    <path
       style="display:inline;fill:#ffffff;fill-rule:evenodd;stroke:none;stroke-width:0.863499px;stroke-linecap:butt;stroke-linejoin:miter;stroke-opacity:1"
       d="m 1098.0607,1284.7936 c 44.2083,30.6358 66.6785,22.8068 65.9197,-28.3914 21.0914,55.3264 38.4393,57.962 47.1198,30.7024 27.9238,23.4304 45.3645,16.8577 59.2113,0 5.161,21.6804 18.183,17.8192 25.8075,11.8545 -1.7812,6.5168 -1.2293,15.1306 36.0949,0.8554 -1.3038,6.2852 6.6555,12.0832 32.2971,-2.311 6.6429,26.3522 27.9565,-1.4609 49.7913,-31.1968 -13.6036,36.5578 -7.9628,41.7218 9.4201,27.7307 -7.9474,15.0549 -12.7008,26.7093 17.494,1.1551 -10.3371,27.7882 16.7824,8.7147 60.557,-31.1968 -21.8967,29.5027 -79.9619,79.2257 -41.7169,75.1036 -5.3337,8.6972 -24.358,16.2749 32.2969,30.041 -11.3292,0.4555 -52.9093,3.1683 -11.5811,21.7043 -21.8767,-0.4945 -12.8227,5.2669 10.2355,12.9593 -13.6114,-0.5239 -21.959,1.3461 -9.42,12.7092 -24.846,-0.6138 -29.5395,3.0112 -11.2983,18.251 -31.004,-12.6946 -39.4403,-15.0016 -26.6179,9.5156 -45.094,-26.6527 -55.9042,-29.9121 -34.8714,0.3 -59.6027,-29.153 -61.3349,-21.971 -83.3148,7.7521 -5.7562,-18.4869 -17.2969,-32.7173 -65.9398,-19.642 11.9643,-18.5214 -17.2758,-7.1366 -37.9103,5.529 14.1022,-16.4652 -14.9078,-13.6029 -54.9435,14.113 22.937,-32.4448 -3.114,-20.7246 -41.7171,2.311 14.5854,-31.874 -9.1683,-47.2883 -65.9397,-48.5287 27.1725,-11.4966 43.0181,-25.9656 14.8029,-51.9939 31.8066,7.6636 41.294,0.545 18.8399,-27.7308 34.6925,23.2085 18.9192,-10.4541 5.3829,-41.5958 z"
       id="path4508-2"
       inkscape:connector-curvature="0"
       sodipodi:nodetypes="cccccccccccccccccccccccccccc" />
    <path
       style="color:#000000;display:inline;overflow:visible;visibility:visible;fill:#ffffff;fill-opacity:1;fill-rule:nonzero;stroke:none;stroke-width:0.926668px;marker:none;enable-background:accumulate"
       d="m 1595.6808,1551.0393 c -26.9474,-31.2708 -59.9834,-60.3698 -79.8554,-94.1658 l -3.285,30.7651 c -15.0498,-9.9953 -21.7942,-24.8956 -31.3589,-38.1306 l -6.317,18.293 c -32.9632,-27.3415 -57.8887,-59.7803 -86.4652,-88.7225 l -7.9573,35.8506 c 38.968,18.6225 72.2495,52.1917 98.1736,81.2762 l 8.7127,-17.1146 c 10.6542,9.2624 20.8921,18.8192 29.2707,29.6888 l 8.2295,-22.5142 z"
       id="path4032-1"
       inkscape:connector-curvature="0"
       sodipodi:nodetypes="cccccccccccc" />
  </g>
  <g
     inkscape:groupmode="layer"
     id="layer1"
     inkscape:label="txt"
     style="display:inline">
    <text
       id="text4246-4-2-7"
       y="264.24207"
       x="771.73438"
       style="font-style:normal;font-variant:normal;font-weight:normal;font-stretch:normal;line-height:0%;font-family:Lavi;-inkscape-font-specification:Lavi;text-align:center;letter-spacing:0px;word-spacing:0px;text-anchor:middle;fill:#000000;fill-opacity:1;stroke:none"
       xml:space="preserve"
       inkscape:label="pepperB"><tspan
         y="264.24207"
         x="771.73438"
         style="font-size:45px;line-height:1.25"
         sodipodi:role="line"
         id="tspan3279">At eg kunne</tspan><tspan
         y="320.49207"
         x="771.73438"
         style="font-size:45px;line-height:1.25"
         sodipodi:role="line"
         id="tspan212">vera så</tspan><tspan
         y="376.74207"
         x="771.73438"
         style="font-size:45px;line-height:1.25"
         sodipodi:role="line"
         id="tspan4789"><tspan
   style="font-weight:bold"
   id="tspan476">godtruande</tspan>!</tspan></text>
    <text
       id="text4246-4-2-7-3"
       y="304.42908"
       x="1759.7952"
       style="font-style:normal;font-variant:normal;font-weight:normal;font-stretch:normal;line-height:0%;font-family:Lavi;-inkscape-font-specification:Lavi;text-align:center;letter-spacing:0px;word-spacing:0px;text-anchor:middle;fill:#000000;fill-opacity:1;stroke:none"
       xml:space="preserve"
       inkscape:label="pepperB"><tspan
         y="304.42908"
         x="1759.7952"
         style="font-size:45px;line-height:1.25"
         sodipodi:role="line"
         id="tspan3279-7">Hysssj,</tspan><tspan
         y="360.67908"
         x="1759.7952"
         style="font-size:45px;line-height:1.25"
         sodipodi:role="line"
         id="tspan15762">Pepar!</tspan></text>
    <text
       id="text4246-4-2-7-3-36"
       y="467.7738"
       x="1757.7103"
       style="font-style:normal;font-variant:normal;font-weight:normal;font-stretch:normal;line-height:0%;font-family:Lavi;-inkscape-font-specification:Lavi;text-align:center;letter-spacing:0px;word-spacing:0px;text-anchor:middle;display:inline;fill:#000000;fill-opacity:1;stroke:none"
       xml:space="preserve"
       inkscape:label="pepperB"><tspan
         y="467.7738"
         x="1757.7103"
         style="font-size:45px;line-height:1.25"
         sodipodi:role="line"
         id="tspan26583">Demp</tspan><tspan
         y="524.0238"
         x="1757.7103"
         style="font-size:45px;line-height:1.25"
         sodipodi:role="line"
         id="tspan26062">deg.</tspan></text>
    <text
       id="text4246-4-2-7-3-3"
       y="1385.4877"
       x="1278.4176"
       style="font-style:normal;font-variant:normal;font-weight:normal;font-stretch:normal;font-size:55px;line-height:0%;font-family:Lavi;-inkscape-font-specification:Lavi;text-align:center;letter-spacing:0px;word-spacing:0px;text-anchor:middle;fill:#000000;fill-opacity:1;stroke:none;stroke-width:1.26378"
       xml:space="preserve"
       inkscape:label="pepperB"><tspan
         y="1385.4877"
         x="1278.4176"
         style="font-style:normal;font-variant:normal;font-weight:bold;font-stretch:normal;font-size:55px;line-height:1.25;font-family:Lavi;-inkscape-font-specification:'Lavi Bold';stroke-width:1.26378"
         sodipodi:role="line"
         id="tspan15762-9">Kven der?!</tspan></text>
    <text
       id="text4246-4-2-7-3-1"
       y="2312.957"
       x="533.20099"
       style="font-style:normal;font-variant:normal;font-weight:normal;font-stretch:normal;line-height:0%;font-family:Lavi;-inkscape-font-specification:Lavi;text-align:center;letter-spacing:0px;word-spacing:0px;text-anchor:middle;fill:#000000;fill-opacity:1;stroke:none"
       xml:space="preserve"
       inkscape:label="pepperB"><tspan
         y="2312.957"
         x="533.20099"
         style="font-size:45px;line-height:1.25"
         sodipodi:role="line"
         id="tspan15762-93">Hysj, sa eg!</tspan></text>
    <text
       id="text4246-4-2-7-3-1-6"
       y="2409.6968"
       x="669.89636"
       style="font-style:normal;font-variant:normal;font-weight:normal;font-stretch:normal;line-height:0%;font-family:Lavi;-inkscape-font-specification:Lavi;text-align:center;letter-spacing:0px;word-spacing:0px;text-anchor:middle;fill:#000000;fill-opacity:1;stroke:none"
       xml:space="preserve"
       inkscape:label="pepperB"><tspan
         y="2409.6968"
         x="669.89636"
         style="font-size:45px;line-height:1.25"
         sodipodi:role="line"
         id="tspan15762-93-0">Kom hit.</tspan></text>
    <text
       id="text4246-4-2-7-3-1-6-6"
       y="2429.6001"
       x="990.96704"
       style="font-style:normal;font-variant:normal;font-weight:normal;font-stretch:normal;line-height:0%;font-family:Lavi;-inkscape-font-specification:Lavi;text-align:center;letter-spacing:0px;word-spacing:0px;text-anchor:middle;fill:#000000;fill-opacity:1;stroke:none"
       xml:space="preserve"
       inkscape:label="pepperB"><tspan
         y="2429.6001"
         x="990.96704"
         style="font-size:45px;line-height:1.25"
         sodipodi:role="line"
         id="tspan34452">Eg skal få</tspan><tspan
         y="2485.8501"
         x="990.96704"
         style="font-size:45px;line-height:1.25"
         sodipodi:role="line"
         id="tspan34456">deg fri.</tspan></text>
    <text
       transform="matrix(1.1333577,-0.39613562,0.12835025,1.2373956,849.39304,747.66885)"
       id="text4580-6-0-0-3-3-63"
       y="1584.5073"
       x="787.65729"
       style="font-style:normal;font-variant:normal;font-weight:normal;font-stretch:normal;line-height:0%;font-family:Lavi;-inkscape-font-specification:Lavi;letter-spacing:3.03024px;word-spacing:0px;opacity:1;mix-blend-mode:normal;fill:#e5fffe;fill-opacity:1;stroke:#4082aa;stroke-width:0.988344;stroke-miterlimit:4;stroke-dasharray:none;stroke-opacity:1;filter:url(#filter4375-4-1-1-1-9-5-8-8-3-3-3-6-6)"
       xml:space="preserve"
       inkscape:label="FXC"><tspan
         style="font-style:normal;font-variant:normal;font-weight:bold;font-stretch:normal;font-size:70px;line-height:1.25;font-family:Drukah;-inkscape-font-specification:'Drukah Bold';fill:#e5fffe;fill-opacity:1;stroke:#4082aa;stroke-width:0.988344;stroke-miterlimit:4;stroke-dasharray:none;stroke-opacity:1"
         y="1584.5073"
         x="787.65729"
         id="tspan4582-1-1-0-6-9-9"
         sodipodi:role="line">Ksjiii...</tspan></text>
    <text
       xml:space="preserve"
       style="font-style:normal;font-variant:normal;font-weight:normal;font-stretch:normal;line-height:0%;font-family:Lavi;-inkscape-font-specification:Lavi;text-align:center;letter-spacing:0px;word-spacing:0px;text-anchor:middle;fill:#000000;fill-opacity:1;stroke:none"
       x="1610.6573"
       y="3077.9524"
       id="text4246-70-2-2-2"><tspan
         sodipodi:role="line"
         style="font-size:45px;line-height:1.25"
         x="1610.6573"
         y="3077.9524"
         id="tspan4406-9">Shichimi?</tspan></text>
  </g>
</svg>
