<?xml version="1.0" encoding="UTF-8" standalone="no"?>
<!-- Created with Inkscape (http://www.inkscape.org/) -->

<svg
   id="svg2"
   version="1.1"
   inkscape:version="1.3 (0e150ed6c4, 2023-07-21)"
   width="2481"
   height="3503"
   sodipodi:docname="E38P07.svg"
   xmlns:inkscape="http://www.inkscape.org/namespaces/inkscape"
   xmlns:sodipodi="http://sodipodi.sourceforge.net/DTD/sodipodi-0.dtd"
   xmlns:xlink="http://www.w3.org/1999/xlink"
   xmlns="http://www.w3.org/2000/svg"
   xmlns:svg="http://www.w3.org/2000/svg"
   xmlns:rdf="http://www.w3.org/1999/02/22-rdf-syntax-ns#"
   xmlns:cc="http://creativecommons.org/ns#"
   xmlns:dc="http://purl.org/dc/elements/1.1/">
  <metadata
     id="metadata8">
    <rdf:RDF>
      <cc:Work
         rdf:about="">
        <dc:format>image/svg+xml</dc:format>
        <dc:type
           rdf:resource="http://purl.org/dc/dcmitype/StillImage" />
        <dc:title />
      </cc:Work>
    </rdf:RDF>
  </metadata>
  <defs
     id="defs6">
    <linearGradient
       inkscape:collect="always"
       xlink:href="#linearGradient4546"
       id="linearGradient4294-2"
       x1="754.64325"
       y1="1552.0063"
       x2="1186.035"
       y2="1552.0063"
       gradientUnits="userSpaceOnUse" />
    <linearGradient
       inkscape:collect="always"
       id="linearGradient4546">
      <stop
         style="stop-color:#ffffff;stop-opacity:1;"
         offset="0"
         id="stop4548" />
      <stop
         style="stop-color:#fffad3;stop-opacity:1"
         offset="1"
         id="stop4550" />
    </linearGradient>
    <filter
       style="color-interpolation-filters:sRGB"
       id="filter4375-4-1-1-1-9-5-8-8-5-6"
       inkscape:label="soundFX-Creature"
       x="-0.021100002"
       y="-0.08859659"
       width="1.0626194"
       height="1.2629318">
      <feFlood
         id="feFlood4377-7-9-0-8-1-7-3-1-2-52"
         flood-opacity="1"
         flood-color="rgb(243,227,152)"
         result="flood" />
      <feComposite
         id="feComposite4379-3-8-8-2-77-4-1-0-6-6"
         in2="SourceGraphic"
         in="flood"
         operator="in"
         result="composite1"
         baseFrequency="0.053999999999999999 0.053999999999999999" />
      <feMorphology
         id="feMorphology4393-1-0-49-8-9-3-0-1-9-5"
         operator="dilate"
         radius="6.2000000000000002"
         result="result3" />
      <feComposite
         id="feComposite4385-9-5-7-0-8-8-7-5-4-8"
         in2="result3"
         in="SourceGraphic"
         operator="over"
         result="fbSourceGraphic" />
      <feColorMatrix
         result="fbSourceGraphicAlpha"
         in="fbSourceGraphic"
         values="0 0 0 -1 0 0 0 0 -1 0 0 0 0 -1 0 0 0 0 1 0"
         id="feColorMatrix4544-9-4-7" />
      <feTurbulence
         id="feTurbulence4546-3-6-0"
         type="fractalNoise"
         numOctaves="5"
         seed="174"
         baseFrequency="0.053999999999999999 0.054054054054054057"
         result="turbulence" />
      <feDisplacementMap
         id="feDisplacementMap4548-8-0-3"
         in2="turbulence"
         in="fbSourceGraphic"
         scale="6.6"
         yChannelSelector="G"
         xChannelSelector="R"
         result="fbSourceGraphic" />
      <feColorMatrix
         result="fbSourceGraphicAlpha"
         in="fbSourceGraphic"
         values="0 0 0 -1 0 0 0 0 -1 0 0 0 0 -1 0 0 0 0 1 0"
         id="feColorMatrix4670-7-7-9" />
      <feFlood
         id="feFlood4672-4-4-60"
         flood-opacity="1"
         flood-color="rgb(175,144,94)"
         result="flood"
         in="fbSourceGraphic" />
      <feComposite
         id="feComposite4674-8-3-4"
         in2="fbSourceGraphic"
         in="flood"
         operator="in"
         result="composite1" />
      <feGaussianBlur
         id="feGaussianBlur4676-3-7-1"
         in="composite1"
         stdDeviation="0"
         result="blur" />
      <feOffset
         id="feOffset4678-6-9-0"
         dx="6"
         dy="6"
         result="offset" />
      <feComposite
         id="feComposite4680-4-0-4"
         in2="offset"
         in="fbSourceGraphic"
         operator="over"
         result="composite2" />
    </filter>
    <filter
       y="-0.15082885"
       height="1.3016577"
       inkscape:label="scream"
       inkscape:menu="Distort"
       inkscape:menu-tooltip="Create a turbulent contour around"
       style="color-interpolation-filters:sRGB;"
       id="filter983"
       x="-0.034917536"
       width="1.0698351">
      <feMorphology
         radius="7"
         operator="dilate"
         result="result8"
         in="SourceGraphic"
         id="feMorphology973" />
      <feComposite
         in2="result8"
         result="result10"
         in="SourceGraphic"
         operator="arithmetic"
         k1="0.5"
         k3="0.5"
         id="feComposite975" />
      <feTurbulence
         result="result11"
         type="fractalNoise"
         numOctaves="3"
         baseFrequency="0.07"
         id="feTurbulence977" />
      <feDisplacementMap
         result="result12"
         in2="result11"
         in="result10"
         xChannelSelector="R"
         scale="10"
         id="feDisplacementMap979" />
      <feComposite
         operator="arithmetic"
         result="result13"
         in="SourceGraphic"
         in2="result12"
         k1="0.25"
         k2="0.25"
         k3="0.75"
         id="feComposite981" />
    </filter>
  </defs>
  <sodipodi:namedview
     pagecolor="#ffffff"
     bordercolor="#666666"
     borderopacity="1"
     objecttolerance="10"
     gridtolerance="10"
     guidetolerance="10"
     inkscape:pageopacity="0"
     inkscape:pageshadow="2"
     inkscape:window-width="1920"
     inkscape:window-height="1056"
     id="namedview4"
     showgrid="false"
     inkscape:zoom="0.60835003"
     inkscape:cx="1218.8707"
     inkscape:cy="2357.1956"
     inkscape:window-x="1920"
     inkscape:window-y="0"
     inkscape:window-maximized="1"
     inkscape:current-layer="layer1"
     inkscape:showpageshadow="0"
     inkscape:pagecheckerboard="0"
     inkscape:deskcolor="#d1d1d1" />
  <g
     inkscape:groupmode="layer"
     id="layer2"
     inkscape:label="artwork"
     sodipodi:insensitive="true">
    <image
       xlink:href="../gfx_Pepper-and-Carrot_by-David-Revoy_E38P07.png"
       y="0"
       x="0"
       id="image10"
       height="3503"
       width="2481" />
  </g>
  <g
     inkscape:groupmode="layer"
     id="layer3"
     inkscape:label="speechbubbles">
    <path
       style="fill:none;fill-rule:evenodd;stroke:#000000;stroke-width:1px;stroke-linecap:butt;stroke-linejoin:miter;stroke-opacity:1"
       d="m 52.173912,-189.13041 c 341.304348,-41.30437 291.304348,-32.60872 406.521738,-34.78264 115.21738,-2.17391 228.26086,52.17394 352.1739,50.00004 123.91304,-2.1739 258.69575,-67.39134 382.60875,-69.56525 123.9131,-2.17392 265.2174,80.43475 421.7391,71.73915 156.5218,-8.6957 339.1305,-73.91307 510.8696,-78.26089 171.7391,-4.34783 260.8696,8.69566 260.8696,8.69566"
       id="path1405"
       sodipodi:nodetypes="csssssc" />
    <path
       style="fill:none;fill-rule:evenodd;stroke:#000000;stroke-width:1px;stroke-linecap:butt;stroke-linejoin:miter;stroke-opacity:1"
       d="m 1537.9545,-42.982885 c 82.9868,1.078738 107.3849,-7.510067 145.6905,-11.619542 153.2224,-16.437889 236.4954,-16.43791 318.103,-8.21896 81.6076,8.21896 314.8445,-47.526983 379.7974,-80.402793"
       id="path1020"
       sodipodi:nodetypes="cssc" />
    <path
       style="fill:#ffffff;stroke:none;stroke-width:0.999993"
       d="m 1705.499,1922.9883 c -21.3515,0.8296 -42.7241,0.6252 -64.0871,0.8845 -16.0974,0.3073 -32.2718,0.8893 -48.1567,3.4587 -18.1099,3.4195 -35.5462,11.6731 -47.6503,24.7164 -7.9926,8.5388 -12.9281,19.4068 -13.8832,30.6418 -1.1354,11.7441 2.1088,23.7297 8.9158,33.7052 8.6913,13.1286 22.81,22.8263 38.5211,27.8088 22.6586,8.3149 47.3604,9.7979 71.4969,10.2188 32.3177,0.1719 64.5281,-3.409 96.853,-2.731 18.6371,-0.2695 37.8546,-3.2093 53.9551,-12.3168 15.4619,-8.5418 28.1584,-22.3328 32.1274,-38.758 3.3747,-15.2937 -1.5133,-31.3358 -10.5708,-44.2554 -9.0129,-12.3256 -23.5213,-20.7658 -39.1341,-24.1476 -23.1095,-6.2132 -47.2402,-8.5586 -71.24,-9.1805 -2.3824,-0.04 -4.7644,-0.055 -7.1471,-0.045 z"
       id="path3280-81-4"
       inkscape:connector-curvature="0"
       sodipodi:nodetypes="csssc" />
    <path
       style="fill:#ffffff;stroke:none;stroke-width:1"
       d="m 1752.3951,2212.7401 c -29.1996,-28.3355 -25.3776,-48.9 -18.4598,-65.8757 6.9152,-16.9743 5.4331,-34.8074 1.6513,-45.16 -3.7818,-10.3527 -15.458,-24.2791 -24.0065,-30.0394 -8.5495,-5.76 -2.463,-24.988 0.8184,-37.0866 4.3344,-15.985 14.1991,-18.8659 14.1991,-18.8659 0,0 -19.9194,-61.2958 -25.246,-45.8521 -5.3255,15.4433 -13.7202,67.8625 -14.37,74.4864 -0.6488,6.6235 -0.2538,26.7575 6.8528,35.3801 7.1075,8.6222 19.9088,11.1437 26.3236,22.4562 6.6084,11.6536 7.0082,21.5786 4.1393,35.3916 -2.8689,13.813 -5.234,45.0397 7.6892,57.4247 12.9241,12.3845 20.4086,17.7407 20.4086,17.7407 z"
       id="path3023-9"
       inkscape:connector-curvature="0"
       sodipodi:nodetypes="csssscssssssc" />
    <path
       style="fill:none;fill-rule:evenodd;stroke:#000000;stroke-width:1px;stroke-linecap:butt;stroke-linejoin:miter;stroke-opacity:1"
       d="m 114.96864,-52.779968 c 337.48274,-69.039202 400.25835,-76.614922 536.71876,-56.889442 34.11511,4.93137 94.36678,10.684638 167.66382,16.283798 73.29705,5.599161 159.63944,16.715294 245.93598,21.030244 86.2966,4.31495 108.4256,3.719076 181.5392,4.797814"
       id="path20863" />
    <path
       style="display:inline;fill:#ffffff;fill-rule:evenodd;stroke:none;stroke-width:1.12178px;stroke-linecap:butt;stroke-linejoin:miter;stroke-opacity:1"
       d="m 858.86927,2939.5221 c 30.32445,17.8779 24.74092,25.6827 -18.0072,23.0616 68.15377,27.4525 40.01909,31.5614 -3.13174,32.0299 28.96699,10.0271 61.01862,19.8393 -5.48045,36.5142 38.53682,2.7035 72.11467,6.5208 6.26337,32.6706 34.16524,-1.074 96.39106,-11.5528 55.18495,24.0418 55.92552,-15.9875 66.93381,-11.4214 37.98322,28.4873 28.11022,-11.7531 74.32438,-41.5392 57.93641,-8.9684 12.87897,-10.402 29.26987,-14.3388 58.71947,5.7654 -5.7428,-14.499 -23.045,-37.4778 28.9681,-9.6089 -15.7238,-21.8064 -18.8545,-33.6211 33.6658,-1.2812 -7.8239,-16.4421 -41.5523,-32.8841 22.7049,-49.3263 -44.2617,-1.6398 -30.5324,-12.7695 -2.3488,-26.2645 -52.7044,-7.4582 -26.6276,-16.4887 4.6976,-25.624 -32.6451,-3.482 -57.8304,-9.346 -6.2635,-39.7171 -56.7605,12.6085 -40.3345,-8.7164 -37.5804,-23.7022 -26.1939,11.8995 -55.8157,30.5771 -57.9365,-5.1248 -41.08585,36.9808 -54.39025,11.2431 -68.1145,-0.6406 -22.15988,44.5801 -51.54883,10.6319 -70.08728,-1.391 16.77218,25.2295 21.4066,33.3719 -37.17345,9.0782 z"
       id="path1096"
       inkscape:connector-curvature="0"
       sodipodi:nodetypes="cccccccccccccccccccc" />
    <path
       style="color:#000000;display:inline;overflow:visible;visibility:visible;fill:#ffffff;fill-opacity:1;fill-rule:nonzero;stroke:none;stroke-width:0.999997px;marker:none;enable-background:accumulate"
       d="m 861.51633,3166.0564 c -7.62362,-46.76 12.70598,-170.9666 168.99037,-160.7378 156.2843,10.2288 181.6965,68.6788 185.5082,86.2139 3.8119,17.535 36.8476,116.9003 -85.1304,143.2029 -121.9781,26.3024 -231.24999,-1.4613 -269.36817,-68.679 z"
       id="path3525"
       inkscape:connector-curvature="0" />
    <path
       style="color:#000000;display:inline;overflow:visible;visibility:visible;fill:#ffffff;fill-opacity:1;fill-rule:nonzero;stroke:none;stroke-width:0.999997px;marker:none;enable-background:accumulate"
       d="m 742.63655,2834.0289 c -8.53732,-44.18 14.22887,-161.5336 189.24468,-151.8692 175.01567,9.6644 203.47367,64.8895 207.74227,81.4571 4.2687,16.5675 41.2639,110.4504 -95.3337,135.3018 -136.59777,24.8512 -258.9664,-1.3807 -301.65325,-64.8897 z"
       id="path3525-6"
       inkscape:connector-curvature="0" />
    <path
       style="color:#000000;display:inline;overflow:visible;visibility:visible;fill:#ffffff;fill-opacity:1;fill-rule:nonzero;stroke:none;stroke-width:0.999997px;marker:none;enable-background:accumulate"
       d="m 2181.055,2672.5823 c -35.7387,0.018 -71.9709,1.8508 -106.3305,11.3047 -9.1401,2.5876 -18.2953,5.458 -26.6415,9.7149 -12.988,7.3947 -20.917,20.7772 -21.6592,34.3966 -1.2379,12.5517 0.5627,25.5416 6.391,37.0803 5.6012,10.0596 15.7531,17.8149 27.4918,21.7353 16.9435,6.3835 35.3492,8.5078 53.4002,10.9015 39.4655,4.5261 79.4162,3.2444 118.9585,0.2436 27.4647,-2.0119 54.918,-4.8527 81.9021,-9.9289 13.0328,-2.5588 26.7259,-6.3432 35.998,-15.4072 9.6754,-9.7381 12.8261,-23.0876 13.6237,-35.736 0.5667,-9.3578 0.2264,-19.2885 -5.209,-27.603 -4.4699,-7.5088 -13.0192,-11.9981 -21.3767,-15.4668 -9.8142,-3.858 -20.1325,-6.5574 -30.2896,-9.5811 -32.6747,-8.8862 -67.0072,-12.0318 -101.0738,-11.648 -8.3949,-0.014 -16.7899,-0.01 -25.185,-0.01 z"
       id="path4546-6-0"
       inkscape:connector-curvature="0"
       sodipodi:nodetypes="cssssscsc" />
    <path
       style="color:#000000;display:inline;overflow:visible;visibility:visible;fill:#ffffff;fill-opacity:1;fill-rule:nonzero;stroke:none;stroke-width:1px;marker:none;enable-background:accumulate"
       d="m 2144.6292,2863.8279 c 38.981,-27.949 41.8709,-87.4857 24.9722,-108.5692 -4.3141,-34.7008 25.4997,-3.9606 25.4997,-3.9606 0,0 8.2154,3.3721 8.9152,11.4037 2.0851,23.9328 1.5994,80.4533 -59.3871,101.1261 z"
       id="path3072-7"
       inkscape:connector-curvature="0"
       sodipodi:nodetypes="cccsc" />
    <path
       style="color:#000000;display:inline;overflow:visible;visibility:visible;fill:#ffffff;fill-opacity:1;fill-rule:nonzero;stroke:none;stroke-width:0.999999px;marker:none;enable-background:accumulate"
       d="m 652.82725,2832.4766 c 35.33649,-33.7584 111.05065,-36.7285 137.96153,-22.3639 44.16284,3.4287 4.89767,-21.9668 4.89767,-21.9668 0,0 -4.33452,-7.0393 -14.55445,-7.576 -30.45374,-1.5989 -102.34461,-0.7214 -128.30475,51.9067 z"
       id="path3072-7-2"
       inkscape:connector-curvature="0"
       sodipodi:nodetypes="cccsc" />
    <path
       style="color:#000000;display:inline;overflow:visible;visibility:visible;fill:#ffffff;fill-opacity:1;fill-rule:nonzero;stroke:none;stroke-width:1px;marker:none;enable-background:accumulate"
       d="m 750.93369,3116.6136 c 24.21517,16.3962 28.22208,16.2995 39.31406,6.8343 11.09189,-9.4652 23.88747,-26.5184 50.34854,-24.5624 26.46108,1.956 36.66181,14.2093 43.92044,21.8169 5.94319,-17.5954 37.01916,-50.3075 30.82533,-62.6575 -6.19381,-12.3501 47.58234,32.1315 47.58234,32.1315 0,0 -33.61565,39.5866 -53.5733,53.0391 -19.95754,13.4525 -51.10207,-16.4552 -69.12341,-20.5014 -18.02125,-4.0462 -37.05005,18.5815 -51.91623,18.2325 -14.86627,-0.3489 -27.69951,-14.1896 -37.37777,-24.333 z"
       id="path4538"
       inkscape:connector-curvature="0"
       sodipodi:nodetypes="csscscsssc" />
  </g>
  <g
     inkscape:groupmode="layer"
     id="layer1"
     inkscape:label="txt">
    <text
       xml:space="preserve"
       style="color:#000000;font-style:normal;font-variant:normal;font-weight:normal;font-stretch:normal;font-size:127.104px;line-height:0.01%;font-family:Lavi;-inkscape-font-specification:'Lavi, Normal';font-variant-ligatures:normal;font-variant-caps:normal;font-variant-numeric:normal;font-feature-settings:normal;text-align:start;letter-spacing:18.632px;word-spacing:0px;writing-mode:lr-tb;text-anchor:start;display:inline;overflow:visible;visibility:visible;fill:#ffffff;fill-opacity:1;fill-rule:nonzero;stroke:#000000;stroke-width:14.705;stroke-linecap:butt;stroke-linejoin:miter;stroke-miterlimit:4;stroke-dasharray:none;stroke-dashoffset:0;stroke-opacity:1;marker:none;paint-order:stroke markers fill;filter:url(#filter983);enable-background:accumulate"
       id="text1702"
       transform="matrix(1.0405291,0,0,1,-12.194685,389.41398)"><textPath
         xlink:href="#path20863"
         id="textPath1053"
         style="stroke-width:14.705">CRi<tspan
   style="font-style:italic;font-variant:normal;font-weight:normal;font-stretch:normal;font-size:114.132px;font-family:Lavi;-inkscape-font-specification:'Lavi Italic';stroke:#000000;stroke-width:14.705;stroke-dasharray:none;paint-order:stroke markers fill"
   id="tspan19293">iii</tspan><tspan
   id="tspan19301"
   style="font-style:italic;font-variant:normal;font-weight:normal;font-stretch:normal;font-size:103.322px;font-family:Lavi;-inkscape-font-specification:'Lavi Italic';stroke:#000000;stroke-width:14.705;stroke-dasharray:none;paint-order:stroke markers fill">iiii</tspan>iii<tspan
   style="font-style:italic;font-variant:normal;font-weight:normal;font-stretch:normal;font-size:108.727px;font-family:Lavi;-inkscape-font-specification:'Lavi Italic';stroke:#000000;stroke-width:14.705;stroke-dasharray:none;paint-order:stroke markers fill"
   id="tspan19305">iii</tspan><tspan
   id="tspan19309"
   style="font-style:italic;font-variant:normal;font-weight:normal;font-stretch:normal;font-size:87.1066px;font-family:Lavi;-inkscape-font-specification:'Lavi Italic';stroke:#000000;stroke-width:14.705;stroke-dasharray:none;paint-order:stroke markers fill">ii<tspan
   style="font-size:77.1066px;stroke-width:14.705;stroke-dasharray:none"
   id="tspan1168">i</tspan><tspan
   id="tspan1172"
   style="font-size:67.1066px;stroke-width:14.705;stroke-dasharray:none">ii</tspan></tspan></textPath></text>
    <text
       xml:space="preserve"
       style="color:#000000;font-style:normal;font-variant:normal;font-weight:normal;font-stretch:normal;font-size:127.104px;line-height:0.01%;font-family:Lavi;-inkscape-font-specification:'Lavi, Normal';font-variant-ligatures:normal;font-variant-caps:normal;font-variant-numeric:normal;font-feature-settings:normal;text-align:start;letter-spacing:18.632px;word-spacing:0px;writing-mode:lr-tb;text-anchor:start;display:inline;overflow:visible;visibility:visible;fill:#ffffff;fill-opacity:1;fill-rule:nonzero;stroke:#000000;stroke-width:14.3879;stroke-linecap:butt;stroke-linejoin:miter;stroke-miterlimit:4;stroke-dasharray:none;stroke-dashoffset:0;stroke-opacity:1;marker:none;paint-order:stroke markers fill;filter:url(#filter983);enable-background:accumulate"
       id="text1702-5"
       transform="matrix(1.0868997,0,0,1,-181.82391,354.51202)"><textPath
         xlink:href="#path1020"
         id="textPath1059"
         style="stroke-width:14.3879"><tspan
           id="tspan19309-2"
           style="font-style:italic;font-variant:normal;font-weight:normal;font-stretch:normal;font-size:87.1066px;font-family:Lavi;-inkscape-font-specification:'Lavi Italic';stroke:#000000;stroke-width:14.3879;stroke-dasharray:none;paint-order:stroke markers fill"><tspan
   id="tspan21251-7"
   style="font-style:italic;font-variant:normal;font-weight:normal;font-stretch:normal;font-size:67.1066px;font-family:Lavi;-inkscape-font-specification:'Lavi Italic';stroke-width:14.3879;stroke-dasharray:none;paint-order:stroke markers fill">ii</tspan><tspan
   style="font-style:italic;font-variant:normal;font-weight:normal;font-stretch:normal;font-size:77.1066px;font-family:Lavi;-inkscape-font-specification:'Lavi Italic';stroke-width:14.3879;stroke-dasharray:none;paint-order:stroke markers fill"
   id="tspan21243-0">i</tspan>iii<tspan
   style="font-style:italic;font-variant:normal;font-weight:normal;font-stretch:normal;font-size:97.1066px;font-family:Lavi;-inkscape-font-specification:'Lavi Italic';stroke-width:14.3879;stroke-dasharray:none;paint-order:stroke markers fill"
   id="tspan21235-9">i<tspan
   style="font-style:italic;font-variant:normal;font-weight:normal;font-stretch:normal;font-size:117.107px;font-family:Lavi;-inkscape-font-specification:'Lavi Italic';stroke-width:14.3879;stroke-dasharray:none;paint-order:stroke markers fill"
   id="tspan21239-3">iiiiiiiiiii</tspan>i</tspan>iiiiii</tspan></textPath></text>
    <text
       xml:space="preserve"
       style="color:#000000;font-style:normal;font-variant:normal;font-weight:normal;font-stretch:normal;font-size:155.442px;line-height:0.01%;font-family:Lavi;-inkscape-font-specification:'Lavi, Normal';font-variant-ligatures:normal;font-variant-caps:normal;font-variant-numeric:normal;font-feature-settings:normal;text-align:start;letter-spacing:22.786px;word-spacing:0px;writing-mode:lr-tb;text-anchor:start;display:inline;overflow:visible;visibility:visible;fill:#ffffff;fill-opacity:1;fill-rule:nonzero;stroke:#000000;stroke-width:16.2241;stroke-linecap:butt;stroke-linejoin:miter;stroke-miterlimit:4;stroke-dasharray:none;stroke-dashoffset:0;stroke-opacity:1;marker:none;paint-order:stroke markers fill;filter:url(#filter983);enable-background:accumulate"
       id="text1702-5-5"
       transform="matrix(0.96909088,0.01637601,-0.01532801,0.88180074,52.687484,1162.0162)"><textPath
         xlink:href="#path1405"
         id="textPath1458"
         style="stroke-width:16.2241;stroke-dasharray:none"><tspan
           id="tspan19309-2-2"
           style="font-style:italic;font-variant:normal;font-weight:normal;font-stretch:normal;font-size:106.527px;font-family:Lavi;-inkscape-font-specification:'Lavi Italic';stroke:#000000;stroke-width:16.2241;stroke-dasharray:none;paint-order:stroke markers fill"><tspan
   id="tspan21251-7-9"
   style="font-style:italic;font-variant:normal;font-weight:normal;font-stretch:normal;font-size:82.0679px;font-family:Lavi;-inkscape-font-specification:'Lavi Italic';stroke-width:16.2241;stroke-dasharray:none;paint-order:stroke markers fill">ii</tspan><tspan
   style="font-style:italic;font-variant:normal;font-weight:normal;font-stretch:normal;font-size:94.2974px;font-family:Lavi;-inkscape-font-specification:'Lavi Italic';stroke-width:16.2241;stroke-dasharray:none;paint-order:stroke markers fill"
   id="tspan21243-0-1">i</tspan>iii<tspan
   style="font-style:italic;font-variant:normal;font-weight:normal;font-stretch:normal;font-size:118.756px;font-family:Lavi;-inkscape-font-specification:'Lavi Italic';stroke-width:16.2241;stroke-dasharray:none;paint-order:stroke markers fill"
   id="tspan21235-9-2">i<tspan
   style="font-style:italic;font-variant:normal;font-weight:normal;font-stretch:normal;font-size:143.216px;font-family:Lavi;-inkscape-font-specification:'Lavi Italic';stroke-width:16.2241;stroke-dasharray:none;paint-order:stroke markers fill"
   id="tspan21239-3-7">iiiiiiiiiii</tspan>i</tspan>iiiiiiiiii<tspan
   id="tspan1334"
   style="font-size:130.986px;stroke-width:16.2241;stroke-dasharray:none">iii</tspan><tspan
   style="font-size:155.445px;stroke-width:16.2241;stroke-dasharray:none"
   id="tspan1318">iiiiiiii</tspan><tspan
   id="tspan1336"
   style="font-size:130.986px;stroke-width:16.2241;stroke-dasharray:none">iiii</tspan>iiiiiii<tspan
   style="font-size:82.0679px;stroke-width:16.2241;stroke-dasharray:none"
   id="tspan1340">iiiii</tspan></tspan></textPath></text>
    <text
       xml:space="preserve"
       style="color:#000000;font-style:normal;font-variant:normal;font-weight:normal;font-stretch:normal;font-size:6.09923px;line-height:0%;font-family:Arial;-inkscape-font-specification:Arial;letter-spacing:0.013901px;word-spacing:0px;clip-rule:nonzero;display:inline;overflow:visible;visibility:visible;isolation:auto;mix-blend-mode:normal;color-interpolation:sRGB;color-interpolation-filters:linearRGB;solid-color:#000000;solid-opacity:1;fill:#d7e3f4;fill-opacity:1;fill-rule:nonzero;stroke:#1e90ff;stroke-width:8.99996;stroke-linecap:butt;stroke-linejoin:miter;stroke-miterlimit:4;stroke-dasharray:none;stroke-dashoffset:0;stroke-opacity:1;marker:none;paint-order:stroke markers fill;color-rendering:auto;image-rendering:auto;shape-rendering:auto;text-rendering:auto;enable-background:accumulate"
       x="1669.2567"
       y="1015.4174"
       id="text4251-9-3-1-9-5-4-7"
       transform="matrix(0.76116187,-0.1181876,-0.08454105,1.3269079,0,0)"
       inkscape:transform-center-x="-111.86567"
       inkscape:transform-center-y="-94.18204"><tspan
         sodipodi:role="line"
         id="tspan4253-3-7-8-7-0-7-4"
         x="1669.2567"
         y="1015.4174"
         style="font-style:normal;font-variant:normal;font-weight:normal;font-stretch:normal;font-size:81.3838px;line-height:1.25;font-family:Lavi;-inkscape-font-specification:Lavi;fill:#d7e3f4;fill-opacity:1;stroke:#1e90ff;stroke-width:8.99996;stroke-dasharray:none;paint-order:stroke markers fill"><tspan
           style="font-size:45.7442px;fill:#d7e3f4;fill-opacity:1;stroke:#1e90ff;stroke-width:8.99996;stroke-dasharray:none;paint-order:stroke markers fill"
           id="tspan4349-9-9-7-3-3-6-4">CR<tspan
   style="font-size:37.0603px;stroke-width:8.99996"
   id="tspan1087">R</tspan>R<tspan
   style="font-size:30.9816px;stroke-width:8.99996"
   id="tspan1091">R</tspan> </tspan><tspan
           id="tspan4365-0-3-9-6-6-5-3"
           style="font-size:23.1654px;fill:#d7e3f4;fill-opacity:1;stroke:#1e90ff;stroke-width:8.99996;stroke-dasharray:none;paint-order:stroke markers fill">! </tspan><tspan
           id="tspan4311-9-7-2-1-1-6-0"
           style="font-size:28.3838px;fill:#d7e3f4;fill-opacity:1;stroke:#1e90ff;stroke-width:8.99996;stroke-dasharray:none;paint-order:stroke markers fill">! </tspan><tspan
           id="tspan4369-2-8-0-2-0-9-7"
           style="font-size:36.8564px;fill:#d7e3f4;fill-opacity:1;stroke:#1e90ff;stroke-width:8.99996;stroke-dasharray:none;paint-order:stroke markers fill">!</tspan></tspan></text>
    <text
       xml:space="preserve"
       style="color:#000000;font-style:normal;font-variant:normal;font-weight:normal;font-stretch:normal;font-size:6.09923px;line-height:0%;font-family:Arial;-inkscape-font-specification:Arial;letter-spacing:0.013901px;word-spacing:0px;clip-rule:nonzero;display:inline;overflow:visible;visibility:visible;isolation:auto;mix-blend-mode:normal;color-interpolation:sRGB;color-interpolation-filters:linearRGB;solid-color:#000000;solid-opacity:1;fill:#d7e3f4;fill-opacity:1;fill-rule:nonzero;stroke:#1e90ff;stroke-width:8.99996;stroke-linecap:butt;stroke-linejoin:miter;stroke-miterlimit:4;stroke-dasharray:none;stroke-dashoffset:0;stroke-opacity:1;marker:none;paint-order:stroke markers fill;color-rendering:auto;image-rendering:auto;shape-rendering:auto;text-rendering:auto;enable-background:accumulate"
       x="473.21915"
       y="1593.8789"
       id="text4251-9-3-1-9-5-4-7-6"
       transform="matrix(0.55734135,-0.53170135,0.68836615,1.1375341,0,0)"
       inkscape:transform-center-x="-36.030766"
       inkscape:transform-center-y="-141.19759"><tspan
         sodipodi:role="line"
         id="tspan4253-3-7-8-7-0-7-4-7"
         x="473.21915"
         y="1593.8789"
         style="font-style:normal;font-variant:normal;font-weight:normal;font-stretch:normal;font-size:81.3838px;line-height:1.25;font-family:Lavi;-inkscape-font-specification:Lavi;fill:#d7e3f4;fill-opacity:1;stroke:#1e90ff;stroke-width:8.99996;stroke-dasharray:none;paint-order:stroke markers fill"><tspan
           style="font-size:45.7442px;fill:#d7e3f4;fill-opacity:1;stroke:#1e90ff;stroke-width:8.99996;stroke-dasharray:none;paint-order:stroke markers fill"
           id="tspan4349-9-9-7-3-3-6-4-5">CR<tspan
   style="font-size:37.0603px;stroke-width:8.99996"
   id="tspan1087-3">R</tspan>R<tspan
   style="font-size:30.9816px;stroke-width:8.99996"
   id="tspan1091-5">R</tspan> </tspan><tspan
           id="tspan4365-0-3-9-6-6-5-3-6"
           style="font-size:23.1654px;fill:#d7e3f4;fill-opacity:1;stroke:#1e90ff;stroke-width:8.99996;stroke-dasharray:none;paint-order:stroke markers fill">! </tspan><tspan
           id="tspan4311-9-7-2-1-1-6-0-2"
           style="font-size:28.3838px;fill:#d7e3f4;fill-opacity:1;stroke:#1e90ff;stroke-width:8.99996;stroke-dasharray:none;paint-order:stroke markers fill">! </tspan><tspan
           id="tspan4369-2-8-0-2-0-9-7-9"
           style="font-size:36.8564px;fill:#d7e3f4;fill-opacity:1;stroke:#1e90ff;stroke-width:8.99996;stroke-dasharray:none;paint-order:stroke markers fill">!</tspan></tspan></text>
    <text
       xml:space="preserve"
       style="color:#000000;font-style:normal;font-variant:normal;font-weight:normal;font-stretch:normal;font-size:6.09923px;line-height:0%;font-family:Arial;-inkscape-font-specification:Arial;letter-spacing:0.013901px;word-spacing:0px;clip-rule:nonzero;display:inline;overflow:visible;visibility:visible;isolation:auto;mix-blend-mode:normal;color-interpolation:sRGB;color-interpolation-filters:linearRGB;solid-color:#000000;solid-opacity:1;fill:#d7e3f4;fill-opacity:1;fill-rule:nonzero;stroke:#1e90ff;stroke-width:8.99996;stroke-linecap:butt;stroke-linejoin:miter;stroke-miterlimit:4;stroke-dasharray:none;stroke-dashoffset:0;stroke-opacity:1;marker:none;paint-order:stroke markers fill;color-rendering:auto;image-rendering:auto;shape-rendering:auto;text-rendering:auto;enable-background:accumulate"
       x="1405.4469"
       y="1290.7928"
       id="text4251-9-3-1-9-5-4-7-6-1"
       transform="matrix(0.68062479,-0.36067383,0.35416319,1.2815616,0,0)"
       inkscape:transform-center-x="-73.866401"
       inkscape:transform-center-y="-125.59373"><tspan
         sodipodi:role="line"
         id="tspan4253-3-7-8-7-0-7-4-7-2"
         x="1405.4469"
         y="1290.7928"
         style="font-style:normal;font-variant:normal;font-weight:normal;font-stretch:normal;font-size:81.3838px;line-height:1.25;font-family:Lavi;-inkscape-font-specification:Lavi;fill:#d7e3f4;fill-opacity:1;stroke:#1e90ff;stroke-width:8.99996;stroke-dasharray:none;paint-order:stroke markers fill"><tspan
           style="font-size:45.7442px;fill:#d7e3f4;fill-opacity:1;stroke:#1e90ff;stroke-width:8.99996;stroke-dasharray:none;paint-order:stroke markers fill"
           id="tspan4349-9-9-7-3-3-6-4-5-7">CR<tspan
   style="font-size:37.0603px;stroke-width:8.99996"
   id="tspan1087-3-0">R</tspan>R<tspan
   style="font-size:30.9816px;stroke-width:8.99996"
   id="tspan1091-5-9">R</tspan> </tspan><tspan
           id="tspan4365-0-3-9-6-6-5-3-6-3"
           style="font-size:23.1654px;fill:#d7e3f4;fill-opacity:1;stroke:#1e90ff;stroke-width:8.99996;stroke-dasharray:none;paint-order:stroke markers fill">! </tspan><tspan
           id="tspan4311-9-7-2-1-1-6-0-2-6"
           style="font-size:28.3838px;fill:#d7e3f4;fill-opacity:1;stroke:#1e90ff;stroke-width:8.99996;stroke-dasharray:none;paint-order:stroke markers fill">! </tspan><tspan
           id="tspan4369-2-8-0-2-0-9-7-9-0"
           style="font-size:36.8564px;fill:#d7e3f4;fill-opacity:1;stroke:#1e90ff;stroke-width:8.99996;stroke-dasharray:none;paint-order:stroke markers fill">!</tspan></tspan></text>
    <text
       xml:space="preserve"
       style="color:#000000;font-style:normal;font-variant:normal;font-weight:normal;font-stretch:normal;font-size:8.92492px;line-height:0%;font-family:Arial;-inkscape-font-specification:Arial;letter-spacing:0.0203411px;word-spacing:0px;clip-rule:nonzero;display:inline;overflow:visible;visibility:visible;isolation:auto;mix-blend-mode:normal;color-interpolation:sRGB;color-interpolation-filters:linearRGB;solid-color:#000000;solid-opacity:1;fill:#d7e3f4;fill-opacity:1;fill-rule:nonzero;stroke:#1e90ff;stroke-width:13;stroke-linecap:butt;stroke-linejoin:miter;stroke-miterlimit:4;stroke-dasharray:none;stroke-dashoffset:0;stroke-opacity:1;marker:none;paint-order:stroke markers fill;color-rendering:auto;image-rendering:auto;shape-rendering:auto;text-rendering:auto;enable-background:accumulate"
       x="3511.5266"
       y="635.07593"
       id="text4251-9-3"
       transform="matrix(0.75990953,0.09056364,-0.78971695,1.2218301,0,0)"><tspan
         sodipodi:role="line"
         id="tspan4253-3-7"
         x="3511.5266"
         y="635.07593"
         style="font-style:normal;font-variant:normal;font-weight:normal;font-stretch:normal;font-size:119.088px;line-height:1.25;font-family:Lavi;-inkscape-font-specification:Lavi;fill:#d7e3f4;fill-opacity:1;stroke:#1e90ff;stroke-width:13;stroke-dasharray:none;paint-order:stroke markers fill"><tspan
           style="font-size:66.9369px;fill:#d7e3f4;fill-opacity:1;stroke:#1e90ff;stroke-width:13;stroke-dasharray:none;paint-order:stroke markers fill"
           id="tspan4349-9-9">Pok </tspan><tspan
           id="tspan4365-0-3"
           style="font-size:33.8977px;fill:#d7e3f4;fill-opacity:1;stroke:#1e90ff;stroke-width:13;stroke-dasharray:none;paint-order:stroke markers fill">! </tspan><tspan
           id="tspan4311-9-7"
           style="font-size:41.5336px;fill:#d7e3f4;fill-opacity:1;stroke:#1e90ff;stroke-width:13;stroke-dasharray:none;paint-order:stroke markers fill">! </tspan><tspan
           id="tspan4369-2-8"
           style="font-size:53.9315px;fill:#d7e3f4;fill-opacity:1;stroke:#1e90ff;stroke-width:13;stroke-dasharray:none;paint-order:stroke markers fill">!</tspan></tspan></text>
    <text
       xml:space="preserve"
       style="color:#000000;font-style:normal;font-variant:normal;font-weight:normal;font-stretch:normal;font-size:7.56397px;line-height:0%;font-family:Arial;-inkscape-font-specification:Arial;letter-spacing:0.0172393px;word-spacing:0px;clip-rule:nonzero;display:inline;overflow:visible;visibility:visible;isolation:auto;mix-blend-mode:normal;color-interpolation:sRGB;color-interpolation-filters:linearRGB;solid-color:#000000;solid-opacity:1;fill:#d7e3f4;fill-opacity:1;fill-rule:nonzero;stroke:#1e90ff;stroke-width:13;stroke-linecap:butt;stroke-linejoin:miter;stroke-miterlimit:4;stroke-dasharray:none;stroke-dashoffset:0;stroke-opacity:1;marker:none;paint-order:stroke markers fill;color-rendering:auto;image-rendering:auto;shape-rendering:auto;text-rendering:auto;enable-background:accumulate"
       x="3030.8901"
       y="1479.9736"
       id="text4251-9-3-1"
       transform="matrix(0.69315432,-0.23433491,0.0817539,1.4150416,0,0)"><tspan
         sodipodi:role="line"
         id="tspan4253-3-7-8"
         x="3030.8901"
         y="1479.9736"
         style="font-style:normal;font-variant:normal;font-weight:normal;font-stretch:normal;font-size:100.929px;line-height:1.25;font-family:Lavi;-inkscape-font-specification:Lavi;fill:#d7e3f4;fill-opacity:1;stroke:#1e90ff;stroke-width:13;stroke-dasharray:none;paint-order:stroke markers fill"><tspan
           style="font-size:56.7298px;fill:#d7e3f4;fill-opacity:1;stroke:#1e90ff;stroke-width:13;stroke-dasharray:none;paint-order:stroke markers fill"
           id="tspan4349-9-9-7">Pok </tspan><tspan
           id="tspan4365-0-3-9"
           style="font-size:28.7287px;fill:#d7e3f4;fill-opacity:1;stroke:#1e90ff;stroke-width:13;stroke-dasharray:none;paint-order:stroke markers fill">! </tspan><tspan
           id="tspan4311-9-7-2"
           style="font-size:35.2002px;fill:#d7e3f4;fill-opacity:1;stroke:#1e90ff;stroke-width:13;stroke-dasharray:none;paint-order:stroke markers fill">! </tspan><tspan
           id="tspan4369-2-8-0"
           style="font-size:45.7076px;fill:#d7e3f4;fill-opacity:1;stroke:#1e90ff;stroke-width:13;stroke-dasharray:none;paint-order:stroke markers fill">!</tspan></tspan></text>
    <text
       xml:space="preserve"
       style="color:#000000;font-style:normal;font-variant:normal;font-weight:normal;font-stretch:normal;font-size:8.00326px;line-height:0%;font-family:Arial;-inkscape-font-specification:Arial;letter-spacing:0.0182405px;word-spacing:0px;clip-rule:nonzero;display:inline;overflow:visible;visibility:visible;isolation:auto;mix-blend-mode:normal;color-interpolation:sRGB;color-interpolation-filters:linearRGB;solid-color:#000000;solid-opacity:1;fill:#d7e3f4;fill-opacity:1;fill-rule:nonzero;stroke:#1e90ff;stroke-width:13;stroke-linecap:butt;stroke-linejoin:miter;stroke-miterlimit:4;stroke-dasharray:none;stroke-dashoffset:0;stroke-opacity:1;marker:none;paint-order:stroke markers fill;color-rendering:auto;image-rendering:auto;shape-rendering:auto;text-rendering:auto;enable-background:accumulate"
       x="2017.4703"
       y="1607.6075"
       id="text4251-9-3-1-3"
       transform="matrix(0.65041719,-0.37507852,0.4503263,1.2777834,0,0)"><tspan
         sodipodi:role="line"
         id="tspan4253-3-7-8-74"
         x="2017.4703"
         y="1607.6075"
         style="font-style:normal;font-variant:normal;font-weight:normal;font-stretch:normal;font-size:106.791px;line-height:1.25;font-family:Lavi;-inkscape-font-specification:Lavi;fill:#d7e3f4;fill-opacity:1;stroke:#1e90ff;stroke-width:13;stroke-dasharray:none;paint-order:stroke markers fill"><tspan
           style="font-size:60.0245px;fill:#d7e3f4;fill-opacity:1;stroke:#1e90ff;stroke-width:13;stroke-dasharray:none;paint-order:stroke markers fill"
           id="tspan4349-9-9-7-5">Pok </tspan><tspan
           id="tspan4365-0-3-9-2"
           style="font-size:30.3972px;fill:#d7e3f4;fill-opacity:1;stroke:#1e90ff;stroke-width:13;stroke-dasharray:none;paint-order:stroke markers fill">! </tspan><tspan
           id="tspan4311-9-7-2-5"
           style="font-size:37.2445px;fill:#d7e3f4;fill-opacity:1;stroke:#1e90ff;stroke-width:13;stroke-dasharray:none;paint-order:stroke markers fill">! </tspan><tspan
           id="tspan4369-2-8-0-4"
           style="font-size:48.3621px;fill:#d7e3f4;fill-opacity:1;stroke:#1e90ff;stroke-width:13;stroke-dasharray:none;paint-order:stroke markers fill">!</tspan></tspan></text>
    <text
       xml:space="preserve"
       style="color:#000000;font-style:normal;font-variant:normal;font-weight:normal;font-stretch:normal;font-size:8.97996px;line-height:0%;font-family:Arial;-inkscape-font-specification:Arial;letter-spacing:0.0204665px;word-spacing:0px;clip-rule:nonzero;display:inline;overflow:visible;visibility:visible;isolation:auto;mix-blend-mode:normal;color-interpolation:sRGB;color-interpolation-filters:linearRGB;solid-color:#000000;solid-opacity:1;fill:#d7e3f4;fill-opacity:1;fill-rule:nonzero;stroke:#1e90ff;stroke-width:13;stroke-linecap:butt;stroke-linejoin:miter;stroke-miterlimit:4;stroke-dasharray:none;stroke-dashoffset:0;stroke-opacity:1;marker:none;paint-order:stroke markers fill;color-rendering:auto;image-rendering:auto;shape-rendering:auto;text-rendering:auto;enable-background:accumulate"
       x="3146.0613"
       y="887.00354"
       id="text4251-9-3-1-9"
       transform="matrix(0.75033866,-0.02889796,-0.47053085,1.3508532,0,0)"><tspan
         sodipodi:role="line"
         id="tspan4253-3-7-8-7"
         x="3146.0613"
         y="887.00354"
         style="font-style:normal;font-variant:normal;font-weight:normal;font-stretch:normal;font-size:119.823px;line-height:1.25;font-family:Lavi;-inkscape-font-specification:Lavi;fill:#d7e3f4;fill-opacity:1;stroke:#1e90ff;stroke-width:13;stroke-dasharray:none;paint-order:stroke markers fill"><tspan
           style="font-size:67.3497px;fill:#d7e3f4;fill-opacity:1;stroke:#1e90ff;stroke-width:13;stroke-dasharray:none;paint-order:stroke markers fill"
           id="tspan4349-9-9-7-3">Pok </tspan><tspan
           id="tspan4365-0-3-9-6"
           style="font-size:34.1067px;fill:#d7e3f4;fill-opacity:1;stroke:#1e90ff;stroke-width:13;stroke-dasharray:none;paint-order:stroke markers fill">! </tspan><tspan
           id="tspan4311-9-7-2-1"
           style="font-size:41.7898px;fill:#d7e3f4;fill-opacity:1;stroke:#1e90ff;stroke-width:13;stroke-dasharray:none;paint-order:stroke markers fill">! </tspan><tspan
           id="tspan4369-2-8-0-2"
           style="font-size:54.2641px;fill:#d7e3f4;fill-opacity:1;stroke:#1e90ff;stroke-width:13;stroke-dasharray:none;paint-order:stroke markers fill">!</tspan></tspan></text>
    <text
       xml:space="preserve"
       style="color:#000000;font-style:normal;font-variant:normal;font-weight:normal;font-stretch:normal;font-size:9.21474px;line-height:0%;font-family:Arial;-inkscape-font-specification:Arial;letter-spacing:0.0210016px;word-spacing:0px;clip-rule:nonzero;display:inline;overflow:visible;visibility:visible;isolation:auto;mix-blend-mode:normal;color-interpolation:sRGB;color-interpolation-filters:linearRGB;solid-color:#000000;solid-opacity:1;fill:#d7e3f4;fill-opacity:1;fill-rule:nonzero;stroke:#1e90ff;stroke-width:13;stroke-linecap:butt;stroke-linejoin:miter;stroke-miterlimit:4;stroke-dasharray:none;stroke-dashoffset:0;stroke-opacity:1;marker:none;paint-order:stroke markers fill;color-rendering:auto;image-rendering:auto;shape-rendering:auto;text-rendering:auto;enable-background:accumulate"
       x="2005.0896"
       y="1439.2994"
       id="text4251-9-3-1-9-5"
       transform="matrix(0.70730027,-0.25803089,0.19432278,1.3429356,0,0)"
       inkscape:transform-center-x="-132.08495"
       inkscape:transform-center-y="-173.38501"><tspan
         sodipodi:role="line"
         id="tspan4253-3-7-8-7-0"
         x="2005.0896"
         y="1439.2994"
         style="font-style:normal;font-variant:normal;font-weight:normal;font-stretch:normal;font-size:122.955px;line-height:1.25;font-family:Lavi;-inkscape-font-specification:Lavi;fill:#d7e3f4;fill-opacity:1;stroke:#1e90ff;stroke-width:13;stroke-dasharray:none;paint-order:stroke markers fill"><tspan
           style="font-size:69.1106px;fill:#d7e3f4;fill-opacity:1;stroke:#1e90ff;stroke-width:13;stroke-dasharray:none;paint-order:stroke markers fill"
           id="tspan4349-9-9-7-3-3">Pok </tspan><tspan
           id="tspan4365-0-3-9-6-6"
           style="font-size:34.9984px;fill:#d7e3f4;fill-opacity:1;stroke:#1e90ff;stroke-width:13;stroke-dasharray:none;paint-order:stroke markers fill">! </tspan><tspan
           id="tspan4311-9-7-2-1-1"
           style="font-size:42.8824px;fill:#d7e3f4;fill-opacity:1;stroke:#1e90ff;stroke-width:13;stroke-dasharray:none;paint-order:stroke markers fill">! </tspan><tspan
           id="tspan4369-2-8-0-2-0"
           style="font-size:55.6829px;fill:#d7e3f4;fill-opacity:1;stroke:#1e90ff;stroke-width:13;stroke-dasharray:none;paint-order:stroke markers fill">!</tspan></tspan></text>
    <text
       xml:space="preserve"
       style="color:#000000;font-style:normal;font-variant:normal;font-weight:normal;font-stretch:normal;font-size:9.29943px;line-height:0%;font-family:Arial;-inkscape-font-specification:Arial;letter-spacing:0.0211946px;word-spacing:0px;clip-rule:nonzero;display:inline;overflow:visible;visibility:visible;isolation:auto;mix-blend-mode:normal;color-interpolation:sRGB;color-interpolation-filters:linearRGB;solid-color:#000000;solid-opacity:1;fill:#d7e3f4;fill-opacity:1;fill-rule:nonzero;stroke:#1e90ff;stroke-width:13;stroke-linecap:butt;stroke-linejoin:miter;stroke-miterlimit:4;stroke-dasharray:none;stroke-dashoffset:0;stroke-opacity:1;marker:none;paint-order:stroke markers fill;color-rendering:auto;image-rendering:auto;shape-rendering:auto;text-rendering:auto;enable-background:accumulate"
       x="2136.3862"
       y="1267.1757"
       id="text4251-9-3-1-9-5-4"
       transform="matrix(0.69271163,-0.26346509,0.19031471,1.3712181,0,0)"
       inkscape:transform-center-x="-130.54934"
       inkscape:transform-center-y="-178.6636"><tspan
         sodipodi:role="line"
         id="tspan4253-3-7-8-7-0-7"
         x="2136.3862"
         y="1267.1757"
         style="font-style:normal;font-variant:normal;font-weight:normal;font-stretch:normal;font-size:124.085px;line-height:1.25;font-family:Lavi;-inkscape-font-specification:Lavi;fill:#d7e3f4;fill-opacity:1;stroke:#1e90ff;stroke-width:13;stroke-dasharray:none;paint-order:stroke markers fill"><tspan
           style="font-size:69.7457px;fill:#d7e3f4;fill-opacity:1;stroke:#1e90ff;stroke-width:13;stroke-dasharray:none;paint-order:stroke markers fill"
           id="tspan4349-9-9-7-3-3-6">Pok </tspan><tspan
           id="tspan4365-0-3-9-6-6-5"
           style="font-size:35.3201px;fill:#d7e3f4;fill-opacity:1;stroke:#1e90ff;stroke-width:13;stroke-dasharray:none;paint-order:stroke markers fill">! </tspan><tspan
           id="tspan4311-9-7-2-1-1-6"
           style="font-size:43.2765px;fill:#d7e3f4;fill-opacity:1;stroke:#1e90ff;stroke-width:13;stroke-dasharray:none;paint-order:stroke markers fill">! </tspan><tspan
           id="tspan4369-2-8-0-2-0-9"
           style="font-size:56.1946px;fill:#d7e3f4;fill-opacity:1;stroke:#1e90ff;stroke-width:13;stroke-dasharray:none;paint-order:stroke markers fill">!</tspan></tspan></text>
    <text
       xml:space="preserve"
       style="color:#000000;font-style:normal;font-variant:normal;font-weight:normal;font-stretch:normal;font-size:127.104px;line-height:0.01%;font-family:Lavi;-inkscape-font-specification:'Lavi, Normal';font-variant-ligatures:normal;font-variant-caps:normal;font-variant-numeric:normal;font-feature-settings:normal;text-align:start;letter-spacing:18.632px;word-spacing:0px;writing-mode:lr-tb;text-anchor:start;display:inline;overflow:visible;visibility:visible;fill:#ffffff;fill-opacity:1;fill-rule:nonzero;stroke:#000000;stroke-width:12.2523;stroke-linecap:butt;stroke-linejoin:miter;stroke-miterlimit:4;stroke-dasharray:none;stroke-dashoffset:0;stroke-opacity:1;marker:none;paint-order:stroke markers fill;filter:url(#filter983);enable-background:accumulate"
       id="text1702-5-8"
       transform="matrix(1.0667418,0.12607125,-0.23523894,1.377234,-1572.0235,1651.9008)"><textPath
         xlink:href="#path1020"
         id="textPath1059-6"
         style="font-style:italic;font-variant:normal;font-weight:normal;font-stretch:normal;font-size:87.1066px;font-family:Lavi;-inkscape-font-specification:'Lavi Italic';stroke:#000000;stroke-width:12.2523;stroke-dasharray:none;paint-order:stroke markers fill"><tspan
           style="font-style:italic;font-variant:normal;font-weight:normal;font-stretch:normal;font-size:120.107px;font-family:Lavi;-inkscape-font-specification:'Lavi Italic';stroke-width:12.2523;stroke-dasharray:none;paint-order:stroke markers fill"
           id="tspan21235-9-3">i</tspan><tspan
           id="tspan6629"
           style="font-style:italic;font-variant:normal;font-weight:normal;font-stretch:normal;font-size:117.107px;font-family:Lavi;-inkscape-font-specification:'Lavi Italic';stroke-width:12.2523;stroke-dasharray:none;paint-order:stroke markers fill">ii<tspan
   style="font-size:80.1068px;stroke-width:12.2523;stroke-dasharray:none"
   id="tspan6631">ii</tspan><tspan
   id="tspan6643"
   style="font-size:60.1068px;stroke-width:12.2523;stroke-dasharray:none">i</tspan></tspan><tspan
           style="font-size:60.1068px;stroke-width:12.2523;stroke-dasharray:none"
           id="tspan6633">i</tspan><tspan
           id="tspan6647"
           style="font-size:40.1068px;stroke-width:12.2523;stroke-dasharray:none">i...</tspan></textPath></text>
    <text
       xml:space="preserve"
       style="font-style:normal;font-variant:normal;font-weight:normal;font-stretch:normal;line-height:0%;font-family:Lavi;-inkscape-font-specification:Lavi;letter-spacing:0px;word-spacing:0px;fill:url(#linearGradient4294-2);fill-opacity:1;stroke:none;stroke-width:0.645144;stroke-miterlimit:4;stroke-dasharray:none;stroke-opacity:0;filter:url(#filter4375-4-1-1-1-9-5-8-8-5-6)"
       x="787.65729"
       y="1584.5073"
       id="text4580-6-0-0-0-2"
       transform="matrix(1.1379897,-0.30816684,-0.38734342,1.6685777,919.08311,-505.2977)"><tspan
         sodipodi:role="line"
         id="tspan4582-1-1-0-2-4"
         x="787.65729"
         y="1584.5073"
         style="font-size:93.1495px;line-height:1.25;fill:url(#linearGradient4294-2);fill-opacity:1;stroke:none;stroke-width:0.645144;stroke-miterlimit:4;stroke-dasharray:none;stroke-opacity:0">Dzi<tspan
   style="font-size:70.7783px;fill:url(#linearGradient4294-2);fill-opacity:1;stroke-width:0.645144"
   id="tspan4630">iio<tspan
   style="font-size:54.5522px;fill:url(#linearGradient4294-2);stroke-width:0.645144"
   id="tspan5447">o</tspan><tspan
   id="tspan5453"
   style="font-size:41.0427px;fill:url(#linearGradient4294-2);stroke-width:0.645144">o</tspan></tspan><tspan
   style="font-size:55.9281px;fill:url(#linearGradient4294-2);fill-opacity:1;stroke-width:0.645144"
   id="tspan4638"><tspan
   style="font-size:41.0427px;fill:url(#linearGradient4294-2);stroke-width:0.645144"
   id="tspan5451"> </tspan>!!</tspan></tspan></text>
    <text
       id="text4178-0-0"
       y="1979.953"
       x="1684.7275"
       style="font-style:normal;font-variant:normal;font-weight:normal;font-stretch:normal;font-size:10.372px;line-height:0%;font-family:Lavi;-inkscape-font-specification:Lavi;text-align:center;letter-spacing:0px;word-spacing:0px;text-anchor:middle;fill:#000000;fill-opacity:1;stroke:none;stroke-width:0.999997"
       xml:space="preserve"
       transform="scale(0.99978425,1.0002158)"><tspan
         y="1979.953"
         x="1684.7275"
         style="font-size:35.1581px;line-height:1.25;stroke-width:0.999997"
         sodipodi:role="line"
         id="tspan6945">Non mais quelle</tspan><tspan
         y="2023.9006"
         x="1684.7275"
         style="font-size:35.1581px;line-height:1.25;stroke-width:0.999997"
         sodipodi:role="line"
         id="tspan10964"> casserole !</tspan><tspan
         y="2038.9604"
         x="1684.7275"
         style="font-size:35.1581px;line-height:1.25;stroke-width:0.999997"
         sodipodi:role="line"
         id="tspan6943" /></text>
    <text
       id="text4178-0"
       y="2758.9761"
       x="939.75726"
       style="font-style:normal;font-variant:normal;font-weight:normal;font-stretch:normal;line-height:0%;font-family:Lavi;-inkscape-font-specification:Lavi;text-align:center;letter-spacing:0px;word-spacing:0px;text-anchor:middle;fill:#000000;fill-opacity:1;stroke:none"
       xml:space="preserve"><tspan
         y="2758.9761"
         x="939.75726"
         style="font-size:40.6767px;line-height:1.25"
         sodipodi:role="line"
         id="tspan6829">Allez, je vais lui</tspan><tspan
         y="2809.822"
         x="939.75726"
         style="font-size:40.6767px;line-height:1.25"
         sodipodi:role="line"
         id="tspan6949">faire ravaler son</tspan><tspan
         y="2860.6677"
         x="939.75726"
         style="font-size:40.6767px;line-height:1.25"
         sodipodi:role="line"
         id="tspan6951">sifflet, moi !</tspan></text>
    <text
       id="text4178-0-4-4"
       y="3013.1797"
       x="989.36725"
       style="font-style:normal;font-variant:normal;font-weight:normal;font-stretch:normal;line-height:0%;font-family:Lavi;-inkscape-font-specification:Lavi;text-align:center;letter-spacing:0px;word-spacing:0px;text-anchor:middle;fill:#000000;fill-opacity:1;stroke:none"
       xml:space="preserve"><tspan
         y="3013.1797"
         x="989.36725"
         style="font-weight:bold;font-size:40.6767px;line-height:1.25"
         sodipodi:role="line"
         id="tspan6957-0">Je fonce !</tspan></text>
    <text
       id="text4178-0-4"
       y="3093.6562"
       x="1041.1902"
       style="font-style:normal;font-variant:normal;font-weight:normal;font-stretch:normal;line-height:0%;font-family:Lavi;-inkscape-font-specification:Lavi;text-align:center;letter-spacing:0px;word-spacing:0px;text-anchor:middle;fill:#000000;fill-opacity:1;stroke:none"
       xml:space="preserve"><tspan
         y="3093.6562"
         x="1041.1902"
         style="font-size:40.6767px;line-height:1.25"
         sodipodi:role="line"
         id="tspan6886">Garde un œil</tspan><tspan
         y="3144.5022"
         x="1041.1902"
         style="font-size:40.6767px;line-height:1.25"
         sodipodi:role="line"
         id="tspan531">sur moi au cas</tspan><tspan
         y="3195.3479"
         x="1041.1902"
         style="font-size:40.6767px;line-height:1.25"
         sodipodi:role="line"
         id="tspan6957">où, Guériss...</tspan></text>
    <text
       id="text4178-0-4-8"
       y="2751.7917"
       x="2199.6296"
       style="font-style:normal;font-variant:normal;font-weight:normal;font-stretch:normal;line-height:0%;font-family:Lavi;-inkscape-font-specification:Lavi;text-align:center;letter-spacing:0px;word-spacing:0px;text-anchor:middle;fill:#000000;fill-opacity:1;stroke:none"
       xml:space="preserve"><tspan
         y="2751.7917"
         x="2199.6296"
         style="font-size:40.6767px;line-height:1.25"
         sodipodi:role="line"
         id="tspan6957-7">Guérisseuse ?</tspan></text>
  </g>
</svg>
