<?xml version="1.0" encoding="UTF-8" standalone="no"?>
<!-- Created with Inkscape (http://www.inkscape.org/) -->

<svg
   xmlns:dc="http://purl.org/dc/elements/1.1/"
   xmlns:cc="http://creativecommons.org/ns#"
   xmlns:rdf="http://www.w3.org/1999/02/22-rdf-syntax-ns#"
   xmlns:svg="http://www.w3.org/2000/svg"
   xmlns="http://www.w3.org/2000/svg"
   xmlns:xlink="http://www.w3.org/1999/xlink"
   xmlns:sodipodi="http://sodipodi.sourceforge.net/DTD/sodipodi-0.dtd"
   xmlns:inkscape="http://www.inkscape.org/namespaces/inkscape"
   id="svg2"
   version="1.1"
   inkscape:version="0.92.3 (2405546, 2018-03-11)"
   width="2481"
   height="3503"
   sodipodi:docname="E17P02.svg">
  <metadata
     id="metadata8">
    <rdf:RDF>
      <cc:Work
         rdf:about="">
        <dc:format>image/svg+xml</dc:format>
        <dc:type
           rdf:resource="http://purl.org/dc/dcmitype/StillImage" />
        <dc:title />
      </cc:Work>
    </rdf:RDF>
  </metadata>
  <defs
     id="defs6">
    <filter
       style="color-interpolation-filters:sRGB;"
       id="filter4375-4-1-1-1-9-5"
       inkscape:label="Drop Shadow">
      <feFlood
         id="feFlood4377-7-9-0-8-1-7"
         flood-opacity="1"
         flood-color="rgb(108,125,133)"
         result="flood" />
      <feComposite
         id="feComposite4379-3-8-8-2-77-4"
         in2="SourceGraphic"
         in="flood"
         operator="in"
         result="composite1" />
      <feMorphology
         id="feMorphology4393-1-0-49-8-9-3"
         operator="dilate"
         radius="6.2000000000000002"
         result="result3" />
      <feComposite
         id="feComposite4385-9-5-7-0-8-8"
         in2="result3"
         in="SourceGraphic"
         operator="over"
         result="fbSourceGraphic" />
      <feColorMatrix
         result="fbSourceGraphicAlpha"
         in="fbSourceGraphic"
         values="0 0 0 -1 0 0 0 0 -1 0 0 0 0 -1 0 0 0 0 1 0"
         id="feColorMatrix4544" />
      <feTurbulence
         id="feTurbulence4546"
         type="fractalNoise"
         numOctaves="3"
         seed="37"
         baseFrequency="0.129 0.0050000000000000001"
         result="turbulence"
         in="fbSourceGraphic" />
      <feDisplacementMap
         id="feDisplacementMap4548"
         in2="turbulence"
         in="fbSourceGraphic"
         scale="6.6"
         yChannelSelector="G"
         xChannelSelector="R"
         result="fbSourceGraphic" />
      <feColorMatrix
         result="fbSourceGraphicAlpha"
         in="fbSourceGraphic"
         values="0 0 0 -1 0 0 0 0 -1 0 0 0 0 -1 0 0 0 0 1 0"
         id="feColorMatrix4670" />
      <feFlood
         id="feFlood4672"
         flood-opacity="1"
         flood-color="rgb(17,52,65)"
         result="flood"
         in="fbSourceGraphic" />
      <feComposite
         id="feComposite4674"
         in2="fbSourceGraphic"
         in="flood"
         operator="in"
         result="composite1" />
      <feGaussianBlur
         id="feGaussianBlur4676"
         in="composite1"
         stdDeviation="0"
         result="blur" />
      <feOffset
         id="feOffset4678"
         dx="6"
         dy="6"
         result="offset" />
      <feComposite
         id="feComposite4680"
         in2="offset"
         in="fbSourceGraphic"
         operator="over"
         result="composite2" />
    </filter>
    <filter
       inkscape:collect="always"
       style="color-interpolation-filters:sRGB"
       id="filter1607"
       x="-0.14572167"
       width="1.2914433"
       y="-0.093399629"
       height="1.1867993">
      <feGaussianBlur
         inkscape:collect="always"
         stdDeviation="1.644092"
         id="feGaussianBlur1609" />
    </filter>
    <filter
       inkscape:collect="always"
       style="color-interpolation-filters:sRGB"
       id="filter1551"
       x="-0.16191296"
       width="1.323826"
       y="-0.10377736"
       height="1.2075547">
      <feGaussianBlur
         inkscape:collect="always"
         stdDeviation="1.8267689"
         id="feGaussianBlur1553" />
    </filter>
    <filter
       inkscape:collect="always"
       style="color-interpolation-filters:sRGB"
       id="filter1003"
       x="-0.045154467"
       width="1.0903089"
       y="-0.043597408"
       height="1.0871948">
      <feGaussianBlur
         inkscape:collect="always"
         stdDeviation="0.83150736"
         id="feGaussianBlur1005" />
    </filter>
    <filter
       inkscape:collect="always"
       style="color-interpolation-filters:sRGB"
       id="filter1213"
       x="-0.12585662"
       width="1.2517133"
       y="-0.1122164"
       height="1.2244328">
      <feGaussianBlur
         inkscape:collect="always"
         stdDeviation="1.5985037"
         id="feGaussianBlur1215" />
    </filter>
  </defs>
  <sodipodi:namedview
     pagecolor="#ffffff"
     bordercolor="#666666"
     borderopacity="1"
     objecttolerance="10"
     gridtolerance="10"
     guidetolerance="10"
     inkscape:pageopacity="0"
     inkscape:pageshadow="2"
     inkscape:window-width="1914"
     inkscape:window-height="1018"
     id="namedview4"
     showgrid="false"
     inkscape:zoom="0.34586209"
     inkscape:cx="1655.5094"
     inkscape:cy="997.79918"
     inkscape:window-x="0"
     inkscape:window-y="0"
     inkscape:window-maximized="0"
     inkscape:current-layer="layer3"
     inkscape:snap-global="true" />
  <g
     inkscape:groupmode="layer"
     id="layer2"
     inkscape:label="artwork"
     sodipodi:insensitive="true">
    <image
       xlink:href="../gfx_Pepper-and-Carrot_by-David-Revoy_E17P02.png"
       y="0"
       x="0"
       id="image10"
       height="3503"
       width="2481" />
  </g>
  <g
     inkscape:groupmode="layer"
     id="layer3"
     inkscape:label="speechbubbles">
    <path
       style="color:#000000;display:inline;overflow:visible;visibility:visible;fill:#ffffff;fill-opacity:1;fill-rule:nonzero;stroke:none;stroke-width:1px;marker:none;enable-background:accumulate"
       d="m 121.75796,1064.4965 c -8.80109,-132.27935 162.63136,-96.50761 247.30465,-94.82617 96.06059,5.86487 207.19932,1.87188 198.2578,126.39157 -7.7239,29.2896 -15.44795,60.3024 -43.25442,70.6399 -27.80662,10.3377 -225.54177,24.121 -257.9827,17.2293 -32.44093,-6.8916 -84.96443,-8.6147 -112.77076,-29.2897 -28.19019,-20.9604 -30.00984,-47.9331 -31.55457,-90.1449 z"
       id="path3373"
       inkscape:connector-curvature="0"
       sodipodi:nodetypes="cccsssc" />
    <path
       style="color:#000000;display:inline;overflow:visible;visibility:visible;fill:#ffffff;fill-opacity:1;fill-rule:nonzero;stroke:none;stroke-width:1px;marker:none;enable-background:accumulate"
       d="m 152.93047,1266.366 c 4.78275,-77.5814 78.22464,-135.3156 271.92299,-123.429 103.75526,6.367 221.50802,9.8512 215.70389,123.4858 -5.80424,113.6345 -174.98025,113.0706 -209.85173,116.2116 -34.87146,3.141 -216.91685,-6.2326 -249.35523,-44.4079 -20.30567,-23.8969 -28.59438,-47.8512 -28.41992,-71.8605 z"
       id="path4546-6"
       inkscape:connector-curvature="0"
       sodipodi:nodetypes="cssssc" />
    <path
       style="color:#000000;display:inline;overflow:visible;visibility:visible;fill:#ffffff;fill-opacity:1;fill-rule:nonzero;stroke:none;stroke-width:1px;marker:none;enable-background:accumulate"
       d="m 587.23586,1174.1904 c 51.27116,-41.1633 149.8778,-85.2003 264.98554,-18.484 117.45563,-13.9265 159.1674,-5.368 226.1925,56.8954 -72.139,-47.9191 -116.24059,-67.2081 -241.86362,-37.1297 -45.09623,-48.2708 -163.72454,-46.4191 -206.10579,10.6331 -42.38126,57.0523 -17.46921,58.1114 -17.46921,58.1114 l -39.32225,-53.5754 z"
       id="path5074"
       inkscape:connector-curvature="0"
       sodipodi:nodetypes="ccccsccc" />
    <path
       style="color:#000000;display:inline;overflow:visible;visibility:visible;fill:#ffffff;fill-opacity:1;fill-rule:nonzero;stroke:none;stroke-width:1px;marker:none;enable-background:accumulate"
       d="m 1791.8646,1646.036 c -11.6011,-65.126 -60.058,-198.0975 177.7649,-183.8512 237.8228,14.2462 352.6671,-7.1899 369.2842,63.7257 5.7263,24.4376 39.8213,173.0814 -145.7965,209.7148 -185.6179,36.6331 -386.5139,-0.014 -401.2526,-89.5893 z"
       id="path3525"
       inkscape:connector-curvature="0"
       sodipodi:nodetypes="csssc" />
    <path
       style="color:#000000;display:inline;overflow:visible;visibility:visible;fill:#ffffff;fill-opacity:1;fill-rule:nonzero;stroke:none;stroke-width:1px;marker:none;enable-background:accumulate"
       d="m 1571.3134,1486.9899 c 107.0984,73.703 229.4839,140.1632 303.5843,70.4763 79.5488,-74.8108 107.3574,-10.2915 107.3574,-10.2915 l -114.9117,66.5528 c -85.3574,-3.2446 -142.9698,20.7038 -296.03,-126.7376 z"
       id="path3072-1"
       inkscape:connector-curvature="0"
       sodipodi:nodetypes="csccc" />
    <path
       style="fill:#ffffff;fill-rule:evenodd;stroke:none;stroke-width:0.99999994px;stroke-linecap:butt;stroke-linejoin:miter;stroke-opacity:1"
       d="m 2010.2204,3027.382 c -29.8019,-7.8628 -32.5477,-17.0647 -7.0818,-27.6629 -28.119,-0.3145 -23.655,-6.6931 -11.5911,-14.4863 -43.3665,-29.6799 -39.8684,-56.5749 -35.2681,-83.4043 -33.6029,20.5083 -40.3062,-0.4823 -52.9004,-12.3848 -1.1967,30.5307 -9.5859,13.3116 -19.9821,-17.231 0.6077,38.8857 -4.4028,43.2748 -14.5364,16.2065 -2.2264,25.2726 -10.1933,36.8043 -24.758,32.5412 -18.9075,27.8776 -35.0821,0.4902 -52.1403,-9.0345 -0.1119,25.8597 -10.9465,29.4207 -25.1999,25.8728 -3.7197,11.8832 -4.9551,28.0983 -25.845,10.0476 0.7468,21.1341 -10.4495,8.9198 -17.9755,6.9535 10.6893,9.3351 -2.812,16.2304 -44.139,20.3193 16.7661,2.003 17.2797,10.2125 -1.3889,25.7477 25.5672,4.6223 28.0439,17.1465 18.3902,33.8216 30.9258,13.2167 8.521,39.4156 -0.5764,62.3753 24.9441,-16.2516 46.527,-21.5758 57.7724,6.7059 35.9588,-33.6194 32.5826,-19.4191 30.9998,-7.399 19.4154,-34.305 23.1774,-9.5546 31.6007,-2.3897 62.2829,-52.2399 67.2445,-16.6564 85.6155,-1.6185 -2.8089,-41.5208 15.1094,-29.9456 33.1134,-18.1509 -7.7381,-33.6872 3.2143,-26.1915 13.776,-19.5566 -1.991,-14.8902 5.7109,-21.422 26.4818,-16.684 -15.9051,-8.4279 -8.0907,-12.674 35.6331,-10.5889 z"
       id="path4289"
       inkscape:connector-curvature="0"
       sodipodi:nodetypes="cccccccccccccccccccccccc" />
    <path
       style="display:inline;fill:#ffffff;fill-rule:evenodd;stroke:none;stroke-width:1px;stroke-linecap:butt;stroke-linejoin:miter;stroke-opacity:1"
       d="m 1001.5274,2944.4263 c 38.7816,29.1744 60.872,17.3104 60.2063,-50.5046 18.5025,73.2824 31.3423,89.6722 38.9572,53.5655 24.4959,31.0352 39.7958,22.3296 51.9428,0 4.5274,28.7174 14.2367,17.1289 22.6396,15.7025 2.7675,6.4971 -6.7379,22.6388 31.6641,1.1324 2.4876,8.5996 5.8385,16.0053 28.3324,-3.0609 5.8275,34.9048 24.5248,-1.9345 43.6792,-41.322 -11.9338,48.4236 -6.9853,55.2631 8.2637,36.7306 -6.9718,19.9412 -11.1415,35.378 15.3466,1.5305 -9.0682,36.8074 14.7223,11.543 53.1234,-41.3219 -19.2089,39.0774 -70.1463,104.9393 -36.5961,99.4787 -4.6788,11.5201 -21.3677,21.5573 28.3324,39.7915 -9.2783,7.8173 -37.6048,-3.6061 -13.9754,29.4926 3.1658,3.869 -7.4327,6.2317 12.7949,16.4206 -11.9405,-0.6931 -19.2634,1.7832 -8.2637,16.8349 -21.7959,-0.8139 -13.6408,15.0132 2.3611,35.2001 -31.5636,-25.894 -33.3006,-16.483 -34.2351,-6.1217 -39.5584,-35.3024 -41.8806,-24.1877 -47.2206,-16.8349 -19.2817,0.2754 -38.5635,-4.1702 -57.8455,35.2002 -5.0496,-24.4874 -15.1735,-43.3362 -57.8452,-26.0175 18.7361,-31.1522 -7.9184,-11.305 -28.3324,1.5304 11.1791,-38.9168 -17.1919,-13.3758 -53.1234,24.4871 20.1215,-42.975 -2.7317,-27.4515 -36.596,3.0609 12.795,-42.2187 -8.0429,-62.6362 -57.84535,-64.2786 23.83699,-15.2288 37.73745,-34.3938 12.98576,-68.8699 27.90219,10.1516 36.22499,0.7222 16.52718,-36.7306 30.43381,30.7409 16.59671,-13.8473 4.72211,-55.0959 z"
       id="path4508"
       inkscape:connector-curvature="0"
       sodipodi:nodetypes="cccccccccccccccccccccccccccc" />
    <path
       style="color:#000000;display:inline;overflow:visible;visibility:visible;fill:#ffffff;fill-opacity:1;fill-rule:nonzero;stroke:none;stroke-width:1px;marker:none;enable-background:accumulate"
       d="m 1046.342,3021.1956 c 2.0761,-30.771 11.3818,-30.5073 43.4226,-2.6748 -8.4549,-54.8756 34.5629,-57.4702 74.6549,-63.0364 -4.5981,-15.4188 -22.3495,-33.127 6.4275,-42.7371 -15.4569,-9.19 -15.5068,-21.4162 -1.8098,-36.3513 -31.999,7.1166 -44.0351,2.7354 -6.1885,-30.3773 -35.7204,18.8116 -69.9274,35.5582 -56.4557,-12.7462 -13.5263,6.5747 -21.0727,44.8175 -74.0499,-25.1357 -0.5998,32.2106 -53.75791,58.7111 -79.86345,17.1311 13.21601,34.6454 -30.10543,74.4032 -50.41932,46.587 12.06756,19.4226 2.0937,38.4165 -13.11314,41.5981 43.17514,5.139 34.51371,16.912 4.62709,36.443 88.92742,3.0486 39.98845,22.4518 40.42426,35.5864 54.13589,-12.0801 50.6567,12.4617 58.40728,30.6552 51.55458,-55.4945 35.89198,-45.5822 53.93618,5.058 z"
       id="path3549-3"
       inkscape:connector-curvature="0"
       sodipodi:nodetypes="ccccccccccccccc" />
    <path
       style="color:#000000;display:inline;overflow:visible;visibility:visible;fill:#ffffff;fill-opacity:1;fill-rule:nonzero;stroke:none;stroke-width:1px;marker:none;enable-background:accumulate"
       d="m 1269.3957,2763.3018 c -26.1522,36.9012 -46.8971,78.302 -79.3319,109.9753 l 39.1635,-9.8688 c -5.4563,17.5055 -20.6662,29.6804 -32.5642,43.6655 l 25.2547,-1.9964 c -13.3891,41.1505 -40.934,70.0174 -61.6368,104.8213 l 43.7044,-7.0626 c 16.7451,-37.7274 27.0981,-77.8041 51.033,-112.8889 l -24.8923,-0.6188 c 6.5411,-13.3013 13.6301,-26.3553 23.1666,-38.3053 l -31.2879,2.0537 z"
       id="path4032"
       inkscape:connector-curvature="0"
       sodipodi:nodetypes="cccccccccccc" />
    <ellipse
       style="color:#000000;clip-rule:nonzero;display:inline;overflow:visible;visibility:visible;opacity:1;isolation:auto;mix-blend-mode:normal;color-interpolation:sRGB;color-interpolation-filters:linearRGB;solid-color:#000000;solid-opacity:1;vector-effect:none;fill:#ccc0b2;fill-opacity:1;fill-rule:nonzero;stroke:none;stroke-width:0.81906337;stroke-linecap:butt;stroke-linejoin:miter;stroke-miterlimit:4;stroke-dasharray:none;stroke-dashoffset:0;stroke-opacity:1;marker:none;paint-order:markers stroke fill;filter:url(#filter1213);color-rendering:auto;image-rendering:auto;shape-rendering:auto;text-rendering:auto;enable-background:accumulate"
       id="path1007"
       cx="-1314.3951"
       cy="2284.5508"
       rx="13.22963"
       ry="18.621227"
       transform="matrix(0.72758993,-0.68601232,0.6318505,0.77509028,-4.0245567e-7,-3.4202376e-6)" />
    <text
       xml:space="preserve"
       style="font-style:normal;font-variant:normal;font-weight:normal;font-stretch:normal;line-height:0%;font-family:Lavi;-inkscape-font-specification:Lavi;text-align:center;letter-spacing:0px;word-spacing:0px;text-anchor:middle;display:inline;opacity:0.6;fill:#230800;fill-opacity:1;stroke:#0a0a0a;stroke-width:1.12461436;stroke-opacity:1;filter:url(#filter1003)"
       x="-447.29675"
       y="2872.5061"
       id="text4246-85"
       transform="matrix(0.48659421,0.56934496,-0.54012331,0.48694312,2248.6279,1535.5146)"><tspan
         sodipodi:role="line"
         style="font-style:normal;font-variant:normal;font-weight:normal;font-stretch:normal;font-size:40.14243317px;line-height:126.99999809%;font-family:Fondamento;-inkscape-font-specification:Fondamento;fill:#230800;fill-opacity:1;stroke:#0a0a0a;stroke-width:1.28985012;stroke-opacity:1"
         x="-447.29675"
         y="2872.5061"
         id="tspan4172">N</tspan></text>
    <ellipse
       style="color:#000000;clip-rule:nonzero;display:inline;overflow:visible;visibility:visible;opacity:0.52600002;isolation:auto;mix-blend-mode:normal;color-interpolation:sRGB;color-interpolation-filters:linearRGB;solid-color:#000000;solid-opacity:1;vector-effect:none;fill:#d1c9bb;fill-opacity:1;fill-rule:nonzero;stroke:none;stroke-width:1.3879416;stroke-linecap:butt;stroke-linejoin:miter;stroke-miterlimit:4;stroke-dasharray:none;stroke-dashoffset:0;stroke-opacity:1;marker:none;paint-order:markers stroke fill;filter:url(#filter1551);color-rendering:auto;image-rendering:auto;shape-rendering:auto;text-rendering:auto;enable-background:accumulate"
       id="path1007-7"
       cx="-1314.3951"
       cy="2284.5508"
       rx="13.22963"
       ry="18.621227"
       transform="matrix(0.35584042,-0.48849033,0.3090174,0.55192026,261.42762,774.6165)" />
    <ellipse
       style="color:#000000;clip-rule:nonzero;display:inline;overflow:visible;visibility:visible;opacity:0.64299999;isolation:auto;mix-blend-mode:normal;color-interpolation:sRGB;color-interpolation-filters:linearRGB;solid-color:#000000;solid-opacity:1;vector-effect:none;fill:#e4e0d9;fill-opacity:1;fill-rule:nonzero;stroke:none;stroke-width:1.3879416;stroke-linecap:butt;stroke-linejoin:miter;stroke-miterlimit:4;stroke-dasharray:none;stroke-dashoffset:0;stroke-opacity:1;marker:none;paint-order:markers stroke fill;filter:url(#filter1607);color-rendering:auto;image-rendering:auto;shape-rendering:auto;text-rendering:auto;enable-background:accumulate"
       id="path1007-7-5"
       cx="-1314.3951"
       cy="2284.5508"
       rx="13.22963"
       ry="18.621227"
       transform="matrix(0.35584042,-0.48849033,0.3090174,0.55192026,236.07502,765.93)" />
  </g>
  <g
     inkscape:groupmode="layer"
     id="layer1"
     inkscape:label="txt">
    <text
       xml:space="preserve"
       style="font-style:normal;font-variant:normal;font-weight:normal;font-stretch:normal;line-height:0%;font-family:Lavi;-inkscape-font-specification:Lavi;text-align:center;letter-spacing:0px;word-spacing:0px;text-anchor:middle;fill:#000000;fill-opacity:1;stroke:none"
       x="343.50656"
       y="1032.5836"
       id="text4246"><tspan
         sodipodi:role="line"
         style="font-size:45px;line-height:1.25"
         x="343.50656"
         y="1032.5836"
         id="tspan3351">Molt bé! Cap</tspan><tspan
         sodipodi:role="line"
         style="font-size:45px;line-height:1.25"
         x="351.41672"
         y="1088.8336"
         id="tspan3041">a les Terres de les </tspan><tspan
         sodipodi:role="line"
         style="font-size:45px;line-height:1.25"
         x="343.50656"
         y="1145.0836"
         id="tspan3043">postes de llunes.</tspan></text>
    <text
       xml:space="preserve"
       style="font-style:normal;font-variant:normal;font-weight:normal;font-stretch:normal;line-height:0%;font-family:Lavi;-inkscape-font-specification:Lavi;text-align:center;letter-spacing:0px;word-spacing:0px;text-anchor:middle;fill:#000000;fill-opacity:1;stroke:none"
       x="393.138"
       y="1222.8932"
       id="text4246-6"><tspan
         sodipodi:role="line"
         style="font-size:45px;line-height:1.25"
         x="393.138"
         y="1222.8932"
         id="tspan3366">La Shichimi ens</tspan><tspan
         sodipodi:role="line"
         style="font-size:45px;line-height:1.25"
         x="393.138"
         y="1279.1432"
         id="tspan3047">dirà com unir-nos a</tspan><tspan
         sodipodi:role="line"
         style="font-size:45px;line-height:1.25"
         x="393.138"
         y="1335.3932"
         id="tspan3368">les bruixes de Ah.</tspan></text>
    <text
       xml:space="preserve"
       style="font-style:normal;font-variant:normal;font-weight:normal;font-stretch:normal;line-height:0%;font-family:Lavi;-inkscape-font-specification:Lavi;text-align:center;letter-spacing:0px;word-spacing:0px;text-anchor:middle;fill:#000000;fill-opacity:1;stroke:none"
       x="2064.3931"
       y="1539.0598"
       id="text4246-6-9"><tspan
         sodipodi:role="line"
         style="font-size:45px;line-height:1.25"
         x="2064.3931"
         y="1539.0598"
         id="tspan3388">Carrot, treu la brúixola</tspan><tspan
         sodipodi:role="line"
         style="font-size:45px;line-height:1.25"
         x="2064.3931"
         y="1595.3098"
         id="tspan3058">i el mapa. Està massa</tspan><tspan
         sodipodi:role="line"
         style="font-size:45px;line-height:1.25"
         x="2064.3931"
         y="1651.5598"
         id="tspan3060">ennuvolat per veure</tspan><tspan
         sodipodi:role="line"
         style="font-size:45px;line-height:1.25"
         x="2064.3931"
         y="1707.8098"
         id="tspan3062">per on vaig.</tspan></text>
    <text
       xml:space="preserve"
       style="font-style:normal;font-variant:normal;font-weight:normal;font-stretch:normal;line-height:0%;font-family:Lavi;-inkscape-font-specification:Lavi;text-align:center;letter-spacing:0px;word-spacing:0px;text-anchor:middle;fill:#000000;fill-opacity:1;stroke:none"
       x="1949.7035"
       y="1557.4618"
       id="text4246-6-9-6"><tspan
         sodipodi:role="line"
         style="font-size:45px;line-height:1.25"
         x="1957.6136"
         y="1557.4618"
         id="tspan4297"> </tspan></text>
    <text
       xml:space="preserve"
       style="font-style:normal;font-variant:normal;font-weight:normal;font-stretch:normal;line-height:0%;font-family:Lavi;-inkscape-font-specification:Lavi;text-align:center;letter-spacing:0px;word-spacing:0px;text-anchor:middle;fill:#000000;fill-opacity:1;stroke:#000000;stroke-width:2.4000001;stroke-miterlimit:4;stroke-dasharray:none;stroke-opacity:1"
       x="1287.1543"
       y="2725.4075"
       id="text4246-6-9-0"
       transform="matrix(0.92763131,0,-0.05816983,1.0780145,0,0)"><tspan
         sodipodi:role="line"
         style="font-size:59.70701599px;line-height:1.25;stroke:#000000;stroke-width:2.4000001;stroke-miterlimit:4;stroke-dasharray:none;stroke-opacity:1"
         x="1287.1543"
         y="2725.4075"
         id="tspan4305-5">Òspita!</tspan></text>
    <text
       xml:space="preserve"
       style="font-style:normal;font-variant:normal;font-weight:normal;font-stretch:normal;line-height:0%;font-family:Lavi;-inkscape-font-specification:Lavi;text-align:center;letter-spacing:0px;word-spacing:0px;text-anchor:middle;fill:#000000;fill-opacity:1;stroke:none"
       x="1160.9348"
       y="3045.748"
       id="text4246-6-9-8"><tspan
         sodipodi:role="line"
         style="font-size:45px;line-height:1.25"
         x="1160.9348"
         y="3045.748"
         id="tspan4395">Turbulències!</tspan></text>
    <text
       xml:space="preserve"
       style="font-style:normal;font-variant:normal;font-weight:normal;font-stretch:normal;line-height:0%;font-family:Lavi;-inkscape-font-specification:Lavi;text-align:center;letter-spacing:0px;word-spacing:0px;text-anchor:middle;fill:#000000;fill-opacity:1;stroke:#000000;stroke-width:2.4000001;stroke-miterlimit:4;stroke-dasharray:none;stroke-opacity:1"
       x="2009.1207"
       y="2958.6228"
       id="text4246-6-9-8-8"
       transform="matrix(0.95440174,0,-0.25660426,1.0477768,0,0)"><tspan
         sodipodi:role="line"
         style="font-size:42.94808197px;line-height:1.25;stroke:#000000;stroke-width:2.4000001;stroke-miterlimit:4;stroke-dasharray:none;stroke-opacity:1"
         x="2009.1207"
         y="2958.6228"
         id="tspan4395-0">AGAFA'T!</tspan></text>
    <text
       xml:space="preserve"
       style="font-style:normal;font-variant:normal;font-weight:normal;font-stretch:normal;line-height:0%;font-family:Lavi;-inkscape-font-specification:Lavi;text-align:center;letter-spacing:0px;word-spacing:0px;text-anchor:middle;fill:#000000;fill-opacity:1;stroke:none"
       x="1720.8666"
       y="3392.7578"
       id="text4246-6-9-0-4"
       transform="matrix(0.95609098,-0.27508698,0.05700764,1.0295233,0,0)"><tspan
         sodipodi:role="line"
         style="font-size:59.70701599px;line-height:1.25;stroke:#000000;stroke-width:4.24583244;stroke-miterlimit:4;stroke-dasharray:none;stroke-opacity:1"
         x="1720.8666"
         y="3392.7578"
         id="tspan4305-5-1">Oh no!!!</tspan></text>
    <path
       style="color:#000000;display:inline;overflow:visible;visibility:visible;fill:#ffffff;fill-opacity:1;fill-rule:nonzero;stroke:none;stroke-width:1px;marker:none;enable-background:accumulate"
       d="m 1971.4344,2976.0041 c -2.8344,-2.7596 17.6625,-50.4745 17.6625,-50.4745 0,0 0.362,-14.576 1.0191,-17.668 7.9691,-5.303 20.5629,-9.8345 20.5629,-9.8345 l -1.9493,-38.8861 -7.2418,31.926 -20.2953,2.7706 -1.7964,23.9372 -36.789,19.3605 z"
       id="path4448"
       inkscape:connector-curvature="0"
       sodipodi:nodetypes="cccccccccc" />
    <text
       xml:space="preserve"
       style="font-style:normal;font-variant:normal;font-weight:normal;font-stretch:normal;line-height:0%;font-family:Lavi;-inkscape-font-specification:Lavi;letter-spacing:0px;word-spacing:0px;fill:#ffffff;fill-opacity:1;stroke:#98b9ca;stroke-width:0.99236238;stroke-miterlimit:4;stroke-dasharray:none;stroke-opacity:1;filter:url(#filter4375-4-1-1-1-9-5)"
       x="787.65729"
       y="1584.5073"
       id="text4580-6"
       transform="matrix(1.1343276,-0.33045224,-0.48810103,1.5185556,1532.754,67.643285)"><tspan
         sodipodi:role="line"
         id="tspan4582-1"
         x="787.65729"
         y="1584.5073"
         style="font-size:70px;line-height:1.25;fill:#ffffff;fill-opacity:1;stroke:#98b9ca;stroke-opacity:1"><tspan
           style="font-size:93.14950562px;fill:#ffffff;fill-opacity:1;stroke:#98b9ca;stroke-opacity:1"
           id="tspan4315">BrrOoooOoo!</tspan><tspan
           style="font-size:114.73223114px;fill:#ffffff;fill-opacity:1;stroke:#98b9ca;stroke-opacity:1"
           id="tspan4313">!</tspan></tspan></text>
  </g>
</svg>
