<?xml version="1.0" encoding="UTF-8" standalone="no"?>
<!-- Created with Inkscape (http://www.inkscape.org/) -->

<svg
   id="svg2"
   version="1.1"
   inkscape:version="1.2.2 (b0a8486541, 2022-12-01)"
   width="2481"
   height="3503"
   sodipodi:docname="E36P11.svg"
   xmlns:inkscape="http://www.inkscape.org/namespaces/inkscape"
   xmlns:sodipodi="http://sodipodi.sourceforge.net/DTD/sodipodi-0.dtd"
   xmlns:xlink="http://www.w3.org/1999/xlink"
   xmlns="http://www.w3.org/2000/svg"
   xmlns:svg="http://www.w3.org/2000/svg"
   xmlns:rdf="http://www.w3.org/1999/02/22-rdf-syntax-ns#"
   xmlns:cc="http://creativecommons.org/ns#"
   xmlns:dc="http://purl.org/dc/elements/1.1/">
  <metadata
     id="metadata8">
    <rdf:RDF>
      <cc:Work
         rdf:about="">
        <dc:format>image/svg+xml</dc:format>
        <dc:type
           rdf:resource="http://purl.org/dc/dcmitype/StillImage" />
        <dc:title />
      </cc:Work>
    </rdf:RDF>
  </metadata>
  <defs
     id="defs6" />
  <sodipodi:namedview
     pagecolor="#1e1e1e"
     bordercolor="#111111"
     borderopacity="1"
     objecttolerance="10"
     gridtolerance="10"
     guidetolerance="10"
     inkscape:pageopacity="0"
     inkscape:pageshadow="2"
     inkscape:window-width="1888"
     inkscape:window-height="1144"
     id="namedview4"
     showgrid="false"
     inkscape:zoom="0.46000002"
     inkscape:cx="1073.913"
     inkscape:cy="997.82604"
     inkscape:window-x="32"
     inkscape:window-y="0"
     inkscape:window-maximized="1"
     inkscape:current-layer="layer1"
     inkscape:pagecheckerboard="0"
     inkscape:snap-global="false"
     inkscape:showpageshadow="0"
     inkscape:deskcolor="#1e1e1e" />
  <g
     inkscape:groupmode="layer"
     id="layer2"
     inkscape:label="artwork"
     sodipodi:insensitive="true">
    <image
       xlink:href="../gfx_Pepper-and-Carrot_by-David-Revoy_E36P11.png"
       y="0"
       x="0"
       id="image10"
       height="3503"
       width="2481" />
  </g>
  <g
     inkscape:groupmode="layer"
     id="layer3"
     inkscape:label="speechbubbles"
     style="display:inline">
    <path
       style="color:#000000;display:inline;overflow:visible;visibility:visible;fill:#ffffff;fill-opacity:1;fill-rule:nonzero;stroke:none;stroke-width:0.686942px;marker:none;enable-background:accumulate"
       d="m 380.21575,282.95177 c -40.85988,21.41551 -90.71882,17.53589 -136.2777,16.52247 -47.57222,-3.44423 -104.12502,-16.67254 -125.64175,-58.54734 -20.095284,-38.78476 2.34968,-87.11707 45.25921,-105.22628 39.36913,-16.98124 84.6375,-18.66814 127.65701,-19.46171 55.85549,1.16875 117.20833,32.33519 125.86546,84.58625 4.71292,30.58574 -10.64437,62.20135 -36.86223,82.12661 z"
       id="path4040-40"
       inkscape:connector-curvature="0"
       sodipodi:nodetypes="zssssz" />
    <path
       style="color:#000000;display:inline;overflow:visible;visibility:visible;fill:#ffffff;fill-opacity:1;fill-rule:nonzero;stroke:none;stroke-width:0.861293px;marker:none;enable-background:accumulate"
       d="m 621.58316,105.88672 c -25.28107,0.48289 -51.13999,1.99485 -74.90548,10.55273 -17.82399,6.28483 -33.84945,17.59434 -43.35719,32.88401 -9.97501,15.11503 -14.09753,32.66921 -16.64317,49.9598 -3.46993,20.5909 -5.04759,42.02901 1.06324,62.34728 9.37805,29.028 37.27437,51.93542 69.49658,58.49046 42.15961,10.88095 87.38151,13.37614 130.22275,4.25676 24.56651,-5.64189 48.42541,-15.47968 67.45798,-30.96068 12.83271,-11.91714 18.88507,-28.63021 20.25376,-45.0154 2.75287,-25.0214 3.30261,-50.80265 -4.46801,-75.17205 -7.39835,-22.85714 -27.20762,-41.60583 -51.2598,-50.51416 -18.66746,-7.20666 -38.64512,-10.9992 -58.54541,-14.11157 -12.99413,-1.87992 -26.156,-2.85024 -39.31525,-2.71718 z"
       id="path3365-90"
       inkscape:connector-curvature="0"
       sodipodi:nodetypes="csssssc" />
    <path
       style="color:#000000;display:inline;overflow:visible;visibility:visible;fill:#ffffff;fill-opacity:1;fill-rule:nonzero;stroke:none;stroke-width:1.11303px;marker:none;enable-background:accumulate"
       d="m 841.7647,253.23429 c 0.78779,-53.37318 16.13361,-103.84716 152.1711,-102.10038 102.0016,1.30895 129.1652,42.43199 131.4251,96.38138 1.5927,38.01967 -53.5909,73.2116 -141.22776,71.34686 -83.76403,-1.78194 -136.2426,-24.9245 -142.36844,-65.62786 z"
       id="path5026-3"
       inkscape:connector-curvature="0"
       sodipodi:nodetypes="csssc" />
    <path
       style="color:#000000;display:inline;overflow:visible;visibility:visible;fill:#ffffff;fill-opacity:1;fill-rule:nonzero;stroke:none;stroke-width:1.06703px;marker:none;enable-background:accumulate"
       d="m 958.1944,309.83323 c -43.34053,0.0194 -52.18434,75.22752 -14.63328,128.2568 -16.5114,-21.59304 -72.61174,-61.13455 -7.77479,-172.66812 29.32893,-50.45175 14.74185,29.39163 14.74185,29.39163 z"
       id="path4035-4"
       inkscape:connector-curvature="0"
       sodipodi:nodetypes="ccscc" />
    <path
       style="color:#000000;display:inline;overflow:visible;visibility:visible;fill:#ffffff;fill-opacity:1;fill-rule:nonzero;stroke:none;stroke-width:0.991784px;marker:none;enable-background:accumulate"
       d="m 986.0449,1113.6219 c -33.08889,0.9367 -66.64617,6.3233 -95.47682,19.1929 -20.52801,10.0963 -33.71645,27.2786 -39.04333,45.2382 -9.94268,31.4944 -13.39083,64.526 -6.4445,96.6097 2.9504,13.092 7.41225,26.1396 15.2355,38.0541 5.2052,7.5314 13.16708,13.9649 23.01718,17.9977 13.35789,6.0693 27.81823,10.5469 42.25958,14.8492 28.56814,7.7854 58.93509,10.6058 89.03919,12.1892 14.2258,0.6755 28.4857,-0.6169 42.327,-3.1194 18.0829,-3.2297 35.6568,-8.0302 52.6277,-13.7644 22.3897,-8.1027 43.3573,-20.0141 55.98,-36.6251 12.3364,-16.1689 16.3134,-35.0601 18.1458,-53.4685 2.6018,-23.9167 1.6285,-48.6067 -8.9453,-71.4317 -9.6588,-20.1701 -29.8206,-37.3453 -55.3642,-46.3774 -29.7481,-11.0426 -62.8135,-15.0747 -95.3449,-18.0514 -12.617,-1.0188 -25.32589,-1.5488 -38.0129,-1.2931 z"
       id="path3365-90-4"
       inkscape:connector-curvature="0"
       sodipodi:nodetypes="csssssc" />
    <path
       style="fill:#ffffff;fill-rule:evenodd;stroke:none;stroke-width:1.18884px;stroke-linecap:butt;stroke-linejoin:miter;stroke-opacity:1"
       d="m 1017.7381,1113.2387 c -7.0579,-18.4075 1.4646,-58.4739 28.7582,-72.4342 -20.0938,4.5574 -50.54068,19.6541 -55.30478,46.5586 -7.4355,41.9896 24.81678,27.8537 24.81678,27.8537 z"
       id="path4248"
       inkscape:connector-curvature="0"
       sodipodi:nodetypes="ccscc" />
    <path
       style="color:#000000;display:inline;overflow:visible;visibility:visible;fill:#ffffff;fill-opacity:1;fill-rule:nonzero;stroke:none;stroke-width:1.62179px;marker:none;enable-background:accumulate"
       d="m 1794.5616,1162.7593 c -62.246,1.2504 -124.2802,5.9054 -186.1318,11.2584 -27.0838,2.707 -55.2191,6.0999 -78.6523,17.743 -35.7522,17.7334 -59.3303,49.96 -58.7283,83.0804 -1.3094,24.6175 3.7794,50.5164 21.966,71.2422 19.6776,22.045 52.1013,35.77 85.6687,40.4528 46.3878,7.5176 93.8289,9.6759 140.5414,15.6091 74.0677,7.7288 147.9626,17.021 222.5617,21.1463 72.519,2.339 144.9025,-8.3822 213.3989,-26.3977 29.2097,-6.9604 59.2052,-14.8978 82.5741,-30.7916 22.4629,-15.0794 35.3661,-37.7544 36.7032,-60.6448 2.9292,-22.744 0.7796,-46.4268 -10.85,-67.638 -10.6108,-17.5971 -30.242,-31.4705 -53.1891,-38.992 -32.4415,-11.8597 -67.9737,-16.9804 -102.8781,-22.4383 -61.8109,-8.7229 -124.7508,-10.846 -187.4431,-11.6758 -41.8406,-0.8502 -83.6797,-2.036 -125.5413,-1.954 z"
       id="path4546-6-5"
       inkscape:connector-curvature="0"
       sodipodi:nodetypes="cssssc" />
    <path
       style="color:#000000;display:inline;overflow:visible;visibility:visible;fill:#ffffff;fill-opacity:1;fill-rule:nonzero;stroke:none;stroke-width:1.01377px;marker:none;enable-background:accumulate"
       d="m 1701.0731,1378.7198 c -15.3317,0.7686 -30.8555,1.5531 -45.8137,6.4878 -18.8751,6.7228 -36.616,21.5376 -46.3696,43.0811 -6.7424,15.3973 -7.1096,34.7592 -0.4623,49.9925 7.237,17.3844 20.6701,29.2546 34.6547,37.5218 22.7995,13.303 48.3548,17.0248 73.3827,19.2006 30.323,2.4153 60.7742,1.7256 91.1664,2.3266 57.4767,0.3822 114.9998,1.051 172.4833,-2.7314 22.054,-1.8246 44.2406,-4.3611 65.7544,-11.3215 15.9327,-5.5469 31.8473,-14.8541 42.6403,-30.9849 11.8455,-18.2228 14.2881,-44.8387 5.7753,-65.318 -7.1567,-18.297 -21.1325,-31.6625 -36.8458,-37.2899 -33.509,-14.7003 -69.8711,-19.0046 -105.4424,-14.3817 -21.8819,2.5405 -43.8374,6.3149 -65.7999,4.5964 -24.7165,-1.2172 -49.4003,-3.4825 -74.1761,-3.1143 -35.7098,-0.3109 -71.436,0.9637 -107.1533,1.7698 -1.2647,0.055 -2.5293,0.1102 -3.794,0.1654 z"
       id="path4546-6-5-7-9"
       inkscape:connector-curvature="0"
       sodipodi:nodetypes="cssssc" />
    <path
       style="color:#000000;display:inline;overflow:visible;visibility:visible;fill:#ffffff;fill-opacity:1;fill-rule:nonzero;stroke:none;stroke-width:1.16782px;marker:none;enable-background:accumulate"
       d="m 1834.6759,1063.9074 c -58.4661,16.7056 -74.2086,55.188 -42.9987,96.676 31.21,41.487 10.2962,43.1429 10.2962,43.1429 l -38.5277,-15.376 c 0,0 -61.7873,-122.5503 71.2302,-124.4429 z"
       id="path3072-56"
       inkscape:connector-curvature="0"
       sodipodi:nodetypes="ccccc" />
    <path
       style="color:#000000;display:inline;overflow:visible;visibility:visible;fill:#ffffff;fill-opacity:1;fill-rule:nonzero;stroke:none;stroke-width:0.531213px;marker:none;enable-background:accumulate"
       d="m 158.48854,1627.5134 c 13.03968,-13.7787 173.89537,-23.5914 211.05478,7.571 25.89645,21.7169 15.90638,63.3637 -6.29018,74.2047 -22.19657,10.8417 -129.36004,13.8952 -159.81775,8.3737 -27.38917,-4.9645 -56.13819,-15.6511 -57.65388,-44.0939 -0.6186,-11.6083 -0.33265,-32.2773 12.70703,-46.0555 z"
       id="path4040-5"
       inkscape:connector-curvature="0"
       sodipodi:nodetypes="zssssz" />
    <path
       style="color:#000000;display:inline;overflow:visible;visibility:visible;fill:#ffffff;fill-opacity:1;fill-rule:nonzero;stroke:none;stroke-width:0.791779px;marker:none;enable-background:accumulate"
       d="m 233.22496,1712.5896 c 17.72695,-22.517 236.40418,-38.5528 286.921,12.3724 35.20525,35.4896 21.62412,103.5483 -8.55126,121.2646 -30.1754,17.7174 -175.86009,22.7074 -217.26619,13.6842 -37.23455,-8.1128 -76.31776,-25.5768 -78.37828,-72.0577 -0.84094,-18.9703 -0.45222,-52.7473 17.27473,-75.2635 z"
       id="path4040-5-3"
       inkscape:connector-curvature="0"
       sodipodi:nodetypes="zssssz" />
    <path
       style="color:#000000;display:inline;overflow:visible;visibility:visible;fill:#ffffff;fill-opacity:1;fill-rule:nonzero;stroke:none;stroke-width:0.855677px;marker:none;enable-background:accumulate"
       d="m 467.32955,1948.136 c 13.3495,-41.5666 52.33232,-60.4288 7.51958,-104.8642 -33.47159,-33.1897 12.91326,-29.7973 12.91326,-29.7973 0,0 5.02259,-41.3782 24.01835,27.0751 18.99576,68.4534 -9.8869,64.3755 -44.45119,107.5864 z"
       id="path3072-6"
       inkscape:connector-curvature="0"
       sodipodi:nodetypes="csczc" />
    <path
       style="fill:#ffffff;stroke:none;stroke-width:1.10682"
       d="m 631.53123,1732.5597 c -11.92593,-78.0859 75.2576,-117.5793 139.38317,-115.0588 94.3566,-8.8811 189.81227,-5.4524 283.8584,4.5622 70.6741,11.0014 115.9491,96.1945 76.3958,159.5593 -44.8349,65.6694 -132.80808,57.7952 -202.10404,64.2769 -80.63089,1.7845 -164.90747,-0.036 -240.53752,-31.076 -29.87331,-17.0301 -49.46549,-48.7654 -56.99581,-82.2636 z"
       id="path3286-6"
       inkscape:connector-curvature="0"
       sodipodi:nodetypes="csssssssc" />
    <path
       style="fill:#ffffff;stroke:none;stroke-width:1.03472"
       d="m 619.18784,1889.6394 c -13.01683,-62.5252 82.14156,-94.1485 152.13281,-92.1302 102.98759,-7.1113 207.17482,-4.366 309.82345,3.6529 77.1388,8.8092 126.5552,77.0253 83.3839,127.7629 -48.9361,52.5831 -144.9562,46.278 -220.59085,51.468 -88.00633,1.4289 -179.99194,-0.029 -262.53998,-24.8832 -32.60587,-13.6363 -53.9902,-39.0476 -62.20933,-65.8704 z"
       id="path3286-6-7"
       inkscape:connector-curvature="0"
       sodipodi:nodetypes="csssssssc" />
    <path
       style="fill:#ffffff;stroke:none;stroke-width:0.835231"
       d="m 732.86459,1988.2364 c -3.51573,-53.9327 71.56051,-81.2101 124.22701,-79.4692 78.51387,-6.134 156.938,-3.7659 233.6672,3.151 57.3795,7.5985 87.8161,66.44 50.0791,110.205 -42.2782,45.3569 -114.1735,39.9181 -171.83111,44.3951 -66.62314,1.2324 -135.96052,-0.025 -195.80508,-21.4638 -23.25234,-11.7623 -36.83844,-33.6814 -40.33712,-56.8181 z"
       id="path3286-6-7-4"
       inkscape:connector-curvature="0"
       sodipodi:nodetypes="csssssssc" />
    <path
       style="fill:#ffffff;stroke:none;stroke-width:0.755494"
       d="m 1556.1078,2263.7186 c -40.5776,0.9856 -81.571,1.4285 -121.3541,8.2171 -23.4836,5.0646 -46.516,14.6572 -60.3222,30.3859 -12.0378,15.0743 -10.4346,34.6485 0.032,49.9505 8.638,14.5227 26.7065,25.5007 47.2516,28.7663 46.3375,10.8118 95.2925,11.8471 143.394,11.8441 44.0679,-0.2085 88.1393,-2.118 131.9173,-5.9578 24.2957,-2.6624 49.3393,-8.0568 67.8913,-20.8645 22.4519,-15.4056 32.2393,-41.4194 21.0864,-63.0951 -7.7078,-14.8343 -25.3174,-25.8059 -45.0785,-30.5955 -20.8526,-5.1627 -43.0509,-4.7949 -64.6804,-6.0981 -39.6502,-1.8463 -79.3882,-3.227 -119.119,-2.5776 -0.3394,0.011 -0.6788,0.016 -1.0182,0.025 z"
       id="path3286-6-7-4-2-5"
       inkscape:connector-curvature="0"
       sodipodi:nodetypes="csssssssc" />
    <path
       style="display:inline;fill:#ffffff;stroke:none;stroke-width:1.01613"
       d="m 1576.6393,2336.9936 c -40.969,1.7659 -82.358,2.5593 -122.5249,14.7227 -23.7103,9.0742 -46.9649,26.2616 -60.9043,54.4429 -12.154,27.0089 -10.5353,62.0803 0.032,89.4972 8.7213,26.0206 26.9642,45.69 47.7075,51.541 46.7846,19.3717 96.212,21.2267 144.7775,21.2214 44.4932,-0.3736 88.9898,-3.795 133.1902,-10.6747 24.5301,-4.7703 49.8153,-14.4355 68.5464,-37.3833 22.6685,-27.6025 32.5503,-74.2119 21.2899,-113.0486 -7.7823,-26.5789 -25.5617,-46.2369 -45.5136,-54.8185 -21.0537,-9.2502 -43.4662,-8.5912 -65.3044,-10.926 -40.0328,-3.3081 -80.1543,-5.782 -120.2684,-4.6184 -0.3426,0.02 -0.6853,0.029 -1.0279,0.045 z"
       id="path3286-6-7-4-2-5-3"
       inkscape:connector-curvature="0"
       sodipodi:nodetypes="csssssssc" />
    <path
       style="color:#000000;display:inline;overflow:visible;visibility:visible;fill:#ffffff;fill-opacity:1;fill-rule:nonzero;stroke:none;stroke-width:1.03365px;marker:none;enable-background:accumulate"
       d="m 1109.0561,1984.7544 c -8.1997,41.8065 59.3043,70.6591 115.2035,48.7714 -22.9931,10.09 -81.6027,63.8105 -171.9044,-28.8625 -40.8476,-41.9203 41.4313,-16.5735 41.4313,-16.5735 z"
       id="path4035-4-5"
       inkscape:connector-curvature="0"
       sodipodi:nodetypes="ccscc" />
    <path
       style="color:#000000;display:inline;overflow:visible;visibility:visible;fill:#ffffff;fill-opacity:1;fill-rule:nonzero;stroke:none;stroke-width:1.14715px;marker:none;enable-background:accumulate"
       d="m 1640.0206,2360.0065 c 85.321,-69.4317 155.0537,-160.9776 126.0876,-275.9291 50.0818,114.8531 -29.8722,233.4391 -50.2498,258.0963 -21.5049,26.0213 -75.8378,17.8328 -75.8378,17.8328 z"
       id="path4008-7"
       inkscape:connector-curvature="0"
       sodipodi:nodetypes="ccsc" />
    <path
       style="color:#000000;display:inline;overflow:visible;visibility:visible;fill:#ffffff;fill-opacity:1;fill-rule:nonzero;stroke:none;stroke-width:0.877476px;marker:none;enable-background:accumulate"
       d="m 2010.6149,2481.5298 c 2.1024,-54.303 38.0713,-94.2785 133.4707,-84.7482 51.1011,5.1058 109.084,8.2785 106.5959,87.8248 -2.488,79.5464 -85.7779,78.0975 -102.9356,80.0803 -17.1575,1.9828 -106.8119,-5.7151 -122.9057,-32.6526 -10.0744,-16.8627 -14.2332,-33.6902 -14.2253,-50.5043 z"
       id="path4546-6-89"
       inkscape:connector-curvature="0"
       sodipodi:nodetypes="cssssc" />
    <path
       style="fill:#ffffff;fill-rule:evenodd;stroke:none;stroke-width:1px;stroke-linecap:butt;stroke-linejoin:miter;stroke-opacity:1"
       d="m 2127.4405,2420.4639 c 0,0 -20.8561,-32.9672 -21.8804,-43.1562 -1.0243,-10.189 2.4576,-31.6896 11.9397,-43.6552 -22.2118,19.0145 -28.0641,35.9803 -27.9104,44.0276 0.1532,8.0482 12.5159,40.8376 12.5159,40.8376 z"
       id="path1367"
       inkscape:connector-curvature="0"
       inkscape:transform-center-x="-1.8067567"
       inkscape:transform-center-y="-52.12792"
       sodipodi:nodetypes="cscscc" />
    <path
       style="color:#000000;display:inline;overflow:visible;visibility:visible;fill:#ffffff;fill-opacity:1;fill-rule:nonzero;stroke:none;stroke-width:0.942339px;marker:none;enable-background:accumulate"
       d="m 344.6648,2688.4878 c -50.60513,0.5708 -102.02477,2.3063 -150.91773,20.2949 -24.12609,9.316 -47.03358,27.3632 -60.49879,54.6 -12.11064,24.5018 -15.32361,56.6281 -5.42591,83.1112 8.75364,24.5329 27.61742,42.3971 48.51963,47.9668 28.10941,10.2056 57.1283,15.7397 86.0694,20.7786 78.01441,12.397 157.66238,11.9336 235.13485,-5.7705 21.85061,-5.1737 43.84218,-13.5905 61.78001,-30.5738 14.41973,-13.2844 26.04566,-32.3192 29.75511,-54.5101 6.32949,-33.8827 -2.58454,-72.679 -24.7921,-94.5648 -16.09266,-15.7188 -36.4584,-21.9881 -56.17009,-26.5667 -32.93369,-7.3205 -66.38948,-9.7106 -99.71042,-12.6139 -21.2265,-1.4372 -42.48493,-2.2507 -63.74396,-2.1517 z"
       id="path4546-7"
       inkscape:connector-curvature="0"
       sodipodi:nodetypes="cssssc" />
    <path
       style="color:#000000;display:inline;overflow:visible;visibility:visible;fill:#ffffff;fill-opacity:1;fill-rule:nonzero;stroke:none;stroke-width:1.40032px;marker:none;enable-background:accumulate"
       d="m 307.29186,2854.126 c -43.51454,0.947 -87.51804,7.1358 -126.15786,29.8465 -23.71094,14.3248 -44.9416,36.8687 -55.88177,68.1103 -10.44392,29.0366 -12.74107,64.6994 -2.65941,96.9959 6.41472,21.2583 16.50702,41.412 30.01574,56.8473 13.76182,13.4444 30.23442,19.9621 46.15821,26.1617 34.61154,12.5691 69.94307,18.015 105.04456,22.4216 27.41805,3.1582 54.86482,5.5437 82.17545,5.7451 23.68984,-0.6321 47.28153,-2.4979 70.6301,-5.8564 31.95021,-5.0037 63.8032,-14.4712 90.90974,-35.1725 18.91008,-14.7567 34.90305,-37.0137 40.76995,-65.5171 5.78944,-27.582 3.8555,-58.2218 -3.4621,-86.68 -6.99762,-25.7348 -21.51999,-48.6081 -39.78577,-63.0165 -25.80312,-21.1151 -55.49941,-29.5681 -84.32652,-35.5712 -35.92351,-7.2645 -71.91766,-9.6656 -107.85209,-13.027 -15.22412,-1.0527 -30.43067,-1.5321 -45.57823,-1.2877 z"
       id="path4546-6-5-4"
       inkscape:connector-curvature="0"
       sodipodi:nodetypes="cssssc" />
    <path
       style="color:#000000;display:inline;overflow:visible;visibility:visible;fill:#ffffff;fill-opacity:1;fill-rule:nonzero;stroke:none;stroke-width:0.94912px;marker:none;enable-background:accumulate"
       d="m 570.40008,2788.5105 c 0.70291,-20.5931 2.79564,-98.204 79.29359,-67.917 -12.96153,-15.3177 -101.3034,-57.4847 -117.55274,67.9555 -4.05901,31.3344 6.93857,21.4416 13.2428,23.8225 6.30431,2.3809 25.01635,-23.861 25.01635,-23.861 z"
       id="path4064-5"
       inkscape:connector-curvature="0"
       sodipodi:nodetypes="ccszc" />
    <path
       style="fill:#ffffff;stroke:none;stroke-width:0.768141"
       d="m 1428.2655,2662.0926 c -58.0834,0.9233 -116.4207,3.0072 -173.7921,13.7868 -21.6537,4.2349 -43.7905,9.6729 -62.5697,22.854 -10.8392,7.6153 -19.9068,18.2822 -25.6919,30.9504 -9.8145,20.4817 -13.465,44.1433 -12.168,67.129 1.5475,22.6463 9.6362,45.3697 24.9897,60.9924 16.187,16.9557 37.5172,26.3212 58.7831,32.6695 28.4791,8.2434 58.0132,10.5336 87.3193,12.1032 42.5132,1.8442 85.0683,0.5955 127.5836,-0.4765 47.6957,-1.6962 95.7728,-5.1368 142.1115,-18.4821 21.9735,-6.6438 43.9821,-15.6931 61.8116,-31.7281 11.4895,-10.6908 20.4328,-25.6331 21.9003,-42.3978 1.8775,-16.1243 0.4311,-32.522 -2.4126,-48.399 -4.771,-22.5265 -16.7899,-43.304 -34.0438,-56.7029 -21.0175,-17.2682 -46.6649,-25.7704 -72.0536,-31.476 -37.8081,-8.2674 -76.4631,-10.2803 -114.9198,-10.915 -8.9497,-0.1186 -17.8986,-0.073 -26.8476,0.092 z"
       id="path3280-8-0"
       inkscape:connector-curvature="0"
       sodipodi:nodetypes="csssc" />
    <path
       style="color:#000000;display:inline;overflow:visible;visibility:visible;fill:#ffffff;fill-opacity:1;fill-rule:nonzero;stroke:none;stroke-width:1px;marker:none;enable-background:accumulate"
       d="m 1190.5649,2938.1193 c 71.9512,20.8726 126.9981,-3.0998 138.6013,-80.4717 29.2254,-33.921 39.4944,-8.1295 39.4944,-8.1295 0,0 9.6333,15.8558 9.2,26.1866 -1.6876,40.2341 -97.4111,114.3526 -187.2957,62.4146 z"
       id="path3072-7"
       inkscape:connector-curvature="0"
       sodipodi:nodetypes="cccsc" />
    <path
       style="fill:#ffffff;fill-rule:evenodd;stroke:none;stroke-width:1px;stroke-linecap:butt;stroke-linejoin:miter;stroke-opacity:1"
       d="m 611.87816,457.91854 c -12.3953,-22.626 4.8341,-35.579 4.6846,-49.244 -0.1543,-14.107 -33.2797,-25.956 -34.0153,-39.032 -0.7356,-13.076 20.5032,-26.957 19.032,-47.388 -1.4712,-20.432 -25.011,-24.518 -22.8041,-0.818 2.2069,23.701 -15.6571,27.839 -11.7699,46.584 6.483,31.261 30.8848,30.638 38.523,39.431 5.057,5.822 -4.6847,18.594 -2.4778,32.487 2.2069,13.894 8.8275,17.98 8.8275,17.98 z"
       id="path4272-2"
       inkscape:connector-curvature="0"
       sodipodi:nodetypes="csssssssc" />
    <path
       style="display:inline;fill:#ffffff;stroke:none;stroke-width:0.877336"
       d="M 395.5572,452.67668 C 407.56611,407.77396 413.32098,333.81277 360.54542,296.86263 333.08948,277.6397 320.11233,262.96148 320.11233,262.96148 l 22.24546,-19.14958 c 105.35115,77.35453 72.21397,163.85407 53.19941,208.86478 z"
       id="path3063-1-0"
       inkscape:connector-curvature="0"
       sodipodi:nodetypes="csccc" />
  </g>
  <g
     inkscape:groupmode="layer"
     id="layer1"
     inkscape:label="txt">
    <text
       id="text4246-4-2-7"
       y="203.26941"
       x="271.11429"
       style="font-style:normal;font-variant:normal;font-weight:normal;font-stretch:normal;line-height:0%;font-family:Lavi;-inkscape-font-specification:Lavi;text-align:center;letter-spacing:0px;word-spacing:0px;text-anchor:middle;fill:#000000;fill-opacity:1;stroke:none"
       xml:space="preserve"><tspan
         y="203.26941"
         x="271.11429"
         style="font-size:45px;line-height:1.25;fill:#000000"
         sodipodi:role="line"
         id="tspan2967">Was ist denn </tspan><tspan
         y="259.51941"
         x="271.11429"
         style="font-size:45px;line-height:1.25;fill:#000000"
         sodipodi:role="line"
         id="tspan1032">mit ihr los?</tspan></text>
    <text
       id="text4246-4-2-7-3"
       y="176.08881"
       x="630.43268"
       style="font-style:normal;font-variant:normal;font-weight:normal;font-stretch:normal;line-height:0%;font-family:Lavi;-inkscape-font-specification:Lavi;text-align:center;letter-spacing:0px;word-spacing:0px;text-anchor:middle;fill:#000000;fill-opacity:1;stroke:none"
       xml:space="preserve"><tspan
         y="176.08881"
         x="630.43268"
         style="font-size:45px;line-height:1.25;fill:#000000"
         sodipodi:role="line"
         id="tspan3727">Pepper?</tspan><tspan
         y="232.33881"
         x="630.43268"
         style="font-size:45px;line-height:1.25;fill:#000000"
         sodipodi:role="line"
         id="tspan10316">Alles in </tspan><tspan
         y="288.58881"
         x="630.43268"
         style="font-size:45px;line-height:1.25;fill:#000000"
         sodipodi:role="line"
         id="tspan2068">Ordnung?</tspan></text>
    <text
       id="text4246-4-2-7-3-5"
       y="216.69748"
       x="980.75238"
       style="font-style:normal;font-variant:normal;font-weight:normal;font-stretch:normal;line-height:0%;font-family:Lavi;-inkscape-font-specification:Lavi;text-align:center;letter-spacing:0px;word-spacing:0px;text-anchor:middle;fill:#000000;fill-opacity:1;stroke:none"
       xml:space="preserve"><tspan
         y="216.69748"
         x="980.75238"
         style="font-size:45px;line-height:1.25;fill:#000000"
         sodipodi:role="line"
         id="tspan17268">Ja, mir </tspan><tspan
         y="272.94748"
         x="980.75238"
         style="font-size:45px;line-height:1.25;fill:#000000"
         sodipodi:role="line"
         id="tspan3538">geht's gut.</tspan></text>
    <text
       id="text4246-4-2-7-3-5-2"
       y="1183.0487"
       x="1013.6851"
       style="font-style:normal;font-variant:normal;font-weight:normal;font-stretch:normal;line-height:0%;font-family:Lavi;-inkscape-font-specification:Lavi;text-align:center;letter-spacing:0px;word-spacing:0px;text-anchor:middle;fill:#000000;fill-opacity:1;stroke:none"
       xml:space="preserve"><tspan
         y="1183.0487"
         x="1013.6851"
         style="font-size:45px;line-height:1.25;fill:#000000"
         sodipodi:role="line"
         id="tspan483">Mir ist nur</tspan><tspan
         y="1239.2987"
         x="1013.6851"
         style="font-size:45px;line-height:1.25;fill:#000000"
         sodipodi:role="line"
         id="tspan485">etwas</tspan><tspan
         y="1295.5487"
         x="1013.6851"
         style="font-size:45px;line-height:1.25;fill:#000000"
         sodipodi:role="line"
         id="tspan425">klargeworden.</tspan></text>
    <text
       id="text4246-4-2-7-3-5-2-2"
       y="1243.312"
       x="1876.1265"
       style="font-style:normal;font-variant:normal;font-weight:normal;font-stretch:normal;line-height:0%;font-family:Lavi;-inkscape-font-specification:Lavi;text-align:center;letter-spacing:0px;word-spacing:0px;text-anchor:middle;fill:#000000;fill-opacity:1;stroke:none"
       xml:space="preserve"><tspan
         y="1243.312"
         x="1876.1265"
         style="font-size:45px;line-height:1.25;fill:#000000"
         sodipodi:role="line"
         id="tspan10142">Alles, was passiert ist, war direkt </tspan><tspan
         y="1299.562"
         x="1876.1265"
         style="font-size:45px;line-height:1.25;fill:#000000"
         sodipodi:role="line"
         id="tspan6241">oder indirekt eine Auswirkung meiner </tspan><tspan
         y="1355.812"
         x="1876.1265"
         style="font-size:45px;line-height:1.25;fill:#000000"
         sodipodi:role="line"
         id="tspan6243">Taten, meiner Entscheidungen...</tspan></text>
    <text
       id="text4246-4-2-7-3-5-2-2-6"
       y="1432.2339"
       x="1855.8136"
       style="font-style:normal;font-variant:normal;font-weight:normal;font-stretch:normal;line-height:0%;font-family:Lavi;-inkscape-font-specification:Lavi;text-align:center;letter-spacing:0px;word-spacing:0px;text-anchor:middle;fill:#000000;fill-opacity:1;stroke:none"
       xml:space="preserve"><tspan
         y="1432.2339"
         x="1855.8136"
         style="font-style:normal;font-variant:normal;font-weight:normal;font-stretch:normal;font-size:45px;line-height:1.25;font-family:Lavi;-inkscape-font-specification:Lavi;fill:#000000"
         sodipodi:role="line"
         id="tspan48292">...in anderen Worten, </tspan><tspan
         y="1488.4839"
         x="1855.8136"
         style="font-style:normal;font-variant:normal;font-weight:bold;font-stretch:normal;font-size:45px;line-height:1.25;font-family:Lavi;-inkscape-font-specification:Lavi;fill:#000000"
         sodipodi:role="line"
         id="tspan16620">meine Kettenreaktion!</tspan></text>
    <text
       id="text4246-4-2-7-3-5-2-2-6-7-2"
       y="1679.4132"
       x="256.14807"
       style="font-style:normal;font-variant:normal;font-weight:normal;font-stretch:normal;line-height:0%;font-family:Lavi;-inkscape-font-specification:Lavi;text-align:center;letter-spacing:0px;word-spacing:0px;text-anchor:middle;fill:#000000;fill-opacity:1;stroke:none"
       xml:space="preserve"><tspan
         y="1679.4132"
         x="256.14807"
         style="font-style:normal;font-variant:normal;font-weight:normal;font-stretch:normal;font-size:45px;line-height:1.25;font-family:Lavi;-inkscape-font-specification:Lavi;fill:#000000"
         sodipodi:role="line"
         id="tspan104696-2-8">Wirklich?</tspan></text>
    <text
       id="text4246-4-2-7-3-5-2-2-6-7-2-9"
       y="1764.6151"
       x="378.92795"
       style="font-style:normal;font-variant:normal;font-weight:normal;font-stretch:normal;line-height:0%;font-family:Lavi;-inkscape-font-specification:Lavi;text-align:center;letter-spacing:0px;word-spacing:0px;text-anchor:middle;fill:#000000;fill-opacity:1;stroke:none"
       xml:space="preserve"><tspan
         y="1764.6151"
         x="378.92795"
         style="font-style:normal;font-variant:normal;font-weight:normal;font-stretch:normal;font-size:45px;line-height:1.25;font-family:Lavi;-inkscape-font-specification:Lavi;fill:#000000"
         sodipodi:role="line"
         id="tspan55293">Dass musst </tspan><tspan
         y="1820.8651"
         x="378.92795"
         style="font-style:normal;font-variant:normal;font-weight:normal;font-stretch:normal;font-size:45px;line-height:1.25;font-family:Lavi;-inkscape-font-specification:Lavi;fill:#000000"
         sodipodi:role="line"
         id="tspan7189">du erklären.</tspan></text>
    <text
       id="text4246-4-2-7-3-5-2-2-6-7-2-9-3"
       y="1672.1658"
       x="895.18341"
       style="font-style:normal;font-variant:normal;font-weight:normal;font-stretch:normal;line-height:0%;font-family:Lavi;-inkscape-font-specification:Lavi;text-align:center;letter-spacing:0px;word-spacing:0px;text-anchor:middle;fill:#000000;fill-opacity:1;stroke:none"
       xml:space="preserve"><tspan
         y="1672.1658"
         x="895.18341"
         style="font-style:normal;font-variant:normal;font-weight:normal;font-stretch:normal;font-size:45px;line-height:1.25;font-family:Lavi;-inkscape-font-specification:Lavi;fill:#000000"
         sodipodi:role="line"
         id="tspan72039">Genug geplaudert, </tspan><tspan
         y="1728.4158"
         x="895.18341"
         style="font-style:normal;font-variant:normal;font-weight:normal;font-stretch:normal;font-size:45px;line-height:1.25;font-family:Lavi;-inkscape-font-specification:Lavi;fill:#000000"
         sodipodi:role="line"
         id="tspan7968">wir befinden uns mitten </tspan><tspan
         y="1784.6658"
         x="895.18341"
         style="font-style:normal;font-variant:normal;font-weight:normal;font-stretch:normal;font-size:45px;line-height:1.25;font-family:Lavi;-inkscape-font-specification:Lavi;fill:#000000"
         sodipodi:role="line"
         id="tspan7970">in einem Schlachtfeld.</tspan></text>
    <text
       id="text4246-4-2-7-3-5-2-2-6-7-2-9-3-2"
       y="1864.1902"
       x="908.1106"
       style="font-style:normal;font-variant:normal;font-weight:normal;font-stretch:normal;line-height:0%;font-family:Lavi;-inkscape-font-specification:Lavi;text-align:center;letter-spacing:0px;word-spacing:0px;text-anchor:middle;fill:#000000;fill-opacity:1;stroke:none"
       xml:space="preserve"><tspan
         y="1864.1902"
         x="908.1106"
         style="font-style:normal;font-variant:normal;font-weight:normal;font-stretch:normal;font-size:45px;line-height:1.25;font-family:Lavi;-inkscape-font-specification:Lavi;fill:#000000"
         sodipodi:role="line"
         id="tspan78621">Wir können darüber </tspan><tspan
         y="1920.4402"
         x="908.1106"
         style="font-style:normal;font-variant:normal;font-weight:normal;font-stretch:normal;font-size:45px;line-height:1.25;font-family:Lavi;-inkscape-font-specification:Lavi;fill:#000000"
         sodipodi:role="line"
         id="tspan9110">reden, sobald wir fliegen.</tspan></text>
    <text
       id="text4246-4-2-7-3-5-2-2-6-7-2-9-3-2-9"
       y="2008.9945"
       x="945.51813"
       style="font-style:normal;font-variant:normal;font-weight:normal;font-stretch:normal;line-height:0%;font-family:Lavi;-inkscape-font-specification:Lavi;text-align:center;letter-spacing:0px;word-spacing:0px;text-anchor:middle;fill:#000000;fill-opacity:1;stroke:none"
       xml:space="preserve"><tspan
         y="2008.9945"
         x="945.51813"
         style="font-style:normal;font-variant:normal;font-weight:normal;font-stretch:normal;font-size:45px;line-height:1.25;font-family:Lavi;-inkscape-font-specification:Lavi;fill:#000000"
         sodipodi:role="line"
         id="tspan184397-7">Steig auf, Pepper!</tspan></text>
    <text
       id="text4246-4-2-7-3-5-2-2-6-7-2-9-3-2-9-8"
       y="2333.4099"
       x="1578.2986"
       style="font-style:normal;font-variant:normal;font-weight:normal;font-stretch:normal;line-height:0%;font-family:Lavi;-inkscape-font-specification:Lavi;text-align:center;letter-spacing:0px;word-spacing:0px;text-anchor:middle;fill:#000000;fill-opacity:1;stroke:none"
       xml:space="preserve"><tspan
         y="2333.4099"
         x="1578.2986"
         style="font-style:normal;font-variant:normal;font-weight:normal;font-stretch:normal;font-size:45px;line-height:1.25;font-family:Lavi;-inkscape-font-specification:Lavi;fill:#000000"
         sodipodi:role="line"
         id="tspan189870">Torreya hat recht.</tspan></text>
    <text
       id="text4246-4-2-7-3-5-2-2-6-7-2-9-3-2-9-8-3"
       y="2423.217"
       x="1607.9706"
       style="font-style:normal;font-variant:normal;font-weight:normal;font-stretch:normal;line-height:0%;font-family:Lavi;-inkscape-font-specification:Lavi;text-align:center;letter-spacing:0px;word-spacing:0px;text-anchor:middle;fill:#000000;fill-opacity:1;stroke:none"
       xml:space="preserve"><tspan
         y="2423.217"
         x="1607.9706"
         style="font-style:normal;font-variant:normal;font-weight:normal;font-stretch:normal;font-size:45px;line-height:1.25;font-family:Lavi;-inkscape-font-specification:Lavi;fill:#000000"
         sodipodi:role="line"
         id="tspan97393">Wir müssen nach </tspan><tspan
         y="2479.467"
         x="1607.9706"
         style="font-style:normal;font-variant:normal;font-weight:normal;font-stretch:normal;font-size:45px;line-height:1.25;font-family:Lavi;-inkscape-font-specification:Lavi;fill:#000000"
         sodipodi:role="line"
         id="tspan11706">Qualicity, egal was </tspan><tspan
         y="2535.717"
         x="1607.9706"
         style="font-style:normal;font-variant:normal;font-weight:normal;font-stretch:normal;font-size:45px;line-height:1.25;font-family:Lavi;-inkscape-font-specification:Lavi;fill:#000000"
         sodipodi:role="line"
         id="tspan11708">passiert.</tspan></text>
    <text
       id="text4246-4-2-7-3-5-2-2-6-7-2-9-3-2-9-8-5"
       y="2464.9375"
       x="2133.2007"
       style="font-style:normal;font-variant:normal;font-weight:normal;font-stretch:normal;line-height:0%;font-family:Lavi;-inkscape-font-specification:Lavi;text-align:center;letter-spacing:0px;word-spacing:0px;text-anchor:middle;fill:#000000;fill-opacity:1;stroke:none"
       xml:space="preserve"><tspan
         y="2464.9375"
         x="2133.2007"
         style="font-style:normal;font-variant:normal;font-weight:normal;font-stretch:normal;font-size:45px;line-height:1.25;font-family:Lavi;-inkscape-font-specification:Lavi;fill:#000000"
         sodipodi:role="line"
         id="tspan106897">Wartet </tspan><tspan
         y="2521.1875"
         x="2133.2007"
         style="font-style:normal;font-variant:normal;font-weight:normal;font-stretch:normal;font-size:45px;line-height:1.25;font-family:Lavi;-inkscape-font-specification:Lavi;fill:#000000"
         sodipodi:role="line"
         id="tspan11756">kurz.</tspan></text>
    <text
       id="text4246-4-2-7-3-5-2-2-6-7-2-9-3-2-9-8-5-1"
       y="2757.5854"
       x="364.98636"
       style="font-style:normal;font-variant:normal;font-weight:normal;font-stretch:normal;line-height:0%;font-family:Lavi;-inkscape-font-specification:Lavi;text-align:center;letter-spacing:0px;word-spacing:0px;text-anchor:middle;fill:#000000;fill-opacity:1;stroke:none"
       xml:space="preserve"><tspan
         y="2757.5854"
         x="364.98636"
         style="font-style:normal;font-variant:normal;font-weight:normal;font-stretch:normal;font-size:45px;line-height:1.25;font-family:Lavi;-inkscape-font-specification:Lavi;fill:#000000"
         sodipodi:role="line"
         id="tspan145655">Wasabis Armee </tspan><tspan
         y="2813.8354"
         x="364.98636"
         style="font-style:normal;font-variant:normal;font-weight:normal;font-stretch:normal;font-size:45px;line-height:1.25;font-family:Lavi;-inkscape-font-specification:Lavi;fill:#000000"
         sodipodi:role="line"
         id="tspan13618">schlägt gerade zum </tspan><tspan
         y="2870.0854"
         x="364.98636"
         style="font-style:normal;font-variant:normal;font-weight:normal;font-stretch:normal;font-size:45px;line-height:1.25;font-family:Lavi;-inkscape-font-specification:Lavi;fill:#000000"
         sodipodi:role="line"
         id="tspan13620">Gegenangriff an.</tspan></text>
    <text
       id="text4246-4-2-7-3-5-2-2-6-7-2-9-3-2-9-8-5-1-3"
       y="2994.2083"
       x="359.13101"
       style="font-style:normal;font-variant:normal;font-weight:normal;font-stretch:normal;line-height:0%;font-family:Lavi;-inkscape-font-specification:Lavi;text-align:center;letter-spacing:0px;word-spacing:0px;text-anchor:middle;fill:#000000;fill-opacity:1;stroke:none"
       xml:space="preserve"><tspan
         y="2994.2083"
         x="359.13101"
         style="font-style:normal;font-variant:normal;font-weight:normal;font-stretch:normal;font-size:45px;line-height:1.25;font-family:Lavi;-inkscape-font-specification:Lavi;fill:#000000"
         sodipodi:role="line"
         id="tspan13631">Wir können sie nicht </tspan><tspan
         y="3050.4583"
         x="359.13101"
         style="font-style:normal;font-variant:normal;font-weight:normal;font-stretch:normal;font-size:45px;line-height:1.25;font-family:Lavi;-inkscape-font-specification:Lavi;fill:#000000"
         sodipodi:role="line"
         id="tspan14679">einfach einander </tspan><tspan
         y="3106.7083"
         x="359.13101"
         style="font-style:normal;font-variant:normal;font-weight:normal;font-stretch:normal;font-size:45px;line-height:1.25;font-family:Lavi;-inkscape-font-specification:Lavi;fill:#000000"
         sodipodi:role="line"
         id="tspan15733">töten lassen.</tspan></text>
    <text
       id="text4246-4-2-7-3-5-2-2-6-7-2-9-3-2-9-8-5-1-3-6"
       y="2738.428"
       x="1417.7119"
       style="font-style:normal;font-variant:normal;font-weight:normal;font-stretch:normal;line-height:0%;font-family:Lavi;-inkscape-font-specification:Lavi;text-align:center;letter-spacing:0px;word-spacing:0px;text-anchor:middle;fill:#000000;fill-opacity:1;stroke:none"
       xml:space="preserve"><tspan
         y="2738.428"
         x="1417.7119"
         style="font-style:normal;font-variant:normal;font-weight:normal;font-stretch:normal;font-size:45px;line-height:1.25;font-family:Lavi;-inkscape-font-specification:Lavi;fill:#000000"
         sodipodi:role="line"
         id="tspan179595">Ich fühle mich dafür </tspan><tspan
         y="2794.678"
         x="1417.7119"
         style="font-style:normal;font-variant:normal;font-weight:normal;font-stretch:normal;font-size:45px;line-height:1.25;font-family:Lavi;-inkscape-font-specification:Lavi;fill:#000000"
         sodipodi:role="line"
         id="tspan12209">verantwortlich, diesen </tspan><tspan
         y="2850.928"
         x="1417.7119"
         style="font-style:normal;font-variant:normal;font-weight:normal;font-stretch:normal;font-size:45px;line-height:1.25;font-family:Lavi;-inkscape-font-specification:Lavi;fill:#000000"
         sodipodi:role="line"
         id="tspan12211">Kampf zu beenden!</tspan></text>
  </g>
</svg>
