<?xml version="1.0" encoding="UTF-8" standalone="no"?>
<!-- Created with Inkscape (http://www.inkscape.org/) -->

<svg
   id="svg2"
   version="1.1"
   inkscape:version="1.1 (c68e22c387, 2021-05-23)"
   width="2481"
   height="3503"
   sodipodi:docname="E36P04.svg"
   xmlns:inkscape="http://www.inkscape.org/namespaces/inkscape"
   xmlns:sodipodi="http://sodipodi.sourceforge.net/DTD/sodipodi-0.dtd"
   xmlns:xlink="http://www.w3.org/1999/xlink"
   xmlns="http://www.w3.org/2000/svg"
   xmlns:svg="http://www.w3.org/2000/svg"
   xmlns:rdf="http://www.w3.org/1999/02/22-rdf-syntax-ns#"
   xmlns:cc="http://creativecommons.org/ns#"
   xmlns:dc="http://purl.org/dc/elements/1.1/">
  <metadata
     id="metadata8">
    <rdf:RDF>
      <cc:Work
         rdf:about="">
        <dc:format>image/svg+xml</dc:format>
        <dc:type
           rdf:resource="http://purl.org/dc/dcmitype/StillImage" />
        <dc:title />
      </cc:Work>
    </rdf:RDF>
  </metadata>
  <defs
     id="defs6">
    <filter
       inkscape:collect="always"
       style="color-interpolation-filters:sRGB"
       id="filter827"
       x="-0.0064320289"
       y="-0.0039446045"
       width="1.0128641"
       height="1.0078892">
      <feGaussianBlur
         inkscape:collect="always"
         stdDeviation="5.1724067"
         id="feGaussianBlur829" />
    </filter>
    <filter
       style="color-interpolation-filters:sRGB"
       id="filter5561-1"
       inkscape:label="deevad outline effect"
       x="-0.0040729675"
       y="-0.015367663"
       width="1.0081459"
       height="1.0307353">
      <feFlood
         id="feFlood5563-9"
         flood-opacity="1"
         flood-color="rgb(0,0,0)"
         result="flood" />
      <feComposite
         id="feComposite5565-0"
         in2="SourceGraphic"
         in="flood"
         operator="in"
         result="composite1" />
      <feMorphology
         id="feMorphology5567-7"
         operator="dilate"
         radius="1.8999999999999999 6.0999999999999996"
         result="result3" />
      <feComposite
         id="feComposite5569-2"
         in2="result3"
         in="SourceGraphic"
         operator="over"
         result="composite2" />
    </filter>
  </defs>
  <sodipodi:namedview
     pagecolor="#1e1e1e"
     bordercolor="#111111"
     borderopacity="1"
     objecttolerance="10"
     gridtolerance="10"
     guidetolerance="10"
     inkscape:pageopacity="0"
     inkscape:pageshadow="2"
     inkscape:window-width="1920"
     inkscape:window-height="1057"
     id="namedview4"
     showgrid="false"
     inkscape:zoom="0.43016843"
     inkscape:cx="1427.3479"
     inkscape:cy="3118.5459"
     inkscape:window-x="1358"
     inkscape:window-y="-8"
     inkscape:window-maximized="1"
     inkscape:current-layer="layer1"
     inkscape:pagecheckerboard="0"
     inkscape:snap-global="false" />
  <g
     inkscape:groupmode="layer"
     id="layer2"
     inkscape:label="artwork"
     sodipodi:insensitive="true">
    <image
       xlink:href="../gfx_Pepper-and-Carrot_by-David-Revoy_E36P04.png"
       y="0"
       x="0"
       id="image10"
       height="3503"
       width="2481" />
  </g>
  <g
     inkscape:groupmode="layer"
     id="layer4"
     inkscape:label="speechbubbles-whisper"
     style="display:inline;opacity:0.7;mix-blend-mode:screen;filter:url(#filter827)">
    <path
       style="fill:#cdf0ff;fill-opacity:1;stroke:none;stroke-width:0.571523"
       d="m 136.33301,238.02884 c 6.40162,-61.37455 66.92602,-131.82212 208.92557,-121.68162 141.99954,10.13994 196.12232,53.90254 192.04856,137.69232 -4.07376,83.78973 -80.89318,116.34495 -200.19608,111.54172 C 217.80817,360.77805 129.34943,326.62174 136.33301,238.02884 Z"
       id="path3274"
       inkscape:connector-curvature="0" />
    <path
       style="color:#000000;display:inline;overflow:visible;visibility:visible;fill:#cdf0ff;fill-opacity:1;fill-rule:nonzero;stroke:none;stroke-width:1.2829px;marker:none;enable-background:accumulate"
       d="m 237.21621,333.3289 c -60.89615,44.87238 -75.82159,95.90727 -42.44689,136.76086 -66.94955,-55.398 -25.05599,-140.35221 2.50625,-158.22088 26.98706,-17.49572 39.94064,21.46002 39.94064,21.46002 z"
       id="path5010-4"
       inkscape:connector-curvature="0"
       sodipodi:nodetypes="ccsc" />
    <path
       style="fill:#cdf0ff;fill-opacity:1;stroke:none;stroke-width:0.83791"
       d="m 115.06628,1032.2288 c -0.6146,-49.98452 12.82541,-92.72455 154.56051,-92.76388 148.84948,-0.041 178.55979,26.64664 185.30264,94.07898 9.51543,95.1606 -74.72225,90.7317 -162.6389,90.9734 -123.1523,0.3376 -169.34898,0.4178 -177.22425,-92.2885 z"
       id="path3280-10"
       inkscape:connector-curvature="0"
       sodipodi:nodetypes="csssc" />
    <path
       style="opacity:1;fill:#cdf0ff;fill-opacity:1;stroke:none;stroke-width:0.817097"
       d="m 375.86773,1143.6133 c -0.61473,-47.5235 12.82775,-88.1591 154.58878,-88.1965 148.87671,-0.039 178.59246,25.3346 185.33652,89.4468 9.51718,90.4753 -74.73592,86.2643 -162.66863,86.4942 -123.17484,0.3209 -169.37997,0.3973 -177.25667,-87.7445 z"
       id="path3280-10-9"
       inkscape:connector-curvature="0"
       sodipodi:nodetypes="csssc" />
    <path
       style="fill:#cdf0ff;fill-opacity:1;stroke:none;stroke-width:1.09895"
       d="m 414.45801,1036.5649 c 2.50183,-31.0747 15.42673,-57.64502 124.89251,-57.66982 114.96034,-0.0294 136.31683,16.56626 137.50874,58.48752 1.68237,59.1598 -63.11151,56.4067 -131.02489,56.5573 -95.13175,0.2099 -130.81468,0.2594 -131.37636,-57.375 z"
       id="path3280-1"
       inkscape:connector-curvature="0"
       sodipodi:nodetypes="csssc" />
    <path
       inkscape:connector-curvature="0"
       id="path1082-6"
       d="m 280.58037,1007.5411 c -1.05852,1.1484 -2.23987,0.5097 -1.98486,-0.6816 0.46134,-10.2919 -2.14669,-20.41668 -9.6319,-26.29329 -10.13751,-7.29069 -22.77075,-12.21022 -29.84045,-22.59504 -5.75745,-8.74427 -5.01971,-21.18698 -1.49413,-32.91007 4.31252,-14.84587 13.38648,-30.0739 26.78068,-41.34485 6.19451,-5.09695 13.0206,-9.28731 19.6858,-13.63981 1.70647,-1.09332 3.42181,-2.16912 5.1321,-3.25498 -15.98365,14.17836 -28.18362,32.92468 -31.66564,51.29818 -0.83521,11.52515 5.1122,20.58777 12.46283,27.38858 8.74595,8.67863 19.87856,15.63077 24.72663,27.4867 2.05504,6.07335 3.77199,13.18731 -0.0119,20.5838 -3.32768,5.64168 -9.09749,9.69898 -14.15911,13.96238 z"
       style="display:inline;fill:#cdf0ff;fill-opacity:1;fill-rule:evenodd;stroke:none;stroke-width:0.863514px;stroke-linecap:butt;stroke-linejoin:miter;stroke-opacity:1" />
    <path
       style="fill:#cdf0ff;fill-opacity:1;stroke:none;stroke-width:1.28321"
       d="m 1669.8086,126.28125 c -58.8872,1.28543 -117.8013,4.30271 -176.172,10.99758 -33.3106,5.61579 -62.667,26.1041 -73.8384,52.69235 -5.4177,15.15936 0.3073,32.00109 12.4349,43.93386 14.2354,15.90604 35.5764,27.02469 58.7026,31.90546 17.5244,3.77427 35.7374,4.06585 53.6841,5.36433 18.2951,1.06829 36.5837,2.3013 54.7773,4.23103 42.5834,3.42224 85.4199,3.02592 128.1475,3.81169 33.0898,0.51958 66.2428,0.38842 99.2308,-2.04545 41.2344,-2.71912 82.4507,-5.90612 123.4159,-10.68412 25.1061,-3.44162 50.4033,-9.6195 71.1174,-22.2204 15.5619,-9.87765 24.0639,-26.17143 23.7224,-42.21597 -0.1325,-17.72912 -10.2912,-35.68383 -28.3188,-45.74292 -18.9432,-10.55391 -41.0071,-16.59206 -63.316,-20.13829 -31.48,-4.992 -63.5639,-6.69264 -95.5431,-7.77481 -44.1113,-1.24311 -88.2543,-1.36656 -132.3829,-1.91801 -16.7248,-0.10299 -33.4531,-0.47935 -50.1767,-0.29944 -1.8282,0.0344 -3.6566,0.0687 -5.485,0.10311 z"
       id="path3280-8-90"
       inkscape:connector-curvature="0"
       sodipodi:nodetypes="csssc" />
    <path
       style="color:#000000;display:inline;overflow:visible;visibility:visible;fill:#cdf0ff;fill-opacity:1;fill-rule:nonzero;stroke:none;stroke-width:1.45931px;marker:none;enable-background:accumulate"
       d="m 1894.2527,478.01503 c -46.7238,3.40887 -69.3017,-79.91577 -74.6609,-127.91878 -5.3593,-48.00301 8.584,-99.29915 8.584,-99.29915 l -48.7389,-16.48951 c 0,0 -2.5241,264.49574 114.8158,243.70744 z"
       id="path3072-5"
       inkscape:connector-curvature="0"
       inkscape:transform-center-x="-2.5695303"
       inkscape:transform-center-y="25.826442"
       sodipodi:nodetypes="czccc" />
    <path
       style="color:#000000;display:inline;overflow:visible;visibility:visible;fill:#cdf0ff;fill-opacity:1;fill-rule:nonzero;stroke:none;stroke-width:1.22256px;marker:none;enable-background:accumulate"
       d="m 1618.1099,1155.6744 c 0.9145,-55.4749 18.7278,-107.9364 176.6399,-106.1209 118.4032,1.3605 149.9346,44.1029 152.5579,100.1767 1.8488,39.5168 -62.2081,76.0945 -163.9369,74.1563 -97.2331,-1.8521 -158.1501,-25.906 -165.2609,-68.2121 z"
       id="path5026-3"
       inkscape:connector-curvature="0"
       sodipodi:nodetypes="csssc" />
    <path
       style="fill:#cdf0ff;fill-opacity:1;fill-rule:evenodd;stroke:none;stroke-width:1.78217px;stroke-linecap:butt;stroke-linejoin:miter;stroke-opacity:1"
       d="m 1876.9024,1072.4564 c 28.2335,-6.4279 93.4241,-58.729 105.0673,-115.8066 2.8219,25.56546 -15.0538,86.6026 -55.5282,133.1516 -63.168,72.6485 -68.303,-6.7555 -68.303,-6.7555 z"
       id="path4248"
       inkscape:connector-curvature="0"
       sodipodi:nodetypes="ccscc" />
    <path
       style="fill:#cdf0ff;fill-opacity:1;fill-rule:evenodd;stroke:none;stroke-width:1.22277px;stroke-linecap:butt;stroke-linejoin:miter;stroke-opacity:1"
       d="m 1099.1618,1799.6189 c 55.0256,-83.383 172.3793,-75.3048 263.4952,-78.5144 133.1051,-3.9315 261.657,-25.7446 380.1586,34.0416 37.278,18.8074 49.5467,172.9067 -40.0173,178.8734 -118.7218,15.7986 -239.5241,16.6831 -359.3327,15.71 -71.1739,-4.8814 -149.8532,-8.1169 -210.2451,-46.3633 -29.0631,-26.2994 -42.7255,-66.785 -34.0587,-103.7473 z"
       id="path4246"
       inkscape:connector-curvature="0"
       sodipodi:nodetypes="sssssss" />
    <path
       style="fill:#cdf0ff;fill-opacity:1;stroke:none;stroke-width:0.862371"
       d="m 1460.5199,1979.5823 c -31.0467,0.5171 -62.6725,3.408 -91.8654,15.6285 -17.4743,7.578 -33.5718,21.0751 -41.4967,39.9168 -10.4589,24.0635 -10.8695,52.068 -4.7928,77.5054 5.0208,20.8181 16.8277,39.9147 33.5972,51.7553 20.1824,15.1097 44.8657,21.8359 69.1962,22.5941 25.9273,1.2964 51.884,0.081 77.8245,0.3918 25.9834,-0.084 52.4286,-0.4058 77.5852,-8.2501 22.174,-7.5509 41.1842,-25.8904 49.7335,-49.3626 6.4869,-16.9058 7.8652,-35.5496 6.689,-53.6542 -0.9307,-17.6613 -3.4839,-35.9527 -12.2047,-51.2726 -6.686,-11.7487 -16.903,-20.8651 -28.5054,-26.493 -21.3375,-10.9092 -45.1005,-14.0647 -68.3351,-16.5801 -22.411,-2.2026 -44.9401,-2.3212 -67.4255,-2.1793 z"
       id="path3280-10-5"
       inkscape:connector-curvature="0"
       sodipodi:nodetypes="csssc" />
    <path
       style="fill:#cdf0ff;fill-opacity:1;fill-rule:evenodd;stroke:none;stroke-width:0.982814px;stroke-linecap:butt;stroke-linejoin:miter;stroke-opacity:1"
       d="m 1452.8701,2063.1977 c 20.0222,-118.9472 -38.8836,-176.8263 -112.6674,-203.8912 -73.7839,-27.0648 -408.44801,-122.5007 -586.75006,31.3 164.14364,-172.6923 505.87416,-84.1291 578.34696,-59.2455 72.4727,24.8835 165.149,62.928 159.016,232.4228 -6.133,169.4949 -37.9455,-0.5861 -37.9455,-0.5861 z"
       id="path98507" />
    <path
       style="color:#000000;display:inline;overflow:visible;visibility:visible;fill:#cdf0ff;fill-opacity:1;fill-rule:nonzero;stroke:none;stroke-width:0.651378px;marker:none;enable-background:accumulate"
       d="m 147.64224,2845.2025 c 26.83202,-36.8211 175.6213,-31.1896 221.90084,-21.7058 50.50572,10.3497 66.05569,25.0144 68.31412,57.1557 0.69761,9.9277 -3.38767,54.9473 -28.23102,63.8101 -24.8433,8.8622 -95.98542,13.2936 -120.82878,13.2936 -24.84329,0 -104.14858,-5.6406 -124.21671,-18.6115 -19.19707,-12.407 -43.77054,-57.1216 -16.93845,-93.9421 z"
       id="path3330-0"
       inkscape:connector-curvature="0"
       sodipodi:nodetypes="zsssssz" />
    <path
       style="color:#000000;display:inline;overflow:visible;visibility:visible;fill:#cdf0ff;fill-opacity:1;fill-rule:nonzero;stroke:none;stroke-width:1.75391px;marker:none;enable-background:accumulate"
       d="m 304.78806,3036.9962 c -12.31173,-114.3446 96.21344,-183.9932 411.83591,-165.0661 163.72474,9.8182 362.86113,21.0994 350.51243,192.7716 -10.8833,151.3064 -278.84324,128.9025 -332.49819,130.688 -53.65576,1.7854 -333.05749,-6.8192 -384.09063,-60.1911 -31.94543,-33.4105 -45.37303,-66.0634 -45.75952,-98.2024 z"
       id="path4546-6-5-3"
       inkscape:connector-curvature="0"
       sodipodi:nodetypes="cssssc" />
    <path
       style="color:#000000;display:inline;overflow:visible;visibility:visible;fill:#cdf0ff;fill-opacity:1;fill-rule:nonzero;stroke:none;stroke-width:0.934404px;marker:none;enable-background:accumulate"
       d="m 1112.9629,3071.4609 c -42.3495,0.3416 -85.9566,1.6341 -125.76138,17.7102 -25.24883,10.1644 -49.29441,26.0653 -64.04583,49.431 -9.01256,14.7754 -13.77006,33.5443 -7.74161,50.3154 6.09155,15.5339 16.65962,29.0546 29.0286,40.1016 18.155,14.533 41.50106,19.9629 64.04262,23.193 37.3192,5.5969 75.0946,6.7815 112.6976,9.2854 55.7752,2.3858 111.662,-0.2084 167.2227,-5.2364 22.9894,-2.8405 46.7413,-8.281 65.4245,-22.7223 19.747,-15.7864 30.33,-41.6737 28.5448,-66.7609 -1.1175,-22.3233 -12.2187,-44.2551 -30.631,-57.2168 -23.9247,-18.219 -54.1163,-25.0055 -83.3478,-28.9408 -36.0356,-4.8843 -72.4149,-6.2658 -108.6891,-8.2836 -15.5727,-0.6271 -31.1585,-0.9397 -46.7441,-0.8758 z"
       id="path4546-1"
       inkscape:connector-curvature="0"
       sodipodi:nodetypes="cssssc" />
    <path
       style="fill:#cdf0ff;fill-opacity:1;fill-rule:evenodd;stroke:none;stroke-width:0.8628px;stroke-linecap:butt;stroke-linejoin:miter;stroke-opacity:1"
       d="m 1485.2712,3247.2085 c -50.4862,11.4936 -118.5889,-1.8333 -151.4166,-46.2885 -32.8277,-44.4549 -2.6699,31.9178 -2.6699,31.9178 0,0 59.9464,55.1538 154.0865,14.3707 z"
       id="path914"
       inkscape:connector-curvature="0"
       sodipodi:nodetypes="cscc" />
  </g>
  <g
     inkscape:groupmode="layer"
     id="layer3"
     inkscape:label="speechbubbles"
     style="display:inline">
    <path
       style="color:#000000;display:inline;overflow:visible;visibility:visible;fill:#ffffff;fill-opacity:1;fill-rule:nonzero;stroke:none;stroke-width:0.76825px;marker:none;enable-background:accumulate"
       d="m 1286.1959,1984.1813 c -18.9485,13.729 -18.2881,22.2591 7.439,23.5835 -43.1447,24.7437 -7.8873,20.9995 -0.9332,27.2737 -33.8765,8.5275 -21.3092,19.6601 -12.6885,29.704 -42.1154,-16.2682 -27.7586,6.1339 -24.8515,20.7092 -11.8143,-9.8963 -30.9848,-19.7481 -22.9114,5.932 -25.7549,-20.467 -47.9262,-38.8367 -50.3894,-3.0184 -10.377,-18.0193 -36.8482,-21.3996 -36.0516,0.092 -21.402,-25.3028 -43.4646,-26.7823 -64.7833,-9.0768 0.7313,-11.3625 25.1813,-35.0922 -26.5648,-18.3608 21.2092,-15.8217 6.0255,-18.1254 -18.9581,-17.5242 20.011,-5.0513 23.6989,-10.2617 -13.4568,-15.8687 28.2734,-0.5427 54.6383,-1.6541 21.4676,-20.7759 10.4066,-0.4632 58.4658,15.3065 10.5872,-44.3656 17.8948,14.9491 52.4898,24.5281 47.3151,-8.6629 28.6587,27.3868 41.0685,13.7711 49.6189,-5.7696 20.1907,28.718 29.8395,23.0011 50.0885,2.0703 1.5387,13.2814 24.2569,30.3795 50.3608,12.8593 -14.218,21.0674 11.1217,26.7445 34.7115,21.1989 z"
       id="path3549-3-7-3"
       inkscape:connector-curvature="0"
       sodipodi:nodetypes="ccccccccccccccccccc" />
    <path
       style="color:#000000;display:inline;overflow:visible;visibility:visible;fill:#ffffff;fill-opacity:1;fill-rule:nonzero;stroke:none;stroke-width:0.837149px;marker:none;enable-background:accumulate"
       d="m 966.36472,2000.5771 c 42.82178,-22.7004 91.81268,-11.0807 106.41908,-4.0321 46.7932,22.5812 18.1866,37.5471 18.1866,37.5471 0.4518,-0.4935 -62.6742,-53.459 -124.60568,-33.515 z"
       id="path5002-7"
       inkscape:connector-curvature="0"
       sodipodi:nodetypes="cscc" />
  </g>
  <g
     inkscape:groupmode="layer"
     id="layer1"
     inkscape:label="txt"
     style="display:inline">
    <text
       id="text4246-4-2-7"
       y="195.1812"
       x="341.45972"
       style="font-style:normal;font-variant:normal;font-weight:normal;font-stretch:normal;line-height:0%;font-family:Lavi;-inkscape-font-specification:Lavi;text-align:center;letter-spacing:0px;word-spacing:0px;text-anchor:middle;fill:#000000;fill-opacity:1;stroke:none"
       xml:space="preserve"><tspan
         y="195.1812"
         x="341.45972"
         style="font-size:45px;line-height:1.25"
         sodipodi:role="line"
         id="tspan7265">Es... Es tut </tspan><tspan
         y="251.4312"
         x="341.45972"
         style="font-size:45px;line-height:1.25"
         sodipodi:role="line"
         id="tspan7269">mir leid, was </tspan><tspan
         y="307.68121"
         x="341.45972"
         style="font-size:45px;line-height:1.25"
         sodipodi:role="line"
         id="tspan7271">passiert ist...</tspan></text>
    <text
       id="text4246-4-2-7-3"
       y="1019.4944"
       x="303.29669"
       style="font-style:normal;font-variant:normal;font-weight:normal;font-stretch:normal;line-height:0%;font-family:Lavi;-inkscape-font-specification:Lavi;text-align:center;letter-spacing:0px;word-spacing:0px;text-anchor:middle;fill:#000000;fill-opacity:1;stroke:none"
       xml:space="preserve"><tspan
         y="1019.4944"
         x="303.29669"
         style="font-size:45px;line-height:1.25"
         sodipodi:role="line"
         id="tspan9419">...also, mit </tspan><tspan
         y="1075.7444"
         x="303.29669"
         style="font-size:45px;line-height:1.25"
         sodipodi:role="line"
         id="tspan9423">unserem Streit.</tspan></text>
    <text
       id="text4246-4-2-7-3-1"
       y="1049.8591"
       x="572.59967"
       style="font-style:normal;font-variant:normal;font-weight:normal;font-stretch:normal;line-height:0%;font-family:Lavi;-inkscape-font-specification:Lavi;text-align:center;letter-spacing:0px;word-spacing:0px;text-anchor:middle;fill:#000000;fill-opacity:1;stroke:none"
       xml:space="preserve"><tspan
         y="1049.8591"
         x="572.59967"
         style="font-size:45px;line-height:1.25"
         sodipodi:role="line"
         id="tspan37052-0">Ich...</tspan></text>
    <text
       id="text4246-4-2-7-3-5"
       y="1145.2123"
       x="554.98853"
       style="font-style:normal;font-variant:normal;font-weight:normal;font-stretch:normal;line-height:0%;font-family:Lavi;-inkscape-font-specification:Lavi;text-align:center;letter-spacing:0px;word-spacing:0px;text-anchor:middle;fill:#000000;fill-opacity:1;stroke:none"
       xml:space="preserve"><tspan
         y="1145.2123"
         x="554.98853"
         style="font-size:45px;line-height:1.25"
         sodipodi:role="line"
         id="tspan30466">Ich hatte keine </tspan><tspan
         y="1201.4623"
         x="554.98853"
         style="font-size:45px;line-height:1.25"
         sodipodi:role="line"
         id="tspan2472">andere Wahl.</tspan></text>
    <text
       id="text4246-4-2-7-9"
       y="212.69531"
       x="1735.491"
       style="font-style:normal;font-variant:normal;font-weight:normal;font-stretch:normal;line-height:0%;font-family:Lavi;-inkscape-font-specification:Lavi;text-align:center;letter-spacing:0px;word-spacing:0px;text-anchor:middle;fill:#000000;fill-opacity:1;stroke:none"
       xml:space="preserve"><tspan
         y="212.69531"
         x="1735.491"
         style="font-size:45px;line-height:1.25"
         sodipodi:role="line"
         id="tspan64873">Keine Sorge – ich verstehe.</tspan></text>
    <text
       id="text4246-4-2-7-9-2"
       y="1126.0326"
       x="1785.3541"
       style="font-style:normal;font-variant:normal;font-weight:normal;font-stretch:normal;line-height:0%;font-family:Lavi;-inkscape-font-specification:Lavi;text-align:center;letter-spacing:0px;word-spacing:0px;text-anchor:middle;fill:#000000;fill-opacity:1;stroke:none"
       xml:space="preserve"><tspan
         y="1126.0326"
         x="1785.3541"
         style="font-size:45px;line-height:1.25"
         sodipodi:role="line"
         id="tspan72856">Danke, dass </tspan><tspan
         y="1182.2826"
         x="1785.3541"
         style="font-size:45px;line-height:1.25"
         sodipodi:role="line"
         id="tspan15482">du hier bist.</tspan></text>
    <text
       id="text4246-4-2-7-9-2-7"
       y="1788.3612"
       x="1438.9933"
       style="font-style:normal;font-variant:normal;font-weight:normal;font-stretch:normal;line-height:0%;font-family:Lavi;-inkscape-font-specification:Lavi;text-align:center;letter-spacing:0px;word-spacing:0px;text-anchor:middle;fill:#000000;fill-opacity:1;stroke:none"
       xml:space="preserve"><tspan
         y="1788.3612"
         x="1438.9933"
         style="font-size:45px;line-height:1.25"
         sodipodi:role="line"
         id="tspan79597">Dieser magische Käfig ist </tspan><tspan
         y="1844.6112"
         x="1438.9933"
         style="font-size:45px;line-height:1.25"
         sodipodi:role="line"
         id="tspan17370">echt stark – sie haben sich für </tspan><tspan
         y="1900.8612"
         x="1438.9933"
         style="font-size:45px;line-height:1.25"
         sodipodi:role="line"
         id="tspan17374">dich richtig angestrengt!</tspan></text>
    <text
       xml:space="preserve"
       style="font-style:normal;font-variant:normal;font-weight:normal;font-stretch:normal;line-height:0%;font-family:Lavi;-inkscape-font-specification:Lavi;text-align:center;letter-spacing:0px;word-spacing:0px;text-anchor:middle;display:inline;fill:#000000;fill-opacity:1;stroke:none"
       x="1168.7362"
       y="2033.7449"
       id="text4246-97"><tspan
         sodipodi:role="line"
         style="font-style:normal;font-variant:normal;font-weight:bold;font-stretch:normal;font-size:45px;line-height:1.25;font-family:Lavi;-inkscape-font-specification:'Lavi Bold'"
         x="1168.7362"
         y="2033.7449"
         id="tspan4252-99">Ha ha!</tspan></text>
    <text
       id="text4246-4-2-7-9-2-7-0"
       y="2045.4873"
       x="1477.1412"
       style="font-style:normal;font-variant:normal;font-weight:normal;font-stretch:normal;font-size:11.0752px;line-height:0%;font-family:Lavi;-inkscape-font-specification:Lavi;text-align:center;letter-spacing:0px;word-spacing:0px;text-anchor:middle;fill:#000000;fill-opacity:1;stroke:none;stroke-width:0.922932"
       xml:space="preserve"><tspan
         y="2045.4873"
         x="1477.1412"
         style="font-size:41.5319px;line-height:1.25;stroke-width:0.922932"
         sodipodi:role="line"
         id="tspan17961">Sei leise, </tspan><tspan
         y="2097.4021"
         x="1477.1412"
         style="font-size:41.5319px;line-height:1.25;stroke-width:0.922932"
         sodipodi:role="line"
         id="tspan17965">sie werden </tspan><tspan
         y="2149.3171"
         x="1477.1412"
         style="font-size:41.5319px;line-height:1.25;stroke-width:0.922932"
         sodipodi:role="line"
         id="tspan17967">uns hören.</tspan></text>
    <text
       xml:space="preserve"
       style="color:#000000;font-style:normal;font-variant:normal;font-weight:normal;font-stretch:normal;font-size:7.41214px;line-height:0.01%;font-family:Arial;-inkscape-font-specification:Arial;letter-spacing:2.51825px;word-spacing:0px;display:inline;overflow:visible;visibility:visible;opacity:0.635039;fill:#e69d76;fill-opacity:1;fill-rule:nonzero;stroke:#e99f77;stroke-width:2.70666;stroke-opacity:1;marker:none;enable-background:accumulate"
       x="599.59552"
       y="3065.2383"
       id="text4246-1711"
       transform="matrix(0.87642423,-0.49049559,0.3850957,0.92547904,0,0)"><tspan
         sodipodi:role="line"
         x="600.85468"
         y="3065.2383"
         id="tspan1709"
         style="word-spacing:0px;fill:#ffffff;fill-opacity:1;stroke:#ffffff;stroke-width:2.70666;stroke-opacity:1"><tspan
           x="599.59552"
           y="3065.2383"
           style="color:#000000;font-style:normal;font-variant:normal;font-weight:normal;font-stretch:normal;font-size:39.5314px;line-height:1.25;font-family:Lavi;-inkscape-font-specification:Lavi;text-align:center;word-spacing:0px;text-anchor:middle;display:inline;overflow:visible;visibility:visible;fill:#ffffff;fill-opacity:1;fill-rule:nonzero;stroke:#ffffff;stroke-width:2.1336;stroke-miterlimit:4;stroke-dasharray:none;stroke-opacity:1;marker:none;enable-background:accumulate"
           id="tspan1707">SCHLECK</tspan></tspan></text>
    <text
       xml:space="preserve"
       style="color:#000000;font-style:normal;font-variant:normal;font-weight:normal;font-stretch:normal;font-size:5.89332px;line-height:0.01%;font-family:Arial;-inkscape-font-specification:Arial;letter-spacing:2.00224px;word-spacing:0px;display:inline;overflow:visible;visibility:visible;opacity:0.635039;fill:#e69d76;fill-opacity:1;fill-rule:nonzero;stroke:#e99f77;stroke-width:2.15204;stroke-opacity:1;marker:none;enable-background:accumulate"
       x="651.1543"
       y="3086.4412"
       id="text4246-8"
       transform="matrix(0.86624931,-0.49625693,0.3806249,0.93634967,0,0)"><tspan
         sodipodi:role="line"
         x="652.1554"
         y="3086.4412"
         id="tspan1709-9"
         style="word-spacing:0px;fill:#ffffff;fill-opacity:1;stroke:#ffffff;stroke-width:2.15204;stroke-opacity:1"><tspan
           x="651.1543"
           y="3086.4412"
           style="color:#000000;font-style:normal;font-variant:normal;font-weight:normal;font-stretch:normal;font-size:31.431px;line-height:1.25;font-family:Lavi;-inkscape-font-specification:Lavi;text-align:center;word-spacing:0px;text-anchor:middle;display:inline;overflow:visible;visibility:visible;fill:#ffffff;fill-opacity:1;fill-rule:nonzero;stroke:#ffffff;stroke-width:1.69641;stroke-miterlimit:4;stroke-dasharray:none;stroke-opacity:1;marker:none;enable-background:accumulate"
           id="tspan1707-7">SCHLECK</tspan></tspan></text>
    <text
       xml:space="preserve"
       style="color:#000000;font-style:normal;font-variant:normal;font-weight:normal;font-stretch:normal;font-size:4.80028px;line-height:0.01%;font-family:Arial;-inkscape-font-specification:Arial;letter-spacing:1.63088px;word-spacing:0px;display:inline;overflow:visible;visibility:visible;opacity:0.635039;fill:#e69d76;fill-opacity:1;fill-rule:nonzero;stroke:#e99f77;stroke-width:1.7529;stroke-opacity:1;marker:none;enable-background:accumulate"
       x="663.8678"
       y="3119.0703"
       id="text4246-8-3"
       transform="matrix(0.86358569,-0.49778757,0.37945452,0.93923772,0,0)"><tspan
         sodipodi:role="line"
         x="664.68323"
         y="3119.0703"
         id="tspan1709-9-6"
         style="word-spacing:0px;fill:#ffffff;fill-opacity:1;stroke:#ffffff;stroke-width:1.7529;stroke-opacity:1"><tspan
           x="663.8678"
           y="3119.0703"
           style="color:#000000;font-style:normal;font-variant:normal;font-weight:normal;font-stretch:normal;font-size:25.6015px;line-height:1.25;font-family:Lavi;-inkscape-font-specification:Lavi;text-align:center;word-spacing:0px;text-anchor:middle;display:inline;overflow:visible;visibility:visible;fill:#ffffff;fill-opacity:1;fill-rule:nonzero;stroke:#ffffff;stroke-width:1.38177;stroke-miterlimit:4;stroke-dasharray:none;stroke-opacity:1;marker:none;enable-background:accumulate"
           id="tspan1707-7-1">SCHLECK</tspan></tspan></text>
    <text
       id="text4246-4-2-7-9-2-7-0-9"
       y="2899.5105"
       x="296.33832"
       style="font-style:normal;font-variant:normal;font-weight:normal;font-stretch:normal;line-height:0%;font-family:Lavi;-inkscape-font-specification:Lavi;text-align:center;letter-spacing:0px;word-spacing:0px;text-anchor:middle;fill:#000000;fill-opacity:1;stroke:none"
       xml:space="preserve"><tspan
         y="2899.5105"
         x="296.33832"
         style="font-size:45px;line-height:1.25"
         sodipodi:role="line"
         id="tspan96797-9">Übrigens...</tspan></text>
    <text
       id="text4246-4-2-7-9-2-7-0-9-4"
       y="2970.8228"
       x="681.96979"
       style="font-style:normal;font-variant:normal;font-weight:normal;font-stretch:normal;line-height:0%;font-family:Lavi;-inkscape-font-specification:Lavi;text-align:center;letter-spacing:0px;word-spacing:0px;text-anchor:middle;fill:#000000;fill-opacity:1;stroke:none"
       xml:space="preserve"><tspan
         y="2970.8228"
         x="681.96979"
         style="font-size:45px;line-height:1.25"
         sodipodi:role="line"
         id="tspan25127">ein anderer Grund, warum ich </tspan><tspan
         y="3027.0728"
         x="681.96979"
         style="font-size:45px;line-height:1.25"
         sodipodi:role="line"
         id="tspan26053">gekommen bin, ist, weil ich nach </tspan><tspan
         y="3083.3228"
         x="681.96979"
         style="font-size:45px;line-height:1.25"
         sodipodi:role="line"
         id="tspan26067">der Zeremonie in Wasabis inneren </tspan><tspan
         y="3139.5728"
         x="681.96979"
         style="font-size:45px;line-height:1.25"
         sodipodi:role="line"
         id="tspan26071">Kreis aufgenommen wurde.</tspan></text>
    <text
       id="text4246-4-2-7-9-2-7-0-9-4-8"
       y="3155.363"
       x="1161.6588"
       style="font-style:normal;font-variant:normal;font-weight:normal;font-stretch:normal;line-height:0%;font-family:Lavi;-inkscape-font-specification:Lavi;text-align:center;letter-spacing:0px;word-spacing:0px;text-anchor:middle;fill:#000000;fill-opacity:1;stroke:none"
       xml:space="preserve"><tspan
         y="3155.363"
         x="1161.6588"
         style="font-size:45px;line-height:1.25"
         sodipodi:role="line"
         id="tspan46304">Und ich erfuhr </tspan><tspan
         y="3211.613"
         x="1161.6588"
         style="font-size:45px;line-height:1.25"
         sodipodi:role="line"
         id="tspan33465">von ihren Plänen...</tspan></text>
  </g>
</svg>
