<?xml version="1.0" encoding="UTF-8" standalone="no"?>
<!-- Created with Inkscape (http://www.inkscape.org/) -->

<svg
   id="svg2"
   version="1.1"
   inkscape:version="1.1.2 (0a00cf5339, 2022-02-04)"
   width="2481"
   height="3503"
   sodipodi:docname="E38P08.svg"
   xmlns:inkscape="http://www.inkscape.org/namespaces/inkscape"
   xmlns:sodipodi="http://sodipodi.sourceforge.net/DTD/sodipodi-0.dtd"
   xmlns:xlink="http://www.w3.org/1999/xlink"
   xmlns="http://www.w3.org/2000/svg"
   xmlns:svg="http://www.w3.org/2000/svg"
   xmlns:rdf="http://www.w3.org/1999/02/22-rdf-syntax-ns#"
   xmlns:cc="http://creativecommons.org/ns#"
   xmlns:dc="http://purl.org/dc/elements/1.1/">
  <metadata
     id="metadata8">
    <rdf:RDF>
      <cc:Work
         rdf:about="">
        <dc:format>image/svg+xml</dc:format>
        <dc:type
           rdf:resource="http://purl.org/dc/dcmitype/StillImage" />
        <dc:title />
      </cc:Work>
    </rdf:RDF>
  </metadata>
  <defs
     id="defs6">
    <filter
       style="color-interpolation-filters:sRGB"
       inkscape:label="Drop Shadow"
       id="filter5534"
       x="-0.022860771"
       y="-0.09021098"
       width="1.0589788"
       height="1.2327364">
      <feFlood
         flood-opacity="1"
         flood-color="rgb(0,0,0)"
         result="flood"
         id="feFlood5536" />
      <feComposite
         in="flood"
         in2="SourceGraphic"
         operator="in"
         result="composite1"
         id="feComposite5538" />
      <feGaussianBlur
         in="composite1"
         stdDeviation="1"
         result="blur"
         id="feGaussianBlur5540" />
      <feOffset
         dx="2.5"
         dy="2.5"
         result="offset"
         id="feOffset5542" />
      <feComposite
         in="SourceGraphic"
         in2="offset"
         operator="over"
         result="composite2"
         id="feComposite5544" />
    </filter>
  </defs>
  <sodipodi:namedview
     pagecolor="#ffffff"
     bordercolor="#666666"
     borderopacity="1"
     objecttolerance="10"
     gridtolerance="10"
     guidetolerance="10"
     inkscape:pageopacity="0"
     inkscape:pageshadow="2"
     inkscape:window-width="1920"
     inkscape:window-height="1012"
     id="namedview4"
     showgrid="false"
     inkscape:zoom="0.4496133"
     inkscape:cx="951.92914"
     inkscape:cy="758.42952"
     inkscape:window-x="0"
     inkscape:window-y="0"
     inkscape:window-maximized="1"
     inkscape:current-layer="layer1"
     inkscape:showpageshadow="0"
     inkscape:pagecheckerboard="0"
     inkscape:deskcolor="#d1d1d1" />
  <g
     inkscape:groupmode="layer"
     id="layer2"
     inkscape:label="artwork"
     sodipodi:insensitive="true">
    <image
       xlink:href="../gfx_Pepper-and-Carrot_by-David-Revoy_E38P08.png"
       y="0"
       x="0"
       id="image10"
       height="3503"
       width="2481" />
  </g>
  <g
     inkscape:groupmode="layer"
     id="layer3"
     inkscape:label="speechbubbles">
    <path
       style="color:#000000;display:inline;overflow:visible;visibility:visible;fill:#ffffff;fill-opacity:1;fill-rule:nonzero;stroke:none;stroke-width:0.999994px;marker:none;enable-background:accumulate"
       d="m 1567.4037,126.02054 c -6.0944,16.10211 -40.4673,17.45228 -53.1208,14.17992 25.5066,18.0136 24.6174,29.20583 -10.0136,30.9433 54.6977,26.86926 9.5701,25.81881 1.2562,35.78535 68.0301,1.18702 31.2396,22.41868 17.0799,38.97383 91.9152,-38.00874 83.7462,-5.79467 64.7707,15.59556 26.4598,-19.97243 37.8819,-16.08149 25.0617,7.69105 26.7428,-30.50092 50.0067,-29.61535 42.7547,4.98284 13.9685,-23.64273 44.6275,-22.69518 43.5553,5.50315 17.8775,-27.92433 38.4113,-39.51872 80.2652,-13.10818 -18.2024,-20.55091 2.1295,-39.74491 47.2074,-25.54931 -3.7274,-10.97182 5.2485,-18.51422 25.5193,-22.99308 -26.9366,-6.62771 -31.901,-13.46423 18.1143,-20.82102 -38.0588,-0.71212 -73.5486,-2.17027 -28.8976,-27.25955 -14.0083,-0.60771 -47.2443,20.32843 -31.7485,-40.94064 -24.0879,19.61453 -49.7877,30.44 -82.0176,-10.64699 -15.2527,20.52654 -41.7081,30.68362 -53.2177,5.04463 -4.1366,10.92988 -21.2898,15.04107 -35.8517,15.53902 -5.631,-4.34143 -11.4389,-10.23828 -17.4995,-17.96451 -9.9057,16.22258 -24.7235,27.17923 -53.2177,5.04463 z"
       id="path3549-3-7-3"
       inkscape:connector-curvature="0"
       sodipodi:nodetypes="cccccccccccccccccccc" />
    <path
       style="fill:#ffffff;stroke:none;stroke-width:0.999999"
       d="m 1980.526,142.9916 c -37.2406,1.23126 -74.6402,4.91996 -110.699,14.51472 -21.4175,5.84882 -42.4328,14.45662 -59.9148,28.22518 -18.8794,14.12252 -36.0297,31.81978 -44.7557,53.88733 -7.4973,18.02211 -11.268,37.6921 -10.0499,57.17104 1.814,17.5994 10.4869,34.01033 22.6227,46.85914 18.7572,21.58997 44.3968,37.40412 72.5218,43.92953 28.2059,7.3692 57.434,10.5901 86.5886,10.4445 28.2047,0.0198 56.3684,-1.73571 84.5591,-2.36173 52.1577,-1.88198 104.3617,-3.48949 156.3851,-7.76775 30.4109,-4.29242 60.003,-18.95571 79.0225,-43.13089 24.7444,-31.26816 29.9486,-75.79172 14.4563,-112.20244 -10.3183,-25.81978 -30.8657,-47.53101 -56.4549,-59.19114 -27.6833,-13.39247 -58.463,-18.55005 -88.8263,-22.0641 -44.0965,-5.24795 -88.5055,-7.60608 -132.8986,-8.4621 -4.1875,-0.10152 -8.3713,0.0355 -12.5569,0.14871 z"
       id="path3280-81"
       inkscape:connector-curvature="0"
       sodipodi:nodetypes="csssc" />
    <path
       style="fill:#ffffff;fill-rule:evenodd;stroke:none;stroke-width:0.999994px;stroke-linecap:butt;stroke-linejoin:miter;stroke-opacity:1"
       d="m 1494.7724,1761.5817 c -2.0098,19.7995 -7.7849,40.8599 -13.676,46.0561 -5.8913,5.1962 -27.304,11.7217 -20.9981,28.3069 3.1992,10.3066 9.5667,17.9873 6.2224,22.7116 -5.2605,7.4313 -37.3613,4.8901 -43.538,-0.9931 15.8001,12.3315 53.6391,21.8007 57.4553,4.2689 4.0515,-18.6121 -3.5146,-16.7814 -3.8648,-30.6214 4.7772,-16.6998 29.3635,-2.0213 46.0423,-62.5645 5.6455,-31.7624 -27.6431,-7.1645 -27.6431,-7.1645 z"
       id="path1085"
       inkscape:connector-curvature="0"
       sodipodi:nodetypes="cscscsccc" />
    <path
       style="fill:#ffffff;fill-rule:evenodd;stroke:none;stroke-width:0.999994px;stroke-linecap:butt;stroke-linejoin:miter;stroke-opacity:1"
       d="m 1495.3786,1734.9498 c -18.0459,0.2801 -36.706,1.3221 -53.3444,9.0006 -9.7719,4.5627 -15.6855,14.5599 -18.5456,24.5925 -3.5281,11.4528 -2.5055,24.999 5.2721,34.5297 7.2356,8.6642 18.4843,12.4439 29.2477,14.4028 21.537,4.2152 43.8942,7.1311 65.6759,2.9636 16.6466,-3.8013 32.3534,-13.1982 42.2615,-27.2742 3.8407,-7.6158 1.9494,-16.6482 -1.329,-24.1026 -8.3355,-19.7687 -29.0743,-33.1073 -50.369,-33.6622 -6.275,-0.5213 -12.5779,-0.4846 -18.8692,-0.4502 z"
       id="path1365"
       inkscape:connector-curvature="0" />
    <path
       style="display:inline;fill:#ffffff;fill-rule:evenodd;stroke:none;stroke-width:0.999999px;stroke-linecap:butt;stroke-linejoin:miter;stroke-opacity:1"
       d="m 1619.9228,212.68687 c -69.4628,4.13332 -55.0837,53.10639 -63.4888,67.67509 -5.8022,10.05679 -43.9552,-12.31757 -64.3802,34.17132 29.3302,-30.16987 62.9693,-8.16846 71.2923,-13.87627 28.5796,-19.59928 4.7199,-51.48808 42.3477,-51.57698 9.3659,-0.0222 14.229,-36.39316 14.229,-36.39316 z"
       id="path4186-80"
       inkscape:connector-curvature="0"
       sodipodi:nodetypes="cscssc" />
    <path
       style="display:inline;fill:#ffffff;stroke:none;stroke-width:1"
       d="m 1910.626,3010.9175 c -25.031,0.6348 -50.1141,0.6022 -75.088,2.156 -23.7098,1.7386 -47.7179,5.6241 -68.4878,14.7851 -20.8778,9.6049 -37.0473,25.7503 -41.1077,44.1633 -3.0122,15.9681 8.2099,32.5278 26.2869,40.8344 16.5303,8.2533 36.287,11.4479 55.5665,13.7464 36.4852,4.8061 73.6194,8.5879 110.7127,6.3249 25.5502,-1.365 51.0945,-3.3712 76.2586,-7.051 18.5213,-2.9373 36.9406,-8.2783 51.2536,-17.882 20.544,-14.1168 25.5078,-38.9835 12.572,-57.3901 -6.5661,-9.5052 -17.8676,-16.6663 -30.4003,-21.4285 -24.7789,-9.2609 -51.9266,-14.4581 -79.2633,-17.0595 -12.7156,-1.0395 -25.5213,-1.2934 -38.3032,-1.199 z"
       id="path3280-8-3"
       inkscape:connector-curvature="0"
       sodipodi:nodetypes="csssc" />
    <path
       style="color:#000000;display:inline;overflow:visible;visibility:visible;fill:#ffffff;fill-opacity:1;fill-rule:nonzero;stroke:none;stroke-width:0.999996px;marker:none;enable-background:accumulate"
       d="m 1987.2378,2924.0675 c 0.7412,22.4835 -1.1706,25.1374 -13.1235,28.9922 -11.9535,3.8545 -30.1843,5.9728 -40.9317,24.483 -10.7482,18.5098 -6.5114,24.1246 -7.239,30.7667 -32.209,25.2837 -36.1693,46.3274 -47.2797,51.4024 -11.1103,5.0752 31.07,7.4638 31.07,7.4638 0,0 5.0271,-18.3455 23.9431,-26.6396 18.9158,-8.2941 11.5753,-40.5593 16.9296,-54.1957 5.3544,-13.6364 30.4875,-17.8239 37.0686,-27.9385 6.5818,-10.1143 2.4588,-23.9852 -0.4374,-34.3343 z"
       id="path4538-7"
       inkscape:connector-curvature="0"
       sodipodi:nodetypes="ccscccsscc" />
    <path
       style="display:inline;fill:#ffffff;fill-rule:evenodd;stroke:none;stroke-width:0.999997px;stroke-linecap:butt;stroke-linejoin:miter;stroke-opacity:1"
       d="m 598.86945,2384.8964 c -19.34905,-1.78 -47.40799,10.9133 -31.13369,47.5442 -35.53273,-24.0046 -85.39954,-32.6228 -97.13229,7.3647 -1.97456,-48.9082 -35.40478,-37.3945 -55.06148,-25.6171 18.70748,-20.0798 1.25206,-34.6025 -17.16699,-35.0345 26.16673,-24.1613 10.15653,-49.566 -5.46375,-64.8211 38.46121,10.3254 28.78494,-13.0346 33.11335,-26.5938 33.35852,29.1792 57.09274,21.1225 75.43906,-7.7797 10.13567,14.9989 13.8,46.6159 49.27407,-3.455 -12.6111,42.5824 4.83006,37.5364 32.8237,15.7674 -4.18829,14.4998 -30.21901,37.2528 14.24495,33.3715 -27.55419,14.6273 -33.05234,33.3043 1.06307,59.2534 z"
       id="path4584-8"
       inkscape:connector-curvature="0"
       sodipodi:nodetypes="cccccccccccc" />
    <path
       style="color:#000000;display:inline;overflow:visible;visibility:visible;fill:#ffffff;fill-opacity:1;fill-rule:nonzero;stroke:none;stroke-width:1px;marker:none;enable-background:accumulate"
       d="m 566.90418,2433.9703 c -4.49071,20.7643 -29.819,22.5061 -39.14304,18.2854 18.79509,23.2288 18.13984,37.6616 -7.37859,39.9015 42.7949,41.8652 7.82346,35.5301 0.92565,46.145 33.60187,14.428 22.46448,36.2948 0.89637,46.3464 38.62208,0.614 29.27223,15.3496 14.64996,36.5542 17.10027,-13.8828 68.23935,-28.3351 52.66851,8.7747 24.77691,-31.7087 29.30721,-27.4341 38.26698,8.4214 7.48423,-30.9183 32.96839,-36.8689 42.713,-3.5246 8.39435,-45.1268 38.34637,-38.7735 56.17573,-16.903 -10.00856,-15.4353 -3.18365,-40.8509 30.93913,-35.711 -2.74657,-14.1493 1.57268,-32.0078 18.80432,-29.6496 -19.84871,-8.5462 -23.50671,-17.3627 13.34781,-26.8498 -28.04415,-0.9167 -54.19554,-2.7973 -21.29363,-35.1514 -10.32221,-0.7827 -34.81279,26.2143 -23.39437,-52.7913 -30.23152,23.2962 -61.999,35.2056 -60.43605,-13.7294 -11.23927,26.4686 -30.73353,39.566 -39.21454,6.5051 -7.00108,30.8837 -28.26601,17.9515 -39.31276,-3.1276 -7.29915,20.9186 -18.21791,35.0474 -39.21448,6.504 z"
       id="path3549-3-7-8"
       inkscape:connector-curvature="0"
       sodipodi:nodetypes="ccccccccccccccccccc" />
    <path
       style="color:#000000;display:inline;overflow:visible;visibility:visible;fill:#ffffff;fill-opacity:1;fill-rule:nonzero;stroke:none;stroke-width:1.03302px;marker:none;enable-background:accumulate"
       d="m 826.81718,2757.8558 c 4.39261,-11.2671 29.16756,-9.0272 38.28791,-5.4305 -18.38449,-15.6443 -17.74356,-23.7903 7.21738,-21.8111 -41.85996,-29.3338 -7.65254,-21.2581 -0.90537,-26.4309 -32.86784,-12.5155 -18.16242,-20.8351 -12.31082,-30.2637 -37.77834,-5.2794 -25.41522,-20.004 -27.00749,-33.2236 -3.2027,5.6879 -18.4178,22.2912 -19.33327,1.4745 -24.98817,16.4857 -55.08576,25.3136 -57.47561,-9.5543 -10.06816,16.0705 -20.10608,22.108 -19.33326,1.4746 -24.94571,23.7125 -47.3629,12.2452 -79.35709,-13.1408 12.96564,20.3144 2.4941,34.1705 -28.80954,17.4489 23.93593,17.0148 8.69677,23.6782 -5.9138,25.065 19.41512,7.4068 22.99326,12.9005 -13.05622,13.6063 27.43151,4.1026 53.01164,8.5124 20.82845,22.7616 10.09677,1.7638 41.03951,4.9651 14.35509,31.3917 17.36191,-12.1568 58.88839,-9.2352 40.63282,19.6172 34.71871,-27.8341 57.07336,-21.0164 65.36905,-1.0818 2.98165,-7.648 15.34513,-9.0573 25.84081,-8.0544 4.05869,3.7221 8.24475,8.6044 12.61311,14.8555 7.13972,-10.9971 17.81997,-17.6597 38.35785,1.2958 z"
       id="path3549-3-7"
       inkscape:connector-curvature="0"
       sodipodi:nodetypes="cccccccccccccccccccc" />
    <path
       style="color:#000000;display:inline;overflow:visible;visibility:visible;fill:#ffffff;fill-opacity:1;fill-rule:nonzero;stroke:none;stroke-width:1px;marker:none;enable-background:accumulate"
       d="m 1425.2177,1085.1328 c 80.0918,-82.1121 18.6409,-154.68778 -67.2831,-207.14725 -67.0115,-40.91276 -1.5003,-29.7247 -1.5003,-29.7247 l 14.7972,-9.58081 c 0,0 204.6945,151.5581 53.9862,246.45276 z"
       id="path3072-06-3"
       inkscape:connector-curvature="0"
       sodipodi:nodetypes="csccc" />
    <path
       style="color:#000000;display:inline;overflow:visible;visibility:visible;fill:#ffffff;fill-opacity:1;fill-rule:nonzero;stroke:none;stroke-width:0.999997px;marker:none;enable-background:accumulate"
       d="m 1106.5796,887.55968 c -7.2565,-28.63573 12.0941,-104.69914 160.8523,-98.43498 148.758,6.26381 172.9464,42.05845 176.5746,52.7969 3.6283,10.73837 35.0731,71.58902 -81.0308,87.6967 -116.1039,16.10759 -220.1136,-0.89493 -256.3961,-42.05862 z"
       id="path3525-9-36"
       inkscape:connector-curvature="0" />
    <path
       style="color:#000000;display:inline;overflow:visible;visibility:visible;fill:#ffffff;fill-opacity:1;fill-rule:nonzero;stroke:none;stroke-width:0.999999px;marker:none;enable-background:accumulate"
       d="m 1465.936,890.13421 c -8.9246,-26.999 14.8742,-98.71475 197.8273,-92.80874 182.953,5.90582 212.7018,39.65459 217.164,49.77924 4.4621,10.12456 43.1352,67.49731 -99.6574,82.68433 -142.793,15.18675 -270.7111,-0.84394 -315.3339,-39.65483 z"
       id="path3525-9-3-6-2-1"
       inkscape:connector-curvature="0" />
    <path
       style="color:#000000;display:inline;overflow:visible;visibility:visible;fill:#ffffff;fill-opacity:1;fill-rule:nonzero;stroke:none;stroke-width:1px;marker:none;enable-background:accumulate"
       d="M 1639.709 875.77344 C 1610.8517 876.61001 1581.3783 881.86449 1556.0407 896.31706 C 1534.7681 909.04617 1522.1333 934.0818 1523.1701 958.68697 C 1522.8704 967.15746 1525.6097 976.17138 1532.319 981.71684 C 1550.2568 1000.5014 1575.3599 1011.1055 1600.7671 1014.8495 C 1623.3658 1018.4261 1646.2378 1020.2605 1669.1094 1020.6465 C 1700.3082 1020.9488 1731.5668 1018.5736 1762.2983 1013.1446 C 1780.0092 1009.7781 1797.9618 1004.8763 1812.988 994.54972 C 1823.6773 987.0295 1832.2712 975.55156 1833.6914 962.2746 C 1835.6879 947.03626 1831.4223 931.10124 1822.3952 918.71083 C 1813.4831 907.64636 1800.0964 901.70444 1787.266 896.45114 C 1761.1131 886.31787 1733.1334 882.34852 1705.4427 879.00294 C 1683.6202 876.6234 1661.6555 875.68529 1639.709 875.77344 z "
       id="path3525-9-3-6-2-1-0"
       inkscape:connector-curvature="0" />
    <path
       style="color:#000000;display:inline;overflow:visible;visibility:visible;fill:#ffffff;fill-opacity:1;fill-rule:nonzero;stroke:none;stroke-width:1px;marker:none;enable-background:accumulate"
       d="m 1578.949,1099.4279 c -53.0613,-49.7817 -29.4916,-102.39863 19.7088,-140.05585 65.1289,-49.84897 36.059,-50.96714 36.059,-50.96714 l -49.0441,25.01022 c 0,0 -125.6001,91.47357 -6.7237,166.01277 z"
       id="path3072-6-2-7"
       inkscape:connector-curvature="0"
       sodipodi:nodetypes="csccc" />
    <path
       style="color:#000000;display:inline;overflow:visible;visibility:visible;fill:#ffffff;fill-opacity:1;fill-rule:nonzero;stroke:none;stroke-width:0.999997px;marker:none;enable-background:accumulate"
       d="m 2251.962,1084.6446 c 33.9016,-49.7817 18.8426,-102.39865 -12.5922,-140.05585 -41.6116,-49.84901 -23.0385,-50.96718 -23.0385,-50.96718 l 31.3349,25.01018 c 0,0 80.2475,91.47365 4.2958,166.01285 z"
       id="path3072-6-2-7-2"
       inkscape:connector-curvature="0"
       sodipodi:nodetypes="csccc" />
    <path
       style="color:#000000;display:inline;overflow:visible;visibility:visible;fill:#ffffff;fill-opacity:1;fill-rule:nonzero;stroke:none;stroke-width:1px;marker:none;enable-background:accumulate"
       d="m 1922.3816,936.72518 c -8.2549,-29.38379 13.7579,-107.4339 182.9805,-101.00618 169.2227,6.42741 196.7388,43.15714 200.8662,54.17591 4.1272,11.01897 39.8978,73.45916 -92.1784,89.98762 -132.0763,16.52805 -250.3945,-0.91844 -291.6683,-43.15735 z"
       id="path3525-9-3-6-2"
       inkscape:connector-curvature="0" />
    <path
       style="color:#000000;display:inline;overflow:visible;visibility:visible;fill:#ffffff;fill-opacity:1;fill-rule:nonzero;stroke:none;stroke-width:1px;marker:none;enable-background:accumulate"
       d="m 1531.9215,1700.5719 c -24.9326,-32.5361 -17.7903,-112.1846 154.2039,-108.0653 149.1685,3.5726 175.8137,33.1471 180.1695,43.7947 4.356,10.6475 39.925,70.397 -75.1009,92.9197 -115.0259,22.5228 -220.1985,10.9605 -259.2725,-28.6491 z"
       id="path3525"
       inkscape:connector-curvature="0"
       sodipodi:nodetypes="cscsc" />
    <path
       style="color:#000000;display:inline;overflow:visible;visibility:visible;fill:#ffffff;fill-opacity:1;fill-rule:nonzero;stroke:none;stroke-width:1px;marker:none;enable-background:accumulate"
       d="m 1608.4632,1651.2723 c 20.1241,-71.6069 -3.7079,-270.868 -119.0026,-400.0031 125.0458,85.3367 158.4871,339.0967 162.3667,382.4641 3.8796,43.3676 -43.3641,17.539 -43.3641,17.539 z"
       id="path4008-2"
       inkscape:connector-curvature="0"
       sodipodi:nodetypes="ccsc" />
    <path
       style="color:#000000;display:inline;overflow:visible;visibility:visible;fill:#ffffff;fill-opacity:1;fill-rule:nonzero;stroke:none;stroke-width:1px;marker:none;enable-background:accumulate"
       d="m 1653.3284,1553.762 c -15.1993,-15.1771 13.0288,-90.0591 170.3837,-84.2591 157.3549,5.7998 182.8632,36.6675 186.6774,45.9177 3.8142,9.2503 35.6783,52.8472 -87.1823,66.3877 -122.8608,13.5404 -248.6588,-5.8024 -269.8788,-28.0463 z"
       id="path3525-9-3-6"
       inkscape:connector-curvature="0"
       sodipodi:nodetypes="csssc" />
    <path
       style="color:#000000;display:inline;overflow:visible;visibility:visible;fill:#ffffff;fill-opacity:1;fill-rule:nonzero;stroke:none;stroke-width:1px;marker:none;enable-background:accumulate"
       d="m 1676.0256,1480.6912 c -5.3771,-17.9761 9.2031,-65.6473 120.3535,-61.4195 111.1503,4.2277 129.1685,26.7283 131.8627,33.4711 2.6942,6.7428 26.0952,44.9742 -60.6895,54.8444 -86.7848,9.87 -164.4796,-1.0036 -191.5267,-26.896 z"
       id="path3525-9-3-6-6"
       inkscape:connector-curvature="0" />
    <path
       style="color:#000000;display:inline;overflow:visible;visibility:visible;fill:#ffffff;fill-opacity:1;fill-rule:nonzero;stroke:none;stroke-width:0.999997px;marker:none;enable-background:accumulate"
       d="m 1778.1481,1508.2253 c -0.5272,-15.2702 94.1578,-85.7703 13.3509,-218.1116 49.7072,116.6017 -25.1629,190.162 -37.214,205.5192 33.8772,28.7674 1.3368,6.4849 23.8631,12.5924 z"
       id="path4024-3"
       inkscape:connector-curvature="0"
       sodipodi:nodetypes="cccc" />
    <path
       style="fill:#ffffff;fill-rule:evenodd;stroke:none;stroke-width:1px;stroke-linecap:butt;stroke-linejoin:miter;stroke-opacity:1"
       d="m 124.19278,372.67305 c 10.96974,15.35417 29.93138,19.58518 49.69826,-1.0377 -0.27588,17.28382 12.18867,19.89091 65.01357,1.20403 -30.3186,23.58768 -17.60126,25.49744 0,24.94744 -25.57067,30.55837 -3.76454,25.82146 5.80582,30.20009 -31.33824,18.45767 -27.23199,27.11855 -12.441,32.82589 -10.56624,11.18171 -26.60212,22.0271 -4.50706,29.76202 -17.27975,3.05101 -33.09297,1.67734 -25.3514,20.13339 -27.43813,-11.67655 -46.58736,-8.48147 -63.03442,-0.43808 -14.19041,-10.70024 -12.25189,-29.02364 -52.060874,-12.68568 22.046754,-18.10259 -0.137741,-22.37665 -17.608791,-28.89374 32.822675,-17.52421 7.199941,-23.62624 -18.246808,-29.76202 46.004602,-2.10738 32.929925,-21.53438 20.735045,-40.70432 21.540351,3.85058 41.243678,10.44234 51.997658,-25.55132 z"
       id="path4489"
       inkscape:connector-curvature="0"
       sodipodi:nodetypes="cccccccccccccc" />
    <path
       style="color:#000000;display:inline;overflow:visible;visibility:visible;fill:#ffffff;fill-opacity:1;fill-rule:nonzero;stroke:none;stroke-width:1px;marker:none;enable-background:accumulate"
       d="m 677.4423,2687.0412 c -9.52719,38.1772 -125.32681,100.137 -236.77661,73.3634 146.69734,41.456 230.8448,-34.6586 244.57651,-44.3624 13.73188,-9.7041 -7.7999,-29.001 -7.7999,-29.001 z"
       id="path4008"
       inkscape:connector-curvature="0"
       sodipodi:nodetypes="ccsc" />
    <path
       style="color:#000000;display:inline;overflow:visible;visibility:visible;fill:#ffffff;fill-opacity:1;fill-rule:nonzero;stroke:none;stroke-width:1.06903px;marker:none;enable-background:accumulate"
       d="M 145.49805 462.33398 C 129.24373 462.49599 112.40529 464.64299 98.085938 472.85938 C 82.396836 482.24952 73.334437 500.78923 73.950567 518.86873 C 73.906515 531.08749 73.479067 543.88068 78.662088 555.25921 C 83.514806 565.79513 92.482965 573.68624 101.65157 580.44708 C 116.47345 591.04863 134.74893 596.26011 152.88718 596.32773 C 167.81898 596.61294 182.84379 595.26825 197.36914 591.73047 C 209.28037 588.67675 221.15155 583.21672 229.03801 573.46234 C 237.38286 563.38586 242.28144 550.9084 245.34961 538.31055 C 248.6161 523.58902 247.78157 507.35582 240.08294 494.09057 C 231.00883 478.2201 214.04064 467.59528 196.06627 465.08121 C 179.39318 462.06951 162.37311 462.29574 145.49805 462.33398 z "
       id="path3565-4"
       inkscape:connector-curvature="0"
       sodipodi:nodetypes="cscsc" />
    <path
       style="color:#000000;display:inline;overflow:visible;visibility:visible;fill:#ffffff;fill-opacity:1;fill-rule:nonzero;stroke:none;stroke-width:0.999998px;marker:none;enable-background:accumulate"
       d="m 265.0009,600.67547 c -5.46768,2.83014 -11.06784,1.9649 -16.76611,-1.10172 -6.35682,-5.3756 -6.05248,-12.01158 -11.87217,-18.04123 -4.58151,-6.01767 -11.97484,-8.97812 -18.55999,-6.24228 -13.43615,3.52688 -27.11021,6.01164 -40.90801,5.4401 -13.12712,-0.31107 -28.21416,-3.718 -36.46697,-17.07489 -8.28721,-15.08736 -8.38533,-36.69372 0.77056,-51.27141 6.43335,-9.67814 21.93051,-9.47867 26.15659,2.78054 1.97734,8.0063 -0.77049,17.0243 3.28011,24.51384 5.311,12.54346 17.25695,18.96727 28.66235,19.21269 6.74453,1.1864 13.62024,2.15057 20.34467,0.11017 6.6518,-1.04265 13.25685,-5.1738 20.01803,-3.35968 8.5505,2.24193 9.04482,13.18402 10.2824,21.50234 1.32089,7.5416 9.28421,16.86911 16.46152,12.76586 8.35724,-5.1656 21.16696,-12.81517 28.9439,-24.66668 -7.31344,14.9393 -17.82945,26.56695 -30.34688,35.43235 z"
       id="path4496-9"
       inkscape:connector-curvature="0"
       inkscape:transform-center-x="20.385683"
       inkscape:transform-center-y="-25.185021"
       sodipodi:nodetypes="cccccccccccccccc" />
    <path
       style="color:#000000;display:inline;overflow:visible;visibility:visible;fill:#ffffff;fill-opacity:1;fill-rule:nonzero;stroke:none;stroke-width:0.999998px;marker:none;enable-background:accumulate"
       d="m 1896.6925,1393.7901 c -4.9145,-30.7215 8.1909,-112.3249 108.9383,-105.6045 100.7473,6.72 117.1291,45.1218 119.5863,56.6423 2.4573,11.5205 23.7535,76.8034 -54.8786,94.0841 -78.6322,17.2806 -149.0734,-0.9603 -173.646,-45.1219 z"
       id="path3525-9-3-6-2-1-0-3"
       inkscape:connector-curvature="0" />
    <path
       style="color:#000000;display:inline;overflow:visible;visibility:visible;fill:#ffffff;fill-opacity:1;fill-rule:nonzero;stroke:none;stroke-width:1px;marker:none;enable-background:accumulate"
       d="m 585.89248,2504.6733 c 23.9892,60.3273 -13.67244,120.8938 -108.14839,209.2922 95.37883,-59.1546 151.749,-145.9316 144.69278,-178.8893 -6.16139,-28.7781 -36.54439,-30.4029 -36.54439,-30.4029 z"
       id="path4008-7"
       inkscape:connector-curvature="0"
       sodipodi:nodetypes="ccsc" />
    <path
       style="color:#000000;display:inline;overflow:visible;visibility:visible;fill:#ffffff;fill-opacity:1;fill-rule:nonzero;stroke:none;stroke-width:0.999998px;marker:none;enable-background:accumulate"
       d="m 468.5436,2394.2004 c -40.31312,54.8854 -75.72847,183.1138 -37.91807,292.6003 -61.60457,-144.6628 4.22365,-294.0375 29.7506,-309.3827 26.46987,-15.9121 8.16747,16.7824 8.16747,16.7824 z"
       id="path4008-9"
       inkscape:connector-curvature="0"
       sodipodi:nodetypes="ccsc" />
    <path
       style="color:#000000;display:inline;overflow:visible;visibility:visible;fill:#ffffff;fill-opacity:1;fill-rule:nonzero;stroke:none;stroke-width:1px;marker:none;enable-background:accumulate"
       d="m 2047.3699,1369.6591 c -26.5396,-37.1566 -31.1925,-95.0702 55.8017,-139.0438 -67.3517,47.4021 -55.1996,91.8111 -25.7778,124.8849 25.3992,28.5524 35.2261,42.7019 35.2261,42.7019 z"
       id="path4440-3"
       inkscape:connector-curvature="0"
       sodipodi:nodetypes="ccscc" />
  </g>
  <g
     inkscape:groupmode="layer"
     id="layer1"
     inkscape:label="txt">
    <text
       id="text4178-0-2-1-1"
       y="442.06793"
       x="156.98526"
       style="font-style:normal;font-variant:normal;font-weight:normal;font-stretch:normal;font-size:9.2552px;line-height:0%;font-family:Lavi;-inkscape-font-specification:Lavi;text-align:center;letter-spacing:0px;word-spacing:0px;text-anchor:middle;fill:#000000;fill-opacity:1;stroke:none;stroke-width:1"
       xml:space="preserve"><tspan
         y="442.06793"
         x="161.88724"
         style="font-weight:bold;font-size:31.3726px;line-height:1.25;stroke-width:1"
         sodipodi:role="line"
         id="tspan10508-3">UPS ! </tspan></text>
    <text
       id="text4178-0-2-1-19"
       y="524.56573"
       x="161.67639"
       style="font-style:normal;font-variant:normal;font-weight:normal;font-stretch:normal;font-size:9.97755px;line-height:0%;font-family:Lavi;-inkscape-font-specification:Lavi;text-align:center;letter-spacing:0px;word-spacing:0px;text-anchor:middle;fill:#000000;fill-opacity:1;stroke:none;stroke-width:1"
       xml:space="preserve"><tspan
         y="524.56573"
         x="161.67639"
         style="font-weight:normal;font-size:33.8212px;line-height:1.25;stroke-width:1"
         sodipodi:role="line"
         id="tspan10508-8">No, no,</tspan><tspan
         y="566.84222"
         x="161.67639"
         style="font-weight:normal;font-size:33.8212px;line-height:1.25;stroke-width:1"
         sodipodi:role="line"
         id="tspan12091">no!</tspan></text>
    <text
       id="text4178-0"
       y="205.2328"
       x="1675.7623"
       style="font-style:normal;font-variant:normal;font-weight:normal;font-stretch:normal;font-size:13.8279px;line-height:0%;font-family:Lavi;-inkscape-font-specification:Lavi;text-align:center;letter-spacing:0px;word-spacing:0px;text-anchor:middle;fill:#000000;fill-opacity:1;stroke:none;stroke-width:1"
       xml:space="preserve"><tspan
         y="205.2328"
         x="1683.0862"
         style="font-style:normal;font-variant:normal;font-weight:bold;font-stretch:normal;font-size:46.8727px;line-height:1.25;font-family:Lavi;-inkscape-font-specification:'Lavi Bold';stroke-width:1"
         sodipodi:role="line"
         id="tspan4245-6-6">Ho ho ho! </tspan></text>
    <text
       id="text4178-0-2"
       y="209.52672"
       x="2023.0582"
       style="font-style:normal;font-variant:normal;font-weight:normal;font-stretch:normal;line-height:0%;font-family:Lavi;-inkscape-font-specification:Lavi;text-align:center;letter-spacing:0px;word-spacing:0px;text-anchor:middle;fill:#000000;fill-opacity:1;stroke:none"
       xml:space="preserve"><tspan
         y="209.52672"
         x="2023.0582"
         style="font-size:40.6767px;line-height:1.25"
         sodipodi:role="line"
         id="tspan446">Mireu això! Em</tspan><tspan
         y="260.37259"
         x="2023.0582"
         style="font-size:40.6767px;line-height:1.25"
         sodipodi:role="line"
         id="tspan680">penso que el crit de la</tspan><tspan
         y="311.21848"
         x="2023.0582"
         style="font-size:40.6767px;line-height:1.25"
         sodipodi:role="line"
         id="tspan688">bèstia ha estat massa</tspan><tspan
         y="362.06433"
         x="2023.0582"
         style="font-size:40.6767px;line-height:1.25"
         sodipodi:role="line"
         id="tspan690">per la sanadora.</tspan></text>
    <text
       xml:space="preserve"
       style="font-style:normal;font-variant:normal;font-weight:normal;font-stretch:normal;font-size:10.42px;line-height:0%;font-family:Lavi;-inkscape-font-specification:Lavi;text-align:center;letter-spacing:0px;word-spacing:0px;text-anchor:middle;fill:#000000;fill-opacity:1;stroke:#000000;stroke-width:3.824;stroke-miterlimit:4;stroke-dasharray:none;stroke-opacity:1"
       x="1657.3848"
       y="845.25244"
       id="text4246-6-5-6-8-2"
       transform="matrix(0.96003343,0,-0.38131292,1.0416304,0,0)"><tspan
         sodipodi:role="line"
         style="font-size:55.1766px;line-height:1.25;fill:#000000;fill-opacity:1;stroke:#000000;stroke-width:3.824;stroke-miterlimit:4;stroke-dasharray:none;stroke-opacity:1"
         x="1657.3848"
         y="845.25244"
         id="tspan4252-7-3-1-7-6">Bua ha ha!</tspan></text>
    <text
       xml:space="preserve"
       style="font-style:normal;font-variant:normal;font-weight:normal;font-stretch:normal;font-size:9.34107px;line-height:0%;font-family:Lavi;-inkscape-font-specification:Lavi;text-align:center;letter-spacing:0px;word-spacing:0px;text-anchor:middle;fill:#000000;fill-opacity:1;stroke:#000000;stroke-width:3.399;stroke-miterlimit:4;stroke-dasharray:none;stroke-opacity:1"
       x="1861.427"
       y="856.27032"
       id="text4246-6-5-6-0-0-7"
       transform="matrix(0.96879238,0,-0.13947748,1.0322129,0,0)"><tspan
         sodipodi:role="line"
         style="font-size:51.342px;line-height:1.25;fill:#000000;fill-opacity:1;stroke:#000000;stroke-width:3.399;stroke-miterlimit:4;stroke-dasharray:none;stroke-opacity:1"
         x="1861.427"
         y="856.27032"
         id="tspan4252-7-3-1-2-9-9">HAHA HA HA!</tspan></text>
    <text
       id="text4178-0-2-1"
       y="950.43658"
       x="1683.7474"
       style="font-style:normal;font-variant:normal;font-weight:normal;font-stretch:normal;font-size:9.2552px;line-height:0%;font-family:Lavi;-inkscape-font-specification:Lavi;text-align:center;letter-spacing:0px;word-spacing:0px;text-anchor:middle;fill:#000000;fill-opacity:1;stroke:none;stroke-width:1"
       xml:space="preserve"><tspan
         y="950.43658"
         x="1683.7474"
         style="font-weight:normal;font-size:31.3726px;line-height:1.25;stroke-width:1"
         sodipodi:role="line"
         id="tspan10508">No només això,</tspan><tspan
         y="989.65234"
         x="1683.7474"
         style="font-weight:bold;font-size:31.3726px;line-height:1.25;stroke-width:1"
         sodipodi:role="line"
         id="tspan844"><tspan
   style="font-weight:normal"
   id="tspan846">a més </tspan>és tot blau!</tspan></text>
    <text
       xml:space="preserve"
       style="font-style:normal;font-variant:normal;font-weight:normal;font-stretch:normal;font-size:8.91093px;line-height:0%;font-family:Lavi;-inkscape-font-specification:Lavi;text-align:center;letter-spacing:0px;word-spacing:0px;text-anchor:middle;fill:#000000;fill-opacity:1;stroke:#000000;stroke-width:3.399;stroke-miterlimit:4;stroke-dasharray:none;stroke-opacity:1"
       x="2345.4421"
       y="885.18958"
       id="text4246-6-5-6-0-0"
       transform="matrix(0.95442151,0,-0.13740852,1.0477551,0,0)"><tspan
         sodipodi:role="line"
         style="font-size:48.9779px;line-height:1.25;fill:#000000;fill-opacity:1;stroke:#000000;stroke-width:3.399;stroke-miterlimit:4;stroke-dasharray:none;stroke-opacity:1"
         x="2345.4421"
         y="885.18958"
         id="tspan4252-7-3-1-2-9">HAHA HA HA!</tspan></text>
    <text
       id="text4178-0-2-1-7"
       y="1337.2585"
       x="2015.7828"
       style="font-style:normal;font-variant:normal;font-weight:normal;font-stretch:normal;font-size:9.2552px;line-height:0%;font-family:Lavi;-inkscape-font-specification:Lavi;text-align:center;letter-spacing:0px;word-spacing:0px;text-anchor:middle;fill:#000000;fill-opacity:1;stroke:none;stroke-width:1"
       xml:space="preserve"><tspan
         y="1337.2585"
         x="2015.7828"
         style="font-weight:normal;font-size:31.3726px;line-height:1.25;stroke-width:1"
         sodipodi:role="line"
         id="tspan11379">I creus </tspan><tspan
         y="1376.4742"
         x="2015.7828"
         style="font-weight:normal;font-size:31.3726px;line-height:1.25;stroke-width:1"
         sodipodi:role="line"
         id="tspan853">que també</tspan><tspan
         y="1415.6901"
         x="2015.7828"
         style="font-weight:normal;font-size:31.3726px;line-height:1.25;stroke-width:1"
         sodipodi:role="line"
         id="tspan855">pot sanar?</tspan></text>
    <text
       id="text4178-0-2-1-7-8"
       y="1471.0532"
       x="1807.2041"
       style="font-style:normal;font-variant:normal;font-weight:normal;font-stretch:normal;font-size:9.2552px;line-height:0%;font-family:Lavi;-inkscape-font-specification:Lavi;text-align:center;letter-spacing:0px;word-spacing:0px;text-anchor:middle;fill:#000000;fill-opacity:1;stroke:none;stroke-width:1"
       xml:space="preserve"><tspan
         y="1471.0532"
         x="1807.2041"
         style="font-weight:normal;font-size:31.3726px;line-height:1.25;stroke-width:1"
         sodipodi:role="line"
         id="tspan11379-3">Buf, quin fàstic!</tspan></text>
    <text
       xml:space="preserve"
       style="font-style:normal;font-variant:normal;font-weight:normal;font-stretch:normal;line-height:0%;font-family:Lavi;-inkscape-font-specification:Lavi;text-align:center;letter-spacing:0px;word-spacing:0px;text-anchor:middle;fill:#000000;fill-opacity:1;stroke:#000000;stroke-width:3.71961;stroke-miterlimit:4;stroke-dasharray:none;stroke-opacity:1"
       x="2084.0078"
       y="1513.5232"
       id="text4246-6-5-6-0"
       transform="matrix(0.98303641,0.00256037,-0.14417769,1.0168808,0,0)"><tspan
         sodipodi:role="line"
         style="font-size:42.3038px;line-height:1.25;fill:#000000;fill-opacity:1;stroke:#000000;stroke-width:3.71961;stroke-miterlimit:4;stroke-dasharray:none;stroke-opacity:1"
         x="2084.0078"
         y="1513.5232"
         id="tspan4252-7-3-1-2">HAHA HA HA!</tspan></text>
    <text
       xml:space="preserve"
       style="font-style:normal;font-variant:normal;font-weight:normal;font-stretch:normal;line-height:0%;font-family:Lavi;-inkscape-font-specification:Lavi;text-align:center;letter-spacing:0px;word-spacing:0px;text-anchor:middle;fill:#000000;fill-opacity:1;stroke:#000000;stroke-width:4.396;stroke-miterlimit:4;stroke-dasharray:none;stroke-opacity:1"
       x="2029.9567"
       y="1586.3424"
       id="text4246-6-5-6"
       transform="matrix(0.96222298,0.01896228,-0.15900417,1.0361267,0,0)"><tspan
         sodipodi:role="line"
         style="font-size:49.9966px;line-height:1.25;fill:#000000;fill-opacity:1;stroke:#000000;stroke-width:4.396;stroke-miterlimit:4;stroke-dasharray:none;stroke-opacity:1"
         x="2029.9567"
         y="1586.3424"
         id="tspan4252-7-3-1">BUA HA HA!</tspan></text>
    <text
       xml:space="preserve"
       style="font-style:normal;font-variant:normal;font-weight:normal;font-stretch:normal;font-size:12.1417px;line-height:0%;font-family:Lavi;-inkscape-font-specification:Lavi;text-align:center;letter-spacing:0px;word-spacing:0px;text-anchor:middle;fill:#000000;fill-opacity:1;stroke:none;stroke-width:1"
       x="1466.2289"
       y="1818.7811"
       id="text4246-3-7-7-6-7-2-9-6-1-4-3-1"
       transform="scale(1.0184904,0.98184529)"><tspan
         sodipodi:role="line"
         style="font-style:normal;font-variant:normal;font-weight:bold;font-stretch:normal;font-size:45.5315px;line-height:1.2;font-family:Lavi;-inkscape-font-specification:'Lavi Bold';stroke-width:1"
         x="1466.2289"
         y="1818.7811"
         id="tspan1249-3">...</tspan></text>
    <text
       xml:space="preserve"
       style="font-style:normal;font-variant:normal;font-weight:normal;font-stretch:normal;font-size:12.7985px;line-height:0%;font-family:Lavi;-inkscape-font-specification:Lavi;text-align:center;letter-spacing:0px;word-spacing:0px;text-anchor:middle;fill:#000000;fill-opacity:1;stroke:none;stroke-width:1.95097;stroke-miterlimit:4;stroke-dasharray:none"
       x="566.53271"
       y="2088.8257"
       id="text4246-6"
       transform="scale(0.87866752,1.1380869)"><tspan
         sodipodi:role="line"
         style="font-style:normal;font-variant:normal;font-weight:normal;font-stretch:normal;font-size:47.9945px;line-height:1.2;font-family:Lavi;-inkscape-font-specification:Lavi;stroke:#000000;stroke-width:1.95097;stroke-miterlimit:4;stroke-dasharray:none;stroke-opacity:1"
         x="566.53271"
         y="2088.8257"
         id="tspan4252-1">EI!</tspan></text>
    <text
       id="text4178-0-1"
       y="2493.2842"
       x="645.75696"
       style="font-style:normal;font-variant:normal;font-weight:normal;font-stretch:normal;font-size:10.2299px;line-height:0%;font-family:Lavi;-inkscape-font-specification:Lavi;text-align:center;letter-spacing:0px;word-spacing:0px;text-anchor:middle;fill:#000000;fill-opacity:1;stroke:none;stroke-width:1"
       xml:space="preserve"><tspan
         y="2493.2842"
         x="645.75696"
         style="font-size:34.6764px;line-height:1.25;stroke-width:1"
         sodipodi:role="line"
         id="tspan14393"><tspan
   style="font-weight:bold"
   id="tspan866">Espera!</tspan> </tspan><tspan
         y="2536.6296"
         x="645.75696"
         style="font-size:34.6764px;line-height:1.25;stroke-width:1"
         sodipodi:role="line"
         id="tspan862">només era</tspan><tspan
         y="2579.9751"
         x="645.75696"
         style="font-size:34.6764px;line-height:1.25;stroke-width:1"
         sodipodi:role="line"
         id="tspan864">broma!</tspan></text>
    <text
       id="text4178-0-1-91"
       y="2702.9065"
       x="749.91443"
       style="font-style:normal;font-variant:normal;font-weight:normal;font-stretch:normal;font-size:12.3717px;line-height:0%;font-family:Lavi;-inkscape-font-specification:Lavi;text-align:center;letter-spacing:0px;word-spacing:0px;text-anchor:middle;fill:#000000;fill-opacity:1;stroke:none;stroke-width:1"
       xml:space="preserve"><tspan
         y="2702.9065"
         x="749.91443"
         style="font-size:41.9363px;line-height:1.25;stroke-width:1"
         sodipodi:role="line"
         id="tspan14393-1">Sanadora!</tspan></text>
    <text
       id="text4178-0-0"
       y="3086.6243"
       x="1901.7178"
       style="font-style:normal;font-variant:normal;font-weight:normal;font-stretch:normal;line-height:0%;font-family:Lavi;-inkscape-font-specification:Lavi;text-align:center;letter-spacing:0px;word-spacing:0px;text-anchor:middle;fill:#000000;fill-opacity:1;stroke:none"
       xml:space="preserve"><tspan
         y="3086.6243"
         x="1901.7178"
         style="font-size:40.6767px;line-height:1.25"
         sodipodi:role="line"
         id="tspan14513">Bentornada.</tspan></text>
    <text
       xml:space="preserve"
       style="font-style:normal;font-variant:normal;font-weight:normal;font-stretch:normal;line-height:0%;font-family:Lavi;-inkscape-font-specification:Lavi;text-align:center;letter-spacing:0px;word-spacing:0px;text-anchor:middle;fill:#ffffff;fill-opacity:1;stroke:#ffffff;stroke-width:3.822;stroke-miterlimit:4;stroke-dasharray:none;stroke-opacity:1;filter:url(#filter5534)"
       x="2028.7821"
       y="2443.6147"
       id="text4213-0"
       transform="matrix(0.75304346,0,-0.11971288,1.3279446,1.5361129,119.83759)"><tspan
         sodipodi:role="line"
         id="tspan4215"
         x="2028.7821"
         y="2443.6147"
         style="font-size:63.5518px;line-height:1.25;fill:#ffffff;stroke:#ffffff;stroke-width:3.822;stroke-miterlimit:4;stroke-dasharray:none">- FI -</tspan></text>
  </g>
</svg>
