<?xml version="1.0" encoding="UTF-8" standalone="no"?>
<!-- Created with Inkscape (http://www.inkscape.org/) -->

<svg
   id="svg2"
   version="1.1"
   inkscape:version="1.2.2 (b0a8486541, 2022-12-01)"
   width="2481"
   height="3503"
   sodipodi:docname="E38P07.svg"
   xmlns:inkscape="http://www.inkscape.org/namespaces/inkscape"
   xmlns:sodipodi="http://sodipodi.sourceforge.net/DTD/sodipodi-0.dtd"
   xmlns:xlink="http://www.w3.org/1999/xlink"
   xmlns="http://www.w3.org/2000/svg"
   xmlns:svg="http://www.w3.org/2000/svg"
   xmlns:rdf="http://www.w3.org/1999/02/22-rdf-syntax-ns#"
   xmlns:cc="http://creativecommons.org/ns#"
   xmlns:dc="http://purl.org/dc/elements/1.1/">
  <metadata
     id="metadata8">
    <rdf:RDF>
      <cc:Work
         rdf:about="">
        <dc:format>image/svg+xml</dc:format>
        <dc:type
           rdf:resource="http://purl.org/dc/dcmitype/StillImage" />
        <dc:title />
      </cc:Work>
    </rdf:RDF>
  </metadata>
  <defs
     id="defs6">
    <linearGradient
       inkscape:collect="always"
       xlink:href="#linearGradient4546"
       id="linearGradient4294-2"
       x1="754.64325"
       y1="1552.0063"
       x2="1186.035"
       y2="1552.0063"
       gradientUnits="userSpaceOnUse" />
    <linearGradient
       inkscape:collect="always"
       id="linearGradient4546">
      <stop
         style="stop-color:#ffffff;stop-opacity:1;"
         offset="0"
         id="stop4548" />
      <stop
         style="stop-color:#fffad3;stop-opacity:1"
         offset="1"
         id="stop4550" />
    </linearGradient>
    <filter
       style="color-interpolation-filters:sRGB"
       id="filter4375-4-1-1-1-9-5-8-8-5-6"
       inkscape:label="soundFX-Creature"
       x="-0.018474392"
       y="-0.069375969"
       width="1.0548272"
       height="1.20589">
      <feFlood
         id="feFlood4377-7-9-0-8-1-7-3-1-2-52"
         flood-opacity="1"
         flood-color="rgb(243,227,152)"
         result="flood" />
      <feComposite
         id="feComposite4379-3-8-8-2-77-4-1-0-6-6"
         in2="SourceGraphic"
         in="flood"
         operator="in"
         result="composite1"
         baseFrequency="0.053999999999999999 0.053999999999999999" />
      <feMorphology
         id="feMorphology4393-1-0-49-8-9-3-0-1-9-5"
         operator="dilate"
         radius="6.2000000000000002"
         result="result3" />
      <feComposite
         id="feComposite4385-9-5-7-0-8-8-7-5-4-8"
         in2="result3"
         in="SourceGraphic"
         operator="over"
         result="fbSourceGraphic" />
      <feColorMatrix
         result="fbSourceGraphicAlpha"
         in="fbSourceGraphic"
         values="0 0 0 -1 0 0 0 0 -1 0 0 0 0 -1 0 0 0 0 1 0"
         id="feColorMatrix4544-9-4-7" />
      <feTurbulence
         id="feTurbulence4546-3-6-0"
         type="fractalNoise"
         numOctaves="5"
         seed="174"
         baseFrequency="0.053999999999999999 0.054054054054054057"
         result="turbulence" />
      <feDisplacementMap
         id="feDisplacementMap4548-8-0-3"
         in2="turbulence"
         in="fbSourceGraphic"
         scale="6.6"
         yChannelSelector="G"
         xChannelSelector="R"
         result="fbSourceGraphic" />
      <feColorMatrix
         result="fbSourceGraphicAlpha"
         in="fbSourceGraphic"
         values="0 0 0 -1 0 0 0 0 -1 0 0 0 0 -1 0 0 0 0 1 0"
         id="feColorMatrix4670-7-7-9" />
      <feFlood
         id="feFlood4672-4-4-60"
         flood-opacity="1"
         flood-color="rgb(175,144,94)"
         result="flood"
         in="fbSourceGraphic" />
      <feComposite
         id="feComposite4674-8-3-4"
         in2="fbSourceGraphic"
         in="flood"
         operator="in"
         result="composite1" />
      <feGaussianBlur
         id="feGaussianBlur4676-3-7-1"
         in="composite1"
         stdDeviation="0"
         result="blur" />
      <feOffset
         id="feOffset4678-6-9-0"
         dx="6"
         dy="6"
         result="offset" />
      <feComposite
         id="feComposite4680-4-0-4"
         in2="offset"
         in="fbSourceGraphic"
         operator="over"
         result="composite2" />
    </filter>
    <filter
       y="-0.14827627"
       height="1.2965525"
       inkscape:label="scream"
       inkscape:menu="Distort"
       inkscape:menu-tooltip="Create a turbulent contour around"
       style="color-interpolation-filters:sRGB;"
       id="filter983"
       x="-0.020715573"
       width="1.0414311">
      <feMorphology
         radius="7"
         operator="dilate"
         result="result8"
         in="SourceGraphic"
         id="feMorphology973" />
      <feComposite
         in2="result8"
         result="result10"
         in="SourceGraphic"
         operator="arithmetic"
         k1="0.5"
         k3="0.5"
         id="feComposite975" />
      <feTurbulence
         result="result11"
         type="fractalNoise"
         numOctaves="3"
         baseFrequency="0.07"
         id="feTurbulence977" />
      <feDisplacementMap
         result="result12"
         in2="result11"
         in="result10"
         xChannelSelector="R"
         scale="10"
         id="feDisplacementMap979" />
      <feComposite
         operator="arithmetic"
         result="result13"
         in="SourceGraphic"
         in2="result12"
         k1="0.25"
         k2="0.25"
         k3="0.75"
         id="feComposite981" />
    </filter>
  </defs>
  <sodipodi:namedview
     pagecolor="#ffffff"
     bordercolor="#666666"
     borderopacity="1"
     objecttolerance="10"
     gridtolerance="10"
     guidetolerance="10"
     inkscape:pageopacity="0"
     inkscape:pageshadow="2"
     inkscape:window-width="1920"
     inkscape:window-height="959"
     id="namedview4"
     showgrid="false"
     inkscape:zoom="0.50373355"
     inkscape:cx="1003.5067"
     inkscape:cy="2690.9067"
     inkscape:window-x="0"
     inkscape:window-y="80"
     inkscape:window-maximized="1"
     inkscape:current-layer="layer3"
     inkscape:showpageshadow="0"
     inkscape:pagecheckerboard="0"
     inkscape:deskcolor="#d1d1d1" />
  <g
     inkscape:groupmode="layer"
     id="layer2"
     inkscape:label="artwork"
     sodipodi:insensitive="true">
    <image
       xlink:href="../gfx_Pepper-and-Carrot_by-David-Revoy_E38P07.png"
       y="0"
       x="0"
       id="image10"
       height="3503"
       width="2481" />
  </g>
  <g
     inkscape:groupmode="layer"
     id="layer3"
     inkscape:label="speechbubbles">
    <path
       style="fill:none;fill-rule:evenodd;stroke:#000000;stroke-width:1px;stroke-linecap:butt;stroke-linejoin:miter;stroke-opacity:1"
       d="m 52.137608,-189.13041 c 442.911262,-41.30437 378.026172,-32.60872 527.543992,-34.78264 149.5178,-2.17391 296.21453,52.17394 457.0167,50.00004 160.8022,-2.1739 335.7099,-67.39134 496.5121,-69.56525 160.8022,-2.17392 344.1731,80.43475 547.2916,71.73915 203.1186,-8.6957 440.0902,-73.91307 662.9564,-78.26089 222.8661,-4.34783 338.5309,8.69566 338.5309,8.69566"
       id="path1405"
       sodipodi:nodetypes="csssssc" />
    <path
       style="fill:none;fill-rule:evenodd;stroke:#000000;stroke-width:1px;stroke-linecap:butt;stroke-linejoin:miter;stroke-opacity:1"
       d="m 1537.8717,-42.982885 c 113.1209,1.078738 146.3785,-7.510067 198.5936,-11.619542 208.8604,-16.437889 322.3714,-16.43791 433.6123,-8.21896 111.2409,8.21896 429.1706,-47.526983 517.7091,-80.402793"
       id="path1020"
       sodipodi:nodetypes="cssc" />
    <path
       style="fill:#ffffff;stroke:none;stroke-width:1.19687"
       d="m 1711.9079,1870.2472 c -22.0543,1.1506 -44.1302,0.867 -66.1964,1.2267 -16.6273,0.4262 -33.334,1.2333 -49.7419,4.7968 -18.706,4.7424 -36.7162,16.1891 -49.2188,34.2785 -8.2556,11.8422 -13.3536,26.9147 -14.3402,42.4962 -1.1727,16.2876 2.1781,32.9102 9.2093,46.745 8.9774,18.2077 23.5609,31.6571 39.7891,38.5672 23.4044,11.5317 48.9192,13.5884 73.8503,14.1722 33.3814,0.2383 66.6521,-4.7279 100.041,-3.7876 19.2506,-0.3738 39.1005,-4.4508 55.7312,-17.0818 15.9707,-11.8464 29.0851,-30.9727 33.1848,-53.7525 3.4858,-21.2104 -1.5632,-43.4587 -10.9188,-61.3766 -9.3095,-17.0941 -24.2954,-28.7996 -40.4222,-33.4897 -23.8701,-8.6169 -48.7951,-11.8697 -73.5849,-12.7321 -2.4609,-0.056 -4.9212,-0.076 -7.3825,-0.063 z"
       id="path3280-81-4"
       inkscape:connector-curvature="0"
       sodipodi:nodetypes="csssc" />
    <path
       style="fill:#ffffff;stroke:none;stroke-width:1"
       d="m 1752.3951,2212.7401 c -29.1996,-28.3355 -25.3776,-48.9 -18.4598,-65.8757 6.9152,-16.9743 5.4331,-34.8074 1.6513,-45.16 -3.7818,-10.3527 -15.458,-24.2791 -24.0065,-30.0394 -8.5495,-5.76 -2.463,-24.988 0.8184,-37.0866 4.3344,-15.985 14.1991,-18.8659 14.1991,-18.8659 0,0 -19.9194,-61.2958 -25.246,-45.8521 -5.3255,15.4433 -13.7202,67.8625 -14.37,74.4864 -0.6488,6.6235 -0.2538,26.7575 6.8528,35.3801 7.1075,8.6222 19.9088,11.1437 26.3236,22.4562 6.6084,11.6536 7.0082,21.5786 4.1393,35.3916 -2.8689,13.813 -5.234,45.0397 7.6892,57.4247 12.9241,12.3845 20.4086,17.7407 20.4086,17.7407 z"
       id="path3023-9"
       inkscape:connector-curvature="0"
       sodipodi:nodetypes="csssscssssssc" />
    <path
       style="fill:none;fill-rule:evenodd;stroke:#000000;stroke-width:1px;stroke-linecap:butt;stroke-linejoin:miter;stroke-opacity:1"
       d="m 114.94018,-52.779968 c 490.25946,-69.039202 581.45326,-76.614922 779.68861,-56.889442 49.55884,4.93137 137.08611,10.684638 243.56441,16.283798 106.4782,5.599161 231.9074,16.715294 357.2699,21.030244 125.3626,4.31495 157.5093,3.719076 263.7211,4.797814"
       id="path20863" />
    <path
       style="display:inline;fill:#ffffff;fill-rule:evenodd;stroke:none;stroke-width:1.15878px;stroke-linecap:butt;stroke-linejoin:miter;stroke-opacity:1"
       d="m 842.66806,2915.7606 c 39.25205,22.5522 19.76482,37.6295 -24.12591,29.9631 62.88134,28.5262 32.24163,28.8663 -3.2364,39.5322 30.16166,9.5317 41.87194,26.7704 -7.09392,46.0611 49.8822,3.4104 74.29274,12.5251 21.39493,35.009 32.78102,-1.3549 85.32682,-11.8697 43.43208,28.6713 72.39017,-20.1676 102.16852,-12.6516 64.69481,37.6915 36.38596,-14.8261 96.20585,-52.3998 74.99305,-11.3134 16.6707,-13.1216 37.8871,-18.0877 76.0068,7.2729 -7.4336,-18.2898 -29.8296,-47.2766 37.4964,-12.1212 -20.3529,-27.5077 -24.4053,-42.4115 43.577,-1.6161 -10.1271,-20.7411 -58.8951,-34.4946 24.2796,-55.2358 -49.9679,-6.534 -33.6258,-29.1125 2.0695,-40.1186 -39.2372,-7.4043 -31.5386,-21.1469 6.0805,-32.3237 -33.1685,-12.1331 -64.3144,-18.216 -8.1075,-50.1012 -78.9662,23.1617 -55.5344,-7.9545 -48.644,-29.8993 -31.2246,18.8242 -62.6969,52.1584 -74.9932,-6.4647 -53.1818,46.6497 -70.4031,14.1828 -88.16782,-0.8081 -28.6838,56.2358 -66.72494,13.4117 -90.72117,-1.7547 21.70996,31.8259 8.91026,37.7372 -48.93475,17.5557 z"
       id="path1096"
       inkscape:connector-curvature="0"
       sodipodi:nodetypes="cccccccccccccccccccc" />
    <path
       style="color:#000000;display:inline;overflow:visible;visibility:visible;fill:#ffffff;fill-opacity:1;fill-rule:nonzero;stroke:none;stroke-width:1px;marker:none;enable-background:accumulate"
       d="m 980.55024,3019.9941 c -29.97528,3.0045 -59.63449,15.0401 -81.88426,36.6118 -20.9018,20.6762 -34.60566,49.9677 -34.80511,80.3054 0.14308,19.9702 1.25999,40.3537 7.76827,59.3075 11.36947,26.3083 35.39875,46.0355 62.44827,51.6157 27.78658,7.0822 56.51463,8.9815 85.02999,9.106 29.4201,-0.026 58.8208,-1.998 88.0778,-5.1449 18.2408,-2.4898 36.993,-6.6526 52.3751,-17.7718 17.9761,-13.3533 28.8832,-35.622 30.8287,-58.3851 2.8185,-23.6777 0.8318,-47.8523 -4.6934,-70.9507 -3.9691,-15.7823 -10.6972,-31.3093 -22.1203,-42.7353 -14.0964,-14.809 -32.8856,-23.388 -51.7362,-29.375 -25.3155,-7.73 -51.7193,-10.1681 -77.89,-12.4777 -17.7751,-1.2008 -35.6178,-1.1409 -53.39886,-0.1059 z"
       id="path3525"
       inkscape:connector-curvature="0" />
    <path
       style="color:#000000;display:inline;overflow:visible;visibility:visible;fill:#ffffff;fill-opacity:1;fill-rule:nonzero;stroke:none;stroke-width:1.06466px;marker:none;enable-background:accumulate"
       d="m 742.14658,2815.2676 c -22.36222,-55.3609 13.92872,-183.4565 185.25256,-172.4806 171.32376,10.9761 199.18146,73.6962 203.35996,92.5123 4.1786,18.816 42.015,137.3527 -93.3227,153.6646 -196.53084,23.6873 -267.44489,-4.7622 -295.28982,-73.6963 z"
       id="path3525-6"
       inkscape:connector-curvature="0"
       sodipodi:nodetypes="sssss" />
    <path
       style="color:#000000;display:inline;overflow:visible;visibility:visible;fill:#ffffff;fill-opacity:1;fill-rule:nonzero;stroke:none;stroke-width:1.14824px;marker:none;enable-background:accumulate"
       d="m 2186.1834,2684.0863 c -31.0948,0.016 -62.6188,1.6608 -92.5137,10.1443 -7.9524,2.322 -15.9178,4.8978 -23.1795,8.7177 -11.3004,6.6357 -18.199,18.6446 -18.8448,30.866 -1.077,11.2634 0.4896,22.9199 5.5606,33.2743 4.8734,9.027 13.7061,15.9863 23.9194,19.5043 14.7418,5.7282 30.7558,7.6345 46.4612,9.7825 34.3372,4.0615 69.0966,2.9114 103.5005,0.2186 23.8958,-1.8054 47.7819,-4.3546 71.2596,-8.9098 11.3392,-2.2961 23.253,-5.6921 31.3203,-13.8257 8.4181,-8.7386 11.1594,-20.7178 11.8534,-32.0679 0.4931,-8.3973 0.1969,-17.3087 -4.5323,-24.7698 -3.8889,-6.738 -11.3273,-10.7665 -18.5989,-13.8792 -8.5389,-3.462 -17.5163,-5.8843 -26.3537,-8.5976 -28.4287,-7.9741 -58.3001,-10.7968 -87.9398,-10.4524 -7.304,-0.013 -14.6082,-0.01 -21.9123,-0.01 z"
       id="path4546-6-0"
       inkscape:connector-curvature="0"
       sodipodi:nodetypes="cssssscsc" />
    <path
       style="color:#000000;display:inline;overflow:visible;visibility:visible;fill:#ffffff;fill-opacity:1;fill-rule:nonzero;stroke:none;stroke-width:1px;marker:none;enable-background:accumulate"
       d="m 2144.6292,2863.8279 c 38.981,-27.949 41.8709,-87.4857 24.9722,-108.5692 -4.3141,-34.7008 25.4997,-3.9606 25.4997,-3.9606 0,0 8.2154,3.3721 8.9152,11.4037 2.0851,23.9328 1.5994,80.4533 -59.3871,101.1261 z"
       id="path3072-7"
       inkscape:connector-curvature="0"
       sodipodi:nodetypes="cccsc" />
    <path
       style="color:#000000;display:inline;overflow:visible;visibility:visible;fill:#ffffff;fill-opacity:1;fill-rule:nonzero;stroke:none;stroke-width:0.999999px;marker:none;enable-background:accumulate"
       d="m 652.82725,2832.4766 c 35.33649,-33.7584 111.05065,-36.7285 137.96153,-22.3639 44.16284,3.4287 4.89767,-21.9668 4.89767,-21.9668 0,0 -4.33452,-7.0393 -14.55445,-7.576 -30.45374,-1.5989 -102.34461,-0.7214 -128.30475,51.9067 z"
       id="path3072-7-2"
       inkscape:connector-curvature="0"
       sodipodi:nodetypes="cccsc" />
    <path
       style="color:#000000;display:inline;overflow:visible;visibility:visible;fill:#ffffff;fill-opacity:1;fill-rule:nonzero;stroke:none;stroke-width:1px;marker:none;enable-background:accumulate"
       d="m 749.2899,3113.326 c 24.21517,16.3962 28.22208,16.2995 39.31406,6.8343 11.09189,-9.4652 23.88747,-26.5184 50.34854,-24.5624 26.46108,1.956 36.66181,14.2093 43.92044,21.8169 5.94319,-17.5954 37.01916,-50.3075 30.82533,-62.6575 -6.19381,-12.3501 47.58234,32.1315 47.58234,32.1315 0,0 -33.61565,39.5866 -53.5733,53.0391 -19.95754,13.4525 -51.10207,-16.4552 -69.12341,-20.5014 -18.02125,-4.0462 -37.05005,18.5815 -51.91623,18.2325 -14.86627,-0.3489 -27.69951,-14.1896 -37.37777,-24.333 z"
       id="path4538"
       inkscape:connector-curvature="0"
       sodipodi:nodetypes="csscscsssc" />
  </g>
  <g
     inkscape:groupmode="layer"
     id="layer1"
     inkscape:label="txt">
    <text
       xml:space="preserve"
       style="color:#000000;font-style:normal;font-variant:normal;font-weight:normal;font-stretch:normal;font-size:127.104px;line-height:0.01%;font-family:Lavi;-inkscape-font-specification:'Lavi, Normal';font-variant-ligatures:normal;font-variant-caps:normal;font-variant-numeric:normal;font-feature-settings:normal;text-align:start;letter-spacing:18.632px;word-spacing:0px;writing-mode:lr-tb;text-anchor:start;display:inline;overflow:visible;visibility:visible;fill:#ffffff;fill-opacity:1;fill-rule:nonzero;stroke:#000000;stroke-width:16.3943;stroke-linecap:butt;stroke-linejoin:miter;stroke-miterlimit:4;stroke-dasharray:none;stroke-dashoffset:0;stroke-opacity:1;marker:none;paint-order:stroke markers fill;filter:url(#filter983);enable-background:accumulate"
       id="text1702"
       transform="matrix(0.71492825,0,0,1.1709411,10.145306,396.61083)"><textPath
         xlink:href="#path20863"
         id="textPath1053"
         style="stroke-width:16.3943">KRii<tspan
   style="font-style:italic;font-variant:normal;font-weight:normal;font-stretch:normal;font-size:114.132px;font-family:Lavi;-inkscape-font-specification:'Lavi Italic';stroke:#000000;stroke-width:16.3943;stroke-dasharray:none;paint-order:stroke markers fill"
   id="tspan19293">iiiii</tspan><tspan
   id="tspan19301"
   style="font-style:italic;font-variant:normal;font-weight:normal;font-stretch:normal;font-size:103.322px;font-family:Lavi;-inkscape-font-specification:'Lavi Italic';stroke:#000000;stroke-width:16.3943;stroke-dasharray:none;paint-order:stroke markers fill">iiiiii</tspan><tspan
   style="font-style:italic;font-variant:normal;font-weight:normal;font-stretch:normal;font-family:Lavi;-inkscape-font-specification:'Lavi Italic'"
   id="tspan5040"><tspan
   style="font-size:116.582px"
   id="tspan5042">ii</tspan>ii</tspan><tspan
   style="font-style:italic;font-variant:normal;font-weight:normal;font-stretch:normal;font-size:108.727px;font-family:Lavi;-inkscape-font-specification:'Lavi Italic';stroke:#000000;stroke-width:16.3943;stroke-dasharray:none;paint-order:stroke markers fill"
   id="tspan19305">ii<tspan
   style="font-size:94.7225px"
   id="tspan5213">ii</tspan></tspan><tspan
   id="tspan19309"
   style="font-style:italic;font-variant:normal;font-weight:normal;font-stretch:normal;font-size:87.1066px;font-family:Lavi;-inkscape-font-specification:'Lavi Italic';stroke:#000000;stroke-width:16.3943;stroke-dasharray:none;paint-order:stroke markers fill">iiii<tspan
   style="font-size:77.1066px;stroke-width:16.3943;stroke-dasharray:none"
   id="tspan1168">ii</tspan><tspan
   id="tspan1172"
   style="font-size:67.1066px;stroke-width:16.3943;stroke-dasharray:none">iiii</tspan></tspan></textPath></text>
    <text
       xml:space="preserve"
       style="color:#000000;font-style:normal;font-variant:normal;font-weight:normal;font-stretch:normal;font-size:127.104px;line-height:0.01%;font-family:Lavi;-inkscape-font-specification:'Lavi, Normal';font-variant-ligatures:normal;font-variant-caps:normal;font-variant-numeric:normal;font-feature-settings:normal;text-align:start;letter-spacing:18.632px;word-spacing:0px;writing-mode:lr-tb;text-anchor:start;display:inline;overflow:visible;visibility:visible;fill:#ffffff;fill-opacity:1;fill-rule:nonzero;stroke:#000000;stroke-width:15.2545;stroke-linecap:butt;stroke-linejoin:miter;stroke-miterlimit:4;stroke-dasharray:none;stroke-dashoffset:0;stroke-opacity:1;marker:none;paint-order:stroke markers fill;filter:url(#filter983);enable-background:accumulate"
       id="text1702-5"
       transform="matrix(0.83262047,0,-0.06932396,1.1613002,163.06909,364.94397)"><textPath
         xlink:href="#path1020"
         id="textPath1059"
         style="stroke-width:15.2545"><tspan
           id="tspan19309-2"
           style="font-style:italic;font-variant:normal;font-weight:normal;font-stretch:normal;font-size:87.1066px;font-family:Lavi;-inkscape-font-specification:'Lavi Italic';stroke:#000000;stroke-width:15.2545;stroke-dasharray:none;paint-order:stroke markers fill"><tspan
   id="tspan21251-7"
   style="font-style:italic;font-variant:normal;font-weight:normal;font-stretch:normal;font-size:67.1066px;font-family:Lavi;-inkscape-font-specification:'Lavi Italic';stroke-width:15.2545;stroke-dasharray:none;paint-order:stroke markers fill">iiii</tspan><tspan
   style="font-style:italic;font-variant:normal;font-weight:normal;font-stretch:normal;font-size:77.1066px;font-family:Lavi;-inkscape-font-specification:'Lavi Italic';stroke-width:15.2545;stroke-dasharray:none;paint-order:stroke markers fill"
   id="tspan21243-0">ii</tspan>iii<tspan
   style="font-style:italic;font-variant:normal;font-weight:normal;font-stretch:normal;font-size:97.1066px;font-family:Lavi;-inkscape-font-specification:'Lavi Italic';stroke-width:15.2545;stroke-dasharray:none;paint-order:stroke markers fill"
   id="tspan21235-9">ii<tspan
   style="font-style:italic;font-variant:normal;font-weight:normal;font-stretch:normal;font-size:117.107px;font-family:Lavi;-inkscape-font-specification:'Lavi Italic';stroke-width:15.2545;stroke-dasharray:none;paint-order:stroke markers fill"
   id="tspan21239-3">iiii<tspan
   style="font-size:132.45px;stroke-width:15.2545"
   id="tspan964">iiii</tspan>ii</tspan>ii</tspan>iiiiiiii</tspan></textPath></text>
    <text
       xml:space="preserve"
       style="color:#000000;font-style:normal;font-variant:normal;font-weight:normal;font-stretch:normal;font-size:155.442px;line-height:0.01%;font-family:Lavi;-inkscape-font-specification:'Lavi, Normal';font-variant-ligatures:normal;font-variant-caps:normal;font-variant-numeric:normal;font-feature-settings:normal;text-align:start;letter-spacing:22.786px;word-spacing:0px;writing-mode:lr-tb;text-anchor:start;display:inline;overflow:visible;visibility:visible;fill:#ffffff;fill-opacity:1;fill-rule:nonzero;stroke:#000000;stroke-width:16.7674;stroke-linecap:butt;stroke-linejoin:miter;stroke-miterlimit:4;stroke-dasharray:none;stroke-dashoffset:0;stroke-opacity:1;marker:none;paint-order:stroke markers fill;filter:url(#filter983);enable-background:accumulate"
       id="text1702-5-5"
       transform="matrix(0.7650768,0.01927012,-0.33341018,1.0376403,-31.270495,1195.6044)"><textPath
         xlink:href="#path1405"
         id="textPath1458"
         style="stroke-width:16.7674;stroke-dasharray:none"><tspan
           id="tspan19309-2-2"
           style="font-style:italic;font-variant:normal;font-weight:normal;font-stretch:normal;font-size:106.527px;font-family:Lavi;-inkscape-font-specification:'Lavi Italic';stroke:#000000;stroke-width:16.7674;stroke-dasharray:none;paint-order:stroke markers fill"><tspan
   id="tspan21251-7-9"
   style="font-style:italic;font-variant:normal;font-weight:normal;font-stretch:normal;font-size:82.0679px;font-family:Lavi;-inkscape-font-specification:'Lavi Italic';stroke-width:16.7674;stroke-dasharray:none;paint-order:stroke markers fill">iiii</tspan><tspan
   style="font-style:italic;font-variant:normal;font-weight:normal;font-stretch:normal;font-size:94.2974px;font-family:Lavi;-inkscape-font-specification:'Lavi Italic';stroke-width:16.7674;stroke-dasharray:none;paint-order:stroke markers fill"
   id="tspan21243-0-1">ii</tspan>iii<tspan
   style="font-style:italic;font-variant:normal;font-weight:normal;font-stretch:normal;font-size:118.756px;font-family:Lavi;-inkscape-font-specification:'Lavi Italic';stroke-width:16.7674;stroke-dasharray:none;paint-order:stroke markers fill"
   id="tspan21235-9-2">ii<tspan
   style="font-style:italic;font-variant:normal;font-weight:normal;font-stretch:normal;font-size:143.216px;font-family:Lavi;-inkscape-font-specification:'Lavi Italic';stroke-width:16.7674;stroke-dasharray:none;paint-order:stroke markers fill"
   id="tspan21239-3-7">iiiiiiiiiiiii</tspan>ii</tspan>iiiiiiiiii<tspan
   id="tspan1334"
   style="font-size:130.986px;stroke-width:16.7674;stroke-dasharray:none">iiii</tspan><tspan
   style="font-size:155.445px;stroke-width:16.7674;stroke-dasharray:none"
   id="tspan1318">iiiiii</tspan><tspan
   id="tspan1336"
   style="font-size:130.986px;stroke-width:16.7674;stroke-dasharray:none">iiii</tspan>iiiiiiii<tspan
   style="font-size:82.0679px;stroke-width:16.7674;stroke-dasharray:none"
   id="tspan1340"><tspan
   style="font-size:95.3877px"
   id="tspan865">i</tspan>iiiii</tspan></tspan></textPath></text>
    <text
       xml:space="preserve"
       style="color:#000000;font-style:normal;font-variant:normal;font-weight:normal;font-stretch:normal;font-size:6.09923px;line-height:0%;font-family:Arial;-inkscape-font-specification:Arial;letter-spacing:0.013901px;word-spacing:0px;clip-rule:nonzero;display:inline;overflow:visible;visibility:visible;isolation:auto;mix-blend-mode:normal;color-interpolation:sRGB;color-interpolation-filters:linearRGB;solid-color:#000000;solid-opacity:1;fill:#d7e3f4;fill-opacity:1;fill-rule:nonzero;stroke:#1e90ff;stroke-width:8.99996;stroke-linecap:butt;stroke-linejoin:miter;stroke-miterlimit:4;stroke-dasharray:none;stroke-dashoffset:0;stroke-opacity:1;marker:none;paint-order:stroke markers fill;color-rendering:auto;image-rendering:auto;shape-rendering:auto;text-rendering:auto;enable-background:accumulate"
       x="1669.2567"
       y="1015.4174"
       id="text4251-9-3-1-9-5-4-7"
       transform="matrix(0.76116187,-0.1181876,-0.08454105,1.3269079,0,0)"
       inkscape:transform-center-x="-111.86567"
       inkscape:transform-center-y="-94.18204"><tspan
         sodipodi:role="line"
         id="tspan4253-3-7-8-7-0-7-4"
         x="1669.2567"
         y="1015.4174"
         style="font-style:normal;font-variant:normal;font-weight:normal;font-stretch:normal;font-size:81.3838px;line-height:1.25;font-family:Lavi;-inkscape-font-specification:Lavi;fill:#d7e3f4;fill-opacity:1;stroke:#1e90ff;stroke-width:8.99996;stroke-dasharray:none;paint-order:stroke markers fill"><tspan
           style="font-size:45.7442px;fill:#d7e3f4;fill-opacity:1;stroke:#1e90ff;stroke-width:8.99996;stroke-dasharray:none;paint-order:stroke markers fill"
           id="tspan4349-9-9-7-3-3-6-4">KR<tspan
   style="font-size:37.0603px;stroke-width:8.99996"
   id="tspan1087">R</tspan>R<tspan
   style="font-size:30.9816px;stroke-width:8.99996"
   id="tspan1091">R</tspan></tspan><tspan
           id="tspan4365-0-3-9-6-6-5-3"
           style="font-size:23.1654px;fill:#d7e3f4;fill-opacity:1;stroke:#1e90ff;stroke-width:8.99996;stroke-dasharray:none;paint-order:stroke markers fill">! </tspan><tspan
           id="tspan4311-9-7-2-1-1-6-0"
           style="font-size:28.3838px;fill:#d7e3f4;fill-opacity:1;stroke:#1e90ff;stroke-width:8.99996;stroke-dasharray:none;paint-order:stroke markers fill">! </tspan><tspan
           id="tspan4369-2-8-0-2-0-9-7"
           style="font-size:36.8564px;fill:#d7e3f4;fill-opacity:1;stroke:#1e90ff;stroke-width:8.99996;stroke-dasharray:none;paint-order:stroke markers fill">!</tspan></tspan></text>
    <text
       xml:space="preserve"
       style="color:#000000;font-style:normal;font-variant:normal;font-weight:normal;font-stretch:normal;font-size:6.09923px;line-height:0%;font-family:Arial;-inkscape-font-specification:Arial;letter-spacing:0.013901px;word-spacing:0px;clip-rule:nonzero;display:inline;overflow:visible;visibility:visible;isolation:auto;mix-blend-mode:normal;color-interpolation:sRGB;color-interpolation-filters:linearRGB;solid-color:#000000;solid-opacity:1;fill:#d7e3f4;fill-opacity:1;fill-rule:nonzero;stroke:#1e90ff;stroke-width:8.99996;stroke-linecap:butt;stroke-linejoin:miter;stroke-miterlimit:4;stroke-dasharray:none;stroke-dashoffset:0;stroke-opacity:1;marker:none;paint-order:stroke markers fill;color-rendering:auto;image-rendering:auto;shape-rendering:auto;text-rendering:auto;enable-background:accumulate"
       x="473.21915"
       y="1593.8789"
       id="text4251-9-3-1-9-5-4-7-6"
       transform="matrix(0.55734135,-0.53170135,0.68836615,1.1375341,0,0)"
       inkscape:transform-center-x="-36.030766"
       inkscape:transform-center-y="-141.19759"><tspan
         sodipodi:role="line"
         id="tspan4253-3-7-8-7-0-7-4-7"
         x="473.21915"
         y="1593.8789"
         style="font-style:normal;font-variant:normal;font-weight:normal;font-stretch:normal;font-size:81.3838px;line-height:1.25;font-family:Lavi;-inkscape-font-specification:Lavi;fill:#d7e3f4;fill-opacity:1;stroke:#1e90ff;stroke-width:8.99996;stroke-dasharray:none;paint-order:stroke markers fill"><tspan
           style="font-size:45.7442px;fill:#d7e3f4;fill-opacity:1;stroke:#1e90ff;stroke-width:8.99996;stroke-dasharray:none;paint-order:stroke markers fill"
           id="tspan4349-9-9-7-3-3-6-4-5">KR<tspan
   style="font-size:37.0603px;stroke-width:8.99996"
   id="tspan1087-3">R</tspan>R<tspan
   style="font-size:30.9816px;stroke-width:8.99996"
   id="tspan1091-5">R</tspan></tspan><tspan
           id="tspan4365-0-3-9-6-6-5-3-6"
           style="font-size:23.1654px;fill:#d7e3f4;fill-opacity:1;stroke:#1e90ff;stroke-width:8.99996;stroke-dasharray:none;paint-order:stroke markers fill">! </tspan><tspan
           id="tspan4311-9-7-2-1-1-6-0-2"
           style="font-size:28.3838px;fill:#d7e3f4;fill-opacity:1;stroke:#1e90ff;stroke-width:8.99996;stroke-dasharray:none;paint-order:stroke markers fill">! </tspan><tspan
           id="tspan4369-2-8-0-2-0-9-7-9"
           style="font-size:36.8564px;fill:#d7e3f4;fill-opacity:1;stroke:#1e90ff;stroke-width:8.99996;stroke-dasharray:none;paint-order:stroke markers fill">!</tspan></tspan></text>
    <text
       xml:space="preserve"
       style="color:#000000;font-style:normal;font-variant:normal;font-weight:normal;font-stretch:normal;font-size:6.09923px;line-height:0%;font-family:Arial;-inkscape-font-specification:Arial;letter-spacing:0.013901px;word-spacing:0px;clip-rule:nonzero;display:inline;overflow:visible;visibility:visible;isolation:auto;mix-blend-mode:normal;color-interpolation:sRGB;color-interpolation-filters:linearRGB;solid-color:#000000;solid-opacity:1;fill:#d7e3f4;fill-opacity:1;fill-rule:nonzero;stroke:#1e90ff;stroke-width:8.99996;stroke-linecap:butt;stroke-linejoin:miter;stroke-miterlimit:4;stroke-dasharray:none;stroke-dashoffset:0;stroke-opacity:1;marker:none;paint-order:stroke markers fill;color-rendering:auto;image-rendering:auto;shape-rendering:auto;text-rendering:auto;enable-background:accumulate"
       x="1393.9362"
       y="1312.9127"
       id="text4251-9-3-1-9-5-4-7-6-1"
       transform="matrix(0.68062479,-0.36067383,0.35416319,1.2815616,0,0)"
       inkscape:transform-center-x="-73.866401"
       inkscape:transform-center-y="-125.59373"><tspan
         sodipodi:role="line"
         id="tspan4253-3-7-8-7-0-7-4-7-2"
         x="1393.9362"
         y="1312.9127"
         style="font-style:normal;font-variant:normal;font-weight:normal;font-stretch:normal;font-size:81.3838px;line-height:1.25;font-family:Lavi;-inkscape-font-specification:Lavi;fill:#d7e3f4;fill-opacity:1;stroke:#1e90ff;stroke-width:8.99996;stroke-dasharray:none;paint-order:stroke markers fill"><tspan
           style="font-size:45.7442px;fill:#d7e3f4;fill-opacity:1;stroke:#1e90ff;stroke-width:8.99996;stroke-dasharray:none;paint-order:stroke markers fill"
           id="tspan4349-9-9-7-3-3-6-4-5-7">KR<tspan
   style="font-size:37.0603px;stroke-width:8.99996"
   id="tspan1087-3-0">R</tspan>R<tspan
   style="font-size:30.9816px;stroke-width:8.99996"
   id="tspan1091-5-9">R</tspan></tspan><tspan
           id="tspan4365-0-3-9-6-6-5-3-6-3"
           style="font-size:23.1654px;fill:#d7e3f4;fill-opacity:1;stroke:#1e90ff;stroke-width:8.99996;stroke-dasharray:none;paint-order:stroke markers fill">! </tspan><tspan
           id="tspan4311-9-7-2-1-1-6-0-2-6"
           style="font-size:28.3838px;fill:#d7e3f4;fill-opacity:1;stroke:#1e90ff;stroke-width:8.99996;stroke-dasharray:none;paint-order:stroke markers fill">! </tspan><tspan
           id="tspan4369-2-8-0-2-0-9-7-9-0"
           style="font-size:36.8564px;fill:#d7e3f4;fill-opacity:1;stroke:#1e90ff;stroke-width:8.99996;stroke-dasharray:none;paint-order:stroke markers fill">!</tspan></tspan></text>
    <text
       xml:space="preserve"
       style="color:#000000;font-style:normal;font-variant:normal;font-weight:normal;font-stretch:normal;font-size:7.84858px;line-height:0%;font-family:Arial;-inkscape-font-specification:Arial;letter-spacing:0.017888px;word-spacing:0px;clip-rule:nonzero;display:inline;overflow:visible;visibility:visible;isolation:auto;mix-blend-mode:normal;color-interpolation:sRGB;color-interpolation-filters:linearRGB;solid-color:#000000;solid-opacity:1;fill:#d7e3f4;fill-opacity:1;fill-rule:nonzero;stroke:#1e90ff;stroke-width:13;stroke-linecap:butt;stroke-linejoin:miter;stroke-miterlimit:4;stroke-dasharray:none;stroke-dashoffset:0;stroke-opacity:1;marker:none;paint-order:stroke markers fill;color-rendering:auto;image-rendering:auto;shape-rendering:auto;text-rendering:auto;enable-background:accumulate"
       x="3224.2419"
       y="706.92328"
       id="text4251-9-3"
       transform="matrix(0.81111136,0.08644936,-0.62443961,1.1663227,0,0)"><tspan
         sodipodi:role="line"
         id="tspan4253-3-7"
         x="3224.2419"
         y="706.92328"
         style="font-style:normal;font-variant:normal;font-weight:normal;font-stretch:normal;font-size:104.726px;line-height:1.25;font-family:Lavi;-inkscape-font-specification:Lavi;fill:#d7e3f4;fill-opacity:1;stroke:#1e90ff;stroke-width:13;stroke-dasharray:none;paint-order:stroke markers fill"><tspan
           style="font-size:58.8643px;fill:#d7e3f4;fill-opacity:1;stroke:#1e90ff;stroke-width:13;stroke-dasharray:none;paint-order:stroke markers fill"
           id="tspan4349-9-9">Knus</tspan><tspan
           id="tspan4365-0-3"
           style="font-size:29.8097px;fill:#d7e3f4;fill-opacity:1;stroke:#1e90ff;stroke-width:13;stroke-dasharray:none;paint-order:stroke markers fill">! </tspan><tspan
           id="tspan4311-9-7"
           style="font-size:36.5247px;fill:#d7e3f4;fill-opacity:1;stroke:#1e90ff;stroke-width:13;stroke-dasharray:none;paint-order:stroke markers fill">! </tspan><tspan
           id="tspan4369-2-8"
           style="font-size:47.4274px;fill:#d7e3f4;fill-opacity:1;stroke:#1e90ff;stroke-width:13;stroke-dasharray:none;paint-order:stroke markers fill">!</tspan></tspan></text>
    <text
       xml:space="preserve"
       style="color:#000000;font-style:normal;font-variant:normal;font-weight:normal;font-stretch:normal;font-size:7.99304px;line-height:0%;font-family:Arial;-inkscape-font-specification:Arial;letter-spacing:0.0182172px;word-spacing:0px;clip-rule:nonzero;display:inline;overflow:visible;visibility:visible;isolation:auto;mix-blend-mode:normal;color-interpolation:sRGB;color-interpolation-filters:linearRGB;solid-color:#000000;solid-opacity:1;fill:#d7e3f4;fill-opacity:1;fill-rule:nonzero;stroke:#1e90ff;stroke-width:13;stroke-linecap:butt;stroke-linejoin:miter;stroke-miterlimit:4;stroke-dasharray:none;stroke-dashoffset:0;stroke-opacity:1;marker:none;paint-order:stroke markers fill;color-rendering:auto;image-rendering:auto;shape-rendering:auto;text-rendering:auto;enable-background:accumulate"
       x="2947.6458"
       y="1483.1553"
       id="text4251-9-3-1"
       transform="matrix(0.70615116,-0.23002193,0.08328681,1.3889975,0,0)"><tspan
         sodipodi:role="line"
         id="tspan4253-3-7-8"
         x="2947.6458"
         y="1483.1553"
         style="font-style:normal;font-variant:normal;font-weight:normal;font-stretch:normal;font-size:106.654px;line-height:1.25;font-family:Lavi;-inkscape-font-specification:Lavi;fill:#d7e3f4;fill-opacity:1;stroke:#1e90ff;stroke-width:13;stroke-dasharray:none;paint-order:stroke markers fill"><tspan
           style="font-size:59.9478px;fill:#d7e3f4;fill-opacity:1;stroke:#1e90ff;stroke-width:13;stroke-dasharray:none;paint-order:stroke markers fill"
           id="tspan4349-9-9-7">Knus</tspan><tspan
           id="tspan4365-0-3-9"
           style="font-size:30.3583px;fill:#d7e3f4;fill-opacity:1;stroke:#1e90ff;stroke-width:13;stroke-dasharray:none;paint-order:stroke markers fill">! </tspan><tspan
           id="tspan4311-9-7-2"
           style="font-size:37.1969px;fill:#d7e3f4;fill-opacity:1;stroke:#1e90ff;stroke-width:13;stroke-dasharray:none;paint-order:stroke markers fill">! </tspan><tspan
           id="tspan4369-2-8-0"
           style="font-size:48.3004px;fill:#d7e3f4;fill-opacity:1;stroke:#1e90ff;stroke-width:13;stroke-dasharray:none;paint-order:stroke markers fill">!</tspan></tspan></text>
    <text
       xml:space="preserve"
       style="color:#000000;font-style:normal;font-variant:normal;font-weight:normal;font-stretch:normal;font-size:8.08201px;line-height:0%;font-family:Arial;-inkscape-font-specification:Arial;letter-spacing:0.01842px;word-spacing:0px;clip-rule:nonzero;display:inline;overflow:visible;visibility:visible;isolation:auto;mix-blend-mode:normal;color-interpolation:sRGB;color-interpolation-filters:linearRGB;solid-color:#000000;solid-opacity:1;fill:#d7e3f4;fill-opacity:1;fill-rule:nonzero;stroke:#1e90ff;stroke-width:13;stroke-linecap:butt;stroke-linejoin:miter;stroke-miterlimit:4;stroke-dasharray:none;stroke-dashoffset:0;stroke-opacity:1;marker:none;paint-order:stroke markers fill;color-rendering:auto;image-rendering:auto;shape-rendering:auto;text-rendering:auto;enable-background:accumulate"
       x="1941.4905"
       y="1610.2644"
       id="text4251-9-3-1-3"
       transform="matrix(0.66640503,-0.36607994,0.46139572,1.2471279,0,0)"><tspan
         sodipodi:role="line"
         id="tspan4253-3-7-8-74"
         x="1941.4905"
         y="1610.2644"
         style="font-style:normal;font-variant:normal;font-weight:normal;font-stretch:normal;font-size:107.842px;line-height:1.25;font-family:Lavi;-inkscape-font-specification:Lavi;fill:#d7e3f4;fill-opacity:1;stroke:#1e90ff;stroke-width:13;stroke-dasharray:none;paint-order:stroke markers fill"><tspan
           style="font-size:60.6151px;fill:#d7e3f4;fill-opacity:1;stroke:#1e90ff;stroke-width:13;stroke-dasharray:none;paint-order:stroke markers fill"
           id="tspan4349-9-9-7-5">Knus</tspan><tspan
           id="tspan4365-0-3-9-2"
           style="font-size:30.6963px;fill:#d7e3f4;fill-opacity:1;stroke:#1e90ff;stroke-width:13;stroke-dasharray:none;paint-order:stroke markers fill">! </tspan><tspan
           id="tspan4311-9-7-2-5"
           style="font-size:37.611px;fill:#d7e3f4;fill-opacity:1;stroke:#1e90ff;stroke-width:13;stroke-dasharray:none;paint-order:stroke markers fill">! </tspan><tspan
           id="tspan4369-2-8-0-4"
           style="font-size:48.838px;fill:#d7e3f4;fill-opacity:1;stroke:#1e90ff;stroke-width:13;stroke-dasharray:none;paint-order:stroke markers fill">!</tspan></tspan></text>
    <text
       xml:space="preserve"
       style="color:#000000;font-style:normal;font-variant:normal;font-weight:normal;font-stretch:normal;font-size:7.85383px;line-height:0%;font-family:Arial;-inkscape-font-specification:Arial;letter-spacing:0.0178999px;word-spacing:0px;clip-rule:nonzero;display:inline;overflow:visible;visibility:visible;isolation:auto;mix-blend-mode:normal;color-interpolation:sRGB;color-interpolation-filters:linearRGB;solid-color:#000000;solid-opacity:1;fill:#d7e3f4;fill-opacity:1;fill-rule:nonzero;stroke:#1e90ff;stroke-width:13;stroke-linecap:butt;stroke-linejoin:miter;stroke-miterlimit:4;stroke-dasharray:none;stroke-dashoffset:0;stroke-opacity:1;marker:none;paint-order:stroke markers fill;color-rendering:auto;image-rendering:auto;shape-rendering:auto;text-rendering:auto;enable-background:accumulate"
       x="2922.2742"
       y="921.79712"
       id="text4251-9-3-1-9"
       transform="matrix(0.78390292,-0.02757059,-0.37349781,1.2888044,0,0)"><tspan
         sodipodi:role="line"
         id="tspan4253-3-7-8-7"
         x="2922.2742"
         y="921.79712"
         style="font-style:normal;font-variant:normal;font-weight:normal;font-stretch:normal;font-size:104.797px;line-height:1.25;font-family:Lavi;-inkscape-font-specification:Lavi;fill:#d7e3f4;fill-opacity:1;stroke:#1e90ff;stroke-width:13;stroke-dasharray:none;paint-order:stroke markers fill"><tspan
           style="font-size:58.9037px;fill:#d7e3f4;fill-opacity:1;stroke:#1e90ff;stroke-width:13;stroke-dasharray:none;paint-order:stroke markers fill"
           id="tspan4349-9-9-7-3">Knus</tspan><tspan
           id="tspan4365-0-3-9-6"
           style="font-size:29.8295px;fill:#d7e3f4;fill-opacity:1;stroke:#1e90ff;stroke-width:13;stroke-dasharray:none;paint-order:stroke markers fill">! </tspan><tspan
           id="tspan4311-9-7-2-1"
           style="font-size:36.5492px;fill:#d7e3f4;fill-opacity:1;stroke:#1e90ff;stroke-width:13;stroke-dasharray:none;paint-order:stroke markers fill">! </tspan><tspan
           id="tspan4369-2-8-0-2"
           style="font-size:47.4592px;fill:#d7e3f4;fill-opacity:1;stroke:#1e90ff;stroke-width:13;stroke-dasharray:none;paint-order:stroke markers fill">!</tspan></tspan></text>
    <text
       xml:space="preserve"
       style="color:#000000;font-style:normal;font-variant:normal;font-weight:normal;font-stretch:normal;font-size:8.7752px;line-height:0%;font-family:Arial;-inkscape-font-specification:Arial;letter-spacing:0.0199998px;word-spacing:0px;clip-rule:nonzero;display:inline;overflow:visible;visibility:visible;isolation:auto;mix-blend-mode:normal;color-interpolation:sRGB;color-interpolation-filters:linearRGB;solid-color:#000000;solid-opacity:1;fill:#d7e3f4;fill-opacity:1;fill-rule:nonzero;stroke:#1e90ff;stroke-width:13;stroke-linecap:butt;stroke-linejoin:miter;stroke-miterlimit:4;stroke-dasharray:none;stroke-dashoffset:0;stroke-opacity:1;marker:none;paint-order:stroke markers fill;color-rendering:auto;image-rendering:auto;shape-rendering:auto;text-rendering:auto;enable-background:accumulate"
       x="2010.15"
       y="1437.974"
       id="text4251-9-3-1-9-5"
       transform="matrix(0.70574997,-0.2585977,0.19389686,1.3458856,0,0)"
       inkscape:transform-center-x="-125.50887"
       inkscape:transform-center-y="-165.47732"><tspan
         sodipodi:role="line"
         id="tspan4253-3-7-8-7-0"
         x="2010.15"
         y="1437.974"
         style="font-style:normal;font-variant:normal;font-weight:normal;font-stretch:normal;font-size:117.09px;line-height:1.25;font-family:Lavi;-inkscape-font-specification:Lavi;fill:#d7e3f4;fill-opacity:1;stroke:#1e90ff;stroke-width:13;stroke-dasharray:none;paint-order:stroke markers fill"><tspan
           style="font-size:65.8141px;fill:#d7e3f4;fill-opacity:1;stroke:#1e90ff;stroke-width:13;stroke-dasharray:none;paint-order:stroke markers fill"
           id="tspan4349-9-9-7-3-3">Knus</tspan><tspan
           id="tspan4365-0-3-9-6-6"
           style="font-size:33.329px;fill:#d7e3f4;fill-opacity:1;stroke:#1e90ff;stroke-width:13;stroke-dasharray:none;paint-order:stroke markers fill">! </tspan><tspan
           id="tspan4311-9-7-2-1-1"
           style="font-size:40.8369px;fill:#d7e3f4;fill-opacity:1;stroke:#1e90ff;stroke-width:13;stroke-dasharray:none;paint-order:stroke markers fill">! </tspan><tspan
           id="tspan4369-2-8-0-2-0"
           style="font-size:53.0269px;fill:#d7e3f4;fill-opacity:1;stroke:#1e90ff;stroke-width:13;stroke-dasharray:none;paint-order:stroke markers fill">!</tspan></tspan></text>
    <text
       xml:space="preserve"
       style="color:#000000;font-style:normal;font-variant:normal;font-weight:normal;font-stretch:normal;font-size:8.85924px;line-height:0%;font-family:Arial;-inkscape-font-specification:Arial;letter-spacing:0.0201914px;word-spacing:0px;clip-rule:nonzero;display:inline;overflow:visible;visibility:visible;isolation:auto;mix-blend-mode:normal;color-interpolation:sRGB;color-interpolation-filters:linearRGB;solid-color:#000000;solid-opacity:1;fill:#d7e3f4;fill-opacity:1;fill-rule:nonzero;stroke:#1e90ff;stroke-width:13;stroke-linecap:butt;stroke-linejoin:miter;stroke-miterlimit:4;stroke-dasharray:none;stroke-dashoffset:0;stroke-opacity:1;marker:none;paint-order:stroke markers fill;color-rendering:auto;image-rendering:auto;shape-rendering:auto;text-rendering:auto;enable-background:accumulate"
       x="2064.3064"
       y="1277.7948"
       id="text4251-9-3-1-9-5-4"
       transform="matrix(0.71247952,-0.25615519,0.19574571,1.3331734,0,0)"
       inkscape:transform-center-x="-127.91888"
       inkscape:transform-center-y="-165.48401"><tspan
         sodipodi:role="line"
         id="tspan4253-3-7-8-7-0-7"
         x="2064.3064"
         y="1277.7948"
         style="font-style:normal;font-variant:normal;font-weight:normal;font-stretch:normal;font-size:118.211px;line-height:1.25;font-family:Lavi;-inkscape-font-specification:Lavi;fill:#d7e3f4;fill-opacity:1;stroke:#1e90ff;stroke-width:13;stroke-dasharray:none;paint-order:stroke markers fill"><tspan
           style="font-size:66.4443px;fill:#d7e3f4;fill-opacity:1;stroke:#1e90ff;stroke-width:13;stroke-dasharray:none;paint-order:stroke markers fill"
           id="tspan4349-9-9-7-3-3-6">Knus</tspan><tspan
           id="tspan4365-0-3-9-6-6-5"
           style="font-size:33.6482px;fill:#d7e3f4;fill-opacity:1;stroke:#1e90ff;stroke-width:13;stroke-dasharray:none;paint-order:stroke markers fill">! </tspan><tspan
           id="tspan4311-9-7-2-1-1-6"
           style="font-size:41.228px;fill:#d7e3f4;fill-opacity:1;stroke:#1e90ff;stroke-width:13;stroke-dasharray:none;paint-order:stroke markers fill">! </tspan><tspan
           id="tspan4369-2-8-0-2-0-9"
           style="font-size:53.5346px;fill:#d7e3f4;fill-opacity:1;stroke:#1e90ff;stroke-width:13;stroke-dasharray:none;paint-order:stroke markers fill">!</tspan></tspan></text>
    <text
       xml:space="preserve"
       style="color:#000000;font-style:normal;font-variant:normal;font-weight:normal;font-stretch:normal;font-size:127.104px;line-height:0.01%;font-family:Lavi;-inkscape-font-specification:'Lavi, Normal';font-variant-ligatures:normal;font-variant-caps:normal;font-variant-numeric:normal;font-feature-settings:normal;text-align:start;letter-spacing:18.632px;word-spacing:0px;writing-mode:lr-tb;text-anchor:start;display:inline;overflow:visible;visibility:visible;fill:#ffffff;fill-opacity:1;fill-rule:nonzero;stroke:#000000;stroke-width:14.2382;stroke-linecap:butt;stroke-linejoin:miter;stroke-miterlimit:4;stroke-dasharray:none;stroke-dashoffset:0;stroke-opacity:1;marker:none;paint-order:stroke markers fill;filter:url(#filter983);enable-background:accumulate"
       id="text1702-5-8"
       transform="matrix(0.72969175,0.13265355,-0.39532797,1.4491407,-1066.8892,1664.8488)"><textPath
         xlink:href="#path1020"
         id="textPath1059-6"
         style="font-style:italic;font-variant:normal;font-weight:normal;font-stretch:normal;font-size:87.1066px;font-family:Lavi;-inkscape-font-specification:'Lavi Italic';stroke:#000000;stroke-width:14.2382;stroke-dasharray:none;paint-order:stroke markers fill"><tspan
           style="font-style:italic;font-variant:normal;font-weight:normal;font-stretch:normal;font-size:120.107px;font-family:Lavi;-inkscape-font-specification:'Lavi Italic';stroke-width:14.2382;stroke-dasharray:none;paint-order:stroke markers fill"
           id="tspan21235-9-3">ii</tspan><tspan
           id="tspan6629"
           style="font-style:italic;font-variant:normal;font-weight:normal;font-stretch:normal;font-size:117.107px;font-family:Lavi;-inkscape-font-specification:'Lavi Italic';stroke-width:14.2382;stroke-dasharray:none;paint-order:stroke markers fill">iiii<tspan
   style="font-size:80.1068px;stroke-width:14.2382;stroke-dasharray:none"
   id="tspan6631"><tspan
   style="font-size:101.25px"
   id="tspan1030">i</tspan><tspan
   style="font-size:88.5934px"
   id="tspan1038">i</tspan>ii</tspan><tspan
   id="tspan6643"
   style="font-size:60.1068px;stroke-width:14.2382;stroke-dasharray:none">ii</tspan></tspan><tspan
           style="font-size:60.1068px;stroke-width:14.2382;stroke-dasharray:none"
           id="tspan6633">ii</tspan><tspan
           id="tspan6647"
           style="font-size:40.1068px;stroke-width:14.2382;stroke-dasharray:none">ii...</tspan></textPath></text>
    <text
       xml:space="preserve"
       style="font-style:normal;font-variant:normal;font-weight:normal;font-stretch:normal;line-height:0%;font-family:Lavi;-inkscape-font-specification:Lavi;letter-spacing:0px;word-spacing:0px;fill:url(#linearGradient4294-2);fill-opacity:1;stroke:none;stroke-width:0.645144;stroke-miterlimit:4;stroke-dasharray:none;stroke-opacity:0;filter:url(#filter4375-4-1-1-1-9-5-8-8-5-6)"
       x="787.65729"
       y="1584.5073"
       id="text4580-6-0-0-0-2"
       transform="matrix(1.1379897,-0.30816684,-0.38734342,1.6685777,941.08311,-513.2977)"><tspan
         sodipodi:role="line"
         id="tspan4582-1-1-0-2-4"
         x="787.65729"
         y="1584.5073"
         style="font-size:93.1495px;line-height:1.25;fill:url(#linearGradient4294-2);fill-opacity:1;stroke:none;stroke-width:0.645144;stroke-miterlimit:4;stroke-dasharray:none;stroke-opacity:0">Dze<tspan
   style="font-size:70.7783px;fill:url(#linearGradient4294-2);fill-opacity:1;stroke-width:0.645144"
   id="tspan4630">ey<tspan
   style="font-size:54.5522px;fill:url(#linearGradient4294-2);stroke-width:0.645144"
   id="tspan5447">o</tspan><tspan
   id="tspan5453"
   style="font-size:41.0427px;fill:url(#linearGradient4294-2);stroke-width:0.645144">o</tspan></tspan><tspan
   style="font-size:55.9281px;fill:url(#linearGradient4294-2);fill-opacity:1;stroke-width:0.645144"
   id="tspan4638">!!!</tspan></tspan></text>
    <text
       id="text4178-0-0"
       y="1932.3154"
       x="1688.9017"
       style="font-style:normal;font-variant:normal;font-weight:normal;font-stretch:normal;font-size:10.372px;line-height:0%;font-family:Lavi;-inkscape-font-specification:Lavi;text-align:center;letter-spacing:0px;word-spacing:0px;text-anchor:middle;fill:#000000;fill-opacity:1;stroke:none;stroke-width:0.999997"
       xml:space="preserve"
       transform="scale(0.99978425,1.0002158)"><tspan
         y="1932.3154"
         x="1688.9017"
         style="font-size:35.1581px;line-height:1.25;stroke-width:0.999997"
         sodipodi:role="line"
         id="tspan1228">Uff, håpar han</tspan><tspan
         y="1976.2631"
         x="1688.9017"
         style="font-size:35.1581px;line-height:1.25;stroke-width:0.999997"
         sodipodi:role="line"
         id="tspan555">syng på siste</tspan><tspan
         y="2020.2107"
         x="1688.9017"
         style="font-size:35.1581px;line-height:1.25;stroke-width:0.999997"
         sodipodi:role="line"
         id="tspan557">verset ...</tspan></text>
    <text
       id="text4178-0"
       y="2707.0676"
       x="937.38867"
       style="font-style:normal;font-variant:normal;font-weight:normal;font-stretch:normal;line-height:0%;font-family:Lavi;-inkscape-font-specification:Lavi;text-align:center;letter-spacing:0px;word-spacing:0px;text-anchor:middle;fill:#000000;fill-opacity:1;stroke:none"
       xml:space="preserve"><tspan
         y="2707.0676"
         x="937.38867"
         style="font-size:40.6767px;line-height:1.25"
         sodipodi:role="line"
         id="tspan614">Dekk meg. </tspan><tspan
         y="2757.9136"
         x="937.38867"
         style="font-size:40.6767px;line-height:1.25"
         sodipodi:role="line"
         id="tspan884">Eg skal få stoppa</tspan><tspan
         y="2808.7593"
         x="937.38867"
         style="font-size:40.6767px;line-height:1.25"
         sodipodi:role="line"
         id="tspan888">kjeften på han</tspan><tspan
         y="2859.6052"
         x="937.38867"
         style="font-size:40.6767px;line-height:1.25"
         sodipodi:role="line"
         id="tspan1398">for godt!</tspan></text>
    <text
       id="text4178-0-4-4"
       y="2985.8853"
       x="1009.0613"
       style="font-style:normal;font-variant:normal;font-weight:normal;font-stretch:normal;line-height:0%;font-family:Lavi;-inkscape-font-specification:Lavi;text-align:center;letter-spacing:0px;word-spacing:0px;text-anchor:middle;fill:#000000;fill-opacity:1;stroke:none"
       xml:space="preserve"><tspan
         y="2985.8853"
         x="1009.0613"
         style="font-weight:bold;font-size:40.6767px;line-height:1.25"
         sodipodi:role="line"
         id="tspan2150">Høyrde du det,</tspan><tspan
         y="3036.7312"
         x="1009.0613"
         style="font-weight:bold;font-size:40.6767px;line-height:1.25"
         sodipodi:role="line"
         id="tspan785">utyske?!</tspan></text>
    <text
       id="text4178-0-4"
       y="3111.4099"
       x="1030.334"
       style="font-style:normal;font-variant:normal;font-weight:normal;font-stretch:normal;line-height:0%;font-family:Lavi;-inkscape-font-specification:Lavi;text-align:center;letter-spacing:0px;word-spacing:0px;text-anchor:middle;fill:#000000;fill-opacity:1;stroke:none"
       xml:space="preserve"><tspan
         y="3111.4099"
         x="1030.334"
         style="font-size:40.6767px;line-height:1.25"
         sodipodi:role="line"
         id="tspan2159">Men pass på</tspan><tspan
         y="3162.2559"
         x="1030.334"
         style="font-size:40.6767px;line-height:1.25"
         sodipodi:role="line"
         id="tspan1056">meg i alle fall,</tspan><tspan
         y="3213.1016"
         x="1030.334"
         style="font-size:40.6767px;line-height:1.25"
         sodipodi:role="line"
         id="tspan1058">lækjarheks ...</tspan></text>
    <text
       id="text4178-0-4-8"
       y="2754.2551"
       x="2196.1013"
       style="font-style:normal;font-variant:normal;font-weight:normal;font-stretch:normal;line-height:0%;font-family:Lavi;-inkscape-font-specification:Lavi;text-align:center;letter-spacing:0px;word-spacing:0px;text-anchor:middle;fill:#000000;fill-opacity:1;stroke:none"
       xml:space="preserve"><tspan
         y="2754.2551"
         x="2196.1013"
         style="font-size:40.6767px;line-height:1.25"
         sodipodi:role="line"
         id="tspan6957-7">Lækjarheks?</tspan></text>
  </g>
</svg>
