<?xml version="1.0" encoding="UTF-8" standalone="no"?>
<svg
   id="svg2"
   version="1.1"
   inkscape:version="1.1 (c4e8f9ed74, 2021-05-24)"
   width="2481"
   height="3503"
   sodipodi:docname="E35P08.svg"
   xmlns:inkscape="http://www.inkscape.org/namespaces/inkscape"
   xmlns:sodipodi="http://sodipodi.sourceforge.net/DTD/sodipodi-0.dtd"
   xmlns:xlink="http://www.w3.org/1999/xlink"
   xmlns="http://www.w3.org/2000/svg"
   xmlns:svg="http://www.w3.org/2000/svg"
   xmlns:rdf="http://www.w3.org/1999/02/22-rdf-syntax-ns#"
   xmlns:cc="http://creativecommons.org/ns#"
   xmlns:dc="http://purl.org/dc/elements/1.1/">
  <metadata
     id="metadata8">
    <rdf:RDF>
      <cc:Work
         rdf:about="">
        <dc:format>image/svg+xml</dc:format>
        <dc:type
           rdf:resource="http://purl.org/dc/dcmitype/StillImage" />
        <dc:title />
      </cc:Work>
    </rdf:RDF>
  </metadata>
  <defs
     id="defs6" />
  <sodipodi:namedview
     pagecolor="#ffffff"
     bordercolor="#666666"
     borderopacity="1"
     objecttolerance="10"
     gridtolerance="10"
     guidetolerance="10"
     inkscape:pageopacity="0"
     inkscape:pageshadow="2"
     inkscape:window-width="1920"
     inkscape:window-height="1011"
     id="namedview4"
     showgrid="false"
     inkscape:zoom="0.52900001"
     inkscape:cx="1180.5293"
     inkscape:cy="2999.9999"
     inkscape:window-x="0"
     inkscape:window-y="0"
     inkscape:window-maximized="1"
     inkscape:current-layer="layer3"
     inkscape:document-rotation="0"
     inkscape:snap-global="false"
     inkscape:pagecheckerboard="0" />
  <g
     inkscape:groupmode="layer"
     id="layer2"
     inkscape:label="artwork"
     sodipodi:insensitive="true">
    <image
       xlink:href="../gfx_Pepper-and-Carrot_by-David-Revoy_E35P08.png"
       width="2481"
       height="3503"
       id="image10"
       x="0"
       y="0" />
  </g>
  <g
     inkscape:groupmode="layer"
     id="layer3"
     inkscape:label="speechbubbles">
    <path
       style="color:#000000;display:inline;overflow:visible;visibility:visible;fill:#ffffff;fill-opacity:1;fill-rule:nonzero;stroke:none;stroke-width:1.06686px;marker:none;enable-background:accumulate"
       d="m 888.8771,236.32309 c -36.64628,0.48599 -72.20263,16.27616 -97.36764,41.06988 -20.09746,18.97342 -32.43974,44.42911 -36.7722,70.73837 -7.80111,36.27891 -6.88602,74.88038 7.04386,109.77508 11.79907,26.86587 36.07103,47.97662 64.40932,59.08949 39.96478,15.94615 85.23928,21.82271 127.84561,12.63693 22.92441,-5.03939 43.81848,-17.32177 59.10205,-34.10661 21.065,-22.36203 32.7393,-51.4776 36.3003,-80.92222 4.4359,-31.94533 2.3914,-65.24908 -9.9949,-95.51327 -9.3782,-21.99248 -25.8643,-41.3752 -47.20106,-54.11179 -30.24525,-19.21426 -66.89392,-29.2272 -103.36534,-28.65586 z"
       id="path3525-27"
       inkscape:connector-curvature="0" />
    <path
       style="color:#000000;display:inline;overflow:visible;visibility:visible;fill:#ffffff;fill-opacity:1;fill-rule:nonzero;stroke:none;stroke-width:1.00874px;marker:none;enable-background:accumulate"
       d="m 1589.6507,336.06836 c -40.4793,0.677 -80.8431,11.37569 -108.8178,30.47271 -32.9661,21.7159 -51.9234,51.70087 -53.4211,82.01557 -2.3107,30.60725 7.8758,62.16163 33.7992,88.11317 13.7494,13.84462 33.1167,25.49035 56.3021,32.45778 31.1766,9.7403 67.1998,11.96831 101.0966,8.02625 25.9986,-2.46756 52.9887,-5.09853 75.7264,-14.19201 38.804,-15.97955 64.0707,-44.99646 64.2696,-74.77429 0.3184,-11.69295 -1.0346,-23.37227 -1.9972,-35.04105 -2.1842,-18.68432 -5.6426,-37.55476 -15.4106,-55.29856 -11.7514,-20.74795 -34.2967,-39.42842 -65.0048,-49.6645 -26.4927,-8.92511 -56.8335,-12.49353 -86.5424,-12.11507 z"
       id="path4040-4-5-3-4"
       inkscape:connector-curvature="0"
       sodipodi:nodetypes="zssssz" />
    <path
       style="fill:#ffffff;fill-rule:evenodd;stroke:none;stroke-width:1.14277px;stroke-linecap:butt;stroke-linejoin:miter;stroke-opacity:1"
       d="m 1570.0144,465.67649 c 3.0987,30.83741 11.5856,59.47611 3.7889,66.37874 -5.2069,29.42714 10.8845,84.76829 -27.9726,97.2687 63.0766,-0.64746 49.4439,-89.40053 58.0802,-122.83664 -1.084,-48.93169 -33.8965,-40.8108 -33.8965,-40.8108 z"
       id="path1085"
       inkscape:connector-curvature="0"
       sodipodi:nodetypes="ccccc" />
    <path
       style="fill:#ffffff;fill-rule:evenodd;stroke:none;stroke-width:1.07869px;stroke-linecap:butt;stroke-linejoin:miter;stroke-opacity:1"
       d="m 1537.4558,1344.4833 c -42.4226,1.8069 -83.4271,22.3731 -106.3345,53.7713 -9.092,17.3661 -6.1692,36.9437 -9.2067,55.3743 -4.0339,45.952 -3.4705,93.0297 11.1297,137.6342 4.9481,12.3277 16.232,21.8105 28.9558,28.1602 28.9137,16.5176 65.092,21.0951 98.8127,16.4596 34.7894,-3.1076 70.3811,-12.1404 97.1587,-32.688 18.013,-13.5661 26.8329,-35.0643 24.972,-55.6222 -0.271,-26.7261 -4.1244,-53.3202 -4.1945,-80.0534 -1.2497,-27.0139 -6.5214,-55.4817 -25.7815,-77.4738 -17.9628,-20.1151 -45.1551,-31.825 -72.3316,-39.5374 -13.9414,-3.8106 -28.5181,-6.4079 -43.1801,-6.0248 z"
       id="path1299"
       inkscape:connector-curvature="0" />
    <path
       style="color:#000000;display:inline;overflow:visible;visibility:visible;fill:#ffffff;fill-opacity:1;fill-rule:nonzero;stroke:none;stroke-width:0.926478px;marker:none;enable-background:accumulate"
       d="m 1531.0092,1596.1183 c -0.6222,20.1649 6.6736,27.0756 10.0721,30.442 3.3984,3.3662 14.9068,8.9022 18.2764,13.791 2.7667,4.0585 10.3483,14.2867 6.9395,16.8185 -3.4088,2.5318 -39.8279,13.4508 -39.569,27.0665 0.2595,13.6163 7.8094,22.062 17.8671,25.0419 10.0575,2.9799 23.1527,7.0659 24.2613,17.1932 1.1078,10.1267 -6.514,17.5302 -11.286,19.742 -27.1053,5.2092 -47.6616,41.4987 -47.6616,41.4987 45.0114,-39.4077 48.8502,-21.7092 63.1997,-38.3236 5.2367,-6.2965 13.2746,-11.5246 11.2311,-22.2221 -2.0434,-10.6976 -1.7938,-21.9409 -17.0229,-26.5544 -9.8097,-4.0323 -14.2999,-6.9835 -14.1441,-10.1193 0.1565,-3.135 5.2164,-10.9397 15.2416,-10.5769 10.0258,0.3634 16.1869,-6.8408 20.9047,-21.0372 5.8565,-14.2808 -11.3944,-28.3269 -12.3251,-34.3003 -5.9525,-9.4188 -20.1936,-48.378 -11.3283,-51.0106 z"
       id="path5058-2"
       inkscape:connector-curvature="0"
       sodipodi:nodetypes="cscsssscccsccscccc" />
    <path
       style="display:inline;fill:#ffffff;fill-rule:evenodd;stroke:none;stroke-width:0.7824px;stroke-linecap:butt;stroke-linejoin:miter;stroke-opacity:1"
       d="m 877.968,2870.1388 -20.1414,-103.137 -20.06484,17.4342 -15.86649,-70.2389 -20.49195,11.5133 26.36659,82.3695 23.57881,-19.15 z"
       id="path4667-2"
       inkscape:connector-curvature="0" />
    <path
       style="display:inline;fill:#ffffff;fill-rule:evenodd;stroke:none;stroke-width:0.800756px;stroke-linecap:butt;stroke-linejoin:miter;stroke-opacity:1"
       d="m 682.33117,2721.47 c 17.58658,-9.7562 33.39725,-42.5286 -3.6892,-77.162 42.20071,11.8434 59.77352,-10.1068 73.68241,-92.6185 34.06991,72.3546 48.80253,51.3106 58.048,24.8341 -2.5869,49.2768 33.04814,42.2858 48.31129,16.0446 -4.9577,76.3831 20.63384,79.0172 43.5994,87.989 -39.26404,11.119 -16.2116,33.6361 -11.28843,52.8383 -46.88903,-15.0176 -61.9634,9.436 -59.2279,55.9848 -18.13836,-12.0405 -41.31769,-48.333 -39.71646,34.5863 -16.29453,-59.6942 -27.92724,-42.7914 -37.92314,1.0069 -5.63912,-20.2619 2.06382,-64.0489 -33.29199,-31.9099 14.15398,-34.8193 6.97849,-60.982 -38.50398,-71.5936 z"
       id="path4584-9"
       inkscape:connector-curvature="0"
       sodipodi:nodetypes="cccccccccccc" />
    <path
       style="color:#000000;display:inline;overflow:visible;visibility:visible;fill:#ffffff;fill-opacity:1;fill-rule:nonzero;stroke:none;stroke-width:1.01599px;marker:none;enable-background:accumulate"
       d="m 915.25633,477.71228 c -4.04952,48.32505 20.65484,106.85492 115.89287,109.89183 -80.33867,-15.35995 -92.0301,-64.16762 -83.52693,-109.83472 7.34037,-39.42391 8.64622,-57.69856 8.64622,-57.69856 z"
       id="path4440-3"
       inkscape:connector-curvature="0"
       sodipodi:nodetypes="ccscc" />
  </g>
  <g
     inkscape:groupmode="layer"
     id="layer1"
     inkscape:label="txt">
    <text
       xml:space="preserve"
       style="font-style:normal;font-variant:normal;font-weight:normal;font-stretch:normal;font-size:45px;line-height:1.25;font-family:Lavi;-inkscape-font-specification:Lavi;text-align:center;letter-spacing:0px;word-spacing:0px;text-anchor:middle;fill:#000000;fill-opacity:1;stroke:none"
       x="897.05707"
       y="337.07599"
       id="text4246-3-2-2-3"><tspan
         style="font-size:45px"
         sodipodi:role="line"
         x="897.05707"
         y="337.07599"
         id="tspan863">Moment!</tspan><tspan
         style="font-size:45px"
         sodipodi:role="line"
         x="897.05707"
         y="393.32599"
         id="tspan1972">Was bin ich</tspan><tspan
         style="font-size:45px"
         sodipodi:role="line"
         x="897.05707"
         y="449.57599"
         id="tspan2902">geworden?</tspan></text>
    <text
       xml:space="preserve"
       style="font-style:normal;font-variant:normal;font-weight:normal;font-stretch:normal;font-size:56px;line-height:1.25;font-family:Lavi;-inkscape-font-specification:Lavi;text-align:center;letter-spacing:0px;word-spacing:0px;text-anchor:middle;fill:#000000;fill-opacity:1;stroke:none"
       x="1590.5607"
       y="429.04697"
       id="text4246-3-2-2-3-3"><tspan
         sodipodi:role="line"
         x="1590.5607"
         y="429.04697"
         id="tspan877-5-2"
         style="font-style:normal;font-variant:normal;font-weight:bold;font-stretch:normal;font-size:56px;font-family:Lavi;-inkscape-font-specification:'Lavi Bold'">Eine</tspan><tspan
         sodipodi:role="line"
         x="1590.5607"
         y="499.04697"
         id="tspan957"
         style="font-style:normal;font-variant:normal;font-weight:bold;font-stretch:normal;font-size:56px;font-family:Lavi;-inkscape-font-specification:'Lavi Bold'">Mörderin?</tspan></text>
    <text
       xml:space="preserve"
       style="font-style:normal;font-variant:normal;font-weight:normal;font-stretch:normal;font-size:53.3405px;line-height:1.25;font-family:Lavi;-inkscape-font-specification:Lavi;text-align:center;letter-spacing:0px;word-spacing:0px;text-anchor:middle;fill:#000000;fill-opacity:1;stroke:none;stroke-width:1.18534"
       x="1550.5575"
       y="1439.3575"
       id="text4246-3-2-2-3-9"><tspan
         style="font-size:53.3405px;stroke-width:1.18534"
         sodipodi:role="line"
         x="1550.5575"
         y="1439.3575"
         id="tspan877-5-7">Eine </tspan><tspan
         style="font-style:normal;font-variant:normal;font-weight:bold;font-stretch:normal;font-size:53.3405px;font-family:Lavi;-inkscape-font-specification:'Lavi Bold';stroke-width:1.18534"
         sodipodi:role="line"
         x="1550.5575"
         y="1506.0332"
         id="tspan996">gemeine</tspan><tspan
         style="font-size:53.3405px;stroke-width:1.18534"
         sodipodi:role="line"
         x="1550.5575"
         y="1572.7087"
         id="tspan998">Hexe?</tspan></text>
    <text
       xml:space="preserve"
       style="font-style:normal;font-variant:normal;font-weight:normal;font-stretch:normal;font-size:104.682px;line-height:1.25;font-family:Lavi;-inkscape-font-specification:Lavi;text-align:center;letter-spacing:0px;word-spacing:0px;text-anchor:middle;fill:#000000;fill-opacity:1;stroke:none;stroke-width:1.18634"
       x="1226.4388"
       y="2652.8953"
       id="text4246-3-2-2-3-9-0"
       transform="matrix(0.90421598,-0.22651773,-0.12390474,1.1369702,0,0)"><tspan
         style="font-style:normal;font-variant:normal;font-weight:bold;font-stretch:normal;font-size:104.682px;font-family:Lavi;-inkscape-font-specification:'Lavi Bold';stroke-width:1.18634"
         sodipodi:role="line"
         x="1226.4388"
         y="2652.8953"
         id="tspan998-6"><tspan
   style="font-size:79.44px;stroke-width:1.18634"
   id="tspan1037">!</tspan><tspan
   id="tspan1045"
   style="font-size:91.8525px;stroke-width:1.18634">!</tspan>!</tspan></text>
  </g>
</svg>
