<?xml version="1.0" encoding="UTF-8" standalone="no"?>
<svg
   xmlns:dc="http://purl.org/dc/elements/1.1/"
   xmlns:cc="http://creativecommons.org/ns#"
   xmlns:rdf="http://www.w3.org/1999/02/22-rdf-syntax-ns#"
   xmlns:svg="http://www.w3.org/2000/svg"
   xmlns="http://www.w3.org/2000/svg"
   xmlns:xlink="http://www.w3.org/1999/xlink"
   xmlns:sodipodi="http://sodipodi.sourceforge.net/DTD/sodipodi-0.dtd"
   xmlns:inkscape="http://www.inkscape.org/namespaces/inkscape"
   sodipodi:docname="E11P04.svg"
   height="3503"
   width="2481"
   inkscape:version="1.0 (4035a4fb49, 2020-05-01)"
   version="1.1"
   id="svg2">
  <sodipodi:namedview
     inkscape:document-rotation="0"
     inkscape:window-maximized="0"
     inkscape:window-y="0"
     inkscape:window-x="0"
     inkscape:current-layer="layer3"
     inkscape:cy="2893.6204"
     inkscape:cx="868.1731"
     inkscape:zoom="0.4"
     showgrid="false"
     id="namedview70"
     inkscape:window-height="955"
     inkscape:window-width="1813"
     inkscape:pageshadow="2"
     inkscape:pageopacity="0"
     bordercolor="#666666"
     pagecolor="#ffffff" />
  <metadata
     id="metadata8">
    <rdf:RDF>
      <cc:Work
         rdf:about="">
        <dc:format>image/svg+xml</dc:format>
        <dc:type
           rdf:resource="http://purl.org/dc/dcmitype/StillImage" />
        <dc:title />
      </cc:Work>
    </rdf:RDF>
  </metadata>
  <defs
     id="defs6" />
  <sodipodi:namedview
     inkscape:current-layer="layer1"
     inkscape:window-maximized="1"
     inkscape:window-y="26"
     inkscape:window-x="0"
     inkscape:cy="1434.1737"
     inkscape:cx="1130.7463"
     inkscape:zoom="0.30245748"
     showgrid="false"
     id="namedview4"
     inkscape:window-height="1025"
     inkscape:window-width="1920"
     inkscape:pageshadow="2"
     inkscape:pageopacity="0"
     guidetolerance="10"
     gridtolerance="10"
     objecttolerance="10"
     borderopacity="1"
     bordercolor="#666666"
     pagecolor="#ffffff" />
  <g
     sodipodi:insensitive="true"
     inkscape:label="artwork"
     id="layer2"
     inkscape:groupmode="layer">
    <image
       sodipodi:absref="C:\Users\stero\Documents\Kernewek\Pepper and Carrot\webcomics\ep11_The-Witches-of-Chaosah\lang\gfx_Pepper-and-Carrot_by-David-Revoy_E11P04.png"
       xlink:href="../gfx_Pepper-and-Carrot_by-David-Revoy_E11P04.png"
       width="2481"
       height="3503"
       id="image10"
       x="0"
       y="0" />
  </g>
  <g
     inkscape:label="speechbubbles"
     id="layer3"
     inkscape:groupmode="layer">
    <path
       sodipodi:nodetypes="ccccccccccccccccc"
       inkscape:connector-curvature="0"
       id="path4043"
       d="m 927.89083,2013.8005 c -4.1565,-23.5484 7.22762,-21.6681 12.33671,-25.7013 -7.87893,-19.5911 1.97607,-42.6542 48.24422,-52.6916 10.7298,-15.6028 48.38724,-27.6723 74.94904,-15.3594 18.0996,-12.2516 47.3631,-12.6001 59.6221,-3.2593 12.6994,-10.7052 30.7956,0.8193 32.4738,3.2302 16.0557,-5.8831 38.8236,-2.1223 47.8722,3.6397 21.3102,-8.673 67.4296,3.8221 66.6975,21.381 25.1751,12.3888 26.9245,27.3092 19.6257,36.4677 19.3373,10.2051 30.5691,58.394 -23.215,63.837 -14.5981,18.3168 -55.466,26.8077 -74.8031,16.6025 -25.9074,5.1703 -42.1088,9.8101 -48.8213,0.1663 -12.6993,10.7051 -46.1227,11.2808 -37.0709,-6.7331 -15.8242,12.0544 -35.1245,16.2336 -50.3113,9.1936 -24.6611,14.2266 -57.12192,2.6612 -57.12032,-10.9327 -35.17466,6.2156 -41.63916,-14.8951 -40.17736,-22.8449 -5.71653,-1.1186 -19.36024,-1.8036 -30.30199,-16.9957 z"
       style="color:#000000;display:inline;overflow:visible;visibility:visible;fill:#ffffff;fill-opacity:1;fill-rule:nonzero;stroke:none;stroke-width:1.03473556px;marker:none;enable-background:accumulate" />
    <path
       inkscape:connector-curvature="0"
       id="path4043-2"
       d="m 1049.7006,2116.9058 c -4.2444,-25.0195 7.3802,-23.0216 12.5972,-27.3069 -8.0454,-20.815 2.0178,-45.3188 49.2633,-55.9832 10.9564,-16.5776 49.4093,-29.401 76.5322,-16.319 18.4821,-13.017 48.3638,-13.3872 60.8817,-3.463 12.9676,-11.3738 31.4462,0.8705 33.1598,3.4321 16.3948,-6.2507 39.6437,-2.2549 48.8833,3.8671 21.7606,-9.2149 68.8541,4.0608 68.1065,22.7167 25.7069,13.1627 27.4933,29.0153 20.0401,38.7459 19.746,10.8426 31.2151,62.0419 -23.7052,67.8249 -14.9065,19.4611 -56.6377,28.4825 -76.3833,17.6398 -26.4546,5.4933 -42.9983,10.4229 -49.8525,0.1766 -12.9677,11.3739 -47.0969,11.9855 -37.8541,-7.1537 -16.1584,12.8075 -35.8664,9.916 -51.374,2.4362 -25.182,15.1153 -58.3286,10.1592 -58.3269,-4.284 -35.9177,6.604 -42.5188,-15.8255 -41.0261,-24.272 -5.8373,-1.1884 -19.7692,-1.9163 -30.942,-18.0575 z"
       style="color:#000000;display:inline;overflow:visible;visibility:visible;fill:#ffffff;fill-opacity:1;fill-rule:nonzero;stroke:none;stroke-width:1.05610979px;marker:none;enable-background:accumulate" />
    <path
       sodipodi:nodetypes="ccccccccccccccccc"
       inkscape:connector-curvature="0"
       id="path4043-2-3"
       d="m 2414.6137,2672.5092 c 5.2954,37.3665 13.0929,36.1278 7.3957,42.6329 9.4211,31.0074 29.1484,67.8547 -23.0956,84.6472 -11.7888,25.0016 -105.3132,43.3239 -135.7507,24.2251 -20.2324,19.8058 -53.4234,20.8871 -67.561,6.2565 -14.144,17.2493 -34.9579,-0.7482 -36.9211,-4.5513 -18.0705,9.6433 -43.9932,4.0739 -54.4005,-4.9249 -23.9631,14.1741 -76.5932,-4.8622 -76.1948,-32.7937 -28.8664,-19.2445 -31.2183,-42.9362 -23.1632,-57.6295 -22.1894,-15.8774 -36.1184,-92.2945 24.7656,-101.9174 16.1107,-29.3863 62.2663,-43.6229 84.4555,-27.7452 29.2646,-8.6874 47.5311,-16.3562 55.3836,-1.1438 14.144,-17.2496 52.0485,-18.767 42.2229,10.0377 17.6558,-19.4512 39.6189,-15.472 57.0217,-4.5519 27.6276,-23.0642 64.5693,-16.232 64.9022,5.382 39.7525,-10.5164 47.6065,22.9326 46.1437,35.5992 6.5129,1.6754 22.0086,2.5189 34.796,26.4771 z"
       style="color:#000000;display:inline;overflow:visible;visibility:visible;fill:#ffffff;fill-opacity:1;fill-rule:nonzero;stroke:none;stroke-width:1px;marker:none;enable-background:accumulate" />
    <path
       sodipodi:nodetypes="cccccccccccccccccccc"
       inkscape:connector-curvature="0"
       id="path3549-3-7"
       d="m 493.09838,3160.6743 c -17.76998,35.3438 -117.99521,38.3076 -154.8909,31.1231 74.37315,39.5387 71.78034,64.1045 -29.19747,67.9188 169.3415,71.2587 30.95792,60.4757 3.66271,78.5447 132.9644,24.5574 73.47478,55.1195 49.80249,85.5436 152.82944,1.045 102.81532,49.8138 109.2568,88.6552 12.95626,-18.2261 74.50783,-73.7143 78.21135,-11.9317 101.08776,-58.9439 222.84545,-97.0184 232.51338,6.1331 40.72997,-51.8927 81.33768,-73.8248 78.21133,-11.9318 100.91591,-80.4995 191.60303,-51.5236 282.82773,-28.7713 23.9598,-24.2968 26.7514,-61.6235 104.2664,-52.8761 -10.8684,-24.0824 15.3037,-40.6364 74.4097,-50.4669 -78.5424,-14.5476 -93.0174,-29.5529 52.818,-45.701 -110.9723,-1.562 -214.4544,-4.7621 -84.2599,-59.8318 -40.8457,-1.3325 -137.7565,44.6192 -92.5729,-89.8594 -70.2362,43.0514 -145.1722,66.8127 -239.14843,-23.369 -44.47441,45.0529 -121.61428,67.3469 -155.1739,11.0723 -12.06202,23.9909 -62.0776,33.0133 -104.53708,34.1075 -16.41916,-9.5296 -33.35357,-22.4732 -51.02544,-39.4313 -28.88326,35.6077 -72.08938,59.6558 -155.17387,11.072 z"
       style="color:#000000;display:inline;overflow:visible;visibility:visible;fill:#ffffff;fill-opacity:1;fill-rule:nonzero;stroke:none;stroke-width:1.08621371px;marker:none;enable-background:accumulate" />
    <path
       inkscape:connector-curvature="0"
       id="path4456"
       d="m 713.9685,3068.6785 c 59.98272,22.9665 72.40603,51.7648 83.09037,71.7564 -3.96986,4.3889 -9.50747,13.9597 -9.50747,13.9597 0,0 23.841,37.6333 29.26881,54.6234 5.42777,16.99 -11.14554,22.2846 -11.14554,22.2846 0,0 -47.75233,-72.1235 -61.50191,-84.8945 11.38696,-11.4395 15.42716,-18.9715 21.27652,-20.8402 -3.09592,-13.0541 -30.38419,-48.0256 -51.48078,-56.8894 z"
       style="color:#000000;display:inline;overflow:visible;visibility:visible;fill:#ffffff;fill-opacity:1;fill-rule:nonzero;stroke:none;stroke-width:1px;marker:none;enable-background:accumulate" />
  </g>
  <g
     inkscape:label="txt"
     id="layer1"
     inkscape:groupmode="layer">
    <path
       inkscape:connector-curvature="0"
       id="path5098"
       d="m 1410.1656,2224.4746 c -0.824,-5.3715 4.3942,-8.0572 4.3942,-8.0572 0,0 -5.2182,-4.1506 0.8239,-8.3014 6.0421,-4.1506 11.5348,0.9767 11.5348,0.9767 0,0 7.69,-8.0572 14.8306,1.2208 7.1407,9.2779 0,14.4052 0,14.4052 0,0 4.1196,9.7664 -6.866,11.9638 -10.9856,2.1974 -14.0066,0.7324 -16.7531,-5.1273 -7.6898,-1.9533 -7.9644,-7.0806 -7.9644,-7.0806 z"
       style="color:#000000;display:inline;overflow:visible;visibility:visible;fill:#ffffff;fill-opacity:1;fill-rule:nonzero;stroke:none;stroke-width:1px;marker:none;enable-background:accumulate" />
    <path
       inkscape:connector-curvature="0"
       id="path5090"
       d="m 1333.0902,2204.0312 c 4.0416,-10.1338 13.0576,-10.7479 13.0576,-10.7479 0,0 -0.3109,-7.6772 5.907,-11.9763 6.218,-4.2992 13.6795,0.3071 13.6795,0.3071 0,0 10.2596,-1.5355 15.2339,7.9841 4.9744,9.5196 8.3942,14.1259 3.7308,23.6455 3.4199,5.2204 0,16.2754 -4.9743,18.425 -4.9744,2.1496 -17.0993,5.8345 -23.9391,-5.2205 -5.5962,1.8426 -22.6954,3.0709 -22.6954,-22.417 z"
       style="color:#000000;display:inline;overflow:visible;visibility:visible;fill:#ffffff;fill-opacity:1;fill-rule:nonzero;stroke:none;stroke-width:1px;marker:none;enable-background:accumulate" />
    <flowRoot
       transform="translate(753.04179,1697.0696)"
       style="font-style:normal;font-variant:normal;font-weight:normal;font-stretch:normal;line-height:0.01%;font-family:Lavi;-inkscape-font-specification:Lavi;text-align:center;letter-spacing:0px;word-spacing:0px;text-anchor:middle;fill:#000000;fill-opacity:1;stroke:none"
       id="flowRoot2987-4-9-3-5-9-8-3-5-4"
       xml:space="preserve"><flowRegion
         id="flowRegion2989-5-4-5-8-9-5-4-2-2"><rect
           style="font-style:normal;font-variant:normal;font-weight:normal;font-stretch:normal;font-family:Lavi;-inkscape-font-specification:Lavi;text-align:center;text-anchor:middle"
           y="265.53046"
           x="120.55251"
           height="358.25998"
           width="497.70953"
           id="rect2991-7-9-6-5-7-5-4-9-5" /></flowRegion><flowPara
         id="flowPara3030-8-1-8-7-8-3-5"
         style="font-size:45px;line-height:1.25;text-align:center;text-anchor:middle">An myghtern?...</flowPara></flowRoot>
    <flowRoot
       transform="translate(869.66915,1804.7426)"
       style="font-style:normal;font-variant:normal;font-weight:normal;font-stretch:normal;line-height:0.01%;font-family:Lavi;-inkscape-font-specification:Lavi;text-align:center;letter-spacing:0px;word-spacing:0px;text-anchor:middle;fill:#000000;fill-opacity:1;stroke:none"
       id="flowRoot2987-4-9-3-5-9-8-3-5-4-0"
       xml:space="preserve"><flowRegion
         id="flowRegion2989-5-4-5-8-9-5-4-2-2-5"><rect
           style="font-style:normal;font-variant:normal;font-weight:normal;font-stretch:normal;font-family:Lavi;-inkscape-font-specification:Lavi;text-align:center;text-anchor:middle"
           y="265.53046"
           x="120.55251"
           height="358.25998"
           width="497.70953"
           id="rect2991-7-9-6-5-7-5-4-9-5-4" /></flowRegion><flowPara
         id="flowPara4229"
         style="font-size:45px;line-height:1.25;text-align:center;text-anchor:middle">...mar yowynk?!</flowPara></flowRoot>
    <flowRoot
       transform="translate(1824.8381,2394.4537)"
       style="font-style:normal;font-variant:normal;font-weight:normal;font-stretch:normal;line-height:0.01%;font-family:Lavi;-inkscape-font-specification:Lavi;text-align:center;letter-spacing:0px;word-spacing:0px;text-anchor:middle;fill:#000000;fill-opacity:1;stroke:none"
       id="flowRoot2987-4-9-3-5-9-8-3-5-4-0-5"
       xml:space="preserve"><flowRegion
         id="flowRegion2989-5-4-5-8-9-5-4-2-2-5-0"><rect
           style="font-style:normal;font-variant:normal;font-weight:normal;font-stretch:normal;font-family:Lavi;-inkscape-font-specification:Lavi;text-align:center;text-anchor:middle"
           y="265.53046"
           x="120.55251"
           height="358.25998"
           width="497.70953"
           id="rect2991-7-9-6-5-7-5-4-9-5-4-3" /></flowRegion><flowPara
         id="flowPara3360"
         style="font-size:45px;line-height:1.25;text-align:center;text-anchor:middle">An keth oos on </flowPara><flowPara
         id="flowPara40"
         style="font-size:45px;line-height:1.25;text-align:center;text-anchor:middle">dell hevel...</flowPara></flowRoot>
    <path
       inkscape:connector-curvature="0"
       id="path5090-2"
       d="m 2210.6349,2528.6131 c 2.0696,-13.9994 -8.3532,-20.0368 -8.3532,-20.0368 0,0 5.6241,-8.6102 1.0865,-17.2136 -4.5378,-8.6035 -16.6613,-7.7412 -16.6613,-7.7412 0,0 -11.2882,-7.8287 -23.7806,0.1332 -12.4925,7.9618 -19.7553,11.2152 -20.6573,24.8788 -7.6828,3.9568 -11.1303,18.6435 -6.6181,24.0487 4.5121,5.4054 16.5736,16.7998 32.3596,8.1827 5.4699,5.4216 25.1937,16.9447 42.6244,-12.2518 z"
       style="color:#000000;display:inline;overflow:visible;visibility:visible;fill:#ffffff;fill-opacity:1;fill-rule:nonzero;stroke:none;stroke-width:1px;marker:none;enable-background:accumulate" />
    <path
       inkscape:transform-center-y="-31.014805"
       inkscape:transform-center-x="27.255435"
       inkscape:connector-curvature="0"
       id="path5098-4"
       d="m 2115.1571,2425.2289 c 5.9597,0.3755 7.5527,6.7768 7.5527,6.7768 0,0 5.7336,-4.7662 8.6939,2.8948 2.9601,7.6609 -3.8878,12.4964 -3.8878,12.4964 0,0 6.7409,10.4141 -4.9613,16.0754 -11.7021,5.6615 -15.4383,-3.4455 -15.4383,-3.4455 0,0 -11.4816,2.2104 -11.1307,-10.4391 0.3508,-12.6495 2.6649,-15.6332 9.6214,-17.2627 3.9875,-8.0194 9.5501,-7.0961 9.5501,-7.0961 z"
       style="color:#000000;display:inline;overflow:visible;visibility:visible;fill:#ffffff;fill-opacity:1;fill-rule:nonzero;stroke:none;stroke-width:1px;marker:none;enable-background:accumulate" />
    <flowRoot
       transform="translate(395.37547,2950.7834)"
       style="font-style:normal;font-variant:normal;font-weight:normal;font-stretch:normal;line-height:0.01%;font-family:Lavi;-inkscape-font-specification:Lavi;text-align:center;letter-spacing:0px;word-spacing:0px;text-anchor:middle;fill:#000000;fill-opacity:1;stroke:none"
       id="flowRoot2987-4-9-3-5-9-8-3-5-4-0-5-5"
       xml:space="preserve"><flowRegion
         id="flowRegion2989-5-4-5-8-9-5-4-2-2-5-0-8"><rect
           style="font-style:normal;font-variant:normal;font-weight:normal;font-stretch:normal;font-family:Lavi;-inkscape-font-specification:Lavi;text-align:center;text-anchor:middle"
           y="277.03046"
           x="22.802517"
           height="185.26804"
           width="756.479"
           id="rect2991-7-9-6-5-7-5-4-9-5-4-3-2" /></flowRegion><flowPara
         id="flowPara44"
         style="font-size:45px;line-height:1.25;text-align:center;text-anchor:middle">Prag yth esos ow hockya? Ke yn-rag! Gwra y dhifuna, y dhelenwel, </flowPara><flowPara
         id="flowPara48"
         style="font-size:45px;line-height:1.25;text-align:center;text-anchor:middle">gorr own dhodho!</flowPara></flowRoot>
  </g>
</svg>
