<?xml version="1.0" encoding="UTF-8" standalone="no"?>
<svg
   xmlns:dc="http://purl.org/dc/elements/1.1/"
   xmlns:cc="http://creativecommons.org/ns#"
   xmlns:rdf="http://www.w3.org/1999/02/22-rdf-syntax-ns#"
   xmlns:svg="http://www.w3.org/2000/svg"
   xmlns="http://www.w3.org/2000/svg"
   xmlns:xlink="http://www.w3.org/1999/xlink"
   xmlns:sodipodi="http://sodipodi.sourceforge.net/DTD/sodipodi-0.dtd"
   xmlns:inkscape="http://www.inkscape.org/namespaces/inkscape"
   id="svg2"
   version="1.1"
   inkscape:version="0.92.4 (5da689c313, 2019-01-14)"
   width="2481"
   height="3503"
   sodipodi:docname="E34P08.svg">
  <metadata
     id="metadata8">
    <rdf:RDF>
      <cc:Work
         rdf:about="">
        <dc:format>image/svg+xml</dc:format>
        <dc:type
           rdf:resource="http://purl.org/dc/dcmitype/StillImage" />
        <dc:title />
      </cc:Work>
    </rdf:RDF>
  </metadata>
  <defs
     id="defs6" />
  <sodipodi:namedview
     pagecolor="#ffffff"
     bordercolor="#666666"
     borderopacity="1"
     objecttolerance="10"
     gridtolerance="10"
     guidetolerance="10"
     inkscape:pageopacity="0"
     inkscape:pageshadow="2"
     inkscape:window-width="1858"
     inkscape:window-height="1057"
     id="namedview4"
     showgrid="false"
     inkscape:zoom="0.3478261"
     inkscape:cx="954.17249"
     inkscape:cy="1449.0274"
     inkscape:window-x="54"
     inkscape:window-y="-8"
     inkscape:window-maximized="1"
     inkscape:current-layer="layer3"
     inkscape:document-rotation="0"
     inkscape:snap-global="false"
     borderlayer="true" />
  <g
     inkscape:groupmode="layer"
     id="layer2"
     inkscape:label="artwork"
     sodipodi:insensitive="true">
    <image
       sodipodi:absref="D:\Documents\code\webcomics\new-ep34_The-Knighting-of-Shichimi\lang\id\../gfx_Pepper-and-Carrot_by-David-Revoy_E34P08.png"
       xlink:href="../gfx_Pepper-and-Carrot_by-David-Revoy_E34P08.png"
       width="2481"
       height="3503"
       id="image10"
       x="0"
       y="0" />
  </g>
  <g
     inkscape:groupmode="layer"
     id="layer3"
     inkscape:label="speechbubbles"
     style="display:inline">
    <path
       style="color:#000000;display:inline;overflow:visible;visibility:visible;fill:#ffffff;fill-opacity:1;fill-rule:nonzero;stroke:none;stroke-width:0.770224px;marker:none;enable-background:accumulate"
       d="m 1858.8745,2602.7661 c 24.645,-31.5484 88.5186,-58.8546 134.0691,-29.1667 47.5832,1.2392 31.3766,-27.3129 31.3766,-27.3129 -2.2798,-13.3723 -128.0086,-31.4485 -165.4457,56.4796 z"
       id="path3984-7"
       inkscape:connector-curvature="0"
       sodipodi:nodetypes="cccc" />
    <path
       style="display:inline;fill:#ffffff;stroke:none;stroke-width:1.51901305"
       d="m 2136.4607,2621.515 c -48.603,1.4778 -97.9253,13.2072 -137.6653,39.0529 -63.643,43.0006 -94.9958,120.9905 -76.0232,190.4855 9.175,37.8135 35.9035,72.5398 73.9856,91.3036 37.0334,18.6508 79.4371,26.2223 121.2198,30.4579 61.7511,5.7074 124.7959,-1.0188 183.6289,-18.6517 33.1737,-10.5923 60.3868,-34.6574 73.1655,-64.0475 12.6821,-28.154 15.0122,-58.9708 15.0567,-89.0254 -1.0487,-46.0785 -18.9158,-91.7788 -50.248,-128.3041 -14.7608,-17.2083 -36.0318,-29.7538 -59.5586,-34.9104 -27.6246,-6.0237 -55.9027,-9.0675 -83.9903,-12.7728 -19.75,-2.2686 -39.6422,-3.8493 -59.5711,-3.588 z"
       id="path3280-8-3"
       inkscape:connector-curvature="0"
       sodipodi:nodetypes="csssc" />
    <path
       style="color:#000000;display:inline;overflow:visible;visibility:visible;fill:#ffffff;fill-opacity:1;fill-rule:nonzero;stroke:none;stroke-width:0.728515px;marker:none;enable-background:accumulate"
       d="m 2152.1088,2472.571 c -41.7584,-0.9701 -84.0784,3.662 -123.2497,17.4105 -14.7151,5.29 -29.2257,12.7608 -38.8403,24.7234 -12.0315,15.1252 -17.9022,34.0355 -18.41,52.7878 -0.1046,18.5638 7.1715,37.6624 21.8731,50.5903 11.7363,10.1785 26.957,15.6751 41.7542,20.7364 27.1244,9.1294 55.5564,14.2904 84.0868,17.5432 18.9775,2.1752 38.0323,3.74 57.1042,4.8757 16.8858,0.6093 33.7178,-1.6169 50.1146,-5.1354 23.7549,-4.5131 47.7514,-10.3879 68.4689,-22.4672 14.7362,-8.7345 27.1907,-21.7633 32.0384,-37.6643 6.5761,-20.4107 1.5862,-43.6413 -12.6138,-60.4231 -11.8436,-15.4162 -25.9168,-29.9854 -43.9326,-39.2111 -15.1977,-7.5829 -32.0986,-11.3046 -48.7019,-15.0934 -22.8853,-4.9277 -46.2523,-7.7894 -69.6919,-8.6728 z"
       id="path3970-3"
       inkscape:connector-curvature="0"
       sodipodi:nodetypes="cccscsc" />
    <path
       style="display:inline;fill:#ffffff;fill-rule:evenodd;stroke:none;stroke-width:1.45587385px;stroke-linecap:butt;stroke-linejoin:miter;stroke-opacity:1"
       d="m 116.78195,2641.7804 c 47.89787,34.3032 39.07862,49.2786 -28.442621,44.2493 107.649781,52.6745 63.210701,60.5585 -4.946603,61.4575 45.753724,19.2394 96.379664,38.0667 -8.656454,70.0615 60.869428,5.1873 113.906078,12.5118 9.893074,62.6867 53.964474,-2.0608 88.970034,-23.0652 23.884454,45.2318 88.33508,-30.676 169.00372,-21.0164 123.27588,55.5583 44.40046,-22.5513 117.39632,-79.7033 91.51132,-17.208 20.34252,-19.9588 46.23206,-27.5125 92.74808,11.0623 -9.07057,-27.82 -36.39969,-71.9105 45.75567,-18.4372 -24.83599,-41.8408 -1.02019,-84.0944 81.93636,-22.0423 -12.358,-31.5483 -94.39305,-43.5123 7.10186,-75.0606 -69.91191,-3.1464 -48.22631,-24.5015 -3.70985,-50.395 -83.24728,-14.3105 -42.05869,-31.6377 7.41983,-49.166 -51.56338,-6.6811 -91.34386,-17.9326 -9.89321,-76.2073 -89.65425,24.1926 -63.70893,-16.7244 -59.35886,-45.4785 -41.37373,22.8323 -88.16188,58.6699 -91.51145,-9.8332 -55.50143,84.9902 -76.51589,20.0137 -107.58776,-1.2291 -32.31772,101.1306 -105.57869,7.9261 -126.13717,1.2291 41.92529,41.3926 49.2454,60.1343 -43.28255,13.5207 z"
       id="path1096"
       inkscape:connector-curvature="0"
       sodipodi:nodetypes="cccccccccccccccccccc" />
    <path
       style="fill:#ffffff;fill-rule:evenodd;stroke:none;stroke-width:1px;stroke-linecap:butt;stroke-linejoin:miter;stroke-opacity:1"
       d="m 308.31749,2677.6 c 22.24357,147.5922 76.16994,294.7462 66.72409,442.7767 39.32721,-7.5351 57.02691,-43.538 110.60404,61.3044 36.13567,-50.5432 43.46402,-9.9468 54.08883,20.3938 25.92501,-21.2619 53.62712,-17.4156 81.20022,-15.3921 -24.07084,-2.6294 -42.56765,-23.176 -74.42406,-0.7793 -0.99204,-50.5675 -24.7242,-64.2967 -53.19608,-40.6932 -22.25284,-65.4923 -46.37098,-77.5206 -92.38131,-54.9383 1.82968,-175.1557 -47.49605,-279.4592 -67.44658,-422.2765 z"
       id="path1313"
       sodipodi:nodetypes="cccccccccc"
       inkscape:connector-curvature="0" />
    <path
       style="color:#000000;display:inline;overflow:visible;visibility:visible;fill:#ffffff;fill-opacity:1;fill-rule:nonzero;stroke:none;stroke-width:1.37475169px;marker:none;enable-background:accumulate"
       d="m 112.08073,3003.9727 c 2.81699,-42.4765 9.16785,-76.1738 44.10852,-94.8593 34.94068,-18.6853 98.47092,-22.3584 179.07096,-15.008 43.17375,3.9372 104.51946,9.6703 138.92547,27.4197 34.4061,17.7488 41.87225,47.5133 38.24684,109.7344 -3.62539,62.2209 -16.30428,95.3659 -56.10235,110.7925 -39.79808,15.4267 -106.71545,13.1348 -121.282,14.7045 -38.08751,-4.9421 -111.52809,2.0672 -158.21547,-11.013 -46.68749,-13.0801 -66.62156,-46.2498 -64.75197,-141.7708 z"
       id="path4546-6-0"
       inkscape:connector-curvature="0"
       sodipodi:nodetypes="cssssscsc" />
    <path
       style="fill:#ffffff;fill-rule:evenodd;stroke:none;stroke-width:1.61929011px;stroke-linecap:butt;stroke-linejoin:miter;stroke-opacity:1"
       d="m 201.26439,2649.8057 c 43.01873,-50.2257 45.79403,-5.139 67.9761,36.2923 21.56268,-30.6102 6.25943,-37.0801 55.68743,2.3088 10.25813,-60.6152 33.45431,-43.015 61.51298,-10.9502 -9.71483,-42.6242 -10.27138,-62.5771 32.81605,-25.9228 10.92826,-48.4233 32.73891,-13.1777 63.28811,10.3696 -7.41927,-54.7029 -11.00004,-54.5433 51.56815,-44.9322 -43.4867,-48.1984 14.38989,-26.491 58.59997,-20.7394 -66.3566,-37.391 -42.41102,-30.7833 23.44024,-27.6509 -81.70224,-30.9514 -86.54563,-26.6667 -9.37613,-63.9433 -115.05109,11.1753 -104.2068,9.8366 -28.12807,-55.302 -45.6691,5.5174 -164.32908,82.943 -91.41617,13.8262 -62.33769,18.2513 -90.22849,39.2565 -57.55088,-20.9763 l -22.92465,-1.0234 c -23.75397,21.8995 -51.42165,56.4771 -55.47683,11.6299 -34.69562,33.519 -32.72527,39.1189 -49.22399,-3.4564 -22.92372,57.8645 -26.47101,13.0651 -39.84836,-24.1945 -30.11256,34.7634 -30.39355,74.5428 -49.224,19.0097 -13.10952,56.5135 -39.63455,16.4098 -77.35222,-10.3684 11.76383,61.5083 15.12072,60.8806 -42.192187,22.4662 21.493487,56.1578 -0.146772,44.3678 -60.94394,41.4758 72.793157,49.6039 49.608512,48.1051 -23.4402544,82.9544 40.8119484,5.5208 113.4656814,-28.793 75.0082254,17.2813 90.146806,-28.1852 17.585446,45.1113 -4.687978,82.953 80.544954,-57.7667 113.941514,-104.5155 121.888404,-31.1074 z"
       id="path1309"
       inkscape:connector-curvature="0"
       sodipodi:nodetypes="ccccccccccccccccccccccccc" />
    <path
       style="display:inline;fill:#ffffff;stroke:none;stroke-width:1.09435141"
       d="m 1990.7717,1897.0734 c -44.7028,2.8025 -88.8375,11.6422 -127.9647,25.9943 -26.3114,9.6896 -50.3903,21.9821 -69.515,36.8935 -49.8449,37.7672 -61.3688,86.6745 -59.5979,134.5148 -0.2807,39.7764 2.2497,79.8925 39.4094,111.915 35.5981,31.3755 85.9111,42.7557 145.8015,54.3656 35.0222,6.9403 94.1877,14.6043 130.5921,18.289 50.4727,3.3685 87.1157,2.3789 135.8975,-6.5509 43.5224,-7.9461 78.365,-22.2854 120.6642,-33.3718 37.2186,-21.7774 52.393,-50.6002 70.4807,-79.6904 18.3491,-29.1446 28.2336,-60.8452 21.2977,-91.6078 -6.0612,-31.432 -18.1387,-63.0997 -45.4187,-89.8377 -26.6643,-25.9376 -66.5574,-46.0112 -111.8215,-58.5327 -59.3489,-16.9838 -125.7079,-23.1688 -191.4047,-23.791 -19.466,-0.041 -38.9712,0.287 -58.4206,1.4101 z"
       id="path3280-5"
       inkscape:connector-curvature="0"
       sodipodi:nodetypes="csssccccccccccc" />
    <path
       style="color:#000000;display:inline;overflow:visible;visibility:visible;fill:#ffffff;fill-opacity:1;fill-rule:nonzero;stroke:none;stroke-width:0.869755px;marker:none;enable-background:accumulate"
       d="m 631.52816,1840.5303 c 47.24511,-27.3875 115.83444,-55.1086 154.24551,3.9472 23.5574,-4.8627 69.71482,-40.1263 115.42935,17.7336 -47.53609,-35.9834 -78.50267,-15.4767 -118.07887,4.9225 -18.59072,-41.5285 -83.01307,-49.4207 -140.96132,7.1368 -57.94866,56.5566 -38.62415,45.003 -38.62415,45.003 l 10.52452,-62.5977 z"
       id="path5074-8"
       inkscape:connector-curvature="0"
       sodipodi:nodetypes="ccccsccc" />
    <path
       style="display:inline;fill:#ffffff;stroke:none;stroke-width:1.20541286"
       d="m 473.50221,1809.6055 c -42.51523,0.6202 -85.9574,2.8871 -125.85881,14.1083 -52.54351,15.3776 -92.43144,50.1228 -103.70515,89.4906 -8.0884,26.0118 -7.33739,53.7456 5.05514,79.025 11.87906,23.3857 37.46007,42.7535 68.81251,53.7349 15.7694,5.7353 32.97836,9.0777 50.31593,11.4444 28.71944,4.2459 57.73567,7.586 86.92986,9.6772 65.2409,4.2645 133.03941,0.3106 193.42066,-18.7444 20.44431,-6.5084 40.41312,-14.7612 55.4674,-26.7076 20.70858,-17.5909 29.85881,-40.2604 35.3664,-62.4104 6.70738,-28.9396 2.33092,-60.0042 -18.46546,-85.7743 -21.41759,-26.0108 -58.89935,-44.2053 -99.56719,-52.0684 -40.84594,-8.5105 -83.6352,-10.583 -125.9653,-11.8245 -7.26844,-0.084 -14.53844,-0.064 -21.80599,0.049 z"
       id="path3280-5-9"
       inkscape:connector-curvature="0"
       sodipodi:nodetypes="csssc" />
    <path
       style="color:#000000;display:inline;overflow:visible;visibility:visible;fill:#ffffff;fill-opacity:1;fill-rule:nonzero;stroke:none;stroke-width:1.23214px;marker:none;enable-background:accumulate"
       d="m 1555.6124,284.94746 c 6.0676,-105.76337 71.0968,-182.47388 294.973,-163.46234 119.9204,10.18345 256.0449,16.63628 248.5465,171.56664 -7.4986,154.93009 -203.1001,151.7186 -243.4414,155.49977 -40.3409,3.78143 -230.475,-12.62073 -267.7163,-65.16602 -23.3124,-32.89174 -32.7301,-65.68853 -32.3618,-98.43805 z"
       id="path4546-7"
       inkscape:connector-curvature="0"
       sodipodi:nodetypes="cssssc" />
    <path
       style="fill:#ffffff;fill-rule:evenodd;stroke:none;stroke-width:1px;stroke-linecap:butt;stroke-linejoin:miter;stroke-opacity:1"
       d="m 1583.1971,228.38894 -0.065,25.78758 C 1064.4433,130.64867 897.1794,416.85146 793.5913,670.33743 810.89342,604.71047 848.83107,539.01086 867.11504,495.25305 921.33848,365.48369 1120.9039,126.81475 1583.1971,228.38894 Z"
       id="path1237"
       sodipodi:nodetypes="cccsc" />
    <path
       style="fill:#ffffff;fill-rule:evenodd;stroke:none;stroke-width:1.07745px;stroke-linecap:butt;stroke-linejoin:miter;stroke-opacity:1"
       d="m 792.00008,200.22561 c 33.7121,12.97476 64.18552,21.04152 53.82517,-32.7734 59.67262,73.06177 51.11263,23.02436 60.55332,5.4622 35.47754,51.61057 66.00304,44.25569 92.51203,-10.9244 14.9859,79.59467 46.3453,41.03052 74.0097,29.1319 -0.067,22.38327 -36.304,58.75533 63.962,16.82898 -23.3402,20.21595 -61.89,54.06155 8.0172,33.79483 -11.3289,5.35959 9.1441,9.60416 0.9908,12.75937 -36.4893,14.12075 -43.292,45.94822 12.0303,57.21953 -39.0932,12.56052 -47.9639,43.98583 -1.9312,80.13352 -58.4566,-24.94281 -49.6253,8.03409 -38.8085,23.94457 -57.4032,-32.71188 -65.4347,-19.61526 -60.5532,5.4622 -18.3198,-22.87975 -39.2236,-32.45983 -79.58358,6.55438 9.02795,-23.43417 -34.88368,-22.77173 -75.40616,14.31454 21.33941,-35.68177 -8.79121,-40.48012 -42.33642,-17.95604 -8.84776,-37.9175 -42.07125,-18.66554 -77.37369,5.46231 28.81487,-37.0083 30.90291,-67.92573 -25.23053,-85.57523 54.398,-21.17144 44.4926,-38.24845 23.54851,-54.62242 20.69208,-15.39734 34.18357,-32.16999 -20.18444,-61.90552 31.78763,4.6228 65.63406,10.58278 31.95869,-27.31132 z"
       id="path4582"
       inkscape:connector-curvature="0"
       sodipodi:nodetypes="cccccccscccccccccccc" />
    <path
       style="fill:#ffffff;fill-rule:evenodd;stroke:none;stroke-width:1.14149px;stroke-linecap:butt;stroke-linejoin:miter;stroke-opacity:1"
       d="m 186.64099,269.10219 c 14.16793,-17.9695 21.6656,-57.67395 -26.96962,-49.84375 39.28832,-24.22773 26.02054,-46.39487 -3.9116,-60.30611 73.97307,21.84758 73.30597,-3.1264 61.65626,-34.98976 47.54155,45.23929 40.41961,-2.73478 35.84699,-20.87523 10.75548,16.73933 13.0223,42.92164 49.60085,2.10678 -0.32028,30.13252 -6.17118,65.92523 62.1714,25.78584 -22.50387,36.76194 -23.29348,63.59943 42.00483,60.23151 -28.38205,11.84018 -67.58994,23.8538 -13.96314,34.38016 -34.61657,-0.92979 -57.61576,1.55757 -42.76886,15.17701 -14.37392,-2.5435 -33.83306,-9.95842 -3.30801,30.50934 -20.80242,-14.97453 -46.52652,-38.26005 -39.11492,-5.59088 -18.23798,-14.68676 -19.40407,6.8976 -15.2404,39.80566 -12.94537,-38.21825 -26.75878,-42.54053 -41.59034,-7.10557 6.55708,-27.98121 3.27152,-63.65454 -44.38626,-25.35425 -12.90735,-2.90399 -11.03497,-2.74842 -20.02718,-3.93075 z"
       id="path1213"
       sodipodi:nodetypes="cccccccccccccccc" />
    <path
       style="fill:#ffffff;fill-rule:evenodd;stroke:none;stroke-width:1.28731px;stroke-linecap:butt;stroke-linejoin:miter;stroke-opacity:1"
       d="M 223.92681,451.40352 C 191.03014,380.78428 162.95416,309.9462 234.75229,234.57441 l -10.34265,-15.32374 c -90.31546,91.35161 -49.21656,162.34365 -0.48283,232.15285 z"
       id="path1217"
       sodipodi:nodetypes="cccc" />
    <path
       style="fill:#ffffff;fill-rule:evenodd;stroke:none;stroke-width:1.08499px;stroke-linecap:butt;stroke-linejoin:miter;stroke-opacity:1"
       d="m 1643.7985,1929.1739 c 96.8015,-46.6867 120.9988,-40.2821 80.5755,28.3512 65.4725,-1.176 123.2483,3.9962 149.8904,34.8462 l 15.5883,-26.0596 c -31.2138,-18.9598 -72.3678,-35.221 -134.1445,-30.1606 20.9177,-34.9284 13.3859,-99.1339 -111.9097,-6.9772 z"
       id="path1284"
       sodipodi:nodetypes="cccccc" />
  </g>
  <g
     inkscape:groupmode="layer"
     id="layer1"
     inkscape:label="txt">
    <text
       xml:space="preserve"
       style="font-style:normal;font-variant:normal;font-weight:normal;font-stretch:normal;font-size:81.3623px;line-height:1.25;font-family:Lavi;-inkscape-font-specification:Lavi;text-align:center;letter-spacing:0px;word-spacing:0px;text-anchor:middle;fill:#000000;fill-opacity:1;stroke:none;stroke-width:1.408;stroke-miterlimit:4;stroke-dasharray:none"
       x="316.34204"
       y="221.56798"
       id="text4246-3-2-2-6-3-7-9-3-3-56-9-3-20"
       transform="matrix(0.93887237,0,-0.13753791,1.0651075,0,0)"><tspan
         style="font-style:normal;font-variant:normal;font-weight:normal;font-stretch:normal;font-size:81.3623px;font-family:Lavi;-inkscape-font-specification:Lavi;stroke:#000000;stroke-width:1.408;stroke-miterlimit:4;stroke-dasharray:none;stroke-opacity:1"
         sodipodi:role="line"
         x="316.34204"
         y="221.56798"
         id="tspan334">?!!</tspan></text>
    <text
       xml:space="preserve"
       style="font-style:normal;font-variant:normal;font-weight:normal;font-stretch:normal;font-size:55.08750153px;line-height:1.25;font-family:Lavi;-inkscape-font-specification:Lavi;text-align:center;letter-spacing:0px;word-spacing:0px;text-anchor:middle;fill:#000000;fill-opacity:1;stroke:none;stroke-width:1.22416997"
       x="980.52393"
       y="277.9678"
       id="text4246-3-2-2-6-3-7-9-3-3-56-9-3-20-3"
       transform="scale(0.97385247,1.0268496)"><tspan
         style="font-size:55.08750153px;stroke-width:1.22416997"
         sodipodi:role="line"
         x="980.52393"
         y="277.9678"
         id="tspan888"><tspan
   style="font-style:normal;font-variant:normal;font-weight:bold;font-stretch:normal;font-family:Lavi;-inkscape-font-specification:'Lavi Bold';stroke-width:1.22416997"
   id="tspan890">Dialah</tspan></tspan><tspan
         style="font-size:55.08750153px;stroke-width:1.22416997"
         sodipodi:role="line"
         x="980.52393"
         y="346.82718"
         id="tspan69">targetnya!</tspan></text>
    <text
       xml:space="preserve"
       style="font-style:normal;font-variant:normal;font-weight:normal;font-stretch:normal;font-size:48.80149841px;line-height:1.25;font-family:Lavi;-inkscape-font-specification:Lavi;text-align:center;letter-spacing:0px;word-spacing:0px;text-anchor:middle;fill:#000000;fill-opacity:1;stroke:none;stroke-width:1.08448005"
       x="1829.2006"
       y="208.50026"
       id="text4246-3-2-2-6-3-7-9-3-3-56-9-3-20-3-7"><tspan
         style="font-size:48.80149841px;stroke-width:1.08448005"
         sodipodi:role="line"
         x="1829.2006"
         y="208.50026"
         id="tspan880-3">Aku membatalkan</tspan><tspan
         style="font-style:italic;font-size:48.80149841px;stroke-width:1.08448005"
         sodipodi:role="line"
         x="1829.2006"
         y="269.50214"
         id="tspan916">Mantra Kecantikan</tspan><tspan
         style="font-size:48.80149841px;stroke-width:1.08448005"
         sodipodi:role="line"
         x="1829.2006"
         y="330.504"
         id="tspan914">yang menjaga dia</tspan><tspan
         style="font-size:48.80149841px;stroke-width:1.08448005"
         sodipodi:role="line"
         x="1829.2006"
         y="391.50589"
         id="tspan78">terlihat muda.</tspan></text>
    <text
       xml:space="preserve"
       style="font-style:normal;font-variant:normal;font-weight:normal;font-stretch:normal;font-size:45px;line-height:1.25;font-family:Lavi;-inkscape-font-specification:Lavi;text-align:center;letter-spacing:0px;word-spacing:0px;text-anchor:middle;fill:#000000;fill-opacity:1;stroke:none"
       x="487.57349"
       y="1903.157"
       id="text4246-3-2-2-6-3-7-9-3-3-56-9-3-20-5"><tspan
         style="font-size:45px"
         sodipodi:role="line"
         x="487.57349"
         y="1903.157"
         id="tspan943">Aku menyadarinya</tspan><tspan
         style="font-size:45px"
         sodipodi:role="line"
         x="487.57349"
         y="1959.407"
         id="tspan905">segera setelah aku</tspan><tspan
         style="font-size:45px"
         sodipodi:role="line"
         x="487.57349"
         y="2015.657"
         id="tspan924">sampai di sini.</tspan></text>
    <text
       xml:space="preserve"
       style="font-style:normal;font-variant:normal;font-weight:normal;font-stretch:normal;font-size:45px;line-height:1.25;font-family:Lavi;-inkscape-font-specification:Lavi;text-align:center;letter-spacing:0px;word-spacing:0px;text-anchor:middle;fill:#000000;fill-opacity:1;stroke:none"
       x="2062.0312"
       y="1982.6521"
       id="text4246-3-2-2-6-3-7-9-3-3-56-9-3-20-5-9"><tspan
         style="font-size:45px"
         sodipodi:role="line"
         x="2062.0312"
         y="1982.6521"
         id="tspan921">Jadi, aku memberikan</tspan><tspan
         style="font-size:45px"
         sodipodi:role="line"
         x="2062.0312"
         y="2038.9021"
         id="tspan942">sebagian kecil dari yang</tspan><tspan
         style="font-size:45px"
         sodipodi:role="line"
         x="2069.1943"
         y="2095.1521"
         id="tspan80">sepantasnya kau terima </tspan><tspan
         style="font-size:45px"
         sodipodi:role="line"
         x="2069.1943"
         y="2151.4021"
         id="tspan946">karena telah membuat </tspan><tspan
         style="font-size:45px"
         sodipodi:role="line"
         x="2062.0312"
         y="2207.6521"
         id="tspan948">Shichimi menyerangku!</tspan></text>
    <text
       xml:space="preserve"
       style="font-style:normal;font-variant:normal;font-weight:normal;font-stretch:normal;font-size:60px;line-height:1.25;font-family:Lavi;-inkscape-font-specification:Lavi;text-align:center;letter-spacing:2px;word-spacing:0px;text-anchor:middle;fill:#000000;fill-opacity:1;stroke:none;stroke-width:1.32287002"
       x="371.23419"
       y="2215.2615"
       id="text4246-3-2-2-6-3-7-9-3-3-56-9-3-20-5-9-0"
       transform="scale(0.860916,1.1615535)"><tspan
         style="font-style:normal;font-variant:normal;font-weight:bold;font-stretch:normal;font-size:60px;font-family:Lavi;-inkscape-font-specification:'Lavi Bold';stroke-width:1.32287002"
         sodipodi:role="line"
         x="372.23419"
         y="2215.2615"
         id="tspan992-6">TIDAK SOPAN!</tspan></text>
    <text
       xml:space="preserve"
       style="font-style:normal;font-variant:normal;font-weight:normal;font-stretch:normal;font-size:58px;line-height:1.25;font-family:Lavi;-inkscape-font-specification:Lavi;text-align:center;letter-spacing:0px;word-spacing:0px;text-anchor:middle;fill:#000000;fill-opacity:1;stroke:none;stroke-width:1.30552995"
       x="330.97919"
       y="2751.8735"
       id="text4246-3-2-2-6-3-7-9-3-3-56-9-3-20-5-2"><tspan
         style="font-size:58px;stroke-width:1.30552995;font-weight:bold"
         sodipodi:role="line"
         x="330.97919"
         y="2751.8735"
         id="tspan1085">Berani-</tspan><tspan
         style="font-size:58px;stroke-width:1.30552995;font-weight:bold"
         sodipodi:role="line"
         x="330.97919"
         y="2824.3735"
         id="tspan85">beraninya</tspan><tspan
         style="font-size:58px;stroke-width:1.30552995"
         sodipodi:role="line"
         x="330.97919"
         y="2896.8735"
         id="tspan87">kamu,</tspan></text>
    <text
       xml:space="preserve"
       style="font-style:normal;font-variant:normal;font-weight:normal;font-stretch:normal;font-size:50px;line-height:1.25;font-family:Lavi;-inkscape-font-specification:Lavi;text-align:center;letter-spacing:0px;word-spacing:0px;text-anchor:middle;fill:#000000;fill-opacity:1;stroke:none;stroke-width:1.30552995"
       x="314.81845"
       y="2982.9951"
       id="text4246-3-2-2-6-3-7-9-3-3-56-9-3-20-5-2-7"><tspan
         style="font-size:50px;stroke-width:1.30552995"
         sodipodi:role="line"
         x="314.81845"
         y="2982.9951"
         id="tspan959">dan di depan</tspan><tspan
         style="font-size:50px;stroke-width:1.30552995"
         sodipodi:role="line"
         x="314.81845"
         y="3045.4951"
         id="tspan94">seluruh murid-</tspan><tspan
         style="font-size:50px;stroke-width:1.30552995"
         sodipodi:role="line"
         x="314.81845"
         y="3107.9951"
         id="tspan96">muridku!</tspan></text>
    <text
       xml:space="preserve"
       style="font-style:normal;font-variant:normal;font-weight:normal;font-stretch:normal;font-size:45px;line-height:1.25;font-family:Lavi;-inkscape-font-specification:Lavi;text-align:center;letter-spacing:0px;word-spacing:0px;text-anchor:middle;fill:#000000;fill-opacity:1;stroke:none"
       x="2149.2981"
       y="2544.0259"
       id="text4246-3-2-2-6-3-7-9-3-3-56-9-3-20-5-9-02"><tspan
         style="font-size:45px"
         sodipodi:role="line"
         x="2149.2981"
         y="2544.0259"
         id="tspan1175">Itu belum</tspan><tspan
         style="font-size:45px"
         sodipodi:role="line"
         x="2149.2981"
         y="2600.2759"
         id="tspan100">apa-apa!</tspan></text>
    <text
       xml:space="preserve"
       style="font-style:normal;font-variant:normal;font-weight:normal;font-stretch:normal;font-size:45px;line-height:1.25;font-family:Lavi;-inkscape-font-specification:Lavi;text-align:center;letter-spacing:0px;word-spacing:0px;text-anchor:middle;fill:#000000;fill-opacity:1;stroke:none"
       x="2160.4646"
       y="2717.9202"
       id="text4246-3-2-2-6-3-7-9-3-3-56-9-3-20-5-9-02-2"><tspan
         style="font-size:45px"
         sodipodi:role="line"
         x="2160.4646"
         y="2717.9202"
         id="tspan976">Kalau aku masih</tspan><tspan
         style="font-size:45px"
         sodipodi:role="line"
         x="2160.4646"
         y="2774.1702"
         id="tspan104">punya semua Rea</tspan><tspan
         style="font-size:45px"
         sodipodi:role="line"
         x="2160.4646"
         y="2830.4202"
         id="tspan982">milikku, aku tidak</tspan><tspan
         style="font-size:45px"
         sodipodi:role="line"
         x="2160.4646"
         y="2886.6702"
         id="tspan113">akan berhenti</tspan><tspan
         style="font-size:45px"
         sodipodi:role="line"
         x="2160.4646"
         y="2942.9202"
         id="tspan115">di situ.</tspan></text>
  </g>
</svg>
