<?xml version="1.0" encoding="UTF-8" standalone="no"?>
<!-- Created with Inkscape (http://www.inkscape.org/) -->

<svg
   id="svg2"
   version="1.1"
   inkscape:version="1.2.2 (b0a8486541, 2022-12-01)"
   width="2481"
   height="3503"
   sodipodi:docname="E38P03.svg"
   xmlns:inkscape="http://www.inkscape.org/namespaces/inkscape"
   xmlns:sodipodi="http://sodipodi.sourceforge.net/DTD/sodipodi-0.dtd"
   xmlns:xlink="http://www.w3.org/1999/xlink"
   xmlns="http://www.w3.org/2000/svg"
   xmlns:svg="http://www.w3.org/2000/svg"
   xmlns:rdf="http://www.w3.org/1999/02/22-rdf-syntax-ns#"
   xmlns:cc="http://creativecommons.org/ns#"
   xmlns:dc="http://purl.org/dc/elements/1.1/">
  <metadata
     id="metadata8">
    <rdf:RDF>
      <cc:Work
         rdf:about="">
        <dc:format>image/svg+xml</dc:format>
        <dc:type
           rdf:resource="http://purl.org/dc/dcmitype/StillImage" />
        <dc:title />
      </cc:Work>
    </rdf:RDF>
  </metadata>
  <defs
     id="defs6" />
  <sodipodi:namedview
     pagecolor="#ffffff"
     bordercolor="#666666"
     borderopacity="1"
     objecttolerance="10"
     gridtolerance="10"
     guidetolerance="10"
     inkscape:pageopacity="0"
     inkscape:pageshadow="2"
     inkscape:window-width="1231"
     inkscape:window-height="750"
     id="namedview4"
     showgrid="false"
     inkscape:zoom="0.30417501"
     inkscape:cx="1878.8526"
     inkscape:cy="2786.2249"
     inkscape:window-x="49"
     inkscape:window-y="26"
     inkscape:window-maximized="1"
     inkscape:current-layer="layer3"
     inkscape:showpageshadow="0"
     inkscape:pagecheckerboard="0"
     inkscape:deskcolor="#d1d1d1" />
  <g
     inkscape:groupmode="layer"
     id="layer2"
     inkscape:label="artwork"
     sodipodi:insensitive="true">
    <image
       xlink:href="../gfx_Pepper-and-Carrot_by-David-Revoy_E38P03.png"
       y="0"
       x="0"
       id="image10"
       height="3503"
       width="2481" />
  </g>
  <g
     inkscape:groupmode="layer"
     id="layer3"
     inkscape:label="speechbubbles">
    <path
       style="color:#000000;display:inline;overflow:visible;visibility:visible;fill:#ffffff;fill-opacity:1;fill-rule:nonzero;stroke:none;stroke-width:0.999999px;marker:none;enable-background:accumulate"
       d="m 1981.2861,2528.5006 c -37.6311,0.6592 -75.6971,3.1037 -111.7896,12.6818 -15.314,4.4585 -27.5984,13.7633 -39.4452,22.7302 -8.9423,6.9719 -17.4049,15.2946 -20.0279,25.594 -3.6861,14.2204 -2.9682,28.9596 -0.881,43.3152 1.7812,10.2465 6.4127,20.2087 14.0816,28.3547 10.3807,11.4437 25.3727,19.4501 41.4425,24.0366 27.4735,8.7733 56.7477,13.8666 86.185,13.7727 19.0415,0.069 38.0833,-0.9031 57.1215,-0.2134 23.7031,0.4174 47.6345,1.0328 71.0592,-2.6433 20.5533,-3.0796 40.6926,-8.2856 59.6505,-15.6622 13.4564,-5.5642 25.5571,-14.0124 32.9343,-25.1398 14.0692,-20.2845 14.5234,-46.8773 0.5544,-67.2889 -11.4332,-17.4642 -30.4743,-30.7113 -51.6415,-39.23 -21.995,-9.0441 -46.25,-13.2973 -70.4258,-15.6181 -22.8203,-2.5336 -45.7566,-4.9195 -68.818,-4.6895 z"
       id="path4040-4-5-3"
       inkscape:connector-curvature="0"
       sodipodi:nodetypes="zssssz" />
    <path
       style="color:#000000;display:inline;overflow:visible;visibility:visible;fill:#ffffff;fill-opacity:1;fill-rule:nonzero;stroke:none;stroke-width:0.972263px;marker:none;enable-background:accumulate"
       d="m 2097.3359,2676.9693 c -47.1239,0.6701 -94.6891,0.9044 -140.9917,9.2601 -21.1594,4.0681 -40.997,14.6335 -52.6245,30.3772 -17.3599,22.8264 -19.0267,53.3033 -4.9924,77.6329 8.1807,14.8149 21.9219,27.2425 38.5027,35.5497 12.4415,6.6802 26.582,11.1669 41.2647,12.4773 36.9513,4.5346 74.2725,7.4304 111.6408,6.8101 28.2708,-0.45 56.5664,-2.5944 84.3212,-7.2509 20.403,-3.7112 40.7613,-10.5573 55.84,-23.1559 11.6616,-9.66 19.3824,-22.6594 21.4184,-36.3844 2.1301,-11.8512 2.8765,-23.8912 2.3256,-35.867 -0.7467,-12.528 -4.5519,-25.214 -13.2065,-35.5559 -7.9861,-9.8913 -19.9573,-16.9847 -32.864,-21.6005 -18.5515,-6.7264 -38.7656,-9.1015 -58.6909,-10.8226 -17.2646,-1.3376 -34.6171,-1.5606 -51.9434,-1.4701 z"
       id="path3365-33"
       inkscape:connector-curvature="0"
       sodipodi:nodetypes="csssssc" />
    <path
       style="color:#000000;display:inline;overflow:visible;visibility:visible;fill:#ffffff;fill-opacity:1;fill-rule:nonzero;stroke:none;stroke-width:0.999999px;marker:none;enable-background:accumulate"
       d="m 1263.1642,1831.4688 c -42.5257,-42.2705 -19.5395,-108.0364 17.6028,-114.3414 51.4374,-8.7316 -11.3103,20.5827 -11.3103,20.5827 0,0 -37.0509,43.6527 -6.2925,93.7587 z"
       id="path5002-7"
       inkscape:connector-curvature="0"
       sodipodi:nodetypes="cscc" />
    <path
       style="color:#000000;display:inline;overflow:visible;visibility:visible;fill:#ffffff;fill-opacity:1;fill-rule:nonzero;stroke:none;stroke-width:1px;marker:none;enable-background:accumulate"
       d="m 1916.9709,2636.425 c -77.3885,-61.1144 -158.5933,-65.3254 -208.3967,7.4705 60.8364,-52.278 143.8743,-25.5157 174.2291,8.7518 16.5264,23.0336 34.1676,-16.2223 34.1676,-16.2223 z"
       id="path3978-4"
       inkscape:connector-curvature="0"
       sodipodi:nodetypes="cccc" />
    <path
       style="fill:#ffffff;fill-rule:evenodd;stroke:none;stroke-width:0.999997px;stroke-linecap:butt;stroke-linejoin:miter;stroke-opacity:1"
       d="m 1571.1,1438.6662 c 1.0295,-18.6517 13.3828,-52.846 31.913,-59.0632 18.53,-6.2173 70.0024,-6.2173 80.2969,-3.1082 10.2946,3.1082 26.7657,25.9044 30.8835,35.2307 4.1179,9.3254 15.4418,42.4833 -3.0882,55.9542 -18.5302,13.4708 -37.0602,23.8325 -56.6198,22.7962 -19.5596,-1.0364 -58.6787,-8.29 -67.9436,-20.7235 -9.2651,-12.4345 -15.4418,-31.0862 -15.4418,-31.0862 z"
       id="path1355"
       inkscape:connector-curvature="0" />
    <path
       style="fill:#ffffff;fill-rule:evenodd;stroke:none;stroke-width:1px;stroke-linecap:butt;stroke-linejoin:miter;stroke-opacity:1"
       d="m 1005.9554,1564.5354 c 18.5259,2.0314 45.654,-7.5765 30.6765,-38.1612 29.0714,21.6699 52.9068,17.8869 100.1958,-16.1391 -3.9297,47.4093 17.206,42.9799 36.2603,33.8779 -18.2868,15.9536 14.5387,25.0955 32.196,25.9916 -37.3521,34.5064 -17.7382,45.4806 -3.0201,58.4772 -36.7083,-9.6156 -27.8302,9.8675 -32.2148,20.8848 -31.4901,-24.9624 -54.3909,-19.038 -72.4831,4.1769 -9.4625,-12.6249 -12.4326,-38.7184 -47.3154,1.3923 12.8273,-34.6271 -3.9864,-30.9924 -31.2079,-13.9231 4.2662,-11.7944 29.6222,-29.7296 -13.0873,-27.8464 26.6772,-11.2123 32.2716,-26.401 0,-48.7309 z"
       id="path4584"
       inkscape:connector-curvature="0"
       sodipodi:nodetypes="cccccccccccc" />
    <path
       style="color:#000000;display:inline;overflow:visible;visibility:visible;fill:#ffffff;fill-opacity:1;fill-rule:nonzero;stroke:none;stroke-width:1px;marker:none;enable-background:accumulate"
       d="m 1092.7675,1600.0887 c 32.5118,17.1362 69.5241,50.078 26.9344,88.4809 5.5785,26.0417 6.6264,46.3987 -29.7935,75.4959 22.4386,-26.2104 31.5308,-42.9396 20.1333,-80.7335 19.0733,-22.4288 9.883,-53.2464 -33.7163,-67.4214 -43.5993,-14.1751 -33.1079,-7.2586 -33.1079,-7.2586 l 36.9086,-13.1055 z"
       id="path5074"
       inkscape:connector-curvature="0"
       sodipodi:nodetypes="ccccsccc" />
    <path
       style="fill:#ffffff;stroke:none;stroke-width:0.999998"
       d="m 1641.2389,1626.3692 c -23.6692,-22.5115 -16.2357,-35.8105 -6.3972,-46.3314 9.8357,-10.5203 11.5626,-22.6355 9.6907,-30.0237 -1.8719,-7.3881 -10.8731,-18.1272 -18.2553,-23.021 -7.3832,-4.8937 2.0396,-17.023 7.4292,-24.7215 7.1196,-10.1717 17.3403,-10.9015 17.3403,-10.9015 0,0 -8.6513,-43.4434 -16.6505,-33.7546 -7.9983,9.6888 -25.6203,43.7517 -27.4427,48.1059 -1.8214,4.3541 -5.0288,17.8771 0.4234,24.5114 5.4533,6.6341 17.5984,9.8769 21.8896,18.2273 4.4207,8.6023 3.0414,15.2934 -2.2485,24.1895 -5.2898,8.8961 -13.1942,29.5079 -2.6908,39.3668 10.5043,9.8587 16.9118,14.3528 16.9118,14.3528 z"
       id="path3023-9"
       inkscape:connector-curvature="0"
       sodipodi:nodetypes="csssscssssssc" />
  </g>
  <g
     inkscape:groupmode="layer"
     id="layer1"
     inkscape:label="txt">
    <path
       style="color:#000000;display:inline;overflow:visible;visibility:visible;fill:#ffffff;fill-opacity:1;fill-rule:nonzero;stroke:none;stroke-width:0.999997px;marker:none;enable-background:accumulate"
       d="m 1274.9239,1778.3845 c 10.0479,-16.4768 29.6384,-30.1033 38.2868,-0.9712 24.2862,-27.2334 35.9765,-18.2417 54.9577,1.1531 0.1699,-6.2082 6.5001,-31.014 33.8131,-15.5544 -8.6583,-22.2467 17.7583,-24.2355 30.6596,-21.7469 -4.9027,-10.8797 2.4996,-19.0493 20.8803,-24.7994 -26.0488,-5.0899 -20.477,-18.2293 13.5825,-30.8539 -35.6876,1.5668 -44.1686,-13.7125 -16.7227,-33.8204 -13.1802,0.2274 -58.8557,28.9905 -53.6625,-27.5232 -15.7708,19.1239 -44.696,41.2105 -72.6511,5.6123 -5.6553,15.277 -24.4611,26.0304 -47.7317,7.4525 -2.8562,14.9621 -28.082,18.0286 -37.7485,15.7371 20.6475,14.993 21.1403,25.2087 -4.2268,28.6568 46.1423,26.3695 10.6377,24.4818 4.571,32.468 34.7742,7.707 29.673,22.2208 14.434,29.06 30.6029,-18.8202 23.6715,14.3004 21.5583,35.1296 z"
       id="path3549-3-8"
       inkscape:connector-curvature="0"
       sodipodi:nodetypes="cccccccccccccccc" />
    <text
       id="text4178-0"
       y="1600.2191"
       x="1106.0676"
       style="font-style:normal;font-variant:normal;font-weight:normal;font-stretch:normal;font-size:37.3333px;line-height:0%;font-family:Lavi;-inkscape-font-specification:Lavi;text-align:center;letter-spacing:0px;word-spacing:0px;text-anchor:middle;fill:#000000;fill-opacity:1;stroke:none"
       xml:space="preserve"><tspan
         y="1600.2191"
         x="1106.0676"
         style="font-size:37.3333px;line-height:1.25"
         sodipodi:role="line"
         id="tspan4245-6-6">Mi !</tspan></text>
    <text
       id="text4178-0-1"
       y="1710.4082"
       x="1331.897"
       style="font-style:normal;font-variant:normal;font-weight:normal;font-stretch:normal;font-size:32.7584px;line-height:0%;font-family:Lavi;-inkscape-font-specification:Lavi;text-align:center;letter-spacing:0px;word-spacing:0px;text-anchor:middle;fill:#000000;fill-opacity:1;stroke:none;stroke-width:0.999996"
       xml:space="preserve"
       transform="scale(1.0080992,0.99196588)"><tspan
         y="1710.4082"
         x="1331.897"
         style="font-size:32.7584px;line-height:1.25;stroke-width:0.999996"
         sodipodi:role="line"
         id="tspan8148">Ne, mi !</tspan><tspan
         y="1751.3562"
         x="1331.897"
         style="font-size:32.7584px;line-height:1.25;stroke-width:0.999996"
         sodipodi:role="line"
         id="tspan451">Mi !</tspan></text>
    <text
       id="text4178-0-7"
       y="1453.9064"
       x="1646.5745"
       style="font-style:normal;font-variant:normal;font-weight:normal;font-stretch:normal;font-size:18.9857px;line-height:0%;font-family:Lavi;-inkscape-font-specification:Lavi;text-align:center;letter-spacing:0px;word-spacing:0px;text-anchor:middle;fill:#000000;fill-opacity:1;stroke:none;stroke-width:0.999996"
       xml:space="preserve"><tspan
         y="1453.9064"
         x="1646.5745"
         style="font-size:64.3559px;line-height:1.25;stroke-width:0.999996"
         sodipodi:role="line"
         id="tspan4245-6-6-9">?</tspan></text>
    <text
       id="text4178-0-2"
       y="2604.3833"
       x="1996.4835"
       style="font-style:normal;font-variant:normal;font-weight:normal;font-stretch:normal;line-height:0%;font-family:Lavi;-inkscape-font-specification:Lavi;text-align:center;letter-spacing:0px;word-spacing:0px;text-anchor:middle;fill:#000000;fill-opacity:1;stroke:none"
       xml:space="preserve"><tspan
         y="2604.3833"
         x="1996.4835"
         style="font-size:40.6767px;line-height:1.25"
         sodipodi:role="line"
         id="tspan492">Ĉu vi klarigos al</tspan><tspan
         y="2655.2292"
         x="1996.4835"
         style="font-size:40.6767px;line-height:1.25"
         sodipodi:role="line"
         id="tspan424">mi, kion vi faras ?</tspan></text>
    <text
       id="text4178-0-2-2"
       y="2746.0005"
       x="2075.3103"
       style="font-style:normal;font-variant:normal;font-weight:normal;font-stretch:normal;line-height:0%;font-family:Lavi;-inkscape-font-specification:Lavi;text-align:center;letter-spacing:0px;word-spacing:0px;text-anchor:middle;fill:#000000;fill-opacity:1;stroke:none"
       xml:space="preserve"><tspan
         y="2746.0005"
         x="2075.3103"
         style="font-size:40.6767px;line-height:1.25"
         sodipodi:role="line"
         id="tspan8373">Ni serĉadis</tspan><tspan
         y="2796.8464"
         x="2075.3103"
         style="font-size:40.6767px;line-height:1.25"
         sodipodi:role="line"
         id="tspan501">vin dum monatoj.</tspan></text>
  </g>
</svg>
