<?xml version="1.0" encoding="UTF-8" standalone="no"?>
<!-- Created with Inkscape (http://www.inkscape.org/) -->

<svg
   id="svg2"
   version="1.1"
   inkscape:version="1.2.2 (b0a8486541, 2022-12-01)"
   width="2481"
   height="3503"
   sodipodi:docname="E38P07.svg"
   xmlns:inkscape="http://www.inkscape.org/namespaces/inkscape"
   xmlns:sodipodi="http://sodipodi.sourceforge.net/DTD/sodipodi-0.dtd"
   xmlns:xlink="http://www.w3.org/1999/xlink"
   xmlns="http://www.w3.org/2000/svg"
   xmlns:svg="http://www.w3.org/2000/svg"
   xmlns:rdf="http://www.w3.org/1999/02/22-rdf-syntax-ns#"
   xmlns:cc="http://creativecommons.org/ns#"
   xmlns:dc="http://purl.org/dc/elements/1.1/">
  <metadata
     id="metadata8">
    <rdf:RDF>
      <cc:Work
         rdf:about="">
        <dc:format>image/svg+xml</dc:format>
        <dc:type
           rdf:resource="http://purl.org/dc/dcmitype/StillImage" />
        <dc:title />
      </cc:Work>
    </rdf:RDF>
  </metadata>
  <defs
     id="defs6">
    <linearGradient
       inkscape:collect="always"
       xlink:href="#linearGradient4546"
       id="linearGradient4294-2"
       x1="754.64325"
       y1="1552.0063"
       x2="1186.035"
       y2="1552.0063"
       gradientUnits="userSpaceOnUse" />
    <linearGradient
       inkscape:collect="always"
       id="linearGradient4546">
      <stop
         style="stop-color:#ffffff;stop-opacity:1;"
         offset="0"
         id="stop4548" />
      <stop
         style="stop-color:#fffad3;stop-opacity:1"
         offset="1"
         id="stop4550" />
    </linearGradient>
    <filter
       style="color-interpolation-filters:sRGB"
       id="filter4375-4-1-1-1-9-5-8-8-5-6"
       inkscape:label="soundFX-Creature"
       x="-0.020437557"
       y="-0.075034211"
       width="1.0606534"
       height="1.2226822">
      <feFlood
         id="feFlood4377-7-9-0-8-1-7-3-1-2-52"
         flood-opacity="1"
         flood-color="rgb(243,227,152)"
         result="flood" />
      <feComposite
         id="feComposite4379-3-8-8-2-77-4-1-0-6-6"
         in2="SourceGraphic"
         in="flood"
         operator="in"
         result="composite1"
         baseFrequency="0.053999999999999999 0.053999999999999999" />
      <feMorphology
         id="feMorphology4393-1-0-49-8-9-3-0-1-9-5"
         operator="dilate"
         radius="6.2000000000000002"
         result="result3" />
      <feComposite
         id="feComposite4385-9-5-7-0-8-8-7-5-4-8"
         in2="result3"
         in="SourceGraphic"
         operator="over"
         result="fbSourceGraphic" />
      <feColorMatrix
         result="fbSourceGraphicAlpha"
         in="fbSourceGraphic"
         values="0 0 0 -1 0 0 0 0 -1 0 0 0 0 -1 0 0 0 0 1 0"
         id="feColorMatrix4544-9-4-7" />
      <feTurbulence
         id="feTurbulence4546-3-6-0"
         type="fractalNoise"
         numOctaves="5"
         seed="174"
         baseFrequency="0.053999999999999999 0.054054054054054057"
         result="turbulence" />
      <feDisplacementMap
         id="feDisplacementMap4548-8-0-3"
         in2="turbulence"
         in="fbSourceGraphic"
         scale="6.6"
         yChannelSelector="G"
         xChannelSelector="R"
         result="fbSourceGraphic" />
      <feColorMatrix
         result="fbSourceGraphicAlpha"
         in="fbSourceGraphic"
         values="0 0 0 -1 0 0 0 0 -1 0 0 0 0 -1 0 0 0 0 1 0"
         id="feColorMatrix4670-7-7-9" />
      <feFlood
         id="feFlood4672-4-4-60"
         flood-opacity="1"
         flood-color="rgb(175,144,94)"
         result="flood"
         in="fbSourceGraphic" />
      <feComposite
         id="feComposite4674-8-3-4"
         in2="fbSourceGraphic"
         in="flood"
         operator="in"
         result="composite1" />
      <feGaussianBlur
         id="feGaussianBlur4676-3-7-1"
         in="composite1"
         stdDeviation="0"
         result="blur" />
      <feOffset
         id="feOffset4678-6-9-0"
         dx="6"
         dy="6"
         result="offset" />
      <feComposite
         id="feComposite4680-4-0-4"
         in2="offset"
         in="fbSourceGraphic"
         operator="over"
         result="composite2" />
    </filter>
    <filter
       y="-0.19725009"
       height="1.3945002"
       inkscape:label="scream"
       inkscape:menu="Distort"
       inkscape:menu-tooltip="Create a turbulent contour around"
       style="color-interpolation-filters:sRGB;"
       id="filter983"
       x="-0.025180391"
       width="1.0503608">
      <feMorphology
         radius="7"
         operator="dilate"
         result="result8"
         in="SourceGraphic"
         id="feMorphology973" />
      <feComposite
         in2="result8"
         result="result10"
         in="SourceGraphic"
         operator="arithmetic"
         k1="0.5"
         k3="0.5"
         id="feComposite975" />
      <feTurbulence
         result="result11"
         type="fractalNoise"
         numOctaves="3"
         baseFrequency="0.07"
         id="feTurbulence977" />
      <feDisplacementMap
         result="result12"
         in2="result11"
         in="result10"
         xChannelSelector="R"
         scale="10"
         id="feDisplacementMap979" />
      <feComposite
         operator="arithmetic"
         result="result13"
         in="SourceGraphic"
         in2="result12"
         k1="0.25"
         k2="0.25"
         k3="0.75"
         id="feComposite981" />
    </filter>
    <filter
       y="-0.11760167"
       height="1.2352033"
       inkscape:label="scream"
       inkscape:menu="Distort"
       inkscape:menu-tooltip="Create a turbulent contour around"
       style="color-interpolation-filters:sRGB"
       id="filter983-7"
       x="-0.01436874"
       width="1.0287375">
      <feMorphology
         radius="7"
         operator="dilate"
         result="result8"
         in="SourceGraphic"
         id="feMorphology973-5" />
      <feComposite
         in2="result8"
         result="result10"
         in="SourceGraphic"
         operator="arithmetic"
         k1="0.5"
         k3="0.5"
         id="feComposite975-3"
         k2="0"
         k4="0" />
      <feTurbulence
         result="result11"
         type="fractalNoise"
         numOctaves="3"
         baseFrequency="0.07"
         id="feTurbulence977-5" />
      <feDisplacementMap
         result="result12"
         in2="result11"
         in="result10"
         xChannelSelector="R"
         scale="10"
         id="feDisplacementMap979-6"
         yChannelSelector="A" />
      <feComposite
         operator="arithmetic"
         result="result13"
         in="SourceGraphic"
         in2="result12"
         k1="0.25"
         k2="0.25"
         k3="0.75"
         id="feComposite981-2"
         k4="0" />
    </filter>
    <filter
       y="-0.15082885"
       height="1.3016577"
       inkscape:label="scream"
       inkscape:menu="Distort"
       inkscape:menu-tooltip="Create a turbulent contour around"
       style="color-interpolation-filters:sRGB"
       id="filter693"
       x="-0.034917537"
       width="1.0698351">
      <feMorphology
         radius="7"
         operator="dilate"
         result="result8"
         in="SourceGraphic"
         id="feMorphology683" />
      <feComposite
         in2="result8"
         result="result10"
         in="SourceGraphic"
         operator="arithmetic"
         k1="0.5"
         k3="0.5"
         id="feComposite685"
         k2="0"
         k4="0" />
      <feTurbulence
         result="result11"
         type="fractalNoise"
         numOctaves="3"
         baseFrequency="0.07"
         id="feTurbulence687" />
      <feDisplacementMap
         result="result12"
         in2="result11"
         in="result10"
         xChannelSelector="R"
         scale="10"
         id="feDisplacementMap689"
         yChannelSelector="A" />
      <feComposite
         operator="arithmetic"
         result="result13"
         in="SourceGraphic"
         in2="result12"
         k1="0.25"
         k2="0.25"
         k3="0.75"
         id="feComposite691"
         k4="0" />
    </filter>
    <filter
       y="-0.15082885"
       height="1.3016577"
       inkscape:label="scream"
       inkscape:menu="Distort"
       inkscape:menu-tooltip="Create a turbulent contour around"
       style="color-interpolation-filters:sRGB"
       id="filter705"
       x="-0.034917537"
       width="1.0698351">
      <feMorphology
         radius="7"
         operator="dilate"
         result="result8"
         in="SourceGraphic"
         id="feMorphology695" />
      <feComposite
         in2="result8"
         result="result10"
         in="SourceGraphic"
         operator="arithmetic"
         k1="0.5"
         k3="0.5"
         id="feComposite697"
         k2="0"
         k4="0" />
      <feTurbulence
         result="result11"
         type="fractalNoise"
         numOctaves="3"
         baseFrequency="0.07"
         id="feTurbulence699" />
      <feDisplacementMap
         result="result12"
         in2="result11"
         in="result10"
         xChannelSelector="R"
         scale="10"
         id="feDisplacementMap701"
         yChannelSelector="A" />
      <feComposite
         operator="arithmetic"
         result="result13"
         in="SourceGraphic"
         in2="result12"
         k1="0.25"
         k2="0.25"
         k3="0.75"
         id="feComposite703"
         k4="0" />
    </filter>
    <filter
       y="-0.11760167"
       height="1.2352033"
       inkscape:label="scream"
       inkscape:menu="Distort"
       inkscape:menu-tooltip="Create a turbulent contour around"
       style="color-interpolation-filters:sRGB"
       id="filter983-9"
       x="-0.01436874"
       width="1.0287375">
      <feMorphology
         radius="7"
         operator="dilate"
         result="result8"
         in="SourceGraphic"
         id="feMorphology973-1" />
      <feComposite
         in2="result8"
         result="result10"
         in="SourceGraphic"
         operator="arithmetic"
         k1="0.5"
         k3="0.5"
         id="feComposite975-2"
         k2="0"
         k4="0" />
      <feTurbulence
         result="result11"
         type="fractalNoise"
         numOctaves="3"
         baseFrequency="0.07"
         id="feTurbulence977-7" />
      <feDisplacementMap
         result="result12"
         in2="result11"
         in="result10"
         xChannelSelector="R"
         scale="10"
         id="feDisplacementMap979-0"
         yChannelSelector="A" />
      <feComposite
         operator="arithmetic"
         result="result13"
         in="SourceGraphic"
         in2="result12"
         k1="0.25"
         k2="0.25"
         k3="0.75"
         id="feComposite981-9"
         k4="0" />
    </filter>
    <filter
       y="-0.15082885"
       height="1.3016577"
       inkscape:label="scream"
       inkscape:menu="Distort"
       inkscape:menu-tooltip="Create a turbulent contour around"
       style="color-interpolation-filters:sRGB"
       id="filter1102"
       x="-0.034917537"
       width="1.0698351">
      <feMorphology
         radius="7"
         operator="dilate"
         result="result8"
         in="SourceGraphic"
         id="feMorphology1092" />
      <feComposite
         in2="result8"
         result="result10"
         in="SourceGraphic"
         operator="arithmetic"
         k1="0.5"
         k3="0.5"
         id="feComposite1094"
         k2="0"
         k4="0" />
      <feTurbulence
         result="result11"
         type="fractalNoise"
         numOctaves="3"
         baseFrequency="0.07"
         id="feTurbulence1096" />
      <feDisplacementMap
         result="result12"
         in2="result11"
         in="result10"
         xChannelSelector="R"
         scale="10"
         id="feDisplacementMap1098"
         yChannelSelector="A" />
      <feComposite
         operator="arithmetic"
         result="result13"
         in="SourceGraphic"
         in2="result12"
         k1="0.25"
         k2="0.25"
         k3="0.75"
         id="feComposite1100"
         k4="0" />
    </filter>
    <filter
       y="-0.15082885"
       height="1.3016577"
       inkscape:label="scream"
       inkscape:menu="Distort"
       inkscape:menu-tooltip="Create a turbulent contour around"
       style="color-interpolation-filters:sRGB"
       id="filter1114"
       x="-0.034917537"
       width="1.0698351">
      <feMorphology
         radius="7"
         operator="dilate"
         result="result8"
         in="SourceGraphic"
         id="feMorphology1104" />
      <feComposite
         in2="result8"
         result="result10"
         in="SourceGraphic"
         operator="arithmetic"
         k1="0.5"
         k3="0.5"
         id="feComposite1106"
         k2="0"
         k4="0" />
      <feTurbulence
         result="result11"
         type="fractalNoise"
         numOctaves="3"
         baseFrequency="0.07"
         id="feTurbulence1108" />
      <feDisplacementMap
         result="result12"
         in2="result11"
         in="result10"
         xChannelSelector="R"
         scale="10"
         id="feDisplacementMap1110"
         yChannelSelector="A" />
      <feComposite
         operator="arithmetic"
         result="result13"
         in="SourceGraphic"
         in2="result12"
         k1="0.25"
         k2="0.25"
         k3="0.75"
         id="feComposite1112"
         k4="0" />
    </filter>
    <filter
       y="-0.15055661"
       height="1.3011132"
       inkscape:label="scream"
       inkscape:menu="Distort"
       inkscape:menu-tooltip="Create a turbulent contour around"
       style="color-interpolation-filters:sRGB"
       id="filter983-3"
       x="-0.014524795"
       width="1.0290496">
      <feMorphology
         radius="7"
         operator="dilate"
         result="result8"
         in="SourceGraphic"
         id="feMorphology973-6" />
      <feComposite
         in2="result8"
         result="result10"
         in="SourceGraphic"
         operator="arithmetic"
         k1="0.5"
         k3="0.5"
         id="feComposite975-0"
         k2="0"
         k4="0" />
      <feTurbulence
         result="result11"
         type="fractalNoise"
         numOctaves="3"
         baseFrequency="0.07"
         id="feTurbulence977-6" />
      <feDisplacementMap
         result="result12"
         in2="result11"
         in="result10"
         xChannelSelector="R"
         scale="10"
         id="feDisplacementMap979-2"
         yChannelSelector="A" />
      <feComposite
         operator="arithmetic"
         result="result13"
         in="SourceGraphic"
         in2="result12"
         k1="0.25"
         k2="0.25"
         k3="0.75"
         id="feComposite981-6"
         k4="0" />
    </filter>
    <filter
       y="-0.10211527"
       height="1.2042305"
       inkscape:label="scream"
       inkscape:menu="Distort"
       inkscape:menu-tooltip="Create a turbulent contour around"
       style="color-interpolation-filters:sRGB"
       id="filter983-1"
       x="-0.017587518"
       width="1.035175">
      <feMorphology
         radius="7"
         operator="dilate"
         result="result8"
         in="SourceGraphic"
         id="feMorphology973-8" />
      <feComposite
         in2="result8"
         result="result10"
         in="SourceGraphic"
         operator="arithmetic"
         k1="0.5"
         k3="0.5"
         id="feComposite975-7"
         k2="0"
         k4="0" />
      <feTurbulence
         result="result11"
         type="fractalNoise"
         numOctaves="3"
         baseFrequency="0.07"
         id="feTurbulence977-9" />
      <feDisplacementMap
         result="result12"
         in2="result11"
         in="result10"
         xChannelSelector="R"
         scale="10"
         id="feDisplacementMap979-20"
         yChannelSelector="A" />
      <feComposite
         operator="arithmetic"
         result="result13"
         in="SourceGraphic"
         in2="result12"
         k1="0.25"
         k2="0.25"
         k3="0.75"
         id="feComposite981-23"
         k4="0" />
    </filter>
    <filter
       y="-0.15082885"
       height="1.3016577"
       inkscape:label="scream"
       inkscape:menu="Distort"
       inkscape:menu-tooltip="Create a turbulent contour around"
       style="color-interpolation-filters:sRGB"
       id="filter1485"
       x="-0.034917537"
       width="1.0698351">
      <feMorphology
         radius="7"
         operator="dilate"
         result="result8"
         in="SourceGraphic"
         id="feMorphology1475" />
      <feComposite
         in2="result8"
         result="result10"
         in="SourceGraphic"
         operator="arithmetic"
         k1="0.5"
         k3="0.5"
         id="feComposite1477"
         k2="0"
         k4="0" />
      <feTurbulence
         result="result11"
         type="fractalNoise"
         numOctaves="3"
         baseFrequency="0.07"
         id="feTurbulence1479" />
      <feDisplacementMap
         result="result12"
         in2="result11"
         in="result10"
         xChannelSelector="R"
         scale="10"
         id="feDisplacementMap1481"
         yChannelSelector="A" />
      <feComposite
         operator="arithmetic"
         result="result13"
         in="SourceGraphic"
         in2="result12"
         k1="0.25"
         k2="0.25"
         k3="0.75"
         id="feComposite1483"
         k4="0" />
    </filter>
    <filter
       y="-0.15082885"
       height="1.3016577"
       inkscape:label="scream"
       inkscape:menu="Distort"
       inkscape:menu-tooltip="Create a turbulent contour around"
       style="color-interpolation-filters:sRGB"
       id="filter1497"
       x="-0.034917537"
       width="1.0698351">
      <feMorphology
         radius="7"
         operator="dilate"
         result="result8"
         in="SourceGraphic"
         id="feMorphology1487" />
      <feComposite
         in2="result8"
         result="result10"
         in="SourceGraphic"
         operator="arithmetic"
         k1="0.5"
         k3="0.5"
         id="feComposite1489"
         k2="0"
         k4="0" />
      <feTurbulence
         result="result11"
         type="fractalNoise"
         numOctaves="3"
         baseFrequency="0.07"
         id="feTurbulence1491" />
      <feDisplacementMap
         result="result12"
         in2="result11"
         in="result10"
         xChannelSelector="R"
         scale="10"
         id="feDisplacementMap1493"
         yChannelSelector="A" />
      <feComposite
         operator="arithmetic"
         result="result13"
         in="SourceGraphic"
         in2="result12"
         k1="0.25"
         k2="0.25"
         k3="0.75"
         id="feComposite1495"
         k4="0" />
    </filter>
    <filter
       y="-0.16005562"
       height="1.3201112"
       inkscape:label="scream"
       inkscape:menu="Distort"
       inkscape:menu-tooltip="Create a turbulent contour around"
       style="color-interpolation-filters:sRGB"
       id="filter983-5"
       x="-0.034810189"
       width="1.0696204">
      <feMorphology
         radius="7"
         operator="dilate"
         result="result8"
         in="SourceGraphic"
         id="feMorphology973-9" />
      <feComposite
         in2="result8"
         result="result10"
         in="SourceGraphic"
         operator="arithmetic"
         k1="0.5"
         k3="0.5"
         id="feComposite975-22"
         k2="0"
         k4="0" />
      <feTurbulence
         result="result11"
         type="fractalNoise"
         numOctaves="3"
         baseFrequency="0.07"
         id="feTurbulence977-8" />
      <feDisplacementMap
         result="result12"
         in2="result11"
         in="result10"
         xChannelSelector="R"
         scale="10"
         id="feDisplacementMap979-9"
         yChannelSelector="A" />
      <feComposite
         operator="arithmetic"
         result="result13"
         in="SourceGraphic"
         in2="result12"
         k1="0.25"
         k2="0.25"
         k3="0.75"
         id="feComposite981-7"
         k4="0" />
    </filter>
    <filter
       y="-0.15082886"
       height="1.3016577"
       inkscape:label="scream"
       inkscape:menu="Distort"
       inkscape:menu-tooltip="Create a turbulent contour around"
       style="color-interpolation-filters:sRGB"
       id="filter983-94"
       x="-0.034917536"
       width="1.0698351">
      <feMorphology
         radius="7"
         operator="dilate"
         result="result8"
         in="SourceGraphic"
         id="feMorphology973-7" />
      <feComposite
         in2="result8"
         result="result10"
         in="SourceGraphic"
         operator="arithmetic"
         k1="0.5"
         k3="0.5"
         id="feComposite975-8"
         k2="0"
         k4="0" />
      <feTurbulence
         result="result11"
         type="fractalNoise"
         numOctaves="3"
         baseFrequency="0.07"
         id="feTurbulence977-4" />
      <feDisplacementMap
         result="result12"
         in2="result11"
         in="result10"
         xChannelSelector="R"
         scale="10"
         id="feDisplacementMap979-5"
         yChannelSelector="A" />
      <feComposite
         operator="arithmetic"
         result="result13"
         in="SourceGraphic"
         in2="result12"
         k1="0.25"
         k2="0.25"
         k3="0.75"
         id="feComposite981-0"
         k4="0" />
    </filter>
    <filter
       y="-0.15082886"
       height="1.3016577"
       inkscape:label="scream"
       inkscape:menu="Distort"
       inkscape:menu-tooltip="Create a turbulent contour around"
       style="color-interpolation-filters:sRGB"
       id="filter983-36"
       x="-0.034917536"
       width="1.0698351">
      <feMorphology
         radius="7"
         operator="dilate"
         result="result8"
         in="SourceGraphic"
         id="feMorphology973-10" />
      <feComposite
         in2="result8"
         result="result10"
         in="SourceGraphic"
         operator="arithmetic"
         k1="0.5"
         k3="0.5"
         id="feComposite975-6"
         k2="0"
         k4="0" />
      <feTurbulence
         result="result11"
         type="fractalNoise"
         numOctaves="3"
         baseFrequency="0.07"
         id="feTurbulence977-3" />
      <feDisplacementMap
         result="result12"
         in2="result11"
         in="result10"
         xChannelSelector="R"
         scale="10"
         id="feDisplacementMap979-206"
         yChannelSelector="A" />
      <feComposite
         operator="arithmetic"
         result="result13"
         in="SourceGraphic"
         in2="result12"
         k1="0.25"
         k2="0.25"
         k3="0.75"
         id="feComposite981-1"
         k4="0" />
    </filter>
  </defs>
  <sodipodi:namedview
     pagecolor="#ffffff"
     bordercolor="#666666"
     borderopacity="1"
     objecttolerance="10"
     gridtolerance="10"
     guidetolerance="10"
     inkscape:pageopacity="0"
     inkscape:pageshadow="2"
     inkscape:window-width="1888"
     inkscape:window-height="1144"
     id="namedview4"
     showgrid="false"
     inkscape:zoom="1.08"
     inkscape:cx="2138.8889"
     inkscape:cy="2801.8519"
     inkscape:window-x="32"
     inkscape:window-y="0"
     inkscape:window-maximized="1"
     inkscape:current-layer="layer1"
     inkscape:showpageshadow="0"
     inkscape:pagecheckerboard="0"
     inkscape:deskcolor="#d1d1d1" />
  <g
     inkscape:groupmode="layer"
     id="layer2"
     inkscape:label="artwork"
     sodipodi:insensitive="true">
    <image
       xlink:href="../gfx_Pepper-and-Carrot_by-David-Revoy_E38P07.png"
       y="0"
       x="0"
       id="image10"
       height="3503"
       width="2481" />
  </g>
  <g
     inkscape:groupmode="layer"
     id="layer3"
     inkscape:label="speechbubbles">
    <path
       style="fill:none;fill-rule:evenodd;stroke:#000000;stroke-width:1px;stroke-linecap:butt;stroke-linejoin:miter;stroke-opacity:1"
       d="m 52.137608,-189.13041 c 442.911262,-41.30437 378.026172,-32.60872 527.543992,-34.78264 149.5178,-2.17391 296.21453,52.17394 457.0167,50.00004 160.8022,-2.1739 335.7099,-67.39134 496.5121,-69.56525 160.8022,-2.17392 344.1731,80.43475 547.2916,71.73915 203.1186,-8.6957 440.0902,-73.91307 662.9564,-78.26089 222.8661,-4.34783 338.5309,8.69566 338.5309,8.69566"
       id="path1405"
       sodipodi:nodetypes="csssssc" />
    <path
       style="fill:#ffffff;stroke:none;stroke-width:0.999993"
       d="m 1711.1701,1921.0979 c -21.3515,0.8296 -42.7241,0.6252 -64.0871,0.8845 -16.0974,0.3073 -32.2718,0.8893 -48.1567,3.4587 -18.1099,3.4195 -35.5462,11.6731 -47.6503,24.7164 -7.9926,8.5388 -12.9281,19.4068 -13.8832,30.6418 -1.1354,11.7441 2.1088,23.7297 8.9158,33.7052 8.6913,13.1286 22.81,22.8263 38.5211,27.8088 22.6586,8.3149 47.3604,9.7979 71.4969,10.2188 32.3177,0.1719 64.5281,-3.409 96.853,-2.731 18.6371,-0.2695 37.8546,-3.2093 53.9551,-12.3168 15.4619,-8.5418 28.1584,-22.3328 32.1274,-38.758 3.3747,-15.2937 -1.5133,-31.3358 -10.5708,-44.2554 -9.0129,-12.3256 -23.5213,-20.7658 -39.1341,-24.1476 -23.1095,-6.2132 -47.2402,-8.5586 -71.24,-9.1805 -2.3824,-0.04 -4.7644,-0.055 -7.1471,-0.045 z"
       id="path3280-81-4"
       inkscape:connector-curvature="0"
       sodipodi:nodetypes="csssc" />
    <path
       style="fill:#ffffff;stroke:none;stroke-width:1"
       d="m 1752.3951,2212.7401 c -29.1996,-28.3355 -25.3776,-48.9 -18.4598,-65.8757 6.9152,-16.9743 5.4331,-34.8074 1.6513,-45.16 -3.7818,-10.3527 -15.458,-24.2791 -24.0065,-30.0394 -8.5495,-5.76 -2.463,-24.988 0.8184,-37.0866 4.3344,-15.985 14.1991,-18.8659 14.1991,-18.8659 0,0 -19.9194,-61.2958 -25.246,-45.8521 -5.3255,15.4433 -13.7202,67.8625 -14.37,74.4864 -0.6488,6.6235 -0.2538,26.7575 6.8528,35.3801 7.1075,8.6222 19.9088,11.1437 26.3236,22.4562 6.6084,11.6536 7.0082,21.5786 4.1393,35.3916 -2.8689,13.813 -5.234,45.0397 7.6892,57.4247 12.9241,12.3845 20.4086,17.7407 20.4086,17.7407 z"
       id="path3023-9"
       inkscape:connector-curvature="0"
       sodipodi:nodetypes="csssscssssssc" />
    <path
       style="display:inline;fill:#ffffff;fill-rule:evenodd;stroke:none;stroke-width:1.19267px;stroke-linecap:butt;stroke-linejoin:miter;stroke-opacity:1"
       d="m 795.0135,2914.6587 c 44.36689,21.1367 22.34032,35.2676 -27.26969,28.0824 71.07524,26.7358 59.47469,36.4971 -3.65814,37.051 42.38084,11.8549 70.79811,25.0901 -8.0183,43.17 56.38221,3.1963 77.79416,15.0647 9.16377,38.6258 37.05264,-1.2698 111.46461,-12.0241 64.11067,25.9723 81.82315,-18.9017 115.48184,-16.7723 73.12503,30.411 41.12732,-13.8955 108.74216,-49.1109 84.76517,-10.6033 18.84299,-12.298 42.82399,-16.9524 85.91099,6.8164 -8.4022,-17.1418 -33.7166,-44.3092 42.3826,-11.3604 -23.0051,-25.7812 -27.5855,-39.7495 49.2553,-1.5147 -11.4467,-19.4392 -69.7733,-35.6073 24.2397,-55.0466 -56.4791,-6.1239 -26.7316,-22.8974 5.5429,-34.3228 -60.1789,-10.482 -35.6482,-19.8196 6.8728,-30.2948 -43.1484,-6.449 -72.695,-17.0727 -9.1639,-46.9566 -95.5038,24.354 -62.7709,-7.4552 -54.9827,-28.0226 -35.2934,17.6427 -70.8667,48.8846 -84.7655,-6.059 -60.11165,43.7217 -79.57703,13.2926 -99.65658,-0.7573 -32.42153,52.7061 -75.41971,12.5699 -102.54283,-1.6446 24.53895,29.8283 10.07135,35.3686 -55.31129,16.4538 z"
       id="path1096"
       inkscape:connector-curvature="0"
       sodipodi:nodetypes="cccccccccccccccccccc" />
    <path
       style="color:#000000;display:inline;overflow:visible;visibility:visible;fill:#ffffff;fill-opacity:1;fill-rule:nonzero;stroke:none;stroke-width:1.04863px;marker:none;enable-background:accumulate"
       d="m 974.93747,3013.9941 c -37.5645,3.0045 -74.7329,15.0401 -102.61592,36.6118 -26.19378,20.6762 -43.36721,49.9677 -43.61716,80.3054 0.1793,19.9702 1.579,40.3537 9.73506,59.3075 14.24802,26.3083 44.3611,46.0355 78.25908,51.6157 34.82166,7.0822 70.82315,8.9815 106.55817,9.106 36.8686,-0.026 73.7131,-1.998 110.3774,-5.1449 22.8591,-2.4898 46.359,-6.6526 65.6358,-17.7718 22.5272,-13.3533 36.1958,-35.622 38.6339,-58.3851 3.532,-23.6777 1.0423,-47.8523 -5.8818,-70.9507 -4.9739,-15.7823 -13.4056,-31.3093 -27.7207,-42.7353 -17.6654,-14.809 -41.2117,-23.388 -64.8349,-29.375 -31.7249,-7.73 -64.8137,-10.1681 -97.6103,-12.4777 -22.2756,-1.2008 -44.6357,-1.1409 -66.91863,-0.1059 z"
       id="path3525"
       inkscape:connector-curvature="0" />
    <path
       style="color:#000000;display:inline;overflow:visible;visibility:visible;fill:#ffffff;fill-opacity:1;fill-rule:nonzero;stroke:none;stroke-width:0.999996px;marker:none;enable-background:accumulate"
       d="m 742.63655,2826.7563 c -8.53732,-43.3324 14.22887,-158.4342 189.24468,-148.9553 175.01567,9.479 203.47367,63.6445 207.74227,79.8942 4.2687,16.2496 41.2639,108.3311 -95.3337,132.7057 -136.59777,24.3744 -258.9664,-1.3542 -301.65325,-63.6446 z"
       id="path3525-6"
       inkscape:connector-curvature="0" />
    <path
       style="color:#000000;display:inline;overflow:visible;visibility:visible;fill:#ffffff;fill-opacity:1;fill-rule:nonzero;stroke:none;stroke-width:0.999996px;marker:none;enable-background:accumulate"
       d="m 2188.3887,2684.0863 c -25.5307,0.016 -51.4138,1.6608 -75.9593,10.1443 -6.5294,2.322 -13.0695,4.8978 -19.0318,8.7177 -9.2782,6.6357 -14.9425,18.6446 -15.4727,30.866 -0.8843,11.2634 0.4021,22.9199 4.5656,33.2743 4.0014,9.027 11.2536,15.9863 19.6393,19.5043 12.1039,5.7282 25.2523,7.6345 38.1474,9.7825 28.1929,4.0615 56.7324,2.9114 84.9802,0.2186 19.6199,-1.8054 39.2318,-4.3546 58.5083,-8.9098 9.3102,-2.2961 19.0922,-5.6921 25.7159,-13.8257 6.9118,-8.7386 9.1625,-20.7178 9.7324,-32.0679 0.4048,-8.3973 0.1617,-17.3087 -3.7212,-24.7698 -3.1932,-6.738 -9.3005,-10.7665 -15.2709,-13.8792 -7.011,-3.462 -14.3819,-5.8843 -21.6379,-8.5976 -23.3418,-7.9741 -47.8679,-10.7968 -72.204,-10.4524 -5.997,-0.013 -11.9942,-0.01 -17.9913,-0.01 z"
       id="path4546-6-0"
       inkscape:connector-curvature="0"
       sodipodi:nodetypes="cssssscsc" />
    <path
       style="color:#000000;display:inline;overflow:visible;visibility:visible;fill:#ffffff;fill-opacity:1;fill-rule:nonzero;stroke:none;stroke-width:1px;marker:none;enable-background:accumulate"
       d="m 2144.6292,2863.8279 c 38.981,-27.949 41.8709,-87.4857 24.9722,-108.5692 -4.3141,-34.7008 25.4997,-3.9606 25.4997,-3.9606 0,0 8.2154,3.3721 8.9152,11.4037 2.0851,23.9328 1.5994,80.4533 -59.3871,101.1261 z"
       id="path3072-7"
       inkscape:connector-curvature="0"
       sodipodi:nodetypes="cccsc" />
    <path
       style="color:#000000;display:inline;overflow:visible;visibility:visible;fill:#ffffff;fill-opacity:1;fill-rule:nonzero;stroke:none;stroke-width:0.999999px;marker:none;enable-background:accumulate"
       d="m 652.82725,2832.4766 c 35.33649,-33.7584 111.05065,-36.7285 137.96153,-22.3639 44.16284,3.4287 4.89767,-21.9668 4.89767,-21.9668 0,0 -4.33452,-7.0393 -14.55445,-7.576 -30.45374,-1.5989 -102.34461,-0.7214 -128.30475,51.9067 z"
       id="path3072-7-2"
       inkscape:connector-curvature="0"
       sodipodi:nodetypes="cccsc" />
    <path
       style="color:#000000;display:inline;overflow:visible;visibility:visible;fill:#ffffff;fill-opacity:1;fill-rule:nonzero;stroke:none;stroke-width:1px;marker:none;enable-background:accumulate"
       d="m 749.2899,3113.326 c 24.21517,16.3962 28.22208,16.2995 39.31406,6.8343 11.09189,-9.4652 23.88747,-26.5184 50.34854,-24.5624 26.46108,1.956 36.66181,14.2093 43.92044,21.8169 5.94319,-17.5954 37.01916,-50.3075 30.82533,-62.6575 -6.19381,-12.3501 47.58234,32.1315 47.58234,32.1315 0,0 -33.61565,39.5866 -53.5733,53.0391 -19.95754,13.4525 -51.10207,-16.4552 -69.12341,-20.5014 -18.02125,-4.0462 -37.05005,18.5815 -51.91623,18.2325 -14.86627,-0.3489 -27.69951,-14.1896 -37.37777,-24.333 z"
       id="path4538"
       inkscape:connector-curvature="0"
       sodipodi:nodetypes="csscscsssc" />
  </g>
  <g
     inkscape:groupmode="layer"
     id="layer1"
     inkscape:label="txt">
    <text
       xml:space="preserve"
       style="color:#000000;font-style:normal;font-variant:normal;font-weight:normal;font-stretch:normal;font-size:127.104px;line-height:0.01%;font-family:Lavi;-inkscape-font-specification:'Lavi, Normal';font-variant-ligatures:normal;font-variant-caps:normal;font-variant-numeric:normal;font-feature-settings:normal;text-align:start;letter-spacing:18.632px;word-spacing:0px;writing-mode:lr-tb;text-anchor:start;display:inline;overflow:visible;visibility:visible;fill:#ffffff;fill-opacity:1;fill-rule:nonzero;stroke:#000000;stroke-width:14.705;stroke-linecap:butt;stroke-linejoin:miter;stroke-miterlimit:4;stroke-dasharray:none;stroke-dashoffset:0;stroke-opacity:1;marker:none;paint-order:stroke markers fill;filter:url(#filter983-1);enable-background:accumulate"
       id="text1702"
       transform="matrix(1.0405291,0,0,1,14.367346,389.41398)"><textPath
         xlink:href="#path20863"
         id="textPath1053"
         style="stroke-width:14.705">KRi<tspan
   style="font-style:italic;font-variant:normal;font-weight:normal;font-stretch:normal;font-size:114.132px;font-family:Lavi;-inkscape-font-specification:'Lavi Italic';stroke:#000000;stroke-width:14.705;stroke-dasharray:none;paint-order:stroke markers fill"
   id="tspan19293">iii</tspan><tspan
   id="tspan19301"
   style="font-style:italic;font-variant:normal;font-weight:normal;font-stretch:normal;font-size:103.322px;font-family:Lavi;-inkscape-font-specification:'Lavi Italic';stroke:#000000;stroke-width:14.705;stroke-dasharray:none;paint-order:stroke markers fill">iiii</tspan>iii<tspan
   style="font-style:italic;font-variant:normal;font-weight:normal;font-stretch:normal;font-size:108.727px;font-family:Lavi;-inkscape-font-specification:'Lavi Italic';stroke:#000000;stroke-width:14.705;stroke-dasharray:none;paint-order:stroke markers fill"
   id="tspan19305">iii</tspan><tspan
   id="tspan19309"
   style="font-style:italic;font-variant:normal;font-weight:normal;font-stretch:normal;font-size:87.1066px;font-family:Lavi;-inkscape-font-specification:'Lavi Italic';stroke:#000000;stroke-width:14.705;stroke-dasharray:none;paint-order:stroke markers fill">ii<tspan
   style="font-size:77.1066px;stroke-width:14.705;stroke-dasharray:none"
   id="tspan1168">i</tspan><tspan
   id="tspan1172"
   style="font-size:67.1066px;stroke-width:14.705;stroke-dasharray:none">ii</tspan></tspan></textPath></text>
    <text
       xml:space="preserve"
       style="color:#000000;font-style:normal;font-variant:normal;font-weight:normal;font-stretch:normal;font-size:127.104px;line-height:0.01%;font-family:Lavi;-inkscape-font-specification:'Lavi, Normal';font-variant-ligatures:normal;font-variant-caps:normal;font-variant-numeric:normal;font-feature-settings:normal;text-align:start;letter-spacing:18.632px;word-spacing:0px;writing-mode:lr-tb;text-anchor:start;display:inline;overflow:visible;visibility:visible;fill:#ffffff;fill-opacity:1;fill-rule:nonzero;stroke:#000000;stroke-width:14.3879;stroke-linecap:butt;stroke-linejoin:miter;stroke-miterlimit:4;stroke-dasharray:none;stroke-dashoffset:0;stroke-opacity:1;marker:none;paint-order:stroke markers fill;filter:url(#filter983-1);enable-background:accumulate"
       id="text1702-5"
       transform="matrix(1.0868997,0,0,1,-124.87143,354.51202)"><textPath
         xlink:href="#path1020"
         id="textPath1059"
         style="stroke-width:14.3879"><tspan
           id="tspan19309-2"
           style="font-style:italic;font-variant:normal;font-weight:normal;font-stretch:normal;font-size:87.1066px;font-family:Lavi;-inkscape-font-specification:'Lavi Italic';stroke:#000000;stroke-width:14.3879;stroke-dasharray:none;paint-order:stroke markers fill"><tspan
   id="tspan21251-7"
   style="font-style:italic;font-variant:normal;font-weight:normal;font-stretch:normal;font-size:67.1066px;font-family:Lavi;-inkscape-font-specification:'Lavi Italic';stroke-width:14.3879;stroke-dasharray:none;paint-order:stroke markers fill">ii</tspan><tspan
   style="font-style:italic;font-variant:normal;font-weight:normal;font-stretch:normal;font-size:77.1066px;font-family:Lavi;-inkscape-font-specification:'Lavi Italic';stroke-width:14.3879;stroke-dasharray:none;paint-order:stroke markers fill"
   id="tspan21243-0">i</tspan>iii<tspan
   style="font-style:italic;font-variant:normal;font-weight:normal;font-stretch:normal;font-size:97.1066px;font-family:Lavi;-inkscape-font-specification:'Lavi Italic';stroke-width:14.3879;stroke-dasharray:none;paint-order:stroke markers fill"
   id="tspan21235-9">i<tspan
   style="font-style:italic;font-variant:normal;font-weight:normal;font-stretch:normal;font-size:117.107px;font-family:Lavi;-inkscape-font-specification:'Lavi Italic';stroke-width:14.3879;stroke-dasharray:none;paint-order:stroke markers fill"
   id="tspan21239-3">iiiiiiiiiii</tspan>i</tspan>i</tspan></textPath></text>
    <text
       xml:space="preserve"
       style="color:#000000;font-style:normal;font-variant:normal;font-weight:normal;font-stretch:normal;font-size:155.442px;line-height:0.01%;font-family:Lavi;-inkscape-font-specification:'Lavi, Normal';font-variant-ligatures:normal;font-variant-caps:normal;font-variant-numeric:normal;font-feature-settings:normal;text-align:start;letter-spacing:22.786px;word-spacing:0px;writing-mode:lr-tb;text-anchor:start;display:inline;overflow:visible;visibility:visible;fill:#ffffff;fill-opacity:1;fill-rule:nonzero;stroke:#000000;stroke-width:16.2241;stroke-linecap:butt;stroke-linejoin:miter;stroke-miterlimit:4;stroke-dasharray:none;stroke-dashoffset:0;stroke-opacity:1;marker:none;paint-order:stroke markers fill;filter:url(#filter983-1);enable-background:accumulate"
       id="text1702-5-5"
       transform="matrix(0.96909088,0.01637601,-0.01532801,0.88180074,67.089739,1131.5667)"><textPath
         xlink:href="#path1405-7"
         id="textPath1458"
         style="stroke-width:16.2241;stroke-dasharray:none"><tspan
           id="tspan19309-2-2"
           style="font-style:italic;font-variant:normal;font-weight:normal;font-stretch:normal;font-size:106.527px;font-family:Lavi;-inkscape-font-specification:'Lavi Italic';stroke:#000000;stroke-width:16.2241;stroke-dasharray:none;paint-order:stroke markers fill"><tspan
   id="tspan21251-7-9"
   style="font-style:italic;font-variant:normal;font-weight:normal;font-stretch:normal;font-size:82.0679px;font-family:Lavi;-inkscape-font-specification:'Lavi Italic';stroke-width:16.2241;stroke-dasharray:none;paint-order:stroke markers fill">ii</tspan><tspan
   style="font-style:italic;font-variant:normal;font-weight:normal;font-stretch:normal;font-size:94.2974px;font-family:Lavi;-inkscape-font-specification:'Lavi Italic';stroke-width:16.2241;stroke-dasharray:none;paint-order:stroke markers fill"
   id="tspan21243-0-1">i</tspan>iii<tspan
   style="font-style:italic;font-variant:normal;font-weight:normal;font-stretch:normal;font-size:118.756px;font-family:Lavi;-inkscape-font-specification:'Lavi Italic';stroke-width:16.2241;stroke-dasharray:none;paint-order:stroke markers fill"
   id="tspan21235-9-2">i<tspan
   style="font-style:italic;font-variant:normal;font-weight:normal;font-stretch:normal;font-size:143.216px;font-family:Lavi;-inkscape-font-specification:'Lavi Italic';stroke-width:16.2241;stroke-dasharray:none;paint-order:stroke markers fill"
   id="tspan21239-3-7">iiiiiiiiiii</tspan>i</tspan>iiiiiiiiii<tspan
   id="tspan1334"
   style="font-size:130.986px;stroke-width:16.2241;stroke-dasharray:none">iii</tspan><tspan
   style="font-size:155.445px;stroke-width:16.2241;stroke-dasharray:none"
   id="tspan1318">iiiiiiii</tspan><tspan
   id="tspan1336"
   style="font-size:130.986px;stroke-width:16.2241;stroke-dasharray:none">iiii</tspan>iiiiiii<tspan
   style="font-size:82.0679px;stroke-width:16.2241;stroke-dasharray:none"
   id="tspan1340">iiiii</tspan></tspan></textPath></text>
    <text
       xml:space="preserve"
       style="color:#000000;font-style:normal;font-variant:normal;font-weight:normal;font-stretch:normal;font-size:6.09923px;line-height:0%;font-family:Arial;-inkscape-font-specification:Arial;letter-spacing:0.013901px;word-spacing:0px;clip-rule:nonzero;display:inline;overflow:visible;visibility:visible;isolation:auto;mix-blend-mode:normal;color-interpolation:sRGB;color-interpolation-filters:linearRGB;solid-color:#000000;solid-opacity:1;fill:#d7e3f4;fill-opacity:1;fill-rule:nonzero;stroke:#1e90ff;stroke-width:8.99996;stroke-linecap:butt;stroke-linejoin:miter;stroke-miterlimit:4;stroke-dasharray:none;stroke-dashoffset:0;stroke-opacity:1;marker:none;paint-order:stroke markers fill;color-rendering:auto;image-rendering:auto;shape-rendering:auto;text-rendering:auto;enable-background:accumulate"
       x="1669.2567"
       y="1015.4174"
       id="text4251-9-3-1-9-5-4-7"
       transform="matrix(0.76116187,-0.1181876,-0.08454105,1.3269079,0,0)"
       inkscape:transform-center-x="-111.86567"
       inkscape:transform-center-y="-94.18204"><tspan
         sodipodi:role="line"
         id="tspan4253-3-7-8-7-0-7-4"
         x="1669.2567"
         y="1015.4174"
         style="font-style:normal;font-variant:normal;font-weight:normal;font-stretch:normal;font-size:81.3838px;line-height:1.25;font-family:Lavi;-inkscape-font-specification:Lavi;fill:#d7e3f4;fill-opacity:1;stroke:#1e90ff;stroke-width:8.99996;stroke-dasharray:none;paint-order:stroke markers fill"><tspan
           style="font-size:45.7442px;fill:#d7e3f4;fill-opacity:1;stroke:#1e90ff;stroke-width:8.99996;stroke-dasharray:none;paint-order:stroke markers fill"
           id="tspan4349-9-9-7-3-3-6-4">KR<tspan
   style="font-size:37.0603px;stroke-width:8.99996"
   id="tspan1087">R</tspan>R<tspan
   style="font-size:30.9816px;stroke-width:8.99996"
   id="tspan1091">R </tspan></tspan><tspan
           id="tspan4365-0-3-9-6-6-5-3"
           style="font-size:23.1654px;fill:#d7e3f4;fill-opacity:1;stroke:#1e90ff;stroke-width:8.99996;stroke-dasharray:none;paint-order:stroke markers fill">! </tspan><tspan
           id="tspan4311-9-7-2-1-1-6-0"
           style="font-size:28.3838px;fill:#d7e3f4;fill-opacity:1;stroke:#1e90ff;stroke-width:8.99996;stroke-dasharray:none;paint-order:stroke markers fill">! </tspan><tspan
           id="tspan4369-2-8-0-2-0-9-7"
           style="font-size:36.8564px;fill:#d7e3f4;fill-opacity:1;stroke:#1e90ff;stroke-width:8.99996;stroke-dasharray:none;paint-order:stroke markers fill">!</tspan></tspan></text>
    <text
       xml:space="preserve"
       style="color:#000000;font-style:normal;font-variant:normal;font-weight:normal;font-stretch:normal;font-size:6.09923px;line-height:0%;font-family:Arial;-inkscape-font-specification:Arial;letter-spacing:0.013901px;word-spacing:0px;clip-rule:nonzero;display:inline;overflow:visible;visibility:visible;isolation:auto;mix-blend-mode:normal;color-interpolation:sRGB;color-interpolation-filters:linearRGB;solid-color:#000000;solid-opacity:1;fill:#d7e3f4;fill-opacity:1;fill-rule:nonzero;stroke:#1e90ff;stroke-width:8.99996;stroke-linecap:butt;stroke-linejoin:miter;stroke-miterlimit:4;stroke-dasharray:none;stroke-dashoffset:0;stroke-opacity:1;marker:none;paint-order:stroke markers fill;color-rendering:auto;image-rendering:auto;shape-rendering:auto;text-rendering:auto;enable-background:accumulate"
       x="473.21915"
       y="1593.8789"
       id="text4251-9-3-1-9-5-4-7-6"
       transform="matrix(0.55734135,-0.53170135,0.68836615,1.1375341,0,0)"
       inkscape:transform-center-x="-36.030766"
       inkscape:transform-center-y="-141.19759"><tspan
         sodipodi:role="line"
         id="tspan4253-3-7-8-7-0-7-4-7"
         x="473.21915"
         y="1593.8789"
         style="font-style:normal;font-variant:normal;font-weight:normal;font-stretch:normal;font-size:81.3838px;line-height:1.25;font-family:Lavi;-inkscape-font-specification:Lavi;fill:#d7e3f4;fill-opacity:1;stroke:#1e90ff;stroke-width:8.99996;stroke-dasharray:none;paint-order:stroke markers fill"><tspan
           style="font-size:45.7442px;fill:#d7e3f4;fill-opacity:1;stroke:#1e90ff;stroke-width:8.99996;stroke-dasharray:none;paint-order:stroke markers fill"
           id="tspan4349-9-9-7-3-3-6-4-5">KR<tspan
   style="font-size:37.0603px;stroke-width:8.99996"
   id="tspan1087-3">R</tspan>R<tspan
   style="font-size:30.9816px;stroke-width:8.99996"
   id="tspan1091-5">R </tspan></tspan><tspan
           id="tspan4365-0-3-9-6-6-5-3-6"
           style="font-size:23.1654px;fill:#d7e3f4;fill-opacity:1;stroke:#1e90ff;stroke-width:8.99996;stroke-dasharray:none;paint-order:stroke markers fill">! </tspan><tspan
           id="tspan4311-9-7-2-1-1-6-0-2"
           style="font-size:28.3838px;fill:#d7e3f4;fill-opacity:1;stroke:#1e90ff;stroke-width:8.99996;stroke-dasharray:none;paint-order:stroke markers fill">! </tspan><tspan
           id="tspan4369-2-8-0-2-0-9-7-9"
           style="font-size:36.8564px;fill:#d7e3f4;fill-opacity:1;stroke:#1e90ff;stroke-width:8.99996;stroke-dasharray:none;paint-order:stroke markers fill">!</tspan></tspan></text>
    <text
       xml:space="preserve"
       style="color:#000000;font-style:normal;font-variant:normal;font-weight:normal;font-stretch:normal;font-size:6.09923px;line-height:0%;font-family:Arial;-inkscape-font-specification:Arial;letter-spacing:0.013901px;word-spacing:0px;clip-rule:nonzero;display:inline;overflow:visible;visibility:visible;isolation:auto;mix-blend-mode:normal;color-interpolation:sRGB;color-interpolation-filters:linearRGB;solid-color:#000000;solid-opacity:1;fill:#d7e3f4;fill-opacity:1;fill-rule:nonzero;stroke:#1e90ff;stroke-width:8.99996;stroke-linecap:butt;stroke-linejoin:miter;stroke-miterlimit:4;stroke-dasharray:none;stroke-dashoffset:0;stroke-opacity:1;marker:none;paint-order:stroke markers fill;color-rendering:auto;image-rendering:auto;shape-rendering:auto;text-rendering:auto;enable-background:accumulate"
       x="1401.0199"
       y="1299.3007"
       id="text4251-9-3-1-9-5-4-7-6-1"
       transform="matrix(0.68062479,-0.36067383,0.35416319,1.2815616,0,0)"
       inkscape:transform-center-x="-73.866401"
       inkscape:transform-center-y="-125.59373"><tspan
         sodipodi:role="line"
         id="tspan4253-3-7-8-7-0-7-4-7-2"
         x="1401.0199"
         y="1299.3007"
         style="font-style:normal;font-variant:normal;font-weight:normal;font-stretch:normal;font-size:81.3838px;line-height:1.25;font-family:Lavi;-inkscape-font-specification:Lavi;fill:#d7e3f4;fill-opacity:1;stroke:#1e90ff;stroke-width:8.99996;stroke-dasharray:none;paint-order:stroke markers fill"><tspan
           style="font-size:45.7442px;fill:#d7e3f4;fill-opacity:1;stroke:#1e90ff;stroke-width:8.99996;stroke-dasharray:none;paint-order:stroke markers fill"
           id="tspan4349-9-9-7-3-3-6-4-5-7">KR<tspan
   style="font-size:37.0603px;stroke-width:8.99996"
   id="tspan1087-3-0">R</tspan>R<tspan
   style="font-size:30.9816px;stroke-width:8.99996"
   id="tspan1091-5-9">R </tspan></tspan><tspan
           id="tspan4365-0-3-9-6-6-5-3-6-3"
           style="font-size:23.1654px;fill:#d7e3f4;fill-opacity:1;stroke:#1e90ff;stroke-width:8.99996;stroke-dasharray:none;paint-order:stroke markers fill">! </tspan><tspan
           id="tspan4311-9-7-2-1-1-6-0-2-6"
           style="font-size:28.3838px;fill:#d7e3f4;fill-opacity:1;stroke:#1e90ff;stroke-width:8.99996;stroke-dasharray:none;paint-order:stroke markers fill">! </tspan><tspan
           id="tspan4369-2-8-0-2-0-9-7-9-0"
           style="font-size:36.8564px;fill:#d7e3f4;fill-opacity:1;stroke:#1e90ff;stroke-width:8.99996;stroke-dasharray:none;paint-order:stroke markers fill">!</tspan></tspan></text>
    <text
       xml:space="preserve"
       style="color:#000000;font-style:normal;font-variant:normal;font-weight:normal;font-stretch:normal;font-size:7.84858px;line-height:0%;font-family:Arial;-inkscape-font-specification:Arial;letter-spacing:0.017888px;word-spacing:0px;clip-rule:nonzero;display:inline;overflow:visible;visibility:visible;isolation:auto;mix-blend-mode:normal;color-interpolation:sRGB;color-interpolation-filters:linearRGB;solid-color:#000000;solid-opacity:1;fill:#d7e3f4;fill-opacity:1;fill-rule:nonzero;stroke:#1e90ff;stroke-width:13;stroke-linecap:butt;stroke-linejoin:miter;stroke-miterlimit:4;stroke-dasharray:none;stroke-dashoffset:0;stroke-opacity:1;marker:none;paint-order:stroke markers fill;color-rendering:auto;image-rendering:auto;shape-rendering:auto;text-rendering:auto;enable-background:accumulate"
       x="3224.2419"
       y="706.92328"
       id="text4251-9-3"
       transform="matrix(0.81111136,0.08644936,-0.62443961,1.1663227,0,0)"><tspan
         sodipodi:role="line"
         id="tspan4253-3-7"
         x="3224.2419"
         y="706.92328"
         style="font-style:normal;font-variant:normal;font-weight:normal;font-stretch:normal;font-size:104.726px;line-height:1.25;font-family:Lavi;-inkscape-font-specification:Lavi;fill:#d7e3f4;fill-opacity:1;stroke:#1e90ff;stroke-width:13;stroke-dasharray:none;paint-order:stroke markers fill"><tspan
           style="font-size:58.8643px;fill:#d7e3f4;fill-opacity:1;stroke:#1e90ff;stroke-width:13;stroke-dasharray:none;paint-order:stroke markers fill"
           id="tspan4349-9-9">Krak </tspan><tspan
           id="tspan4365-0-3"
           style="font-size:29.8097px;fill:#d7e3f4;fill-opacity:1;stroke:#1e90ff;stroke-width:13;stroke-dasharray:none;paint-order:stroke markers fill">! </tspan><tspan
           id="tspan4311-9-7"
           style="font-size:36.5247px;fill:#d7e3f4;fill-opacity:1;stroke:#1e90ff;stroke-width:13;stroke-dasharray:none;paint-order:stroke markers fill">! </tspan><tspan
           id="tspan4369-2-8"
           style="font-size:47.4274px;fill:#d7e3f4;fill-opacity:1;stroke:#1e90ff;stroke-width:13;stroke-dasharray:none;paint-order:stroke markers fill">!</tspan></tspan></text>
    <text
       xml:space="preserve"
       style="color:#000000;font-style:normal;font-variant:normal;font-weight:normal;font-stretch:normal;font-size:7.99304px;line-height:0%;font-family:Arial;-inkscape-font-specification:Arial;letter-spacing:0.0182172px;word-spacing:0px;clip-rule:nonzero;display:inline;overflow:visible;visibility:visible;isolation:auto;mix-blend-mode:normal;color-interpolation:sRGB;color-interpolation-filters:linearRGB;solid-color:#000000;solid-opacity:1;fill:#d7e3f4;fill-opacity:1;fill-rule:nonzero;stroke:#1e90ff;stroke-width:13;stroke-linecap:butt;stroke-linejoin:miter;stroke-miterlimit:4;stroke-dasharray:none;stroke-dashoffset:0;stroke-opacity:1;marker:none;paint-order:stroke markers fill;color-rendering:auto;image-rendering:auto;shape-rendering:auto;text-rendering:auto;enable-background:accumulate"
       x="2947.6458"
       y="1483.1553"
       id="text4251-9-3-1"
       transform="matrix(0.70615116,-0.23002193,0.08328681,1.3889975,0,0)"><tspan
         sodipodi:role="line"
         id="tspan4253-3-7-8"
         x="2947.6458"
         y="1483.1553"
         style="font-style:normal;font-variant:normal;font-weight:normal;font-stretch:normal;font-size:106.654px;line-height:1.25;font-family:Lavi;-inkscape-font-specification:Lavi;fill:#d7e3f4;fill-opacity:1;stroke:#1e90ff;stroke-width:13;stroke-dasharray:none;paint-order:stroke markers fill"><tspan
           style="font-size:59.9478px;fill:#d7e3f4;fill-opacity:1;stroke:#1e90ff;stroke-width:13;stroke-dasharray:none;paint-order:stroke markers fill"
           id="tspan4349-9-9-7">Krack </tspan><tspan
           id="tspan4365-0-3-9"
           style="font-size:30.3583px;fill:#d7e3f4;fill-opacity:1;stroke:#1e90ff;stroke-width:13;stroke-dasharray:none;paint-order:stroke markers fill">! </tspan><tspan
           id="tspan4311-9-7-2"
           style="font-size:37.1969px;fill:#d7e3f4;fill-opacity:1;stroke:#1e90ff;stroke-width:13;stroke-dasharray:none;paint-order:stroke markers fill">! </tspan><tspan
           id="tspan4369-2-8-0"
           style="font-size:48.3004px;fill:#d7e3f4;fill-opacity:1;stroke:#1e90ff;stroke-width:13;stroke-dasharray:none;paint-order:stroke markers fill">!</tspan></tspan></text>
    <text
       xml:space="preserve"
       style="color:#000000;font-style:normal;font-variant:normal;font-weight:normal;font-stretch:normal;font-size:8.08201px;line-height:0%;font-family:Arial;-inkscape-font-specification:Arial;letter-spacing:0.01842px;word-spacing:0px;clip-rule:nonzero;display:inline;overflow:visible;visibility:visible;isolation:auto;mix-blend-mode:normal;color-interpolation:sRGB;color-interpolation-filters:linearRGB;solid-color:#000000;solid-opacity:1;fill:#d7e3f4;fill-opacity:1;fill-rule:nonzero;stroke:#1e90ff;stroke-width:13;stroke-linecap:butt;stroke-linejoin:miter;stroke-miterlimit:4;stroke-dasharray:none;stroke-dashoffset:0;stroke-opacity:1;marker:none;paint-order:stroke markers fill;color-rendering:auto;image-rendering:auto;shape-rendering:auto;text-rendering:auto;enable-background:accumulate"
       x="1941.4905"
       y="1610.2644"
       id="text4251-9-3-1-3"
       transform="matrix(0.66640503,-0.36607994,0.46139572,1.2471279,0,0)"><tspan
         sodipodi:role="line"
         id="tspan4253-3-7-8-74"
         x="1941.4905"
         y="1610.2644"
         style="font-style:normal;font-variant:normal;font-weight:normal;font-stretch:normal;font-size:107.842px;line-height:1.25;font-family:Lavi;-inkscape-font-specification:Lavi;fill:#d7e3f4;fill-opacity:1;stroke:#1e90ff;stroke-width:13;stroke-dasharray:none;paint-order:stroke markers fill"><tspan
           style="font-size:60.6151px;fill:#d7e3f4;fill-opacity:1;stroke:#1e90ff;stroke-width:13;stroke-dasharray:none;paint-order:stroke markers fill"
           id="tspan4349-9-9-7-5">Krak </tspan><tspan
           id="tspan4365-0-3-9-2"
           style="font-size:30.6963px;fill:#d7e3f4;fill-opacity:1;stroke:#1e90ff;stroke-width:13;stroke-dasharray:none;paint-order:stroke markers fill">! </tspan><tspan
           id="tspan4311-9-7-2-5"
           style="font-size:37.611px;fill:#d7e3f4;fill-opacity:1;stroke:#1e90ff;stroke-width:13;stroke-dasharray:none;paint-order:stroke markers fill">! </tspan><tspan
           id="tspan4369-2-8-0-4"
           style="font-size:48.838px;fill:#d7e3f4;fill-opacity:1;stroke:#1e90ff;stroke-width:13;stroke-dasharray:none;paint-order:stroke markers fill">!</tspan></tspan></text>
    <text
       xml:space="preserve"
       style="color:#000000;font-style:normal;font-variant:normal;font-weight:normal;font-stretch:normal;font-size:7.85383px;line-height:0%;font-family:Arial;-inkscape-font-specification:Arial;letter-spacing:0.0178999px;word-spacing:0px;clip-rule:nonzero;display:inline;overflow:visible;visibility:visible;isolation:auto;mix-blend-mode:normal;color-interpolation:sRGB;color-interpolation-filters:linearRGB;solid-color:#000000;solid-opacity:1;fill:#d7e3f4;fill-opacity:1;fill-rule:nonzero;stroke:#1e90ff;stroke-width:13;stroke-linecap:butt;stroke-linejoin:miter;stroke-miterlimit:4;stroke-dasharray:none;stroke-dashoffset:0;stroke-opacity:1;marker:none;paint-order:stroke markers fill;color-rendering:auto;image-rendering:auto;shape-rendering:auto;text-rendering:auto;enable-background:accumulate"
       x="2922.2742"
       y="921.79712"
       id="text4251-9-3-1-9"
       transform="matrix(0.78390292,-0.02757059,-0.37349781,1.2888044,0,0)"><tspan
         sodipodi:role="line"
         id="tspan4253-3-7-8-7"
         x="2922.2742"
         y="921.79712"
         style="font-style:normal;font-variant:normal;font-weight:normal;font-stretch:normal;font-size:104.797px;line-height:1.25;font-family:Lavi;-inkscape-font-specification:Lavi;fill:#d7e3f4;fill-opacity:1;stroke:#1e90ff;stroke-width:13;stroke-dasharray:none;paint-order:stroke markers fill"><tspan
           style="font-size:58.9037px;fill:#d7e3f4;fill-opacity:1;stroke:#1e90ff;stroke-width:13;stroke-dasharray:none;paint-order:stroke markers fill"
           id="tspan4349-9-9-7-3">Krak </tspan><tspan
           id="tspan4365-0-3-9-6"
           style="font-size:29.8295px;fill:#d7e3f4;fill-opacity:1;stroke:#1e90ff;stroke-width:13;stroke-dasharray:none;paint-order:stroke markers fill">! </tspan><tspan
           id="tspan4311-9-7-2-1"
           style="font-size:36.5492px;fill:#d7e3f4;fill-opacity:1;stroke:#1e90ff;stroke-width:13;stroke-dasharray:none;paint-order:stroke markers fill">! </tspan><tspan
           id="tspan4369-2-8-0-2"
           style="font-size:47.4592px;fill:#d7e3f4;fill-opacity:1;stroke:#1e90ff;stroke-width:13;stroke-dasharray:none;paint-order:stroke markers fill">!</tspan></tspan></text>
    <text
       xml:space="preserve"
       style="color:#000000;font-style:normal;font-variant:normal;font-weight:normal;font-stretch:normal;font-size:8.7752px;line-height:0%;font-family:Arial;-inkscape-font-specification:Arial;letter-spacing:0.0199998px;word-spacing:0px;clip-rule:nonzero;display:inline;overflow:visible;visibility:visible;isolation:auto;mix-blend-mode:normal;color-interpolation:sRGB;color-interpolation-filters:linearRGB;solid-color:#000000;solid-opacity:1;fill:#d7e3f4;fill-opacity:1;fill-rule:nonzero;stroke:#1e90ff;stroke-width:13;stroke-linecap:butt;stroke-linejoin:miter;stroke-miterlimit:4;stroke-dasharray:none;stroke-dashoffset:0;stroke-opacity:1;marker:none;paint-order:stroke markers fill;color-rendering:auto;image-rendering:auto;shape-rendering:auto;text-rendering:auto;enable-background:accumulate"
       x="2010.15"
       y="1437.974"
       id="text4251-9-3-1-9-5"
       transform="matrix(0.70574997,-0.2585977,0.19389686,1.3458856,0,0)"
       inkscape:transform-center-x="-125.50887"
       inkscape:transform-center-y="-165.47732"><tspan
         sodipodi:role="line"
         id="tspan4253-3-7-8-7-0"
         x="2010.15"
         y="1437.974"
         style="font-style:normal;font-variant:normal;font-weight:normal;font-stretch:normal;font-size:117.09px;line-height:1.25;font-family:Lavi;-inkscape-font-specification:Lavi;fill:#d7e3f4;fill-opacity:1;stroke:#1e90ff;stroke-width:13;stroke-dasharray:none;paint-order:stroke markers fill"><tspan
           style="font-size:65.8141px;fill:#d7e3f4;fill-opacity:1;stroke:#1e90ff;stroke-width:13;stroke-dasharray:none;paint-order:stroke markers fill"
           id="tspan4349-9-9-7-3-3">Krak </tspan><tspan
           id="tspan4365-0-3-9-6-6"
           style="font-size:33.329px;fill:#d7e3f4;fill-opacity:1;stroke:#1e90ff;stroke-width:13;stroke-dasharray:none;paint-order:stroke markers fill">! </tspan><tspan
           id="tspan4311-9-7-2-1-1"
           style="font-size:40.8369px;fill:#d7e3f4;fill-opacity:1;stroke:#1e90ff;stroke-width:13;stroke-dasharray:none;paint-order:stroke markers fill">! </tspan><tspan
           id="tspan4369-2-8-0-2-0"
           style="font-size:53.0269px;fill:#d7e3f4;fill-opacity:1;stroke:#1e90ff;stroke-width:13;stroke-dasharray:none;paint-order:stroke markers fill">!</tspan></tspan></text>
    <text
       xml:space="preserve"
       style="color:#000000;font-style:normal;font-variant:normal;font-weight:normal;font-stretch:normal;font-size:8.85924px;line-height:0%;font-family:Arial;-inkscape-font-specification:Arial;letter-spacing:0.0201914px;word-spacing:0px;clip-rule:nonzero;display:inline;overflow:visible;visibility:visible;isolation:auto;mix-blend-mode:normal;color-interpolation:sRGB;color-interpolation-filters:linearRGB;solid-color:#000000;solid-opacity:1;fill:#d7e3f4;fill-opacity:1;fill-rule:nonzero;stroke:#1e90ff;stroke-width:13;stroke-linecap:butt;stroke-linejoin:miter;stroke-miterlimit:4;stroke-dasharray:none;stroke-dashoffset:0;stroke-opacity:1;marker:none;paint-order:stroke markers fill;color-rendering:auto;image-rendering:auto;shape-rendering:auto;text-rendering:auto;enable-background:accumulate"
       x="2064.3064"
       y="1277.7948"
       id="text4251-9-3-1-9-5-4"
       transform="matrix(0.71247952,-0.25615519,0.19574571,1.3331734,0,0)"
       inkscape:transform-center-x="-127.91888"
       inkscape:transform-center-y="-165.48401"><tspan
         sodipodi:role="line"
         id="tspan4253-3-7-8-7-0-7"
         x="2064.3064"
         y="1277.7948"
         style="font-style:normal;font-variant:normal;font-weight:normal;font-stretch:normal;font-size:118.211px;line-height:1.25;font-family:Lavi;-inkscape-font-specification:Lavi;fill:#d7e3f4;fill-opacity:1;stroke:#1e90ff;stroke-width:13;stroke-dasharray:none;paint-order:stroke markers fill"><tspan
           style="font-size:66.4443px;fill:#d7e3f4;fill-opacity:1;stroke:#1e90ff;stroke-width:13;stroke-dasharray:none;paint-order:stroke markers fill"
           id="tspan4349-9-9-7-3-3-6">Krak </tspan><tspan
           id="tspan4365-0-3-9-6-6-5"
           style="font-size:33.6482px;fill:#d7e3f4;fill-opacity:1;stroke:#1e90ff;stroke-width:13;stroke-dasharray:none;paint-order:stroke markers fill">! </tspan><tspan
           id="tspan4311-9-7-2-1-1-6"
           style="font-size:41.228px;fill:#d7e3f4;fill-opacity:1;stroke:#1e90ff;stroke-width:13;stroke-dasharray:none;paint-order:stroke markers fill">! </tspan><tspan
           id="tspan4369-2-8-0-2-0-9"
           style="font-size:53.5346px;fill:#d7e3f4;fill-opacity:1;stroke:#1e90ff;stroke-width:13;stroke-dasharray:none;paint-order:stroke markers fill">!</tspan></tspan></text>
    <text
       xml:space="preserve"
       style="color:#000000;font-style:normal;font-variant:normal;font-weight:normal;font-stretch:normal;font-size:127.104px;line-height:0.01%;font-family:Lavi;-inkscape-font-specification:'Lavi, Normal';font-variant-ligatures:normal;font-variant-caps:normal;font-variant-numeric:normal;font-feature-settings:normal;text-align:start;letter-spacing:18.632px;word-spacing:0px;writing-mode:lr-tb;text-anchor:start;display:inline;overflow:visible;visibility:visible;fill:#ffffff;fill-opacity:1;fill-rule:nonzero;stroke:#000000;stroke-width:12.2523;stroke-linecap:butt;stroke-linejoin:miter;stroke-miterlimit:4;stroke-dasharray:none;stroke-dashoffset:0;stroke-opacity:1;marker:none;paint-order:stroke markers fill;filter:url(#filter983-36);enable-background:accumulate"
       id="text1702-5-8"
       transform="matrix(1.0667418,0.12607125,-0.23523894,1.377234,-1553.3432,1654.1086)"><textPath
         xlink:href="#path1020"
         id="textPath1059-6"
         style="font-style:italic;font-variant:normal;font-weight:normal;font-stretch:normal;font-size:87.1066px;font-family:Lavi;-inkscape-font-specification:'Lavi Italic';stroke:#000000;stroke-width:12.2523;stroke-dasharray:none;paint-order:stroke markers fill"><tspan
           style="font-style:italic;font-variant:normal;font-weight:normal;font-stretch:normal;font-size:120.107px;font-family:Lavi;-inkscape-font-specification:'Lavi Italic';stroke-width:12.2523;stroke-dasharray:none;paint-order:stroke markers fill"
           id="tspan21235-9-3">i</tspan><tspan
           id="tspan6629"
           style="font-style:italic;font-variant:normal;font-weight:normal;font-stretch:normal;font-size:117.107px;font-family:Lavi;-inkscape-font-specification:'Lavi Italic';stroke-width:12.2523;stroke-dasharray:none;paint-order:stroke markers fill">ii<tspan
   style="font-size:80.1068px;stroke-width:12.2523;stroke-dasharray:none"
   id="tspan6631">ii</tspan><tspan
   id="tspan6643"
   style="font-size:60.1068px;stroke-width:12.2523;stroke-dasharray:none">i</tspan></tspan><tspan
           style="font-size:60.1068px;stroke-width:12.2523;stroke-dasharray:none"
           id="tspan6633">i</tspan><tspan
           id="tspan6647"
           style="font-size:40.1068px;stroke-width:12.2523;stroke-dasharray:none">i...</tspan></textPath></text>
    <text
       xml:space="preserve"
       style="font-style:normal;font-variant:normal;font-weight:normal;font-stretch:normal;line-height:0%;font-family:Lavi;-inkscape-font-specification:Lavi;letter-spacing:0px;word-spacing:0px;fill:url(#linearGradient4294-2);fill-opacity:1;stroke:none;stroke-width:0.645144;stroke-miterlimit:4;stroke-dasharray:none;stroke-opacity:0;filter:url(#filter4375-4-1-1-1-9-5-8-8-5-6)"
       x="787.65729"
       y="1584.5073"
       id="text4580-6-0-0-0-2"
       transform="matrix(1.1379897,-0.30816684,-0.38734342,1.6685777,919.08311,-505.2977)"><tspan
         sodipodi:role="line"
         id="tspan4582-1-1-0-2-4"
         x="787.65729"
         y="1584.5073"
         style="font-size:93.1495px;line-height:1.25;fill:url(#linearGradient4294-2);fill-opacity:1;stroke:none;stroke-width:0.645144;stroke-miterlimit:4;stroke-dasharray:none;stroke-opacity:0">Dze<tspan
   style="font-size:70.7783px;fill:url(#linearGradient4294-2);fill-opacity:1;stroke-width:0.645144"
   id="tspan4630">eĵ<tspan
   style="font-size:54.5522px;fill:url(#linearGradient4294-2);stroke-width:0.645144"
   id="tspan5447">o</tspan><tspan
   id="tspan5453"
   style="font-size:41.0427px;fill:url(#linearGradient4294-2);stroke-width:0.645144">o</tspan></tspan><tspan
   style="font-size:55.9281px;fill:url(#linearGradient4294-2);fill-opacity:1;stroke-width:0.645144"
   id="tspan4638"><tspan
   style="font-size:41.0427px;fill:url(#linearGradient4294-2);stroke-width:0.645144"
   id="tspan5451"> </tspan>!!</tspan></tspan></text>
    <text
       id="text4178-0-0"
       y="1970.5033"
       x="1686.6183"
       style="font-style:normal;font-variant:normal;font-weight:normal;font-stretch:normal;font-size:10.372px;line-height:0%;font-family:Lavi;-inkscape-font-specification:Lavi;text-align:center;letter-spacing:0px;word-spacing:0px;text-anchor:middle;fill:#000000;fill-opacity:1;stroke:none;stroke-width:0.999997"
       xml:space="preserve"
       transform="scale(0.99978425,1.0002158)"><tspan
         y="1970.5033"
         x="1686.6183"
         style="font-size:35.1581px;line-height:1.25;stroke-width:0.999997"
         sodipodi:role="line"
         id="tspan10964">Ho, ho, </tspan><tspan
         y="2014.4509"
         x="1686.6183"
         style="font-size:35.1581px;line-height:1.25;stroke-width:0.999997"
         sodipodi:role="line"
         id="tspan1803">kia bruaĉego !</tspan><tspan
         y="2029.5107"
         x="1686.6183"
         style="font-size:35.1581px;line-height:1.25;stroke-width:0.999997"
         sodipodi:role="line"
         id="tspan6943" /></text>
    <text
       id="text4178-0"
       y="2748.6367"
       x="946.86261"
       style="font-style:normal;font-variant:normal;font-weight:normal;font-stretch:normal;line-height:0%;font-family:Lavi;-inkscape-font-specification:Lavi;text-align:center;letter-spacing:0px;word-spacing:0px;text-anchor:middle;fill:#000000;fill-opacity:1;stroke:none"
       xml:space="preserve"><tspan
         y="2748.6367"
         x="946.86261"
         style="font-size:40.6767px;line-height:1.25"
         sodipodi:role="line"
         id="tspan614">Gardu min.</tspan><tspan
         y="2799.4827"
         x="946.86261"
         style="font-size:40.6767px;line-height:1.25"
         sodipodi:role="line"
         id="tspan618">Mi silentigos ĝin</tspan><tspan
         y="2850.3284"
         x="946.86261"
         style="font-size:40.6767px;line-height:1.25"
         sodipodi:role="line"
         id="tspan610">por ĉiam !</tspan></text>
    <text
       id="text4178-0-4-4"
       y="2987.9929"
       x="989.73712"
       style="font-style:normal;font-variant:normal;font-weight:normal;font-stretch:normal;line-height:0%;font-family:Lavi;-inkscape-font-specification:Lavi;text-align:center;letter-spacing:0px;word-spacing:0px;text-anchor:middle;fill:#000000;fill-opacity:1;stroke:none"
       xml:space="preserve"><tspan
         y="2987.9929"
         x="989.73712"
         style="font-weight:bold;font-size:40.6767px;line-height:1.25"
         sodipodi:role="line"
         id="tspan2150">Ĉu vi aŭdas tion,</tspan><tspan
         y="3038.8389"
         x="989.73712"
         style="font-weight:bold;font-size:40.6767px;line-height:1.25"
         sodipodi:role="line"
         id="tspan785">monstro ?!</tspan></text>
    <text
       id="text4178-0-4"
       y="3102.3931"
       x="1038.5559"
       style="font-style:normal;font-variant:normal;font-weight:normal;font-stretch:normal;line-height:0%;font-family:Lavi;-inkscape-font-specification:Lavi;text-align:center;letter-spacing:0px;word-spacing:0px;text-anchor:middle;fill:#000000;fill-opacity:1;stroke:none"
       xml:space="preserve"><tspan
         y="3102.3931"
         x="1038.5559"
         style="font-size:40.6767px;line-height:1.25"
         sodipodi:role="line"
         id="tspan575">Atentu pri mi,</tspan><tspan
         y="3153.239"
         x="1038.5559"
         style="font-size:40.6767px;line-height:1.25"
         sodipodi:role="line"
         id="tspan587">por se io misokazus,</tspan><tspan
         y="3204.0847"
         x="1038.5559"
         style="font-size:40.6767px;line-height:1.25"
         sodipodi:role="line"
         id="tspan596">Kuracisto...</tspan><tspan
         y="3254.9307"
         x="1044.9116"
         style="font-size:40.6767px;line-height:1.25"
         sodipodi:role="line"
         id="tspan2159"> </tspan></text>
    <text
       id="text4178-0-4-8"
       y="2756.2551"
       x="2200.1013"
       style="font-style:normal;font-variant:normal;font-weight:normal;font-stretch:normal;line-height:0%;font-family:Lavi;-inkscape-font-specification:Lavi;text-align:center;letter-spacing:0px;word-spacing:0px;text-anchor:middle;fill:#000000;fill-opacity:1;stroke:none"
       xml:space="preserve"><tspan
         y="2756.2551"
         x="2200.1013"
         style="font-size:40.6767px;line-height:1.25"
         sodipodi:role="line"
         id="tspan6957-7">Kuracisto ?</tspan></text>
    <path
       style="fill:none;fill-rule:evenodd;stroke:#000000;stroke-width:1px;stroke-linecap:butt;stroke-linejoin:miter;stroke-opacity:1"
       d="m 34.661988,-189.13031 c 341.304342,-41.30437 291.304342,-32.60872 406.521732,-34.78264 115.21738,-2.17391 228.26086,52.17394 352.1739,50.00004 123.91304,-2.1739 258.69578,-67.39134 382.60878,-69.56525 123.9131,-2.17392 265.2174,80.43475 421.7391,71.73915 156.5218,-8.6957 339.1305,-73.91307 510.8696,-78.26089 171.7391,-4.34783 260.8696,8.69566 260.8696,8.69566"
       id="path1405-7"
       sodipodi:nodetypes="csssssc" />
    <path
       style="fill:none;fill-rule:evenodd;stroke:#000000;stroke-width:1px;stroke-linecap:butt;stroke-linejoin:miter;stroke-opacity:1"
       d="m 1520.4426,-42.982787 c 82.9868,1.07874 107.3849,-7.51006 145.6905,-11.61954 153.2224,-16.43789 236.4954,-16.43791 318.103,-8.21896 81.6076,8.21896 314.8445,-47.526983 379.7974,-80.402793"
       id="path1020"
       sodipodi:nodetypes="cssc" />
    <path
       style="fill:none;fill-rule:evenodd;stroke:#000000;stroke-width:1px;stroke-linecap:butt;stroke-linejoin:miter;stroke-opacity:1"
       d="M 97.456718,-52.779867 C 434.93945,-121.81907 497.71506,-129.39479 634.17547,-109.66931 c 34.11511,4.93137 94.36678,10.684643 167.66382,16.283803 73.29705,5.59916 159.63944,16.71529 245.93601,21.03024 86.2966,4.31495 108.4256,3.71908 181.5392,4.79782"
       id="path20863" />
  </g>
</svg>
