<?xml version="1.0" encoding="UTF-8" standalone="no"?>
<svg
   xmlns:dc="http://purl.org/dc/elements/1.1/"
   xmlns:cc="http://creativecommons.org/ns#"
   xmlns:rdf="http://www.w3.org/1999/02/22-rdf-syntax-ns#"
   xmlns:svg="http://www.w3.org/2000/svg"
   xmlns="http://www.w3.org/2000/svg"
   xmlns:xlink="http://www.w3.org/1999/xlink"
   xmlns:sodipodi="http://sodipodi.sourceforge.net/DTD/sodipodi-0.dtd"
   xmlns:inkscape="http://www.inkscape.org/namespaces/inkscape"
   id="svg2"
   version="1.1"
   inkscape:version="1.0.2-2 (e86c870879, 2021-01-15)"
   width="2481"
   height="3503"
   sodipodi:docname="E27P02.svg">
  <metadata
     id="metadata8">
    <rdf:RDF>
      <cc:Work
         rdf:about="">
        <dc:format>image/svg+xml</dc:format>
        <dc:type
           rdf:resource="http://purl.org/dc/dcmitype/StillImage" />
        <dc:title />
      </cc:Work>
    </rdf:RDF>
  </metadata>
  <defs
     id="defs6" />
  <sodipodi:namedview
     pagecolor="#ffffff"
     bordercolor="#666666"
     borderopacity="1"
     objecttolerance="10"
     gridtolerance="10"
     guidetolerance="10"
     inkscape:pageopacity="0"
     inkscape:pageshadow="2"
     inkscape:window-width="1920"
     inkscape:window-height="1057"
     id="namedview4"
     showgrid="false"
     inkscape:zoom="1.2937299"
     inkscape:cx="2079.316"
     inkscape:cy="2369.1509"
     inkscape:window-x="1358"
     inkscape:window-y="-8"
     inkscape:window-maximized="1"
     inkscape:current-layer="layer1"
     inkscape:snap-global="false"
     inkscape:document-rotation="0" />
  <g
     inkscape:groupmode="layer"
     id="layer2"
     inkscape:label="artwork"
     sodipodi:insensitive="true">
    <image
       sodipodi:absref="C:\Users\quentinlipeck\gfx_Pepper-and-Carrot_by-David-Revoy_E27P02.png"
       xlink:href="../gfx_Pepper-and-Carrot_by-David-Revoy_E27P02.png"
       width="2481"
       height="3503"
       id="image10"
       x="0"
       y="0" />
  </g>
  <g
     inkscape:groupmode="layer"
     id="layer3"
     inkscape:label="speechbubbles">
    <path
       style="fill:#ffffff;fill-rule:evenodd;stroke:none;stroke-width:0.842647px;stroke-linecap:butt;stroke-linejoin:miter;stroke-opacity:1"
       d="m 460.12191,252.25528 c 6.22681,1.07076 64.9367,0 70.27395,-0.53538 5.33728,-0.53539 45.36675,-4.81844 55.15173,-3.74767 9.78499,1.07076 77.39031,6.95995 89.84394,7.49534 12.4536,0.53538 72.05304,1.60614 82.72757,4.81843 10.67453,3.21229 24.90724,6.42458 32.91314,11.7784 8.0059,5.35382 19.56995,21.95066 18.68041,25.69833 -0.88955,3.74767 -13.34316,29.44599 -20.4595,33.19366 -7.11635,3.74767 -32.02358,16.06145 -39.13994,17.6676 -7.11635,1.60615 -23.12813,5.8892 -31.13404,7.49535 -8.00589,1.60614 -189.47284,3.21228 -211.71143,3.74767 -22.23861,0.53538 -108.52436,-3.2123 -123.64661,-3.74767 -15.12224,-0.53539 -50.70401,1.07076 -73.83214,-4.28306 -23.12815,-5.35382 -39.13994,-25.16294 -46.25629,-28.91062 -7.11635,-3.74767 -19.56996,-19.80912 -18.68041,-25.69832 0.88954,-5.8892 18.68041,-19.80912 27.57584,-21.41526 8.89545,-1.60615 45.36675,-14.9907 66.71579,-17.6676 21.34907,-2.67691 72.94261,-9.10149 82.72759,-8.56611 13.39374,1.07575 11.98661,0.10681 38.2504,2.67691 z"
       id="path1323"
       inkscape:connector-curvature="0"
       sodipodi:nodetypes="ccsscscsscsssccsscc" />
    <path
       style="fill:#ffffff;fill-rule:evenodd;stroke:none;stroke-width:1px;stroke-linecap:butt;stroke-linejoin:miter;stroke-opacity:1"
       d="m 172.66645,211.77351 c 10.53318,-19.15682 29.62457,-29.0442 39.49941,-31.51605 9.87486,-2.47185 26.33295,3.08981 35.54949,1.85389 9.21652,-1.23593 44.10767,-12.35924 57.27415,-11.74128 13.16646,0.61796 52.00756,4.32573 64.51571,4.9437 12.50814,0.61796 43.44936,3.0898 54.64086,9.88738 11.19151,6.79758 23.69965,14.21312 25.67462,21.0107 1.97497,6.79758 6.58324,19.77478 1.97497,30.89809 -4.60826,11.12331 -15.79976,30.28013 -30.28288,32.13401 -14.48312,1.85389 -86.2404,8.65147 -102.04016,8.0335 -15.79977,-0.61796 -59.24913,0 -69.78231,0 -10.53318,0 -48.71595,-4.32573 -59.90745,-12.35923 -11.1915,-8.0335 -19.7497,-24.10051 -21.06635,-33.9879 -1.31665,-9.88738 3.94994,-19.15681 3.94994,-19.15681 z"
       id="path1325"
       inkscape:connector-curvature="0" />
    <path
       style="fill:#ffffff;fill-rule:evenodd;stroke:none;stroke-width:1px;stroke-linecap:butt;stroke-linejoin:miter;stroke-opacity:1"
       d="m 544.4243,343.97954 c 6.17962,25.33643 -4.94369,76.0093 4.32573,89.60445 9.26943,13.59516 11.12331,11.74128 19.15682,18.53886 -12.35924,15.44904 -17.92089,33.36993 -16.68497,42.63936 1.23592,9.26942 4.32573,33.36993 35.84178,44.49324 -27.19032,-19.15681 -24.71847,-38.31363 -23.48255,-43.87528 1.23593,-5.56166 6.17962,-34.60586 21.62867,-42.0214 -15.44905,-11.74127 -23.48255,-24.71847 -23.48255,-32.13401 0,-7.41554 8.65146,-82.80688 8.65146,-82.80688 z"
       id="path1327"
       inkscape:connector-curvature="0" />
    <path
       style="fill:#ffffff;fill-rule:evenodd;stroke:none;stroke-width:0.89871px;stroke-linecap:butt;stroke-linejoin:miter;stroke-opacity:1"
       d="m 1028.778,130.1193 c -32.42456,13.75571 -62.38624,25.0142 -66.70952,45.18924 -4.32327,20.17503 -16.21228,36.68189 -17.2931,50.4376 -1.08082,13.75571 7.26449,63.93937 14.83022,82.28031 7.56573,18.34095 48.6369,60.52512 54.0409,64.19331 5.4041,3.66819 41.0712,15.5898 58.3643,21.09209 17.2931,5.50229 155.6379,9.17047 180.4967,11.92161 24.8589,2.75114 91.8696,-12.83866 109.1628,-19.25799 17.2931,-6.41933 41.0711,-9.17048 51.8793,-20.17504 10.8082,-11.00456 35.667,-40.35007 39.9903,-53.18873 4.3232,-12.83867 4.3232,-56.85693 4.3232,-66.02741 0,-9.17047 -1.0808,-49.52055 -21.6163,-66.94444 -20.5356,-17.4239 -55.1218,-41.26713 -82.1423,-48.6035 -27.0205,-7.33638 -190.2241,-18.34095 -208.598,-19.258 -18.374,-0.91705 -116.7285,18.34095 -116.7285,18.34095 z"
       id="path1329"
       inkscape:connector-curvature="0"
       sodipodi:nodetypes="cssscsscscscssc" />
    <path
       style="fill:#ffffff;fill-rule:evenodd;stroke:none;stroke-width:0.887289px;stroke-linecap:butt;stroke-linejoin:miter;stroke-opacity:1"
       d="m 1025.2691,384.04661 c -25.33793,15.09926 -39.5996,29.25484 -45.44688,39.63558 -5.84721,10.38074 -13.64353,38.69186 -9.74544,51.90373 3.89823,13.21186 6.93981,85.43677 21.55787,95.81751 14.61805,10.38074 57.02365,24.97663 80.41255,24.97663 23.389,0 98.4285,0.26815 111.0977,-0.67555 12.6689,-0.94371 94.5303,8.38074 115.9703,-1.0563 21.4398,-9.43705 48.7269,-12.42371 65.2942,-18.08594 16.567,-5.66222 56.5232,-8.49334 68.2177,-29.25484 11.6946,-20.76148 16.9275,-57.83401 7.7964,-84.93338 -8.8313,-26.20931 -27.2871,-49.0726 -56.5234,-63.22818 -29.2361,-14.15555 -122.7921,-45.29779 -122.7921,-45.29779 l -140.3338,-12.26816 c 0,0 -22.4144,8.49334 -45.8035,20.76149 -23.3889,12.26816 -49.7016,21.7052 -49.7016,21.7052 z"
       id="path1331"
       inkscape:connector-curvature="0"
       sodipodi:nodetypes="csccsccccasccsc" />
    <path
       style="fill:#ffffff;fill-rule:evenodd;stroke:none;stroke-width:1px;stroke-linecap:butt;stroke-linejoin:miter;stroke-opacity:1"
       d="m 1351.9814,582.45483 c 0,0 27.0205,22.6972 35.667,37.82867 8.6466,15.13146 27.0205,36.74784 22.6972,76.73814 10.8082,-51.87931 10.8082,-67.01077 -20.5355,-116.72844 -31.3438,-49.71768 -37.8287,2.16163 -37.8287,2.16163 z"
       id="path1333"
       inkscape:connector-curvature="0" />
    <path
       style="fill:#ffffff;fill-rule:evenodd;stroke:none;stroke-width:0.982863px;stroke-linecap:butt;stroke-linejoin:miter;stroke-opacity:1"
       d="m 1604.7755,218.67325 c 12.1011,-41.7451 16.1347,-66.09642 44.3704,-81.17104 28.2357,-15.07463 143.8676,-27.83007 160.0023,-28.98966 16.1347,-1.15958 64.5387,3.47877 87.3962,3.47877 22.8575,0 141.1785,-2.31918 160.0023,-2.31918 18.8238,0 95.4636,0 115.632,2.31918 20.1683,2.31916 91.4298,16.23419 103.5309,26.67048 12.101,10.43627 47.0594,54.50055 48.404,83.49021 1.3446,28.98966 -1.3446,76.5327 -25.5466,95.08607 -24.202,18.55338 -80.6735,41.7451 -118.3211,48.70263 -37.6475,6.95751 -221.8519,15.07461 -243.3647,15.07461 -21.513,0 -112.9428,3.47877 -157.3132,-2.31917 -44.3704,-5.79793 -92.7745,-23.19172 -115.6319,-39.42593 -22.8575,-16.23421 -51.0933,-27.83007 -59.1606,-59.1389 -8.0673,-31.30883 0,-61.45807 0,-61.45807 z"
       id="path1335"
       inkscape:connector-curvature="0" />
    <path
       style="fill:#ffffff;fill-rule:evenodd;stroke:none;stroke-width:1px;stroke-linecap:butt;stroke-linejoin:miter;stroke-opacity:1"
       d="m 1746.5526,383.03907 c 27.5116,26.61792 42.8588,47.56076 -11.4058,80.71719 49.1355,-0.72812 43.5728,20.05383 34.2174,45.56614 66.8976,-20.5973 113.7421,-7.40942 120.3948,32.54725 43.9171,-32.2476 50.5645,-26.46532 83.6426,-1.30189 39.6321,-49.89404 62.6056,-15.54139 91.2465,-10.41512 -5.8821,-23.03081 13.5288,-43.92498 62.4748,-10.21797 -17.5693,-18.88765 -10.6126,-65.99877 56.6527,-69.19731 -30.151,-10.89059 -73.1985,-22.51429 -22.8117,-69.00017 -77.6206,-8.98442 -39.9485,-27.33589 -51.9598,-41.66048 l -112.7909,-13.0189 -114.0581,7.81134 -58.2964,5.20756 c -1.4105,20.45876 4.4806,42.79545 -77.3061,42.96236 z"
       id="path1337"
       inkscape:connector-curvature="0"
       sodipodi:nodetypes="cccccccccccccc" />
    <path
       style="fill:#ffffff;fill-rule:evenodd;stroke:none;stroke-width:1px;stroke-linecap:butt;stroke-linejoin:miter;stroke-opacity:1"
       d="m 2083.819,468.58622 c 24.8588,19.45474 57.2834,63.76832 55.1217,92.95043 10.8082,-38.90948 -17.2931,-97.27371 -31.3437,-112.40517 -14.0507,-15.13147 -23.778,19.45474 -23.778,19.45474 z"
       id="path1339"
       inkscape:connector-curvature="0" />
    <path
       style="fill:#ffffff;fill-rule:evenodd;stroke:none;stroke-width:1.04142px;stroke-linecap:butt;stroke-linejoin:miter;stroke-opacity:1"
       d="m 861.80066,1438.6648 c 11.92448,-34.2595 35.77347,-50.6446 68.13996,-59.5818 32.36648,-8.9372 117.54148,1.4895 139.68688,1.4895 22.1455,0 110.7276,7.4477 122.652,19.3641 11.9245,11.9164 40.8839,37.2387 32.3664,64.0505 -8.5175,26.8118 -18.7385,53.6236 -64.7329,68.519 -45.9945,14.8954 -108.2582,0 -125.2933,1.4896 -17.035,1.4895 -76.3469,2.3784 -124.0448,-5.0693 -47.69798,-7.4477 -52.18126,-39.6171 -48.77424,-90.2616 z"
       id="path1341"
       inkscape:connector-curvature="0"
       sodipodi:nodetypes="csssssssc" />
    <path
       style="fill:#ffffff;fill-rule:evenodd;stroke:none;stroke-width:1px;stroke-linecap:butt;stroke-linejoin:miter;stroke-opacity:1"
       d="m 1321.8416,1549.9601 c -25.1103,-26.3097 -29.3743,-46.7563 -36.94,-53.2412 -7.5658,-6.4849 -52.768,-40.79 -87.3542,-44.0325 -34.5862,-3.2424 -28.1013,24.8589 -28.1013,24.8589 0,0 36.7479,1.0808 51.8793,5.4041 15.1315,4.3232 48.6369,20.5355 54.041,24.8588 5.4041,4.3233 19.4547,27.0205 46.4752,42.1519 z"
       id="path1343"
       inkscape:connector-curvature="0"
       sodipodi:nodetypes="cccccsc" />
    <path
       style="fill:#ffffff;fill-rule:evenodd;stroke:none;stroke-width:1px;stroke-linecap:butt;stroke-linejoin:miter;stroke-opacity:1"
       d="m 1847.0115,1634.8585 c 65.8759,-41.0171 79.5483,-53.4465 129.266,-55.9324 49.7176,-2.4859 59.6612,-29.8306 59.6612,-29.8306 0,0 -34.8024,-1.243 -72.0906,6.2147 -37.2883,7.4576 -95.7066,37.2882 -116.8366,79.5483 z"
       id="path1345"
       inkscape:connector-curvature="0" />
    <path
       style="fill:#ffffff;fill-rule:evenodd;stroke:none;stroke-width:1.24228px;stroke-linecap:butt;stroke-linejoin:miter;stroke-opacity:1"
       d="m 1982.9251,1500.4615 c 23.7769,-24.2297 84.9174,-27.9737 122.2811,-32.5167 37.3634,-4.543 156.2477,-5.9426 181.723,7.6865 25.4751,13.6292 78.124,14.2298 76.4256,58.1459 -1.6985,43.9162 6.7933,63.6029 -32.2685,87.8324 -39.062,24.2298 -176.6281,18.1723 -207.1983,16.658 -30.5704,-1.5143 -88.3141,-7.5717 -118.8843,-34.8302 -30.5703,-27.2582 -44.157,-56.0309 -22.0786,-102.9759 z"
       id="path1347"
       inkscape:connector-curvature="0"
       sodipodi:nodetypes="cssssssc" />
    <path
       style="fill:#ffffff;fill-rule:evenodd;stroke:none;stroke-width:1.06945px;stroke-linecap:butt;stroke-linejoin:miter;stroke-opacity:1"
       d="m 2013.5657,1662.7768 c 19.8871,-39.8043 68.3618,-54.0201 79.5483,-54.0201 11.1865,0 98.1924,8.5295 114.3506,8.5295 16.1583,0 49.7177,-8.5295 68.3618,-5.6863 18.6442,2.8432 53.4465,0 68.3618,28.4315 14.9153,28.4316 26.1018,90.9812 22.373,117.9913 -3.7288,27.01 4.9718,62.5495 -11.1865,103.7752 -16.1582,41.2259 -22.3729,56.8633 -45.9888,69.6575 -23.6159,12.7943 -135.4807,7.108 -160.3395,2.8433 -24.8589,-4.2649 -73.3336,0 -94.4636,-7.1079 -21.13,-7.1081 -54.6894,-31.2749 -49.7177,-61.128 4.9718,-29.8532 -8.7006,-56.8633 -2.4859,-108.0401 6.2148,-51.1769 11.1865,-95.2459 11.1865,-95.2459 z"
       id="path1349"
       inkscape:connector-curvature="0" />
    <path
       style="fill:#ffffff;fill-rule:evenodd;stroke:none;stroke-width:0.934158px;stroke-linecap:butt;stroke-linejoin:miter;stroke-opacity:1"
       d="m 139.15822,2399.1151 c 0,-35.8207 22.5778,-41.7908 37.30244,-41.7908 14.72466,0 62.82517,-4.7762 69.69668,-4.7762 6.8715,0 57.91695,7.1642 66.75174,13.1343 8.83479,5.9701 22.57779,10.7462 20.61451,32.2386 -1.96329,21.4925 0,33.4327 -19.63286,39.4028 -19.63288,5.9702 -96.20105,8.3582 -109.94406,7.1642 -13.743,-1.194 -34.35751,-10.7463 -44.17394,-17.9104 -9.81644,-7.1641 -22.57781,-9.5522 -20.61451,-27.4625 z"
       id="path1351"
       inkscape:connector-curvature="0" />
    <path
       style="fill:#ffffff;fill-rule:evenodd;stroke:none;stroke-width:0.894514px;stroke-linecap:butt;stroke-linejoin:miter;stroke-opacity:1"
       d="m 302.70188,2417.4852 c 43.21664,-11.9244 73.76948,-9.0957 86.54883,-7.3266 13.449,1.8617 47.52622,12.8581 58.19538,22.4952 10.66914,9.637 24.27469,29.1617 23.30476,40.7261 -0.96992,11.5645 6.20498,43.3403 5.23506,58.7595 -0.96993,15.4192 -11.3069,68.4492 -18.09636,90.6144 -6.78946,22.1651 -23.27815,48.1851 -96.02237,53.0036 -72.74422,4.8185 -117.36066,2.8911 -145.48843,-4.8185 -28.12776,-7.7096 -64.01493,-12.5281 -73.71415,-49.1488 -9.69923,-36.6207 -12.60899,-78.0599 -9.69923,-95.4065 2.90977,-17.3467 5.81954,-55.8948 9.69923,-62.6407 3.8797,-6.7459 15.59865,-33.0165 24.32796,-38.7987 8.7293,-5.7822 135.70932,-7.459 135.70932,-7.459 z"
       id="path1353"
       inkscape:connector-curvature="0"
       sodipodi:nodetypes="csssscscsscsc" />
    <path
       style="fill:#ffffff;fill-rule:evenodd;stroke:none;stroke-width:1.06051px;stroke-linecap:butt;stroke-linejoin:miter;stroke-opacity:1"
       d="m 513.16743,2533.5054 c 1.21559,-19.4547 15.80264,-55.1218 37.68323,-61.6067 21.88058,-6.4849 82.65997,-6.4849 94.81585,-3.2424 12.15588,3.2424 31.60529,27.0204 36.46764,36.7478 4.86235,9.7274 18.23382,44.3136 -3.64676,58.3642 -21.88058,14.0507 -43.76117,24.8589 -66.85734,23.778 -23.09617,-1.0808 -69.28852,-8.6465 -80.22881,-21.6163 -10.94029,-12.9699 -18.23381,-32.4246 -18.23381,-32.4246 z"
       id="path1355"
       inkscape:connector-curvature="0" />
    <path
       style="fill:#ffffff;fill-rule:evenodd;stroke:none;stroke-width:1px;stroke-linecap:butt;stroke-linejoin:miter;stroke-opacity:1"
       d="m 371.0335,2668.1612 c 0,0 10.62431,7.3553 12.25882,23.7003 1.63451,16.3451 -0.81725,35.142 -13.89333,54.7561 28.60391,-32.6902 43.31449,-55.5733 34.32469,-83.36 -8.9898,-27.7866 -32.69018,4.9036 -32.69018,4.9036 z"
       id="path1357"
       inkscape:connector-curvature="0" />
    <path
       style="fill:#ffffff;fill-rule:evenodd;stroke:none;stroke-width:1px;stroke-linecap:butt;stroke-linejoin:miter;stroke-opacity:1"
       d="m 609.41023,2578.6689 c 0,0 17.16235,24.5177 9.80706,38.411 -7.35529,13.8933 -8.9898,18.7968 -25.33489,35.1419 26.9694,-17.9796 37.5937,-31.0556 40.86272,-43.3145 3.26902,-12.2588 5.72078,-35.9592 5.72078,-42.4972 0,-6.538 -31.05567,12.2588 -31.05567,12.2588 z"
       id="path1359"
       inkscape:connector-curvature="0" />
    <path
       style="fill:#ffffff;fill-rule:evenodd;stroke:none;stroke-width:1.01234px;stroke-linecap:butt;stroke-linejoin:miter;stroke-opacity:1"
       d="m 721.7991,2502.9666 c -9.39843,-40.4536 -15.24833,-98.3101 -3.03038,-108.9049 4.75927,-24.773 67.26194,-37.8965 89.49589,-38.4616 20.00901,-0.1794 110.40078,0.1178 128.25779,2.0442 17.85701,1.9263 129.1476,-10.9991 147.9444,6.3382 18.7969,17.3372 25.117,10.6943 36.3952,28.9948 11.2781,18.3003 -0.284,61.9748 5.3551,67.7538 5.639,5.7792 3.5713,34.53 -1.1279,50.904 -4.6992,16.3741 -7.6164,29.8586 -32.0523,35.6376 -24.4359,5.7792 -57.3304,13.4846 -78.9468,14.4478 -21.61634,0.9632 -71.428,0.9632 -109.0217,-1.9263 -44.76237,-9.0317 -72.61993,-9.2622 -117.26947,-13.3865 -8.45859,-0.9631 -64.12015,-17.4353 -65.99983,-43.4411 z"
       id="path1361"
       inkscape:connector-curvature="0"
       sodipodi:nodetypes="ccccccccccccc" />
    <path
       style="fill:#ffffff;fill-rule:evenodd;stroke:none;stroke-width:1px;stroke-linecap:butt;stroke-linejoin:miter;stroke-opacity:1"
       d="m 1048.8643,2529.6614 c 40.4132,37.5937 65.789,69.5483 47.932,102.4428 29.1351,-35.714 14.0976,-69.5483 -24.4359,-117.4803 -38.5336,-47.932 -23.4961,15.0375 -23.4961,15.0375 z"
       id="path1363"
       inkscape:connector-curvature="0" />
    <path
       style="fill:#ffffff;fill-rule:evenodd;stroke:none;stroke-width:1px;stroke-linecap:butt;stroke-linejoin:miter;stroke-opacity:1"
       d="m 1362.7766,2499.8218 c -0.8172,-27.7867 20.4314,-32.6902 31.8729,-34.3247 11.4416,-1.6345 58.8423,-9.807 76.8219,3.269 17.9796,13.0761 22.8832,35.142 14.7106,43.3145 -8.1725,8.1726 -34.3247,20.4314 -50.6698,21.2486 -16.345,0.8173 -51.487,-4.0862 -62.9285,-15.5278 -11.4416,-11.4416 -9.8071,-17.9796 -9.8071,-17.9796 z"
       id="path1365"
       inkscape:connector-curvature="0" />
    <path
       style="fill:#ffffff;fill-rule:evenodd;stroke:none;stroke-width:1px;stroke-linecap:butt;stroke-linejoin:miter;stroke-opacity:1"
       d="m 1445.7231,2523.112 c 0,0 19.6141,10.6243 24.5176,19.6141 4.9035,8.9898 13.0761,31.0556 8.9898,45.7662 13.0761,-26.1521 8.1725,-42.4972 4.9035,-49.8525 -3.269,-7.3553 -23.7004,-34.3247 -23.7004,-34.3247 z"
       id="path1367"
       inkscape:connector-curvature="0" />
    <path
       style="fill:#ffffff;fill-rule:evenodd;stroke:none;stroke-width:1.11342px;stroke-linecap:butt;stroke-linejoin:miter;stroke-opacity:1"
       d="m 1715.4088,2452.444 c 5.6049,-52.9602 40.6347,-69.1724 64.4552,-76.7382 23.8204,-7.5657 121.9044,-18.3739 155.5331,-17.2931 33.6288,1.0808 158.3356,11.889 179.3536,12.9698 21.018,1.0809 74.2635,25.9397 78.4671,32.4246 4.2036,6.4849 22.4192,23.778 16.8144,43.2328 -5.6048,19.4547 -37.8324,45.3944 -68.6589,55.1217 -30.8264,9.7274 -154.1317,17.2931 -177.9522,15.1315 -23.8204,-2.1616 -64.4551,-5.4041 -88.2756,-5.4041 -23.8204,0 -99.4851,-1.0808 -119.102,-12.9698 -19.6167,-11.889 -40.6347,-46.4752 -40.6347,-46.4752 z"
       id="path1369"
       inkscape:connector-curvature="0" />
    <path
       style="fill:#ffffff;fill-rule:evenodd;stroke:none;stroke-width:1.31652px;stroke-linecap:butt;stroke-linejoin:miter;stroke-opacity:1"
       d="m 1894.4861,2507.5657 c 27.1711,24.1512 10.6821,34.5534 -35.302,35.6671 35.5652,9.9586 79.9592,15.5923 70.6037,47.556 39.4855,-0.375 64.4646,-19.937 127.4791,10.8082 37.2631,-25.3561 74.526,-13.281 111.7893,-2.1617 17.8727,-11.3113 50.7796,-12.0311 119.6343,-6.4849 -5.317,-25.0109 37.8919,-36.1565 78.4487,-44.3136 -34.3397,-13.1763 -65.2707,-27.5479 -43.1469,-60.5258 -49.9019,7.2773 -91.8658,6.6803 -115.7117,-11.889 -49.5083,4.157 -86.6965,21.8927 -154.9363,5.4041 -36.7472,19.9279 -77.7057,21.2885 -119.6341,18.3739 9.5551,17.7643 -1.7241,21.4958 -39.2241,7.5657 z"
       id="path1371"
       inkscape:connector-curvature="0"
       sodipodi:nodetypes="cccccccccccc" />
    <path
       style="fill:#ffffff;fill-rule:evenodd;stroke:none;stroke-width:1px;stroke-linecap:butt;stroke-linejoin:miter;stroke-opacity:1"
       d="m 2142.1832,2571.3341 c -3.2425,28.1012 8.6465,79.9806 34.5862,113.4859 -3.2425,16.2123 1.0808,33.5054 15.1315,47.5561 -12.9699,-29.1821 -7.5658,-36.7479 -1.0809,-50.7985 -12.9698,-20.5356 -31.3437,-69.1724 -34.5862,-109.1627 -3.2424,-39.9903 -14.0506,-1.0808 -14.0506,-1.0808 z"
       id="path1373"
       inkscape:connector-curvature="0" />
  </g>
  <g
     inkscape:groupmode="layer"
     id="layer1"
     inkscape:label="txt">
    <text
       xml:space="preserve"
       style="font-style:normal;font-variant:normal;font-weight:normal;font-stretch:normal;line-height:0%;font-family:Lavi;-inkscape-font-specification:Lavi;text-align:center;letter-spacing:0px;word-spacing:0px;text-anchor:middle;fill:#000000;fill-opacity:1;stroke:none"
       x="320.61392"
       y="241.67375"
       id="text4246"><tspan
         sodipodi:role="line"
         style="font-size:45px;line-height:1.2"
         x="320.61392"
         y="241.67375"
         id="tspan4252">jan pona o...</tspan></text>
    <text
       xml:space="preserve"
       style="font-style:normal;font-variant:normal;font-weight:normal;font-stretch:normal;line-height:0%;font-family:Lavi;-inkscape-font-specification:Lavi;text-align:center;letter-spacing:0px;word-spacing:0px;text-anchor:middle;fill:#000000;fill-opacity:1;stroke:none"
       x="528.04688"
       y="319.45801"
       id="text4246-3"><tspan
         sodipodi:role="line"
         style="font-size:45px;line-height:1.2"
         x="528.04688"
         y="319.45801"
         id="tspan841">awen mi li lon lawa mi...</tspan></text>
    <text
       xml:space="preserve"
       style="font-style:normal;font-variant:normal;font-weight:normal;font-stretch:normal;line-height:0%;font-family:Lavi;-inkscape-font-specification:Lavi;text-align:center;letter-spacing:0px;word-spacing:0px;text-anchor:middle;fill:#000000;fill-opacity:1;stroke:none"
       x="1203.0967"
       y="189.41882"
       id="text4246-3-7"><tspan
         sodipodi:role="line"
         style="font-size:45px;line-height:1.2"
         x="1203.0967"
         y="189.41882"
         id="tspan166">jan lawa mute </tspan><tspan
         sodipodi:role="line"
         style="font-size:45px;line-height:1.2"
         x="1203.0967"
         y="243.41882"
         id="tspan176">li moli lon tenpo </tspan><tspan
         sodipodi:role="line"
         style="font-size:45px;line-height:1.2"
         x="1203.0967"
         y="297.41882"
         id="tspan180">sewi ona pi kama lawa </tspan><tspan
         sodipodi:role="line"
         style="font-size:45px;line-height:1.2"
         x="1203.0967"
         y="351.41882"
         id="tspan184">tan jan ike.</tspan></text>
    <text
       xml:space="preserve"
       style="font-style:normal;font-variant:normal;font-weight:normal;font-stretch:normal;line-height:0%;font-family:Lavi;-inkscape-font-specification:Lavi;text-align:center;letter-spacing:0px;word-spacing:0px;text-anchor:middle;fill:#000000;fill-opacity:1;stroke:none"
       x="1202.4489"
       y="447.01553"
       id="text4246-3-7-7"><tspan
         sodipodi:role="line"
         style="font-size:45px;line-height:1.2"
         x="1202.4489"
         y="447.01553"
         id="tspan197">ni li kama nasin </tspan><tspan
         sodipodi:role="line"
         style="font-size:45px;line-height:1.2"
         x="1202.4489"
         y="501.01553"
         id="tspan201">tawa sona tenpo </tspan><tspan
         sodipodi:role="line"
         style="font-size:45px;line-height:1.2"
         x="1202.4489"
         y="555.01556"
         id="tspan105">pi kulupu mama mi.</tspan></text>
    <text
       xml:space="preserve"
       style="font-style:normal;font-variant:normal;font-weight:normal;font-stretch:normal;line-height:0%;font-family:Lavi;-inkscape-font-specification:Lavi;text-align:center;letter-spacing:0px;word-spacing:0px;text-anchor:middle;fill:#000000;fill-opacity:1;stroke:none"
       x="1969.5282"
       y="178.76515"
       id="text4246-3-7-7-6"><tspan
         sodipodi:role="line"
         style="font-size:45px;line-height:1.2"
         x="1969.5282"
         y="178.76515"
         id="tspan996">tenpo lili la, jan mute en </tspan><tspan
         sodipodi:role="line"
         style="font-size:45px;line-height:1.2"
         x="1969.5282"
         y="232.76515"
         id="tspan231">kulupu mute li kama tan ma ale. </tspan><tspan
         sodipodi:role="line"
         style="font-size:45px;line-height:1.2"
         x="1969.5282"
         y="286.76517"
         id="tspan233">mi lon insa pi ale ni. ona ale li </tspan><tspan
         sodipodi:role="line"
         style="font-size:45px;line-height:1.2"
         x="1969.5282"
         y="340.76517"
         id="tspan235">kama tawa mi.</tspan></text>
    <text
       xml:space="preserve"
       style="font-style:normal;font-variant:normal;font-weight:normal;font-stretch:normal;line-height:0%;font-family:Lavi;-inkscape-font-specification:Lavi;text-align:center;letter-spacing:0px;word-spacing:0px;text-anchor:middle;fill:#000000;fill-opacity:1;stroke:none"
       x="1041.3418"
       y="1445.7167"
       id="text4246-3-7-7-6-7"><tspan
         sodipodi:role="line"
         style="font-size:45px;line-height:1.2"
         x="1041.3418"
         y="1445.7167"
         id="tspan1042">o pilin ike ala,</tspan><tspan
         sodipodi:role="line"
         style="font-size:45px;line-height:1.2"
         x="1041.3418"
         y="1499.7167"
         id="tspan1067">jan Kowijana o.</tspan></text>
    <text
       xml:space="preserve"
       style="font-style:normal;font-variant:normal;font-weight:normal;font-stretch:normal;line-height:0%;font-family:Lavi;-inkscape-font-specification:Lavi;text-align:center;letter-spacing:0px;word-spacing:0px;text-anchor:middle;fill:#000000;fill-opacity:1;stroke:none"
       x="1957.3252"
       y="423.72366"
       id="text4246-3-7-7-6-7-7"><tspan
         sodipodi:role="line"
         style="font-size:45px;line-height:1.2"
         x="1957.3252"
         y="423.72366"
         id="tspan288">mi pilin ike. mi </tspan><tspan
         sodipodi:role="line"
         style="font-size:45px;line-height:1.2"
         x="1957.3252"
         y="477.72366"
         id="tspan292">wile moli ala a!</tspan></text>
    <text
       xml:space="preserve"
       style="font-style:normal;font-variant:normal;font-weight:normal;font-stretch:normal;line-height:0%;font-family:Lavi;-inkscape-font-specification:Lavi;text-align:center;letter-spacing:0px;word-spacing:0px;text-anchor:middle;fill:#000000;fill-opacity:1;stroke:none"
       x="2165.4336"
       y="1537.2563"
       id="text4246-3-7-7-6-7-2"><tspan
         sodipodi:role="line"
         style="font-size:45px;line-height:1.2"
         x="2165.4336"
         y="1537.2563"
         id="tspan239">mi ale o kepeken</tspan><tspan
         sodipodi:role="line"
         style="font-size:45px;line-height:1.2"
         x="2165.4336"
         y="1591.2563"
         id="tspan243">nasin pi mi ale.</tspan></text>
    <text
       xml:space="preserve"
       style="font-style:normal;font-variant:normal;font-weight:normal;font-stretch:normal;line-height:0%;font-family:Lavi;-inkscape-font-specification:Lavi;text-align:center;letter-spacing:0px;word-spacing:0px;text-anchor:middle;fill:#000000;fill-opacity:1;stroke:none"
       x="2192.6404"
       y="1683.4915"
       id="text4246-3-7-7-6-7-2-9"><tspan
         sodipodi:role="line"
         style="font-size:45px;line-height:1.2"
         x="2192.6404"
         y="1683.4915"
         id="tspan258">jan Shichimi en </tspan><tspan
         sodipodi:role="line"
         style="font-size:45px;line-height:1.2"
         x="2192.6404"
         y="1737.4915"
         id="tspan264">mi li pali, li awen </tspan><tspan
         sodipodi:role="line"
         style="font-size:45px;line-height:1.2"
         x="2192.6404"
         y="1791.4915"
         id="tspan270">e sijelo sina. </tspan><tspan
         sodipodi:role="line"
         style="font-size:45px;line-height:1.2"
         x="2192.6404"
         y="1845.4915"
         id="tspan274">o awen e </tspan><tspan
         sodipodi:role="line"
         style="font-size:45px;line-height:1.2"
         x="2192.6404"
         y="1899.4915"
         id="tspan276">sona ni.</tspan></text>
    <text
       xml:space="preserve"
       style="font-style:normal;font-variant:normal;font-weight:normal;font-stretch:normal;line-height:0%;font-family:Lavi;-inkscape-font-specification:Lavi;text-align:center;letter-spacing:0px;word-spacing:0px;text-anchor:middle;fill:#000000;fill-opacity:1;stroke:none"
       x="246.1396"
       y="2409.7466"
       id="text4246-3-7-7-6-7-2-9-6"><tspan
         sodipodi:role="line"
         style="font-size:45px;line-height:1.2"
         x="246.1396"
         y="2409.7466"
         id="tspan1121-3">ni a.</tspan></text>
    <text
       xml:space="preserve"
       style="font-style:normal;font-variant:normal;font-weight:normal;font-stretch:normal;line-height:0%;font-family:Lavi;-inkscape-font-specification:Lavi;text-align:center;letter-spacing:0px;word-spacing:0px;text-anchor:middle;fill:#000000;fill-opacity:1;stroke:none"
       x="306.79276"
       y="2471.5852"
       id="text4246-3-7-7-6-7-2-9-6-1"><tspan
         sodipodi:role="line"
         style="font-size:45px;line-height:1.2"
         x="306.79276"
         y="2471.5852"
         id="tspan312">sina o lape e </tspan><tspan
         sodipodi:role="line"
         style="font-size:45px;line-height:1.2"
         x="306.79276"
         y="2525.5852"
         id="tspan316">lawa sina. </tspan><tspan
         sodipodi:role="line"
         style="font-size:45px;line-height:1.2"
         x="306.79276"
         y="2579.5852"
         id="tspan318">o lukin e </tspan><tspan
         sodipodi:role="line"
         style="font-size:45px;line-height:1.2"
         x="306.79276"
         y="2633.5852"
         id="tspan320">ijo ante.</tspan></text>
    <text
       xml:space="preserve"
       style="font-style:normal;font-variant:normal;font-weight:normal;font-stretch:normal;line-height:0%;font-family:Lavi;-inkscape-font-specification:Lavi;text-align:center;letter-spacing:0px;word-spacing:0px;text-anchor:middle;fill:#000000;fill-opacity:1;stroke:none"
       x="602.41107"
       y="2538.4858"
       id="text4246-3-7-7-6-7-2-9-6-1-4"><tspan
         sodipodi:role="line"
         style="font-size:45px;line-height:1.2"
         x="602.41107"
         y="2538.4858"
         id="tspan1183-0">pona.</tspan></text>
    <text
       xml:space="preserve"
       style="font-style:normal;font-variant:normal;font-weight:normal;font-stretch:normal;line-height:0%;font-family:Lavi;-inkscape-font-specification:Lavi;text-align:center;letter-spacing:0px;word-spacing:0px;text-anchor:middle;fill:#000000;fill-opacity:1;stroke:none"
       x="924.10059"
       y="2417.3877"
       id="text4246-3-7-7-6-7-2-9-6-1-4-3"><tspan
         sodipodi:role="line"
         style="font-size:45px;line-height:1.2"
         x="924.10059"
         y="2417.3877"
         id="tspan333">a! mi sona! mi ken </tspan><tspan
         sodipodi:role="line"
         style="font-size:45px;line-height:1.2"
         x="924.10059"
         y="2471.3877"
         id="tspan341">pana e ilo sin </tspan><tspan
         sodipodi:role="line"
         style="font-size:45px;line-height:1.2"
         x="924.10059"
         y="2525.3877"
         id="tspan337">tawa lukin sina!</tspan></text>
    <text
       xml:space="preserve"
       style="font-style:normal;font-variant:normal;font-weight:normal;font-stretch:normal;line-height:0%;font-family:Lavi;-inkscape-font-specification:Lavi;text-align:center;letter-spacing:0px;word-spacing:0px;text-anchor:middle;fill:#000000;fill-opacity:1;stroke:none"
       x="1429.6105"
       y="2501.0703"
       id="text4246-3-7-7-6-7-2-9-6-1-4-3-1"><tspan
         sodipodi:role="line"
         style="font-size:45px;line-height:1.2"
         x="1429.6105"
         y="2501.0703"
         id="tspan1249-3">...</tspan></text>
    <text
       xml:space="preserve"
       style="font-style:normal;font-variant:normal;font-weight:normal;font-stretch:normal;line-height:0%;font-family:Lavi;-inkscape-font-specification:Lavi;text-align:center;letter-spacing:0px;word-spacing:0px;text-anchor:middle;fill:#000000;fill-opacity:1;stroke:none"
       x="1976.7648"
       y="2425.7151"
       id="text4246-3-7-7-6-7-2-9-6-1-4-3-1-2"><tspan
         sodipodi:role="line"
         style="font-size:45px;line-height:1.2"
         x="1976.7648"
         y="2425.7151"
         id="tspan94">ona li lon anpa tomo, </tspan><tspan
         sodipodi:role="line"
         style="font-size:45px;line-height:1.2"
         x="1976.7648"
         y="2479.7151"
         id="tspan98">lon tomo pali mi.</tspan></text>
    <text
       xml:space="preserve"
       style="font-style:normal;font-variant:normal;font-weight:normal;font-stretch:normal;line-height:0%;font-family:Lavi;-inkscape-font-specification:Lavi;text-align:center;letter-spacing:0px;word-spacing:0px;text-anchor:middle;fill:#000000;fill-opacity:1;stroke:none"
       x="2110.0996"
       y="2549.5225"
       id="text4246-3-7-7-6-7-2-9-6-1-4-3-1-2-6"><tspan
         sodipodi:role="line"
         style="font-size:45px;line-height:1.2"
         x="2110.0996"
         y="2549.5225"
         id="tspan1298-5">o tawa lon poka mi.</tspan></text>
  </g>
</svg>
