<?xml version="1.0" encoding="UTF-8" standalone="no"?>
<!-- Created with Inkscape (http://www.inkscape.org/) -->

<svg
   id="svg2"
   version="1.1"
   inkscape:version="1.2.2 (732a01da63, 2022-12-09)"
   width="2481"
   height="3503"
   sodipodi:docname="E38P01.svg"
   xmlns:inkscape="http://www.inkscape.org/namespaces/inkscape"
   xmlns:sodipodi="http://sodipodi.sourceforge.net/DTD/sodipodi-0.dtd"
   xmlns:xlink="http://www.w3.org/1999/xlink"
   xmlns="http://www.w3.org/2000/svg"
   xmlns:svg="http://www.w3.org/2000/svg"
   xmlns:rdf="http://www.w3.org/1999/02/22-rdf-syntax-ns#"
   xmlns:cc="http://creativecommons.org/ns#"
   xmlns:dc="http://purl.org/dc/elements/1.1/">
  <metadata
     id="metadata8">
    <rdf:RDF>
      <cc:Work
         rdf:about="">
        <dc:format>image/svg+xml</dc:format>
        <dc:type
           rdf:resource="http://purl.org/dc/dcmitype/StillImage" />
        <dc:title />
      </cc:Work>
    </rdf:RDF>
  </metadata>
  <defs
     id="defs6" />
  <sodipodi:namedview
     pagecolor="#ffffff"
     bordercolor="#666666"
     borderopacity="1"
     objecttolerance="10"
     gridtolerance="10"
     guidetolerance="10"
     inkscape:pageopacity="0"
     inkscape:pageshadow="2"
     inkscape:window-width="1920"
     inkscape:window-height="1057"
     id="namedview4"
     showgrid="false"
     inkscape:zoom="0.34980126"
     inkscape:cx="1303.5974"
     inkscape:cy="2867.3424"
     inkscape:window-x="1358"
     inkscape:window-y="-8"
     inkscape:window-maximized="1"
     inkscape:current-layer="layer3"
     inkscape:showpageshadow="0"
     inkscape:pagecheckerboard="0"
     inkscape:deskcolor="#d1d1d1" />
  <g
     inkscape:groupmode="layer"
     id="layer2"
     inkscape:label="artwork"
     sodipodi:insensitive="true">
    <image
       xlink:href="../gfx_Pepper-and-Carrot_by-David-Revoy_E38P01.png"
       y="0"
       x="0"
       id="image10"
       height="3503"
       width="2481" />
  </g>
  <g
     inkscape:groupmode="layer"
     id="layer3"
     inkscape:label="speechbubbles">
    <path
       style="display:inline;fill:#ffffff;fill-rule:evenodd;stroke:none;stroke-width:1.14158px;stroke-linecap:butt;stroke-linejoin:miter;stroke-opacity:1"
       d="m 1918.381,2816.8182 c 14.2853,-12.2122 23.5614,-26.4303 11.3759,-33.6592 l -2.8823,-4.6493 -38.9548,-54.7354 c 43.6821,12.4484 90.4874,28.444 62.5089,-40.4893 41.0173,34.3365 74.5566,51.5676 79.1872,2.6751 16.7929,21.7178 33.0262,56.0043 51.804,33.1472 8.4633,11.1889 16.4191,6.7432 23.8433,-14.0807 11.0859,25.5283 28.0477,9.7525 46.67,-17.6978 17.6524,27.8697 36.3673,50.9815 68.8805,12.3235 -2.7732,28.7002 15.8864,27.2703 44.2335,12.2218 -3.2724,12.4841 2.1551,16.5799 36.3178,6.3476 -8.1656,12.1193 -23.3019,13.2965 13.4141,15.5691 -3.1868,11.8 -25.9653,21.4562 19.2405,38.5509 -45.1845,-4.3844 -11.4677,16.5464 -9.5523,27.2739 -29.4271,-6.2164 -42.4853,-3.3202 -10.905,24.4261 -14.9998,-0.3335 -57.4518,-30.639 -35.5541,9.3119 -25.0866,-22.3105 -48.1444,4.9606 -34.986,5.8943 l -53.5923,8.4029 -85.7829,-7.0075 -60.541,0.418 -50.3287,5.2364 c 6.6045,-17.5157 -10.3306,-11.3189 -23.7488,-8.6649 -4.5471,-5.1217 4.6287,-17.5591 -24.3878,-9.6363 0.3897,-12.6664 -13.9096,-10.9691 -26.2597,-11.1783 z"
       id="path1058"
       sodipodi:nodetypes="ccccccccccccccccccccccccc" />
    <path
       style="display:inline;fill:#ffffff;fill-rule:evenodd;stroke:none;stroke-width:1.16519px;stroke-linecap:butt;stroke-linejoin:miter;stroke-opacity:1"
       d="m 1846.2725,2869.9738 c 46.9633,1.0606 40.741,20.6689 23.8285,44.0053 13.0106,-1.5697 43.4397,-23.1868 25.3967,10.9846 39.3972,-12.4147 15.1255,12.7041 11.9242,25.3346 15.8812,-2.6587 25.6029,8.7815 6.2877,51.3326 19.5043,-10.0138 49.3094,-47.6096 47.088,0.5527 15.79,-5.9782 36.5359,-29.012 39.1691,10.2872 20.8724,-19.401 49.0735,-35.953 49.5957,24.9144 10.8668,-52.1042 51.2164,-68.9097 57.0185,5.896 7.8091,-67.9296 43.4544,-46.393 66.6759,3.298 -6.7791,-39.3621 3.5123,-63.7818 79.4807,-30.7141 -0.5511,-34.6541 15.3011,-50.1564 78.6525,-10.1987 -13.4645,-23.0643 -46.0176,-59.7851 29.7624,-19.002 -39.8545,-49.0994 -15.0427,-67.1489 18.1424,-99.6748 -40.4082,22.6821 -28.7712,-10.5614 -13.5467,-36.4426 -49.8459,11.3709 -60.031,-10.5757 -21.9113,-42.851 -57.7147,13.4674 -56.2965,-5.1851 -45.0164,-21.274 -83.6269,31.789 -48.7488,-18.5248 -41.0269,-38.1377 -60.5792,88.1159 -42.7682,33.7045 -36.081,-0.4814 -34.3916,52.5233 -49.6926,43.5553 -43.1302,-8.098 l -68.2064,35.394 -165.3899,27.253 c -24.8166,27.3198 -31.977,22.9106 -83.8548,29.3858 68.7593,15.3518 28.2715,32.9157 -14.8587,38.2361 z"
       id="path961"
       sodipodi:nodetypes="cccccccccccccccccccccccc" />
    <path
       style="display:inline;fill:#ffffff;fill-rule:evenodd;stroke:none;stroke-width:0.954738px;stroke-linecap:butt;stroke-linejoin:miter;stroke-opacity:1"
       d="m 2000.6694,2716.7252 c -31.651,13.0747 -66.0394,18.8224 -102.4949,19.037 l 17.6113,45.3908 c -18.364,3.6732 -29.918,0.9666 -70.6388,2.2181 l 6.282,21.8742 -102.3938,-5.104 121.1041,21.825 -4.8924,-18.0382 86.3709,-1.8936 -21.7145,-39.3473 c 30.9126,-19.0725 69.7849,-11.308 104.7266,-16.7953 z"
       id="path957"
       sodipodi:nodetypes="cccccccccccc" />
    <path
       style="color:#000000;display:inline;overflow:visible;visibility:visible;fill:#ffffff;fill-opacity:1;fill-rule:nonzero;stroke:none;stroke-width:1.08847px;marker:none;enable-background:accumulate"
       d="m 114.80879,2740.8178 c 14.64623,-16.9283 45.66698,-23.6591 86.0704,-29.4296 40.40335,-5.7713 115.14968,-4.2327 128.28079,-2.3084 13.13107,1.9235 85.35204,8.8486 101.00834,18.467 15.65646,9.6175 36.8681,21.5442 41.41349,33.8558 4.54546,12.3116 0.50507,41.9355 -14.14116,48.4757 -14.64621,6.5403 -81.31174,20.7754 -120.20013,21.5451 -38.88821,0.7689 -129.29074,-5.3865 -155.04795,-9.6184 -25.75711,-4.2318 -46.70365,-3.6205 -65.13145,-14.9978 -13.36241,-8.2499 -19.423838,-46.7535 -2.25233,-65.9894 z"
       id="path3533-6"
       inkscape:connector-curvature="0"
       sodipodi:nodetypes="ccccsscssc" />
    <path
       style="color:#000000;display:inline;overflow:visible;visibility:visible;fill:#ffffff;fill-opacity:1;fill-rule:nonzero;stroke:none;stroke-width:1.0613px;marker:none;enable-background:accumulate"
       d="m 464.68663,2694.176 c -6.16021,18.044 -40.90507,19.557 -53.69566,15.89 25.78271,20.186 24.88393,32.728 -10.12191,34.675 58.7053,36.381 10.73215,30.876 1.26981,40.101 46.09454,12.538 25.47133,28.141 17.26486,43.674 52.98117,0.534 35.64285,25.433 37.87592,45.263 4.49154,-9.305 25.82935,-37.635 27.11321,-6.092 35.04396,-30.093 77.25343,-49.532 80.60505,3.132 14.11976,-26.494 28.19714,-37.691 27.1133,-6.092 34.98435,-41.099 66.4226,-26.305 98.04729,-14.689 8.30601,-12.405 9.27388,-31.462 36.14584,-26.996 -3.76771,-12.295 5.30533,-20.747 25.79547,-25.766 -27.22809,-7.427 -32.24612,-15.088 18.31033,-23.332 -38.47057,-0.798 -74.34461,-2.432 -29.21024,-30.547 -14.15993,-0.681 -47.75567,22.78 -32.09205,-45.878 -24.34866,21.98 -50.32656,34.111 -82.90519,-11.931 -15.41779,23.002 -42.15964,34.384 -53.79377,5.653 -4.18146,12.248 -21.52024,16.855 -36.23962,17.413 -5.69201,-4.865 -11.56267,-11.473 -17.68888,-20.131 -10.01292,18.179 -24.99112,30.457 -53.79376,5.653 z"
       id="path3549-3-7-3"
       inkscape:connector-curvature="0"
       sodipodi:nodetypes="cccccccccccccccccccc" />
    <path
       style="fill:#ffffff;stroke:none;stroke-width:0.999987"
       d="m 668.35038,2847.8624 c -6.18297,-41.564 12.47702,-88.7068 25.89185,-103.5788 13.41484,-14.8722 37.42815,-24.0661 59.73171,-32.6 18.4762,-7.0706 100.69495,-6.8273 159.07275,-5.8452 48.89807,0.8231 101.29361,27.5396 113.15511,70.201 11.8615,42.6599 8.3407,118.828 -6.1542,143.6879 -14.4948,24.8609 -28.74593,51.8242 -113.62133,61.6411 -84.87544,9.8156 -190.05517,-5.7495 -215.08573,-55.786 -14.11076,-28.2083 -22.99016,-77.72 -22.99016,-77.72 z"
       id="path3286-6"
       inkscape:connector-curvature="0"
       sodipodi:nodetypes="csssssssc" />
    <path
       style="display:inline;fill:#ffffff;fill-rule:evenodd;stroke:none;stroke-width:1px;stroke-linecap:butt;stroke-linejoin:miter;stroke-opacity:1"
       d="m 808.17916,2905.8157 c -37.0534,20.4212 33.28706,75.895 22.46288,93.9658 -7.4722,12.4745 -47.82201,-4.0185 -75.22579,52.2357 35.72049,-40.0521 72.16531,-14.9218 89.72928,-30.2585 33.3584,-29.127 -11.25452,-70.4044 -14.74009,-81.3044 -4.66176,-14.5778 -22.22628,-34.6386 -22.22628,-34.6386 z"
       id="path4186-80"
       inkscape:connector-curvature="0"
       sodipodi:nodetypes="cscssc" />
    <path
       style="fill:#ffffff;stroke:none;stroke-width:0.853748"
       d="m 1731.427,1798.8065 c -4.941,-24.3477 9.9702,-51.9634 20.6904,-60.6753 10.7197,-8.7118 29.9091,-14.0975 47.7321,-19.0966 14.7642,-4.1418 80.466,-3.9993 127.1162,-3.4242 39.0748,0.4823 80.9444,16.1324 90.4231,41.123 9.4787,24.9897 6.6652,69.608 -4.9177,84.1707 -11.5831,14.5632 -22.9712,30.3581 -90.7958,36.1087 -67.8245,5.7498 -151.8747,-3.368 -171.8767,-32.6788 -11.2761,-16.5241 -18.3716,-45.5275 -18.3716,-45.5275 z"
       id="path3286-6-3"
       inkscape:connector-curvature="0"
       sodipodi:nodetypes="csssssssc" />
    <path
       style="fill:#ffffff;stroke:none;stroke-width:1"
       d="m 1750.8078,1692.3594 c -3.5277,-14.4312 7.9431,-30.5858 16.0989,-35.6193 8.1557,-5.0335 22.6715,-8.0145 36.1539,-10.7814 11.1687,-2.2924 60.7178,-1.524 95.8954,-0.6985 29.4651,0.6917 60.9143,10.3707 67.859,25.2288 6.9449,14.8577 4.4591,41.1799 -4.3952,49.6599 -8.8543,8.4806 -17.5717,17.6903 -68.77,20.3804 -51.1981,2.6895 -114.5119,-3.5708 -129.358,-21.0902 -8.3694,-9.8764 -13.484,-27.0797 -13.484,-27.0797 z"
       id="path3286-6-3-2"
       inkscape:connector-curvature="0"
       sodipodi:nodetypes="csssssssc" />
    <path
       style="color:#000000;display:inline;overflow:visible;visibility:visible;fill:#ffffff;fill-opacity:1;fill-rule:nonzero;stroke:none;stroke-width:1.11423px;marker:none;enable-background:accumulate"
       d="m 1779.3744,2335.0153 c -1.9738,-14.4836 28.5687,-78.8761 148.9835,-69.2201 120.4148,9.6559 137.5414,44.1745 138.7416,76.1883 -2.0807,32.9908 -26.2227,57.061 -43.9888,61.8893 -17.7661,4.8276 -44.4706,11.5288 -93.7659,12.5521 -56.9501,0.043 -90.5222,-1.9822 -126.584,-28.279 -34.3984,-23.3248 -21.4123,-49.2684 -23.3864,-53.1306 z"
       id="path3365-7"
       inkscape:connector-curvature="0"
       sodipodi:nodetypes="cscsccc" />
    <path
       style="fill:#ffffff;stroke:none;stroke-width:1.08327"
       d="m 1863.6245,1996.7901 c -36.8421,0.3513 -81.6001,4.3038 -111.1839,27.2522 -17.5051,14.2955 -23.373,43.0365 -26.7987,66.2376 -2.7659,17.0324 -2.8217,34.3604 -4.0635,51.5468 -1.4193,31.5744 1.5121,63.8189 12.3304,93.5438 12.1645,30.5306 39.7121,54.0932 71.1641,59.6462 25.4513,5.4283 51.5813,4.7564 77.3187,7.6781 40.8586,3.3674 81.8426,1.7301 122.8926,0.6346 34.2712,0.1054 68.9597,-0.3359 99.8305,-9.5834 24.2227,-7.5137 45.0806,-20.005 57.1416,-41.5508 7.996,-14.245 7.8046,-55.2808 8.0973,-79.296 0.8984,-31.1355 0.1833,-59.5333 -3.8022,-87.96 -5.216,-27.9991 -16.2601,-53.778 -41.0051,-65.0297 -38.4468,-18.0931 -111.2895,-22.0815 -153.578,-22.5602 -33.0657,-1.0472 -66.15,-0.1341 -99.2226,-0.5598 -3.0403,-0.014 -6.0807,-0.014 -9.1212,6e-4 z"
       id="path3280-8-0-3"
       inkscape:connector-curvature="0"
       sodipodi:nodetypes="cssscccccccccccc" />
    <path
       style="color:#000000;display:inline;overflow:visible;visibility:visible;fill:#ffffff;fill-opacity:1;fill-rule:nonzero;stroke:none;stroke-width:1px;marker:none;enable-background:accumulate"
       d="m 2043.5678,2501.161 c -35.0529,-23.7474 -46.172,-34.2743 -37.5356,-84.9721 8.6364,-50.6978 -9.5224,-52.9142 -9.5224,-52.9142 l -22.7877,26.3611 c 0,0 -11.1894,109.1725 69.8457,111.5252 z"
       id="path3072-6"
       inkscape:connector-curvature="0" />
    <path
       style="color:#000000;display:inline;overflow:visible;visibility:visible;fill:#ffffff;fill-opacity:1;fill-rule:nonzero;stroke:none;stroke-width:1px;marker:none;enable-background:accumulate"
       d="m 2005.9605,1938.9453 c -38.4707,-17.6819 -51.1646,-26.2444 -50.9531,-77.6721 0.2114,-51.4277 -18.0652,-50.6383 -18.0652,-50.6383 l -18.1596,29.7391 c 0,0 6.8528,109.5303 87.1779,98.5713 z"
       id="path3072-6-3"
       inkscape:connector-curvature="0" />
  </g>
  <g
     inkscape:groupmode="layer"
     id="layer1"
     inkscape:label="txt">
    <text
       id="text4178-3"
       y="1703.0369"
       x="1796.0411"
       style="font-style:normal;font-variant:normal;font-weight:normal;font-stretch:normal;line-height:0%;font-family:Lavi;-inkscape-font-specification:Lavi;text-align:start;letter-spacing:0px;word-spacing:0px;text-anchor:start;fill:#000000;fill-opacity:1;stroke:none"
       xml:space="preserve"><tspan
         y="1703.0369"
         x="1796.0411"
         style="font-size:40.6767px;line-height:1.25;text-align:start;text-anchor:start"
         sodipodi:role="line"
         id="tspan646">pini la...</tspan></text>
    <text
       id="text4178-3-36"
       y="1792.8582"
       x="1879.2559"
       style="font-style:normal;font-variant:normal;font-weight:normal;font-stretch:normal;line-height:0%;font-family:Lavi;-inkscape-font-specification:Lavi;text-align:start;letter-spacing:0px;word-spacing:0px;text-anchor:start;fill:#000000;fill-opacity:1;stroke:none"
       xml:space="preserve"><tspan
         y="1792.8582"
         x="1879.2559"
         style="font-size:40.6767px;line-height:1.25;text-align:center;text-anchor:middle"
         sodipodi:role="line"
         id="tspan441">mi kama moli </tspan><tspan
         y="1843.704"
         x="1879.2559"
         style="font-size:40.6767px;line-height:1.25;text-align:center;text-anchor:middle"
         sodipodi:role="line"
         id="tspan439">e ona!</tspan></text>
    <text
       id="text4178-3-3"
       y="2065.8545"
       x="1955.0306"
       style="font-style:normal;font-variant:normal;font-weight:normal;font-stretch:normal;line-height:0%;font-family:Lavi;-inkscape-font-specification:Lavi;text-align:start;letter-spacing:0px;word-spacing:0px;text-anchor:start;fill:#000000;fill-opacity:1;stroke:none"
       xml:space="preserve"><tspan
         y="2065.8545"
         x="1955.0306"
         style="font-size:40.6767px;line-height:1.25;text-align:center;text-anchor:middle"
         sodipodi:role="line"
         id="tspan451">lon. moli ona li wile e </tspan><tspan
         y="2116.7004"
         x="1955.0306"
         style="font-size:40.6767px;line-height:1.25;text-align:center;text-anchor:middle"
         sodipodi:role="line"
         id="tspan457">pali mute. jan mute li </tspan><tspan
         y="2167.5461"
         x="1955.0306"
         style="font-size:40.6767px;line-height:1.25;text-align:center;text-anchor:middle"
         sodipodi:role="line"
         id="tspan461">lukin tawa lon nasin ni. </tspan><tspan
         y="2218.3921"
         x="1955.0306"
         style="font-size:40.6767px;line-height:1.25;text-align:center;text-anchor:middle"
         sodipodi:role="line"
         id="tspan463">tenpo ni la mi sona </tspan><tspan
         y="2269.238"
         x="1955.0306"
         style="font-size:40.6767px;line-height:1.25;text-align:center;text-anchor:middle"
         sodipodi:role="line"
         id="tspan465">e ike pi tawa ona.</tspan></text>
    <text
       id="text4178-3-3-8"
       y="2337.2256"
       x="1835.5929"
       style="font-style:normal;font-variant:normal;font-weight:normal;font-stretch:normal;line-height:0%;font-family:Lavi;-inkscape-font-specification:Lavi;text-align:start;letter-spacing:0px;word-spacing:0px;text-anchor:start;fill:#000000;fill-opacity:1;stroke:none"
       xml:space="preserve"><tspan
         y="2337.2256"
         x="1835.5929"
         style="font-size:40.6767px;line-height:1.25;text-align:start;text-anchor:start"
         sodipodi:role="line"
         id="tspan875-2">jan Pasi li </tspan><tspan
         y="2388.0715"
         x="1835.5929"
         style="font-size:40.6767px;line-height:1.25;text-align:start;text-anchor:start"
         sodipodi:role="line"
         id="tspan529">lon seme?</tspan></text>
    <text
       id="text4178-3-3-8-3"
       y="2788.842"
       x="137.46754"
       style="font-style:normal;font-variant:normal;font-weight:normal;font-stretch:normal;font-size:16.0044px;line-height:0%;font-family:Lavi;-inkscape-font-specification:Lavi;text-align:start;letter-spacing:0px;word-spacing:0px;text-anchor:start;fill:#000000;fill-opacity:1;stroke:none;stroke-width:1"
       xml:space="preserve"><tspan
         y="2788.842"
         x="137.46754"
         style="font-size:54.2508px;line-height:1.25;text-align:start;text-anchor:start;stroke-width:1"
         sodipodi:role="line"
         id="tspan875-2-7">jan Pasi o?  <tspan
   style="font-weight:bold;stroke-width:1"
   id="tspan1258">jan Pasi o! </tspan></tspan></text>
    <text
       id="text4178-3-3-8-5"
       y="2786.1531"
       x="857.88513"
       style="font-style:normal;font-variant:normal;font-weight:normal;font-stretch:normal;font-size:12.743px;line-height:0%;font-family:Lavi;-inkscape-font-specification:Lavi;text-align:start;letter-spacing:0px;word-spacing:0px;text-anchor:start;fill:#000000;fill-opacity:1;stroke:none;stroke-width:1"
       xml:space="preserve"><tspan
         y="2786.1531"
         x="857.88513"
         style="font-size:43.1951px;line-height:1.25;text-align:center;text-anchor:middle;stroke-width:1"
         sodipodi:role="line"
         id="tspan450">ike a! </tspan><tspan
         y="2840.147"
         x="857.88513"
         style="font-size:43.1951px;line-height:1.25;text-align:center;text-anchor:middle;stroke-width:1"
         sodipodi:role="line"
         id="tspan454">mi kama ala lukin </tspan><tspan
         y="2894.1409"
         x="857.88513"
         style="font-size:43.1951px;line-height:1.25;text-align:center;text-anchor:middle;stroke-width:1"
         sodipodi:role="line"
         id="tspan456">e pakala pi </tspan><tspan
         y="2948.1348"
         x="857.88513"
         style="font-size:43.1951px;line-height:1.25;text-align:center;text-anchor:middle;stroke-width:1"
         sodipodi:role="line"
         id="tspan458">sijelo sina!</tspan></text>
    <text
       id="text4178-3-3-8-3-2"
       y="2801.0317"
       x="1958.5537"
       style="font-style:normal;font-variant:normal;font-weight:normal;font-stretch:normal;font-size:17.5168px;line-height:0%;font-family:Lavi;-inkscape-font-specification:Lavi;text-align:start;letter-spacing:0px;word-spacing:0px;text-anchor:start;fill:#000000;fill-opacity:1;stroke:none;stroke-width:1"
       xml:space="preserve"><tspan
         y="2801.0317"
         x="1958.5537"
         style="font-size:59.3774px;line-height:1.25;text-align:start;text-anchor:start;stroke-width:1"
         sodipodi:role="line"
         id="tspan875-2-7-2">jan sijelo o!</tspan></text>
    <text
       id="text4178-3-3-8-3-2-9"
       y="2893.6733"
       x="2125.4182"
       style="font-style:normal;font-variant:normal;font-weight:normal;font-stretch:normal;font-size:15.6623px;line-height:0%;font-family:Lavi;-inkscape-font-specification:Lavi;text-align:start;letter-spacing:0px;word-spacing:0px;text-anchor:start;fill:#000000;fill-opacity:1;stroke:none;stroke-width:1"
       xml:space="preserve"><tspan
         y="2893.6733"
         x="2125.4182"
         style="font-size:53.0911px;line-height:1.25;text-align:center;text-anchor:middle;stroke-width:1"
         sodipodi:role="line"
         id="tspan747">mi wile e pali sina,</tspan><tspan
         y="2960.0371"
         x="2125.4182"
         style="font-size:53.0911px;line-height:1.25;text-align:center;text-anchor:middle;stroke-width:1"
         sodipodi:role="line"
         id="tspan473"> <tspan
   style="font-weight:bold"
   id="tspan749">O KAMA!</tspan></tspan></text>
  </g>
</svg>
