<?xml version="1.0" encoding="UTF-8" standalone="no"?>
<!-- Created with Inkscape (http://www.inkscape.org/) -->

<svg
   id="svg2"
   version="1.1"
   inkscape:version="1.2.2 (b0a8486541, 2022-12-01, custom)"
   width="2481"
   height="3503"
   sodipodi:docname="E23P06.svg"
   xmlns:inkscape="http://www.inkscape.org/namespaces/inkscape"
   xmlns:sodipodi="http://sodipodi.sourceforge.net/DTD/sodipodi-0.dtd"
   xmlns:xlink="http://www.w3.org/1999/xlink"
   xmlns="http://www.w3.org/2000/svg"
   xmlns:svg="http://www.w3.org/2000/svg"
   xmlns:rdf="http://www.w3.org/1999/02/22-rdf-syntax-ns#"
   xmlns:cc="http://creativecommons.org/ns#"
   xmlns:dc="http://purl.org/dc/elements/1.1/">
  <metadata
     id="metadata8">
    <rdf:RDF>
      <cc:Work
         rdf:about="">
        <dc:format>image/svg+xml</dc:format>
        <dc:type
           rdf:resource="http://purl.org/dc/dcmitype/StillImage" />
        <dc:title />
      </cc:Work>
    </rdf:RDF>
  </metadata>
  <defs
     id="defs6" />
  <sodipodi:namedview
     pagecolor="#ffffff"
     bordercolor="#666666"
     borderopacity="1"
     objecttolerance="10"
     gridtolerance="10"
     guidetolerance="10"
     inkscape:pageopacity="0"
     inkscape:pageshadow="2"
     inkscape:window-width="1832"
     inkscape:window-height="1016"
     id="namedview4"
     showgrid="false"
     inkscape:zoom="1.3913044"
     inkscape:cx="1802.6249"
     inkscape:cy="483.35936"
     inkscape:window-x="88"
     inkscape:window-y="27"
     inkscape:window-maximized="1"
     inkscape:current-layer="layer1"
     inkscape:document-rotation="0"
     inkscape:showpageshadow="2"
     inkscape:pagecheckerboard="0"
     inkscape:deskcolor="#d1d1d1" />
  <g
     inkscape:groupmode="layer"
     id="layer2"
     inkscape:label="artwork"
     sodipodi:insensitive="true"
     style="display:inline">
    <image
       xlink:href="../gfx_Pepper-and-Carrot_by-David-Revoy_E23P06.png"
       width="2481"
       height="3503"
       id="image10"
       x="0"
       y="0" />
  </g>
  <g
     inkscape:groupmode="layer"
     id="layer3"
     inkscape:label="speechbubbles"
     style="display:inline">
    <path
       style="fill:#ffffff;fill-rule:evenodd;stroke:none;stroke-width:1px;stroke-linecap:butt;stroke-linejoin:miter;stroke-opacity:1"
       d="m 136.14267,2081.3114 c 6.13491,-58.4563 38.34325,-95.1613 70.5516,-99.2397 32.20833,-4.0783 346.62306,0 377.29767,9.5161 30.67463,9.5161 75.15281,48.9401 73.61906,78.848 -1.53373,29.9078 4.26135,74.9097 -42.94444,110.1152 -33.55565,25.0253 -226.9921,19.0323 -259.20045,19.0323 -32.20834,0 -120.96902,13.2272 -171.7778,-20.3917 -51.27765,-33.9291 -47.54564,-97.8802 -47.54564,-97.8802 z"
       id="path4272"
       inkscape:connector-curvature="0"
       sodipodi:nodetypes="cssssssc" />
    <path
       style="fill:#ffffff;fill-rule:evenodd;stroke:none;stroke-width:1px;stroke-linecap:butt;stroke-linejoin:miter;stroke-opacity:1"
       d="m 1345.8132,2086.9463 c -5.0561,60.8814 -43.5778,96.5557 -74.4258,101.3173 -30.8479,4.7615 -340.74358,8.6177 -370.31304,-0.7811 -29.56935,-9.3986 -89.08397,-51.1781 -88.03724,-82.3007 1.04682,-31.1227 1.62769,-76.3154 46.42431,-113.685 31.84314,-26.5638 227.03617,-23.4604 257.94187,-23.9814 30.906,-0.5208 134.8766,-0.6491 184.1085,33.4859 49.6862,34.4498 44.3014,85.945 44.3014,85.945 z"
       id="path4272-6"
       inkscape:connector-curvature="0"
       sodipodi:nodetypes="cssssssc" />
    <path
       style="fill:#ffffff;fill-rule:evenodd;stroke:none;stroke-width:1px;stroke-linecap:butt;stroke-linejoin:miter;stroke-opacity:1"
       d="m 1174.8502,2374.625 c 53.2945,-58.4181 71.3886,-137.4736 64.8491,-196.709 -6.4438,-58.3689 -35.667,-20.5356 -35.667,-20.5356 0,0 -7.6853,2.1941 0,30.2629 7.8496,28.6688 31.1185,75.2067 -29.1821,186.9817 z"
       id="path4289"
       inkscape:connector-curvature="0"
       sodipodi:nodetypes="cscsc" />
    <path
       style="fill:#ffffff;fill-rule:evenodd;stroke:none;stroke-width:1px;stroke-linecap:butt;stroke-linejoin:miter;stroke-opacity:1"
       d="m 1919.5265,2053.7299 c 14.4149,-41.0171 43.2446,-79.5483 70.0151,-91.9777 26.7705,-12.4295 91.6374,-4.9718 108.1116,-8.7006 16.4741,-3.7289 86.4892,-3.7289 107.082,0 20.5926,3.7288 75.1632,21.13 89.5781,41.017 14.4149,19.8871 38.0964,60.9042 32.9483,90.7348 -5.1482,29.8306 4.1185,42.26 -14.4148,65.8759 -18.5335,23.6159 -61.7782,60.9042 -99.8746,67.1189 -38.0964,6.2147 -146.208,9.9435 -175.0378,6.2147 -28.8298,-3.7288 -84.43,-23.6159 -96.7856,-44.7459 -12.3556,-21.13 -33.9779,-65.8759 -21.6223,-125.5371 z"
       id="path4291"
       inkscape:connector-curvature="0" />
    <path
       style="fill:#ffffff;fill-rule:evenodd;stroke:none;stroke-width:1px;stroke-linecap:butt;stroke-linejoin:miter;stroke-opacity:1"
       d="m 2059.5546,2373.1659 c 94.4635,-48.4747 132.9947,-119.3224 130.5089,-160.3395 -2.4859,-41.0171 -23.6159,-53.4465 -28.5877,-22.3729 -4.9718,31.0735 19.8871,90.7347 -101.9212,182.7124 z"
       id="path4293"
       inkscape:connector-curvature="0" />
  </g>
  <g
     inkscape:groupmode="layer"
     id="layer1"
     inkscape:label="txt"
     style="display:inline">
    <text
       xml:space="preserve"
       style="font-style:normal;font-variant:normal;font-weight:normal;font-stretch:normal;line-height:0%;font-family:Lavi;-inkscape-font-specification:Lavi;text-align:center;letter-spacing:0px;word-spacing:0px;text-anchor:middle;fill:#000000;fill-opacity:1;stroke:#000000;stroke-width:0.410156;stroke-miterlimit:4;stroke-dasharray:none;stroke-opacity:1"
       x="1954.752"
       y="1501.1776"
       id="text4246-8"
       transform="matrix(0.76133526,-0.51280204,0.4098681,1.0374126,0,0)"><tspan
         sodipodi:role="line"
         style="font-size:41.4836px;line-height:1.25;fill:#000000;stroke:#000000;stroke-width:0.410156;stroke-miterlimit:4;stroke-dasharray:none;stroke-opacity:1"
         x="1954.752"
         y="1501.1776"
         id="tspan4150-8">Roe!</tspan></text>
    <text
       xml:space="preserve"
       style="font-style:normal;font-variant:normal;font-weight:normal;font-stretch:normal;line-height:0%;font-family:Lavi;-inkscape-font-specification:Lavi;text-align:center;letter-spacing:0px;word-spacing:0px;text-anchor:middle;fill:#000000;fill-opacity:1;stroke:#000000;stroke-width:0.410156;stroke-miterlimit:4;stroke-dasharray:none;stroke-opacity:1"
       x="2086.8733"
       y="1374.3584"
       id="text4246-8-3"
       transform="matrix(0.8070703,-0.42305912,0.27884184,1.092883,0,0)"><tspan
         sodipodi:role="line"
         style="font-size:38.3128px;line-height:1.25;fill:#000000;stroke:#000000;stroke-width:0.410156;stroke-miterlimit:4;stroke-dasharray:none;stroke-opacity:1"
         x="2086.8733"
         y="1374.3584"
         id="tspan4150-8-6">Koe!</tspan></text>
    <text
       xml:space="preserve"
       style="font-style:normal;font-variant:normal;font-weight:normal;font-stretch:normal;line-height:0%;font-family:Lavi;-inkscape-font-specification:Lavi;text-align:center;letter-spacing:0px;word-spacing:0px;text-anchor:middle;fill:#000000;fill-opacity:1;stroke:#000000;stroke-width:0.410156;stroke-miterlimit:4;stroke-dasharray:none;stroke-opacity:1"
       x="2137.4421"
       y="1412.3752"
       id="text4246-8-3-7"
       transform="matrix(0.8070703,-0.42305912,0.27884184,1.092883,0,0)"><tspan
         sodipodi:role="line"
         style="font-size:38.3128px;line-height:1.25;fill:#000000;stroke:#000000;stroke-width:0.410156;stroke-miterlimit:4;stroke-dasharray:none;stroke-opacity:1"
         x="2137.4421"
         y="1412.3752"
         id="tspan4150-8-6-5">Roe!</tspan></text>
    <text
       xml:space="preserve"
       style="font-style:normal;font-variant:normal;font-weight:normal;font-stretch:normal;line-height:0%;font-family:Lavi;-inkscape-font-specification:Lavi;text-align:center;letter-spacing:0px;word-spacing:0px;text-anchor:middle;fill:#000000;fill-opacity:1;stroke:#000000;stroke-width:0.410156;stroke-miterlimit:4;stroke-dasharray:none;stroke-opacity:1"
       x="1869.3112"
       y="1652.55"
       id="text4246-8-3-3"
       transform="matrix(0.73266151,-0.54180126,0.44311163,1.0372069,0,0)"><tspan
         sodipodi:role="line"
         style="font-size:38.3128px;line-height:1.25;fill:#000000;stroke:#000000;stroke-width:0.410156;stroke-miterlimit:4;stroke-dasharray:none;stroke-opacity:1"
         x="1869.3112"
         y="1652.55"
         id="tspan4150-8-6-56">Koe!</tspan></text>
    <text
       xml:space="preserve"
       style="font-style:normal;font-variant:normal;font-weight:normal;font-stretch:normal;line-height:0%;font-family:Lavi;-inkscape-font-specification:Lavi;text-align:center;letter-spacing:0px;word-spacing:0px;text-anchor:middle;fill:#000000;fill-opacity:1;stroke:none"
       x="390.71164"
       y="2048.1582"
       id="text4246"><tspan
         sodipodi:role="line"
         style="font-size:45px;line-height:1.25"
         x="390.71164"
         y="2048.1582"
         id="tspan4198">Kijk, Carrot, ik</tspan><tspan
         sodipodi:role="line"
         style="font-size:45px;line-height:1.25"
         x="390.71164"
         y="2104.4082"
         id="tspan4169">denk dat dit hoort bij</tspan><tspan
         sodipodi:role="line"
         style="font-size:45px;line-height:1.25"
         x="390.71164"
         y="2160.6582"
         id="tspan38">volwassen worden.</tspan></text>
    <text
       xml:space="preserve"
       style="font-style:normal;font-variant:normal;font-weight:normal;font-stretch:normal;line-height:0%;font-family:Lavi;-inkscape-font-specification:Lavi;text-align:center;letter-spacing:0px;word-spacing:0px;text-anchor:middle;fill:#000000;fill-opacity:1;stroke:none"
       x="1077.1152"
       y="2041.8429"
       id="text4246-2"><tspan
         sodipodi:role="line"
         style="font-size:45px;line-height:1.25"
         x="1077.1152"
         y="2041.8429"
         id="tspan4198-2">Goedkope trucjes</tspan><tspan
         sodipodi:role="line"
         style="font-size:45px;line-height:1.25"
         x="1077.1152"
         y="2098.0928"
         id="tspan4235">doorzien, weer moeite</tspan><tspan
         sodipodi:role="line"
         style="font-size:45px;line-height:1.25"
         x="1077.1152"
         y="2154.3428"
         id="tspan39">leren doen …</tspan></text>
    <text
       xml:space="preserve"
       style="font-style:normal;font-variant:normal;font-weight:normal;font-stretch:normal;line-height:0%;font-family:Lavi;-inkscape-font-specification:Lavi;text-align:center;letter-spacing:0px;word-spacing:0px;text-anchor:middle;fill:#000000;fill-opacity:1;stroke:none"
       x="2118.6797"
       y="2016.2068"
       id="text4246-2-7"><tspan
         sodipodi:role="line"
         style="font-size:45px;line-height:1.25"
         x="2118.6797"
         y="2016.2068"
         id="tspan4235-3">…want met</tspan><tspan
         sodipodi:role="line"
         style="font-size:45px;line-height:1.25"
         x="2118.6797"
         y="2072.4568"
         id="tspan4266">jaloers zijn op</tspan><tspan
         sodipodi:role="line"
         style="font-size:45px;line-height:1.25"
         x="2118.6797"
         y="2128.7068"
         id="tspan4268">anderen kom je</tspan><tspan
         sodipodi:role="line"
         style="font-size:45px;line-height:1.25"
         x="2118.6797"
         y="2184.9568"
         id="tspan4270">nergens!</tspan></text>
  </g>
</svg>
