<?xml version="1.0" encoding="UTF-8" standalone="no"?>
<!-- Created with Inkscape (http://www.inkscape.org/) -->

<svg
   id="svg2"
   version="1.1"
   inkscape:version="1.3 (0e150ed6c4, 2023-07-21)"
   width="2481"
   height="3503"
   sodipodi:docname="E37P07.svg"
   xmlns:inkscape="http://www.inkscape.org/namespaces/inkscape"
   xmlns:sodipodi="http://sodipodi.sourceforge.net/DTD/sodipodi-0.dtd"
   xmlns:xlink="http://www.w3.org/1999/xlink"
   xmlns="http://www.w3.org/2000/svg"
   xmlns:svg="http://www.w3.org/2000/svg"
   xmlns:rdf="http://www.w3.org/1999/02/22-rdf-syntax-ns#"
   xmlns:cc="http://creativecommons.org/ns#"
   xmlns:dc="http://purl.org/dc/elements/1.1/">
  <metadata
     id="metadata8">
    <rdf:RDF>
      <cc:Work
         rdf:about="">
        <dc:format>image/svg+xml</dc:format>
        <dc:type
           rdf:resource="http://purl.org/dc/dcmitype/StillImage" />
        <dc:title />
      </cc:Work>
    </rdf:RDF>
  </metadata>
  <defs
     id="defs6">
    <filter
       style="color-interpolation-filters:sRGB"
       id="filter4375-4-1-1-1-9-6-9-2-1-5-4"
       inkscape:label="deevad outline effect"
       x="-0.007108724"
       y="-0.012620398"
       width="1.0142174"
       height="1.0252408">
      <feFlood
         id="feFlood4377-7-9-0-8-1-0-2-2-06-5-3"
         flood-opacity="1"
         flood-color="rgb(0,0,0)"
         result="flood" />
      <feComposite
         id="feComposite4379-3-8-8-2-77-6-0-8-3-8-64"
         in2="SourceGraphic"
         in="flood"
         operator="in"
         result="composite1" />
      <feMorphology
         id="feMorphology4393-1-0-49-8-9-2-2-9-2-7-3"
         operator="dilate"
         radius="4"
         result="result3" />
      <feComposite
         id="feComposite4385-9-5-7-0-8-6-3-7-0-1-1"
         in2="result3"
         in="SourceGraphic"
         operator="over"
         result="composite2" />
    </filter>
  </defs>
  <sodipodi:namedview
     pagecolor="#ffffff"
     bordercolor="#666666"
     borderopacity="1"
     objecttolerance="10"
     gridtolerance="10"
     guidetolerance="10"
     inkscape:pageopacity="0"
     inkscape:pageshadow="2"
     inkscape:window-width="1888"
     inkscape:window-height="1144"
     id="namedview4"
     showgrid="false"
     inkscape:zoom="0.51534364"
     inkscape:cx="1240.9196"
     inkscape:cy="1363.1681"
     inkscape:window-x="32"
     inkscape:window-y="0"
     inkscape:window-maximized="1"
     inkscape:current-layer="layer3"
     inkscape:pagecheckerboard="0"
     inkscape:showpageshadow="0"
     inkscape:deskcolor="#d1d1d1" />
  <g
     inkscape:groupmode="layer"
     id="layer2"
     inkscape:label="artwork"
     sodipodi:insensitive="true">
    <image
       xlink:href="../gfx_Pepper-and-Carrot_by-David-Revoy_E37P07.png"
       y="0"
       x="0"
       id="image10"
       height="3503"
       width="2481" />
  </g>
  <g
     inkscape:groupmode="layer"
     id="layer3"
     inkscape:label="speechbubbles">
    <path
       style="display:inline;fill:#ffe4a0;fill-rule:evenodd;stroke:none;stroke-width:1.17745px;stroke-linecap:butt;stroke-linejoin:miter;stroke-opacity:1;fill-opacity:1"
       d="m 1973.8251,1515.828 c -41.0762,-2.1209 -100.6429,13.0035 -66.0941,56.6503 -75.4328,-28.6022 -232.0864,-46.5834 -256.994,1.0628 -4.1919,-58.2756 -45.0337,-49.8238 -86.7632,-35.7907 39.7144,-23.9257 7.75,-20.6294 -31.352,-21.1441 81.0305,-51.6517 37.133,-66.6804 3.9725,-84.8572 81.6497,12.303 61.1079,-15.5311 70.2967,-31.6873 70.8172,34.7678 121.2028,25.168 160.1505,-9.2697 21.517,17.8716 29.296,55.5442 104.6043,-4.1167 -26.7723,50.7381 10.2536,44.7258 69.6818,18.7873 -8.8914,17.2767 -64.1523,44.3878 30.2407,39.7631 -58.495,17.4289 -70.1672,39.6831 2.2568,70.6022 z"
       id="path4584-8"
       inkscape:connector-curvature="0"
       sodipodi:nodetypes="cccccccccccc" />
    <path
       style="fill:#ffe4a0;stroke:none;stroke-width:0.979682;fill-opacity:1"
       d="m 1623.5582,1522.0435 c -51.1137,1.1141 -103.9942,11.1924 -146.2602,39.3872 -31.7173,25.1188 -41.5855,68.2123 -31.6811,104.9263 7.6675,29.8959 32.1303,54.6595 62.2057,66.4785 43.9804,19.5618 93.7217,21.0938 141.5406,21.8386 52.0214,0.4131 104.1296,0.4166 156.0446,-3.0216 38.9407,-3.3487 78.9349,-9.939 112.9229,-28.9593 30.0258,-20.9925 41.7892,-58.217 39.1068,-92.0567 -2.5368,-35.9828 -26.5947,-69.7977 -61.2892,-85.7019 -39.3218,-20.1841 -85.4594,-23.0924 -129.4317,-21.7858 -43.4552,0.8409 -86.9271,0.393 -130.3584,-1.082 -4.2664,-0.057 -8.5333,-0.053 -12.8,-0.023 z"
       id="path3280-8-0-3"
       inkscape:connector-curvature="0"
       sodipodi:nodetypes="csssc" />
    <path
       style="fill:#ffe4a0;fill-rule:evenodd;stroke:none;stroke-width:1px;stroke-linecap:butt;stroke-linejoin:miter;stroke-opacity:1;fill-opacity:1"
       d="m 1893.5209,1714.3796 c 19.1204,15.4627 39.0722,32.1803 63.6123,29.0086 -15.036,6.0295 -43.8148,9.8246 -66.282,-5.5838 -35.0644,-24.0476 0.2146,-23.9396 0.2146,-23.9396 z"
       id="path4248"
       inkscape:connector-curvature="0"
       sodipodi:nodetypes="ccscc" />
    <path
       style="fill:#ffe4a0;fill-rule:evenodd;stroke:none;stroke-width:0.84259px;stroke-linecap:butt;stroke-linejoin:miter;stroke-opacity:1;fill-opacity:1"
       d="m 209.18843,2520.692 c 13.91687,18.6091 30.69058,26.056 55.768,1.0613 20.456,6.0403 20.31799,24.7701 87.33472,2.1218 -38.46395,28.588 -22.32998,30.9026 0,30.236 -32.44044,37.0364 -4.7759,31.2953 7.36561,36.6022 -39.75751,22.3704 -34.5481,32.8673 -15.78336,39.7846 -13.40496,13.5521 -22.77006,26.6965 5.26103,36.0712 -21.92211,3.6978 -52.96264,2.0329 -43.14122,24.4014 -34.8096,-14.1518 -59.10343,-10.2794 -79.96913,-0.5309 -18.00279,-12.9686 -32.62185,-29.3494 -83.12584,-9.548 27.96981,-21.9401 16.90362,-32.9472 -5.26117,-40.8458 41.64075,-21.2391 9.13426,-28.6347 -23.14898,-36.0712 58.36414,-2.5541 41.77684,-26.0994 26.30571,-49.3332 27.32733,4.6669 54.75149,9.6745 68.39463,-33.9494 z"
       id="path4489"
       inkscape:connector-curvature="0"
       sodipodi:nodetypes="cccccccccccccc" />
    <path
       style="color:#000000;display:inline;overflow:visible;visibility:visible;fill:#ffe4a0;fill-opacity:1;fill-rule:nonzero;stroke:none;stroke-width:1px;marker:none;enable-background:accumulate"
       d="m 194.15137,2627.0953 c 14.3116,13.119 20.5898,27.322 21.7824,31.497 1.1926,4.174 -2.1039,30.52 2.0703,35.291 4.1742,4.77 19.6785,5.366 21.4675,8.944 1.7889,3.578 -3.5779,22.064 0,25.642 3.5779,3.578 28.6232,13.119 29.8159,16.101 1.1926,2.981 7.7521,19.082 19.6784,31.604 -11.33,-31.604 -7.7521,-38.164 -11.9263,-42.934 -4.1742,-4.771 -15.9274,-10.181 -18.3127,-15.548 -2.3853,-5.367 6.711,-25.728 0.086,-28.027 -4.7705,-4.77 -19.8083,-10.267 -19.8083,-10.267 4.1743,-4.771 18.356,-27.854 -1.3225,-55.881 -19.6785,-28.027 -43.5312,3.578 -43.5312,3.578 z"
       id="path5050-8"
       inkscape:connector-curvature="0"
       sodipodi:nodetypes="csccscccccccc" />
    <path
       style="color:#000000;display:inline;overflow:visible;visibility:visible;fill:#ffe4a0;fill-opacity:1;fill-rule:nonzero;stroke:none;stroke-width:1.20338px;marker:none;enable-background:accumulate"
       d="m 1046.0995,2698.1663 c 2.4556,-50.3777 47.7351,-84.1254 159.1598,-75.284 59.6849,4.7367 127.4078,7.6801 124.5019,81.4762 -2.9059,73.7962 -100.1869,72.4521 -120.2266,74.2916 -20.0397,1.8394 -125.2983,-0.49 -144.0958,-25.4802 -11.7668,-15.6437 -19.3484,-39.4049 -19.3393,-55.0036 z"
       id="path4546-6-89"
       inkscape:connector-curvature="0"
       sodipodi:nodetypes="cssssc" />
    <path
       style="color:#000000;display:inline;overflow:visible;visibility:visible;fill:#ffe4a0;fill-opacity:1;fill-rule:nonzero;stroke:none;stroke-width:1px;marker:none;enable-background:accumulate"
       d="m 1112.3939,2718.8111 c -36.5658,59.4022 -50.7173,145.4159 26.0841,179.4136 -60.0157,-38.5902 -23.0543,-135.4959 8.3656,-161.6817 21.2953,-14.4935 -34.4497,-17.7319 -34.4497,-17.7319 z"
       id="path3978-4"
       inkscape:connector-curvature="0"
       sodipodi:nodetypes="cccc" />
    <path
       style="color:#000000;display:inline;overflow:visible;visibility:visible;fill:#ffe4a0;fill-opacity:1;fill-rule:nonzero;stroke:none;stroke-width:1.48398px;marker:none;enable-background:accumulate"
       d="m 305.36877,836.13689 c -47.00497,0.84762 -94.59927,4.96672 -139.35893,19.57332 -27.2638,8.74722 -51.00998,27.41719 -65.16321,51.45395 -5.694123,12.30197 -5.386089,26.03572 -7.458902,39.11497 -1.452588,15.2471 1.495826,31.61636 11.823572,43.72581 12.88539,16.26816 31.22652,27.41956 49.55273,37.26336 24.40578,12.2561 51.79854,18.0058 79.11761,19.8825 41.79382,4.7037 84.05098,6.4945 126.04389,3.279 25.08843,-1.763 50.3201,-4.0369 74.71269,-10.2044 14.15971,-3.6108 31.34226,-0.4931 44.86389,-5.6496 18.15965,-6.8688 31.52601,-18.8385 43.09234,-27.5359 15.14757,-12.08693 16.08653,-35.19488 18.61321,-54.21209 4.32066,-26.88672 -6.80882,-55.95517 -29.46472,-72.61826 -23.30844,-18.92115 -53.0085,-28.46286 -82.42333,-34.53151 -40.65613,-8.49707 -82.4881,-9.83859 -123.95084,-9.54115 z"
       id="path3365-9"
       inkscape:connector-curvature="0"
       sodipodi:nodetypes="csszcsccccccccc"
       inkscape:transform-center-x="-406.15572"
       inkscape:transform-center-y="129.24755" />
    <path
       style="fill:#ffe4a0;fill-opacity:1;fill-rule:evenodd;stroke:none;stroke-width:0.802136px;stroke-linecap:butt;stroke-linejoin:miter;stroke-opacity:1"
       d="m 1089.6497,908.05979 c 11.2207,-39.08308 70.4191,-46.30006 154.3629,-46.59469 36.7225,-0.12888 78.7412,1.73141 98.6475,11.35412 22.5619,10.90633 29.7125,27.71677 30.46,40.78005 0.3039,20.39943 -9.8557,51.72201 -90.3106,58.187 -80.455,6.46505 -200.3192,-1.88784 -193.1598,-63.72648 z"
       id="path912"
       inkscape:connector-curvature="0"
       sodipodi:nodetypes="csscsc" />
    <path
       style="color:#000000;display:inline;overflow:visible;visibility:visible;fill:#ffe4a0;fill-opacity:1;fill-rule:nonzero;stroke:none;stroke-width:0.989872px;marker:none;enable-background:accumulate"
       d="m 473.4959,1110.2215 c -40.3937,1.8691 -54.77121,0.1547 -74.36032,-43.9141 -19.5892,-44.0678 -35.24613,-35.3212 -35.24613,-35.3212 l -26.14855,14.5263 c 0,0 69.82372,109.5525 135.755,64.709 z"
       id="path3072-5-5"
       inkscape:connector-curvature="0"
       sodipodi:nodetypes="ccccc" />
    <path
       style="color:#000000;display:inline;overflow:visible;visibility:visible;fill:#ffe4a0;fill-opacity:1;fill-rule:nonzero;stroke:none;stroke-width:1.18666px;marker:none;enable-background:accumulate"
       d="m 1239.1032,951.88937 c 6.1098,35.65 -0.6324,117.90143 -118.1167,120.62823 67.0346,-18.7772 84.3388,-47.5207 79.194,-93.29043 -3.3137,-29.47951 9.6095,-29.94973 9.6095,-29.94973 z"
       id="path4440-1"
       inkscape:connector-curvature="0"
       sodipodi:nodetypes="ccscc" />
    <path
       style="display:inline;fill:#ffe4a0;fill-opacity:1;fill-rule:evenodd;stroke:none;stroke-width:0.826816px;stroke-linecap:butt;stroke-linejoin:miter;stroke-opacity:1"
       d="m 1564.0771,850.0323 c 27.6443,0.90281 23.6715,19.02998 -8.1671,20.43044 29.4541,6.95533 21.728,10.3996 5.3301,13.02424 31.5738,31.38104 15.1307,49.57124 -2.4419,67.45117 45.1066,-6.46339 42.2047,9.99174 49.8163,21.42816 15.7453,-21.31342 16.4077,-7.1227 12.8616,16.97484 17.8102,-27.65612 25.1666,-29.56165 22.9931,-7.98561 14.3344,-17.34641 28.1925,-23.5969 41.5035,-17.0938 33.1319,-15.19576 53.159,-4.66338 37.9608,16.21956 37.4766,-22.92195 46.3012,-22.95631 51.4501,-9.6144 6.1948,-9.87169 10.7204,-24.17965 31.9762,-0.92034 5.7127,-27.5811 15.1367,-4.1481 22.2233,-0.61558 3.4751,-26.49292 50.2423,-15.49607 53.8053,-3.15448 -2.4755,-5.43108 -1.9782,-11.36204 2.0273,-17.88296 -3.6646,-9.39192 -3.1704,-18.84548 -0.4913,-28.33153 -3.8962,-16.75499 1.4423,-29.92595 4.4765,-43.99098 -5.0353,5.52489 -8.4884,-24.22387 -8.2543,-25.83783 -7.9755,1.07891 -53.4579,0.29325 -46.0885,-0.28441 -36.7162,1.39499 -29.0232,0.65039 -34.4919,0.14663 -79.751,-5.18979 -78.6959,-0.3069 -90.9019,-1.37603 -16.7424,2.13629 -30.1142,1.24904 -43.4725,0.3493 -7.8367,1.82617 -15.8108,1.26271 -23.7822,0.74921 -4.9684,0.78285 -16.1757,0.98027 -35.7949,0.38836 12.746,0.69465 2.5047,0.77522 -42.5376,-0.0738 z"
       id="path4289-9"
       inkscape:connector-curvature="0"
       sodipodi:nodetypes="ccccccccccccccccccccccccc" />
    <path
       style="color:#000000;display:inline;overflow:visible;visibility:visible;fill:#ffe4a0;fill-opacity:1;fill-rule:nonzero;stroke:none;stroke-width:1px;marker:none;enable-background:accumulate"
       d="m 1661.7981,1046.3743 c 52.9673,-34.0351 71.8625,-58.8898 88.416,-83.1049 7.7887,-11.3942 -22.5092,-17.40291 -22.5092,-17.40291 l -11.5344,24.88391 c 0,0 -12.622,41.2034 -54.3724,75.6239 z"
       id="path4000-2"
       inkscape:connector-curvature="0"
       sodipodi:nodetypes="csccc"
       inkscape:transform-center-x="-308.61774"
       inkscape:transform-center-y="-55.962808" />
    <path
       style="color:#000000;display:inline;overflow:visible;visibility:visible;fill:#ffe4a0;fill-opacity:1;fill-rule:nonzero;stroke:none;stroke-width:1.06118px;marker:none;enable-background:accumulate"
       d="m 2177.7182,899.85217 c -18.1271,3.14561 -36.6556,0.63413 -54.6339,5.35703 -12.7955,2.8156 -25.9822,5.10696 -38.9038,2.86631 -9.1364,-1.11144 -18.9266,0.059 -26.9648,5.61905 -11.2973,7.00839 -21.3335,16.38853 -30.1284,26.89538 -4.237,5.46121 -8.0477,12.047 -8.2312,19.38683 0.1173,7.51594 4.0596,14.13124 8.8067,19.0879 9.4837,10.81727 22.8352,16.84734 36.4089,18.18114 15.4517,2.5717 30.2122,9.11779 45.9755,9.71919 8.6455,0.1317 17.2822,-2.7831 25.8994,-1.4161 6.5844,1.0945 12.5233,4.5286 18.8449,6.5683 5.65,1.6681 11.8056,1.6242 17.3836,-0.7077 7.1074,-2.3847 14.4337,-5.4223 21.9211,-4.2908 12.3645,1.0722 24.8285,-0.066 37.1403,-1.9702 8.7301,-1.0714 17.7772,-1.4755 25.9537,-5.56979 9.97,-6.5439 17.9352,-16.04456 26.4281,-24.64025 3.7838,-4.33179 6.7099,-10.43444 5.577,-16.51588 -1.0614,-7.09545 -5.8027,-12.71634 -11.2211,-16.22189 -10.0384,-8.19555 -20.0464,-16.59216 -28.5666,-26.72066 -6.4352,-5.42411 -14.9879,-6.50281 -22.9343,-5.76243 -11.4205,0.41892 -22.74,-2.16947 -33.3014,-6.60063 -5.0178,-1.66413 -10.1603,-3.11542 -15.4537,-3.2648 z"
       id="path3365-8"
       inkscape:connector-curvature="0"
       sodipodi:nodetypes="cssccsc" />
    <path
       style="display:inline;fill:#ffe4a0;fill-opacity:1;fill-rule:evenodd;stroke:none;stroke-width:1px;stroke-linecap:butt;stroke-linejoin:miter;stroke-opacity:1"
       d="m 2185.1848,946.9031 c -1.4297,8.459 7.6905,12.502 13.3057,16.588 7.0937,5.072 5.0374,15.927 -2.8535,18.922 -6.6614,2.438 -9.0687,9.33897 -9.5278,15.82497 0.6979,7.75703 3.662,13.46003 2.8543,19.99803 0.7758,9.959 11.0423,12.466 10.1091,22.941 -0.9566,6.951 -5.9088,9.739 -12.2778,13.752 2.1992,4.9978 -11.1367,21.6776 -16.8896,25.4794 7.8261,-4.4494 22.2841,-11.4819 25.4378,-21.2415 12.9454,-6.0505 22.9576,-18.2077 12.7096,-32.1719 -7.4268,-8.207 -10.2366,-22.295 -1.8919,-30.86103 6.0058,-4.627 13.7043,-10.08597 12.902,-18.73797 -2.3975,-11.731 -3.0261,-25.609 -12.9899,-33.83 -5.6468,-3.884 -8.5965,-13.223 -16.3596,-12.996 -6.7189,2.442 -5.6829,10.787 -4.5284,16.333 z"
       id="path4396-1"
       inkscape:connector-curvature="0"
       sodipodi:nodetypes="ccccccccccccccc" />
    <path
       style="color:#000000;display:inline;overflow:visible;visibility:visible;fill:#ffe4a0;fill-opacity:1;fill-rule:nonzero;stroke:none;stroke-width:0.562339px;marker:none;enable-background:accumulate"
       d="m 1924.0287,869.40511 c 9.0985,-12.51422 109.3024,-21.42748 135.2308,6.87679 18.0697,19.72576 17.1168,55.40763 1.6287,65.25521 -15.4878,9.84672 -90.2627,12.61998 -111.515,7.60573 -19.1112,-4.50995 -39.1712,-14.21594 -40.2289,-40.05023 -0.4316,-10.54418 5.7857,-27.17241 14.8844,-39.6875 z"
       id="path4040-3"
       inkscape:connector-curvature="0"
       sodipodi:nodetypes="zssssz" />
    <path
       style="color:#000000;display:inline;overflow:visible;visibility:visible;fill:#ffffff;fill-opacity:1;fill-rule:nonzero;stroke:none;stroke-width:0.953236px;marker:none;enable-background:accumulate"
       d="m 196.09503,1379.8767 c -6.0064,24.314 -39.88389,26.3529 -52.35513,21.4114 25.13904,27.2004 24.26268,44.1006 -9.86923,46.7242 57.23974,49.023 10.46421,41.6049 1.2381,54.0355 44.94382,16.8949 24.83544,37.9196 16.83386,58.8502 51.65848,0.7194 34.75303,34.2706 36.93036,60.9912 4.37939,-12.5383 25.18452,-50.7126 26.43631,-8.2089 34.16909,-40.55 75.32481,-66.7436 78.59276,4.2203 13.76728,-35.7003 37.52443,-50.2858 36.46765,-7.7067 34.11095,-55.3803 54.73314,-35.9478 85.56833,-20.2953 -8.27818,-20.0809 -25.71429,-49.5367 35.24347,-36.3768 -33.91056,-23.6587 -7.53365,-30.9155 10.31765,-36.0393 -14.43391,-10.0078 -17.09402,-20.331 9.70651,-31.4395 -20.39366,-1.0753 -39.41089,-3.2771 -15.48467,-41.1617 -7.50633,-0.9176 -36.57926,32.0157 -21.30667,-60.4998 -23.74081,29.6177 -49.07017,45.964 -80.83548,-16.0771 -15.03289,30.9951 -41.10712,46.3321 -52.45081,7.6174 -4.07708,16.504 -20.98301,22.7118 -35.33491,23.4638 -5.54991,-6.5556 -11.27402,-15.4598 -17.24727,-27.1263 -9.76296,24.4961 -24.36722,41.0404 -52.45083,7.6174 z"
       id="path3549-3-7-3"
       inkscape:connector-curvature="0"
       sodipodi:nodetypes="cccccccccccccccccccc" />
    <path
       style="color:#000000;display:inline;overflow:visible;visibility:visible;fill:#ffffff;fill-opacity:1;fill-rule:nonzero;stroke:none;stroke-width:1px;marker:none;enable-background:accumulate"
       d="m 287.3927,1556.3317 c -6.75576,12.853 -43.26253,45.4194 -53.2553,55.6175 4.16934,1.1193 18.49163,-0.6612 23.70885,-0.424 -28.18696,30.3633 -75.14135,49.9921 -114.1922,49.1115 24.25327,-6.1985 48.19266,-15.9707 67.33595,-32.4693 1.27157,-1.27 2.94318,-2.2742 3.93941,-3.7153 0.44585,-1.5091 -1.22772,-1.1492 -2.12241,-1.2189 -6.48954,-0.5288 -13.00655,-0.3703 -19.51056,-0.3998 15.86642,-14.3214 47.17809,-46.8583 52.52599,-64.6698 4.97614,-0.092 37.13148,-4.0317 41.79442,-2.4536 3.48254,-1.6486 2.08311,1.2448 2.00837,1.4519 z"
       id="path5066-7"
       inkscape:connector-curvature="0"
       sodipodi:nodetypes="cccccccccccc" />
    <path
       style="fill:#ffe4a0;fill-rule:evenodd;stroke:none;stroke-width:1px;stroke-linecap:butt;stroke-linejoin:miter;stroke-opacity:1;fill-opacity:1"
       d="m 157.8069,2096.6973 c 7.4959,18.2948 15.02654,35.498 39.34133,-13.5676 -2.74445,14.6793 0.45019,39.1305 36.25433,16.6856 -20.31902,28.0034 -11.79607,30.2706 0,29.6177 -17.13704,36.279 -2.52293,30.6553 3.89097,35.8536 -21.00237,21.913 -18.25044,32.1952 -8.33775,38.971 -7.08132,13.275 -12.02854,26.1506 2.7792,35.3336 -11.5806,3.6221 -27.97812,1.9913 -22.78984,23.9024 -18.38857,-13.8625 -31.22207,-10.0693 -42.24461,-0.5201 -9.51018,-12.7034 -17.23287,-28.7492 -43.91219,-9.3527 14.77538,-21.4914 8.92954,-32.2734 -2.77927,-40.0105 21.99721,-20.8048 4.82528,-28.0492 -12.22871,-35.3336 30.83153,-2.5019 22.0691,-25.5657 13.89629,-48.3243 14.43598,4.5714 28.92311,9.4767 36.13025,-33.2551 z"
       id="path4489-0"
       inkscape:connector-curvature="0"
       sodipodi:nodetypes="cccccccccccccc" />
    <path
       style="fill:#ffe4a0;stroke:none;stroke-width:0.949143;fill-opacity:1"
       d="m 1372.2517,1371.5877 c -13.7894,6.381 -28.3563,10.8062 -43.8005,9.5819 -3.7666,0.096 -7.5265,0.3094 -11.1388,1.2285 -6.6103,7.8856 -10.0033,20.8381 -11.4312,34.4348 -2.6581,15.7614 -5.5318,31.3768 -7.6157,47.5502 1.7327,23.5788 15.2303,47.7214 30.1385,53.9051 13.3182,3.4522 26.8403,6.2884 40.0593,15.1086 9.41,5.5146 19.3829,8.4292 28.0827,5.1687 13.2998,-3.5956 26.1959,-9.7364 40.5016,-8.3517 17.5882,2.4448 35.5967,14.462 53.0455,14.736 11.9948,0.2322 22.883,-5.0887 33.3286,-10.9974 8.3422,-3.4326 17.7618,-1.591 26.9221,0.4494 8.6276,0.5818 15.8975,-6.2876 20.0944,-16.4907 6.8204,-14.0324 10.8203,-32.3818 9.7361,-52.476 -1.3058,-19.4629 -7.1171,-40.3688 -17.1801,-55.51 -7.1428,-11.0029 -16.6968,-17.1811 -25.4055,-17.4812 -11.9949,-1.7593 -24.1415,-2.261 -36.2842,-9.3256 -15.1839,-8.4096 -30.965,-12.7802 -45.3542,-9.4822 -15.0052,2.5618 -30.1771,5.5091 -46.1276,1.5967 -10.9276,-2.3276 -21.9237,-5.2065 -32.7006,-5.7133 -1.6234,0.6894 -3.2467,1.3788 -4.8704,2.0682 z"
       id="path3280-1"
       inkscape:connector-curvature="0"
       sodipodi:nodetypes="csssc" />
    <path
       style="fill:#ffffff;fill-opacity:1;stroke:none;stroke-width:0.925554"
       d="m 561.83481,1475.4187 c 22.2439,3.2865 28.18803,13.3984 4.98346,21.3612 29.13771,5.2775 8.33925,35.8636 -0.60407,39.0156 13.34899,-3.7005 25.37119,3.7608 25.37119,3.7608 3.57863,5.0092 -15.12799,30.9883 -14.11938,31.5074 2.05457,0.485 14.24609,-1.7526 16.34606,0.4482 2.09998,2.202 -17.43218,35.6765 -14.68268,36.7045 2.74962,1.029 64.71842,-23.3762 73.69221,-18.6044 8.97387,4.7716 -1.67082,25.3966 1.06364,25.8526 2.73428,0.456 34.03113,-11.3135 37.44545,-10.8864 3.41408,0.427 1.23124,22.891 4.6455,23.3179 3.41432,0.4271 27.59363,-13.8125 30.32802,-13.3566 2.73444,0.456 1.753,14.8148 5.16725,15.2418 3.41433,0.4269 18.03747,-12.7945 20.09215,-12.3097 2.05451,0.4849 10.28931,28.7676 13.73374,30.3383 3.44459,1.5711 24.3212,-32.5335 26.34563,-33.1925 2.02418,-0.6601 15.98501,38.2598 18.71949,38.7158 2.73445,0.4558 15.60446,-27.5815 17.65912,-27.0966 2.05459,0.485 15.39492,15.9521 18.14442,16.9797 2.74958,1.028 19.45656,-36.3354 22.17581,-36.4513 2.71941,-0.1161 26.24192,14.3431 28.35705,17.1157 2.11524,2.7739 3.6855,-15.0466 6.40473,-15.1627 2.71933,-0.1158 34.26355,8.8479 34.92849,8.2468 0.66462,-0.6009 -5.06164,-11.2379 -3.02219,-11.3249 2.03952,-0.087 34.36955,12.8511 35.65376,9.9334 -3.78079,-21.7636 72.63214,2.2065 74.41834,8.8532 0,0 -31.833,-45.6024 -28.5247,-49.1801 3.3083,-3.5766 15.6514,-0.094 16.2858,-1.8396 0.6343,-1.7448 -7.7203,-8.8332 -5.7414,-11.208 1.979,-2.3759 24.8507,-12.5137 26.8145,-15.4603 1.9639,-2.9477 -10.4698,-9.8623 -7.7959,-11.694 -4.3483,-5.5266 38.6455,-19.6442 43.1003,-17.3011 -2.1155,0.6437 -24.9752,-14.4585 -18.2201,-19.8382 2.6133,-4.1208 5.6377,-5.788 9.2904,-8.9873 -3.8837,-1.2728 -13.763,-5.7128 -13.1588,-8.6013 0.6043,-2.8887 7.0241,-17.4805 9.003,-19.8552 1.9792,-2.3747 -14.3066,-0.5351 -14.3669,-2.8229 -0.062,-2.2889 0.2311,-36.6986 23.8337,-58.5179 -13.2129,4.9129 -48.9989,9.0986 -48.9989,9.0986 l 8.0255,-19.8003 c 0,0 -29.9486,18.5799 -41.4182,16.7396 -22.5555,-3.6189 -17.91865,-34.1691 -17.91865,-34.1691 0,0 -26.7055,15.0879 -30.21054,11.2294 -3.50504,-3.8599 -8.36628,-11.2861 -9.37075,-15.2686 -1.79731,2.5256 -17.93156,16.7993 -21.34571,16.3723 -10.2938,2.0629 -39.02709,-23.1503 -40.80579,-24.6034 -8.96688,9.2336 -18.89288,16.7933 -24.90186,17.3858 -3.12155,1.2014 -13.47647,-13.0199 -13.22875,-18.0502 -1.49054,4.1898 -19.47013,19.8531 -23.60945,17.7576 -3.4295,-1.0002 -11.59587,-11.0176 -14.47405,-14.7253 -3.42353,7.4486 -12.49233,17.7193 -12.49233,17.7193 0,0 -24.02239,-6.9971 -29.77222,-22.1796 -2.79875,16.6423 -16.15526,32.4592 -19.52422,33.748 -3.36886,1.2889 -53.73066,-31.1443 -51.78198,-34.6628 -0.32323,18.2756 -3.15131,33.3851 -7.65311,34.2448 -4.71326,1.9199 -41.96392,-34.0062 -43.27802,-32.2324 -1.31437,1.7737 4.17163,34.5022 0.10778,35.2481 -4.06376,0.7459 -11.67217,-2.6122 -11.67217,-2.6122 l -0.39825,9.4264 c 0,0 -33.82066,-34.3607 -37.31067,-37.6473 -3.4898,-3.2879 10.79336,35.0936 12.95387,39.5834 -12.35788,-4.0549 -32.37904,-16.5573 -35.17387,-19.3022 -2.39578,-2.8141 12.31202,30.3329 10.61692,35.2002 -5.00853,7.2481 -24.16749,1.2556 -24.192,0.8053 l 15.99919,13.0621 c 4.65073,4.6093 4.78817,3.8793 5.71094,10.0642 3.80777,13.2889 -19.32782,24.9455 -16.00466,21.2245 26.52505,7.4958 22.89719,6.961 -1.64514,12.6419 z"
       id="path5888-3"
       inkscape:connector-curvature="0"
       sodipodi:nodetypes="cccccccsscccccccsccscscsccscccccccccscccscsccccccccccccccccscccccccc" />
    <path
       style="color:#000000;display:inline;overflow:visible;visibility:visible;fill:#ffe4a0;fill-opacity:1;fill-rule:nonzero;stroke:none;stroke-width:0.973781px;marker:none;enable-background:accumulate"
       d="m 1022.5878,2506.0538 c -6.6536,15.6506 -44.18088,16.9629 -57.99574,13.7817 27.84748,17.508 26.87679,28.3861 -10.93237,30.075 63.40661,31.5541 11.59154,26.7792 1.37138,34.7804 49.78593,10.8742 27.51122,24.4075 18.64757,37.8796 57.22396,0.4628 38.49706,22.0581 40.90896,39.2574 4.8513,-8.0707 27.8981,-32.6414 29.2848,-5.2836 37.8505,-26.1008 83.4402,-42.9607 87.0601,2.7159 15.2506,-22.9786 30.4552,-32.6903 29.2847,-5.2835 37.7861,-35.6461 71.7419,-22.8152 105.8993,-12.7403 8.971,-10.7588 10.0165,-27.2874 39.0405,-23.414 -4.0694,-10.6639 5.7302,-17.9942 27.8613,-22.3473 -29.4087,-6.4418 -34.8285,-13.0863 19.7766,-20.2368 -41.5514,-0.6917 -80.2984,-2.1087 -31.5495,-26.4941 -15.2938,-0.5901 -51.58,19.7578 -34.6621,-39.7907 -26.2986,19.0635 -54.3568,29.5852 -89.5444,-10.348 -16.6527,19.9499 -45.5361,29.8219 -58.102,4.9029 -4.5162,10.6234 -23.2436,14.6187 -39.1418,15.1032 -6.1477,-4.2198 -12.4885,-9.9514 -19.1053,-17.4607 -10.8148,15.7675 -26.9924,26.4162 -58.102,4.9029 z"
       id="path3549-3-7"
       inkscape:connector-curvature="0"
       sodipodi:nodetypes="cccccccccccccccccccc" />
    <path
       style="color:#000000;display:inline;overflow:visible;visibility:visible;fill:#ffffff;fill-opacity:1;fill-rule:nonzero;stroke:none;stroke-width:0.999999px;marker:none;enable-background:accumulate"
       d="m 816.63784,1756.6297 c -53.77145,-23.5695 -66.64315,-43.3978 -72.53669,-59.3997 4.92832,-2.8264 19.90718,-12.2286 19.90718,-12.2286 -16.13101,-13.5035 -22.74289,-67.3125 -10.60035,-69.1694 13.12461,-2.0071 37.10425,-0.6792 37.10425,-0.6792 -15.10667,5.504 -31.61267,72.6481 3.53791,74.6731 -13.86907,7.2537 -15.94917,12.9369 -22.14538,13.688 0.0252,10.0268 26.00335,44.2425 44.73308,53.1158 z"
       id="path4456-3"
       inkscape:connector-curvature="0"
       sodipodi:nodetypes="cccscccc" />
    <path
       style="fill:#ffe4a0;fill-rule:evenodd;stroke:none;stroke-width:1px;stroke-linecap:butt;stroke-linejoin:miter;stroke-opacity:1;fill-opacity:1"
       d="m 167.70136,2121.0977 c -3.69503,-24.293 -4.22495,-65.7807 10.34503,-85.4357 -12.3556,9.997 -31.21448,52.6878 -29.1892,79.8508 3.16086,42.393 20.17148,17.9256 20.17148,17.9256 z"
       id="path4248-7"
       inkscape:connector-curvature="0"
       sodipodi:nodetypes="ccscc" />
  </g>
  <g
     inkscape:groupmode="layer"
     id="layer1"
     inkscape:label="txt">
    <text
       xml:space="preserve"
       style="font-style:normal;font-variant:normal;font-weight:normal;font-stretch:normal;font-size:45.3333px;line-height:125%;font-family:Lavi;-inkscape-font-specification:Lavi;text-align:center;letter-spacing:0px;word-spacing:0px;text-anchor:middle;fill:#000000;fill-opacity:1;stroke:none"
       x="319.01141"
       y="899.52985"
       id="text4246-70-2-2-2-7-4-9-9-6-1-2-3-9-2-7-9-3"><tspan
         sodipodi:role="line"
         style="font-size:45.3333px"
         x="319.01141"
         y="899.52985"
         id="tspan2829">Grr! Dajmo, </tspan><tspan
         sodipodi:role="line"
         style="font-size:45.3333px"
         x="319.01141"
         y="956.19647"
         id="tspan8439">Paprika! Spomni se</tspan><tspan
         sodipodi:role="line"
         style="font-size:45.3333px"
         x="319.01141"
         y="1012.8631"
         id="tspan5235">česa otožnega.</tspan></text>
    <text
       xml:space="preserve"
       style="font-style:normal;font-variant:normal;font-weight:normal;font-stretch:normal;font-size:45.3333px;line-height:125%;font-family:Lavi;-inkscape-font-specification:Lavi;text-align:center;letter-spacing:0px;word-spacing:0px;text-anchor:middle;fill:#000000;fill-opacity:1;stroke:none"
       x="1238.1561"
       y="929.58337"
       id="text4246-70-2-2-2-7-4-9-9-6-1-2-3-9-2-7-9-3-3"><tspan
         sodipodi:role="line"
         style="font-size:45.3333px"
         x="1238.1561"
         y="929.58337"
         id="tspan5559">Saj zmoreš.</tspan></text>
    <text
       xml:space="preserve"
       style="font-style:normal;font-variant:normal;font-weight:normal;font-stretch:normal;font-size:52.6959px;line-height:125%;font-family:Lavi;-inkscape-font-specification:Lavi;text-align:center;letter-spacing:0px;word-spacing:0px;text-anchor:middle;fill:#000000;fill-opacity:1;stroke:none;stroke-width:1"
       x="1732.3203"
       y="916.70557"
       id="text4246-70-2-2-2-7-4-9-9-6-1-2-3-9-2-7-9-3-3-7"><tspan
         sodipodi:role="line"
         style="font-style:normal;font-variant:normal;font-weight:bold;font-stretch:normal;font-size:52.6959px;font-family:Lavi;-inkscape-font-specification:'Lavi Bold';stroke-width:1"
         x="1732.3203"
         y="916.70557"
         id="tspan6251">Saj zmoreš!</tspan></text>
    <text
       xml:space="preserve"
       style="font-style:normal;font-variant:normal;font-weight:normal;font-stretch:normal;font-size:45.3333px;line-height:125%;font-family:Lavi;-inkscape-font-specification:Lavi;text-align:center;letter-spacing:0px;word-spacing:0px;text-anchor:middle;fill:#000000;fill-opacity:1;stroke:none"
       x="1991.5505"
       y="919.10315"
       id="text4246-70-2-2-2-7-4-9-9-6-1-2-3-9-2-7-9-3-5"><tspan
         sodipodi:role="line"
         style="font-size:45.3333px"
         x="1991.5505"
         y="919.10315"
         id="tspan460">Ne …</tspan></text>
    <text
       xml:space="preserve"
       style="font-style:normal;font-variant:normal;font-weight:normal;font-stretch:normal;font-size:36.074px;line-height:125%;font-family:Lavi;-inkscape-font-specification:Lavi;text-align:center;letter-spacing:0px;word-spacing:0px;text-anchor:middle;fill:#000000;fill-opacity:1;stroke:none;stroke-width:0.999996"
       x="2221.4365"
       y="940.37067"
       id="text4246-70-2-2-2-7-4-9-9-6-1-2-3-9-2-7-9-3-5-2"
       transform="scale(0.972094,1.0287071)"><tspan
         sodipodi:role="line"
         style="font-size:36.074px;stroke-width:0.999996"
         x="2221.4365"
         y="940.37067"
         id="tspan2829-1-7">Ne zmoreš.</tspan></text>
    <text
       xml:space="preserve"
       style="font-style:normal;font-variant:normal;font-weight:normal;font-stretch:normal;font-size:14.541px;line-height:0%;font-family:Lavi;-inkscape-font-specification:Lavi;text-align:center;letter-spacing:0px;word-spacing:0px;text-anchor:middle;display:inline;fill:#000000;fill-opacity:1;stroke:#000000;stroke-width:2.01521;stroke-miterlimit:4;stroke-dasharray:none;stroke-opacity:1"
       x="557.69983"
       y="1426.2844"
       id="text4246-3-7-9-5-1-6-2-3"
       transform="matrix(0.96995835,0,-0.17070021,1.0309721,0,0)"><tspan
         sodipodi:role="line"
         style="font-size:54.5284px;line-height:1.25;stroke:#000000;stroke-width:2.01521;stroke-miterlimit:4;stroke-dasharray:none;stroke-opacity:1"
         x="557.69983"
         y="1426.2844"
         id="tspan22576">Oj! Ne!</tspan><tspan
         sodipodi:role="line"
         style="font-size:54.5284px;line-height:1.25;stroke:#000000;stroke-width:2.01521;stroke-miterlimit:4;stroke-dasharray:none;stroke-opacity:1"
         x="557.69983"
         y="1494.4449"
         id="tspan22580">Proč!</tspan></text>
    <text
       xml:space="preserve"
       style="font-style:normal;font-variant:normal;font-weight:normal;font-stretch:normal;font-size:6.87975px;line-height:0%;font-family:Lavi;-inkscape-font-specification:Lavi;text-align:center;letter-spacing:0px;word-spacing:0px;text-anchor:middle;fill:#000000;fill-opacity:1;stroke:none;stroke-width:0.87182"
       x="-341.33691"
       y="2062.9126"
       id="text4246-4-9-8-0-3"
       transform="matrix(0.86354336,-0.84725955,0.23030923,0.93205314,0,0)"><tspan
         sodipodi:role="line"
         style="font-size:80.8612px;line-height:1.25;stroke-width:0.87182"
         x="-341.33691"
         y="2062.9126"
         id="tspan4205-3-3"><tspan
           style="font-size:69.6307px;stroke-width:0.87182"
           id="tspan4438">!!</tspan></tspan></text>
    <text
       xml:space="preserve"
       style="font-style:normal;font-variant:normal;font-weight:normal;font-stretch:normal;font-size:13.6455px;line-height:0%;font-family:Lavi;-inkscape-font-specification:Lavi;text-align:center;letter-spacing:0px;word-spacing:0px;text-anchor:middle;display:inline;fill:#000000;fill-opacity:1;stroke:#000000;stroke-width:2.01521;stroke-miterlimit:4;stroke-dasharray:none;stroke-opacity:1"
       x="1102.1351"
       y="1419.5491"
       id="text4246-3-7-9-5-1-6-2-3-8"
       transform="matrix(0.97850393,0,-0.17220413,1.0219683,0,0)"><tspan
         sodipodi:role="line"
         style="font-size:51.17px;line-height:1.25;stroke:#000000;stroke-width:2.01521;stroke-miterlimit:4;stroke-dasharray:none;stroke-opacity:1"
         x="1102.1351"
         y="1419.5491"
         id="tspan5248">Tace stran od     </tspan><tspan
         sodipodi:role="line"
         style="font-size:51.17px;line-height:1.25;stroke:#000000;stroke-width:2.01521;stroke-miterlimit:4;stroke-dasharray:none;stroke-opacity:1"
         x="1102.1351"
         y="1483.5116"
         id="tspan469">moje robe, če je ne</tspan><tspan
         sodipodi:role="line"
         style="font-size:51.17px;line-height:1.25;stroke:#000000;stroke-width:2.01521;stroke-miterlimit:4;stroke-dasharray:none;stroke-opacity:1"
         x="1102.1351"
         y="1547.4741"
         id="tspan471">    misliš plačati!</tspan></text>
    <text
       xml:space="preserve"
       style="font-style:normal;font-variant:normal;font-weight:normal;font-stretch:normal;font-size:45.3333px;line-height:125%;font-family:Lavi;-inkscape-font-specification:Lavi;text-align:center;letter-spacing:0px;word-spacing:0px;text-anchor:middle;fill:#000000;fill-opacity:1;stroke:none"
       x="1432.6226"
       y="1446.6802"
       id="text4246-70-2-2-2-7-4-9-9-6-1-2-3-9-2-7-9-3-3-5-6"><tspan
         sodipodi:role="line"
         style="font-style:italic;font-variant:normal;font-weight:normal;font-stretch:normal;font-size:45.3333px;font-family:Lavi;-inkscape-font-specification:'Lavi Italic'"
         x="1432.6226"
         y="1446.6802"
         id="tspan22394">Pa ne zdaj</tspan><tspan
         sodipodi:role="line"
         style="font-style:italic;font-variant:normal;font-weight:normal;font-stretch:normal;font-size:45.3333px;font-family:Lavi;-inkscape-font-specification:'Lavi Italic'"
         x="1439.7059"
         y="1503.3468"
         id="tspan827">še ti … </tspan></text>
    <text
       xml:space="preserve"
       style="font-style:normal;font-variant:normal;font-weight:normal;font-stretch:normal;font-size:15.3246px;line-height:0%;font-family:Lavi;-inkscape-font-specification:Lavi;text-align:center;letter-spacing:2px;word-spacing:0px;text-anchor:middle;display:inline;fill:#000000;fill-opacity:1;stroke:#000000;stroke-width:2.01521;stroke-miterlimit:4;stroke-dasharray:none;stroke-opacity:1"
       x="2117.813"
       y="1394.7985"
       id="text4246-3-7-9-5-1-6-2"
       transform="matrix(0.92840736,0,-0.16338778,1.0771134,0,0)"><tspan
         sodipodi:role="line"
         style="font-size:57.4671px;line-height:1.25;stroke:#000000;stroke-width:2.01521;stroke-miterlimit:4;stroke-dasharray:none;stroke-opacity:1"
         x="2118.813"
         y="1394.7985"
         id="tspan1222">KORENČEK!</tspan></text>
    <text
       xml:space="preserve"
       style="font-style:normal;font-variant:normal;font-weight:normal;font-stretch:normal;font-size:45.3333px;line-height:125%;font-family:Lavi;-inkscape-font-specification:Lavi;text-align:center;letter-spacing:0px;word-spacing:0px;text-anchor:middle;fill:#000000;fill-opacity:1;stroke:none"
       x="1701.0031"
       y="1602.295"
       id="text4246-70-2-2-2-7-4-9-9-6-1-2-3-9-2-7-9-3-3-5"><tspan
         sodipodi:role="line"
         style="font-size:45.3333px"
         x="1701.0031"
         y="1602.295"
         id="tspan5259">Lahko bi mi pomagal,</tspan><tspan
         sodipodi:role="line"
         style="font-size:45.3333px"
         x="1701.0031"
         y="1658.9617"
         id="tspan483">namesto da se ukvarjaš</tspan><tspan
         sodipodi:role="line"
         style="font-size:45.3333px"
         x="1701.0031"
         y="1715.6283"
         id="tspan487">s svojim želodcem!</tspan></text>
    <text
       xml:space="preserve"
       style="font-style:normal;font-variant:normal;font-weight:normal;font-stretch:normal;font-size:15.3246px;line-height:0%;font-family:Lavi;-inkscape-font-specification:Lavi;text-align:center;letter-spacing:0px;word-spacing:0px;text-anchor:middle;display:inline;fill:#000000;fill-opacity:1;stroke:#000000;stroke-width:2.01521;stroke-miterlimit:4;stroke-dasharray:none;stroke-opacity:1"
       x="691.18359"
       y="2440.4431"
       id="text4246-3-7-9-5-1-6-2-9"
       transform="matrix(0.92840736,0,-0.16338778,1.0771134,0,0)"><tspan
         sodipodi:role="line"
         style="font-size:57.4671px;line-height:1.25;stroke:#000000;stroke-width:2.01521;stroke-miterlimit:4;stroke-dasharray:none;stroke-opacity:1"
         x="691.18359"
         y="2440.4431"
         id="tspan1222-1">O?!</tspan></text>
    <text
       xml:space="preserve"
       style="font-style:normal;font-variant:normal;font-weight:normal;font-stretch:normal;font-size:55.8737px;line-height:125%;font-family:Lavi;-inkscape-font-specification:Lavi;text-align:center;letter-spacing:0px;word-spacing:0px;text-anchor:middle;fill:#000000;fill-opacity:1;stroke:none;stroke-width:0.999999"
       x="1148.316"
       y="2595.3896"
       id="text4246-70-2-2-2-7-4-9-9-6-1-2-3-9-2-7-9-3-3-2-2"><tspan
         sodipodi:role="line"
         style="font-style:normal;font-variant:normal;font-weight:bold;font-stretch:normal;font-size:55.8737px;font-family:Lavi;-inkscape-font-specification:'Lavi Bold';stroke-width:0.999999"
         x="1148.316"
         y="2595.3896"
         id="tspan493">Ooo, pač …</tspan></text>
    <text
       xml:space="preserve"
       style="font-style:normal;font-variant:normal;font-weight:normal;font-stretch:normal;font-size:45.3333px;line-height:125%;font-family:Lavi;-inkscape-font-specification:Lavi;text-align:center;letter-spacing:0px;word-spacing:0px;text-anchor:middle;fill:#000000;fill-opacity:1;stroke:none"
       x="1193.6333"
       y="2692.5107"
       id="text4246-70-2-2-2-7-4-9-9-6-1-2-3-9-2-7-9-3-3-2"><tspan
         sodipodi:role="line"
         style="font-size:45.3333px"
         x="1193.6333"
         y="2692.5107"
         id="tspan25248">To bi lahko</tspan><tspan
         sodipodi:role="line"
         style="font-size:45.3333px"
         x="1193.6333"
         y="2749.1775"
         id="tspan5273">vžgalo.</tspan></text>
  </g>
</svg>
