<?xml version="1.0" encoding="UTF-8" standalone="no"?>
<!-- Created with Inkscape (http://www.inkscape.org/) -->

<svg
   id="svg2"
   version="1.1"
   inkscape:version="1.2.2 (b0a8486541, 2022-12-01)"
   width="2481"
   height="3503"
   sodipodi:docname="E38P03.svg"
   xmlns:inkscape="http://www.inkscape.org/namespaces/inkscape"
   xmlns:sodipodi="http://sodipodi.sourceforge.net/DTD/sodipodi-0.dtd"
   xmlns:xlink="http://www.w3.org/1999/xlink"
   xmlns="http://www.w3.org/2000/svg"
   xmlns:svg="http://www.w3.org/2000/svg"
   xmlns:rdf="http://www.w3.org/1999/02/22-rdf-syntax-ns#"
   xmlns:cc="http://creativecommons.org/ns#"
   xmlns:dc="http://purl.org/dc/elements/1.1/">
  <metadata
     id="metadata8">
    <rdf:RDF>
      <cc:Work
         rdf:about="">
        <dc:format>image/svg+xml</dc:format>
        <dc:type
           rdf:resource="http://purl.org/dc/dcmitype/StillImage" />
        <dc:title />
      </cc:Work>
    </rdf:RDF>
  </metadata>
  <defs
     id="defs6" />
  <sodipodi:namedview
     pagecolor="#ffffff"
     bordercolor="#666666"
     borderopacity="1"
     objecttolerance="10"
     gridtolerance="10"
     guidetolerance="10"
     inkscape:pageopacity="0"
     inkscape:pageshadow="2"
     inkscape:window-width="1920"
     inkscape:window-height="1011"
     id="namedview4"
     showgrid="false"
     inkscape:zoom="0.69960252"
     inkscape:cx="1450.1091"
     inkscape:cy="3116.0551"
     inkscape:window-x="0"
     inkscape:window-y="32"
     inkscape:window-maximized="1"
     inkscape:current-layer="layer1"
     inkscape:showpageshadow="0"
     inkscape:pagecheckerboard="0"
     inkscape:deskcolor="#d1d1d1" />
  <g
     inkscape:groupmode="layer"
     id="layer2"
     inkscape:label="artwork"
     sodipodi:insensitive="true">
    <image
       xlink:href="../gfx_Pepper-and-Carrot_by-David-Revoy_E38P03.png"
       y="0"
       x="0"
       id="image10"
       height="3503"
       width="2481" />
  </g>
  <g
     inkscape:groupmode="layer"
     id="layer3"
     inkscape:label="speechbubbles">
    <path
       style="color:#000000;display:inline;overflow:visible;visibility:visible;fill:#ffffff;fill-opacity:1;fill-rule:nonzero;stroke:none;stroke-width:1px;marker:none;enable-background:accumulate"
       d="m 2005.521,2510.0564 c -38.5693,0.8018 -77.5843,3.7749 -114.5766,15.4244 -15.6959,5.4226 -28.2865,16.7397 -40.4286,27.6458 -9.1653,8.4796 -17.8388,18.6022 -20.5273,31.1289 -3.778,17.2957 -3.0422,35.2224 -0.9029,52.6825 1.8255,12.4624 6.5726,24.579 14.4326,34.4867 10.6396,13.9184 26.0053,23.6563 42.4758,29.2347 28.1584,10.6706 58.1625,16.8653 88.3337,16.7512 19.5162,0.084 39.0327,-1.0985 58.5456,-0.2596 24.2941,0.5077 48.8221,1.2561 72.8308,-3.215 21.0658,-3.7455 41.7071,-10.0774 61.1377,-19.0492 13.7919,-6.7676 26.1943,-17.0427 33.7554,-30.5765 14.4199,-24.6712 14.8854,-57.015 0.5681,-81.8408 -11.7182,-21.2409 -31.234,-37.3528 -52.929,-47.7138 -22.5433,-10.9999 -47.403,-16.173 -72.1815,-18.9956 -23.3893,-3.0816 -46.8974,-5.9834 -70.5338,-5.7037 z"
       id="path4040-4-5-3"
       inkscape:connector-curvature="0"
       sodipodi:nodetypes="zssssz" />
    <path
       style="color:#000000;display:inline;overflow:visible;visibility:visible;fill:#ffffff;fill-opacity:1;fill-rule:nonzero;stroke:none;stroke-width:1px;marker:none;enable-background:accumulate"
       d="m 1911.5316,2807.0237 c 3.7639,-86.3568 39.6317,-93.6288 162.7009,-98.005 130.6997,-4.6467 198.7089,9.572 187.9298,103.7269 -2.6516,23.1618 -3.6804,43.9163 -38.7084,66.2529 -33.0478,21.073 -108.4746,23.349 -162.6809,21.9028 -47.7575,-1.2739 -84.0628,-7.0906 -106.9204,-22.1985 -20.0342,-13.2416 -37.0825,-11.2898 -42.321,-71.6791 z"
       id="path3365-33"
       inkscape:connector-curvature="0"
       sodipodi:nodetypes="csssssc" />
    <path
       style="color:#000000;display:inline;overflow:visible;visibility:visible;fill:#ffffff;fill-opacity:1;fill-rule:nonzero;stroke:none;stroke-width:0.999999px;marker:none;enable-background:accumulate"
       d="m 1251.7677,1831.988 c -42.5257,-42.2705 -15.0323,-104.5835 17.6028,-114.3414 49.9867,-14.946 7.3538,10.5386 7.3538,10.5386 0,0 -68.7911,46.3415 -24.9566,103.8028 z"
       id="path5002-7"
       inkscape:connector-curvature="0"
       sodipodi:nodetypes="cscc" />
    <path
       style="color:#000000;display:inline;overflow:visible;visibility:visible;fill:#ffffff;fill-opacity:1;fill-rule:nonzero;stroke:none;stroke-width:1px;marker:none;enable-background:accumulate"
       d="m 1916.9709,2636.425 c -77.3885,-61.1144 -158.5933,-65.3254 -208.3967,7.4705 60.8364,-52.278 143.8743,-25.5157 174.2291,8.7518 16.5264,23.0336 34.1676,-16.2223 34.1676,-16.2223 z"
       id="path3978-4"
       inkscape:connector-curvature="0"
       sodipodi:nodetypes="cccc" />
    <path
       style="fill:#ffffff;fill-rule:evenodd;stroke:none;stroke-width:0.999997px;stroke-linecap:butt;stroke-linejoin:miter;stroke-opacity:1"
       d="m 1571.1,1438.6662 c 1.0295,-18.6517 13.3828,-52.846 31.913,-59.0632 18.53,-6.2173 70.0024,-6.2173 80.2969,-3.1082 10.2946,3.1082 26.7657,25.9044 30.8835,35.2307 4.1179,9.3254 15.4418,42.4833 -3.0882,55.9542 -18.5302,13.4708 -37.0602,23.8325 -56.6198,22.7962 -19.5596,-1.0364 -58.6787,-8.29 -67.9436,-20.7235 -9.2651,-12.4345 -15.4418,-31.0862 -15.4418,-31.0862 z"
       id="path1355"
       inkscape:connector-curvature="0" />
    <path
       style="fill:#ffffff;fill-rule:evenodd;stroke:none;stroke-width:1px;stroke-linecap:butt;stroke-linejoin:miter;stroke-opacity:1"
       d="m 979.65478,1557.9602 c 25.40082,2.4004 62.59612,-8.9527 42.06052,-45.0925 39.8597,25.6058 72.5405,21.1357 137.3783,-19.0705 -5.388,56.0204 23.5912,50.7864 49.7165,40.0312 -25.073,18.8513 19.934,29.6537 44.1439,30.7126 -51.2134,40.7739 -24.3208,53.7413 -4.1409,69.0986 -50.3307,-11.3622 -38.158,11.6597 -44.1696,24.6781 -43.1761,-29.4964 -74.5753,-22.4959 -99.3815,4.9356 -12.974,-14.918 -17.0463,-45.7509 -64.8741,1.6452 17.5875,-40.9165 -5.4657,-36.6217 -42.78923,-16.452 5.84943,-13.9367 40.61513,-35.1295 -17.94389,-32.9042 36.57712,-13.2489 44.24752,-31.1963 0,-57.5821 z"
       id="path4584"
       inkscape:connector-curvature="0"
       sodipodi:nodetypes="cccccccccccc" />
    <path
       style="color:#000000;display:inline;overflow:visible;visibility:visible;fill:#ffffff;fill-opacity:1;fill-rule:nonzero;stroke:none;stroke-width:1px;marker:none;enable-background:accumulate"
       d="m 1110.8492,1614.8828 c 32.5118,17.1362 69.5241,50.078 26.9344,88.4809 5.5785,26.0417 6.6264,46.3987 -29.7935,75.4959 22.4386,-26.2104 31.5308,-42.9396 20.1333,-80.7335 19.0733,-22.4288 9.883,-53.2464 -33.7163,-67.4214 -43.5993,-14.1751 -33.1079,-7.2586 -33.1079,-7.2586 l 36.9086,-13.1055 z"
       id="path5074"
       inkscape:connector-curvature="0"
       sodipodi:nodetypes="ccccsccc" />
    <path
       style="fill:#ffffff;stroke:none;stroke-width:0.999998"
       d="m 1641.2389,1626.3692 c -23.6692,-22.5115 -16.2357,-35.8105 -6.3972,-46.3314 9.8357,-10.5203 11.5626,-22.6355 9.6907,-30.0237 -1.8719,-7.3881 -10.8731,-18.1272 -18.2553,-23.021 -7.3832,-4.8937 2.0396,-17.023 7.4292,-24.7215 7.1196,-10.1717 17.3403,-10.9015 17.3403,-10.9015 0,0 -8.6513,-43.4434 -16.6505,-33.7546 -7.9983,9.6888 -25.6203,43.7517 -27.4427,48.1059 -1.8214,4.3541 -5.0288,17.8771 0.4234,24.5114 5.4533,6.6341 17.5984,9.8769 21.8896,18.2273 4.4207,8.6023 3.0414,15.2934 -2.2485,24.1895 -5.2898,8.8961 -13.1942,29.5079 -2.6908,39.3668 10.5043,9.8587 16.9118,14.3528 16.9118,14.3528 z"
       id="path3023-9"
       inkscape:connector-curvature="0"
       sodipodi:nodetypes="csssscssssssc" />
  </g>
  <g
     inkscape:groupmode="layer"
     id="layer1"
     inkscape:label="txt">
    <path
       style="color:#000000;display:inline;overflow:visible;visibility:visible;fill:#ffffff;fill-opacity:1;fill-rule:nonzero;stroke:none;stroke-width:0.999997px;marker:none;enable-background:accumulate"
       d="m 1257.6596,1775.5217 c 10.4027,-16.4768 39.519,-28.8843 48.4728,0.2478 25.1438,-27.2334 37.247,-18.2417 56.8984,1.1531 0.176,-6.2082 6.7297,-31.014 35.0072,-15.5544 -8.964,-22.2467 18.3854,-24.2355 31.7423,-21.7469 -5.0758,-10.8797 2.5879,-19.0493 21.6177,-24.7994 -26.9687,-5.0899 -21.2002,-18.2293 14.0621,-30.8539 -36.9479,1.5668 -45.7283,-13.7125 -17.3132,-33.8204 -13.6457,0.2274 -60.9341,28.9905 -55.5575,-27.5232 -16.3278,19.1239 -46.2744,41.2105 -75.2167,5.6123 -5.855,15.277 -25.3249,26.0304 -49.4173,7.4525 -2.957,14.9621 -29.0736,18.0286 -39.0815,15.7371 21.3766,14.993 21.8868,25.2087 -4.3761,28.6568 47.7718,26.3695 11.0134,24.4818 4.7325,32.468 36.0022,7.707 26.7903,21.0018 16.734,35.1963 29.076,-21.7336 13.8831,6.9451 11.6953,27.7743 z"
       id="path3549-3-8"
       inkscape:connector-curvature="0"
       sodipodi:nodetypes="cccccccccccccccc" />
    <text
       id="text4178-0"
       y="1598.5753"
       x="1114.2866"
       style="font-style:normal;font-variant:normal;font-weight:normal;font-stretch:normal;font-size:37.3333px;line-height:0%;font-family:Lavi;-inkscape-font-specification:Lavi;text-align:center;letter-spacing:0px;word-spacing:0px;text-anchor:middle;fill:#000000;fill-opacity:1;stroke:none"
       xml:space="preserve"><tspan
         y="1598.5753"
         x="1114.2866"
         style="font-size:37.3333px;line-height:1.25"
         sodipodi:role="line"
         id="tspan4245-6-6">Prima io!</tspan></text>
    <text
       id="text4178-0-1"
       y="1710.4082"
       x="1331.897"
       style="font-style:normal;font-variant:normal;font-weight:normal;font-stretch:normal;font-size:32.7584px;line-height:0%;font-family:Lavi;-inkscape-font-specification:Lavi;text-align:center;letter-spacing:0px;word-spacing:0px;text-anchor:middle;fill:#000000;fill-opacity:1;stroke:none;stroke-width:0.999996"
       xml:space="preserve"
       transform="scale(1.0080992,0.99196588)"><tspan
         y="1710.4082"
         x="1331.897"
         style="font-size:32.7584px;line-height:1.25;stroke-width:0.999996"
         sodipodi:role="line"
         id="tspan8148">No, io!</tspan><tspan
         y="1751.3562"
         x="1331.897"
         style="font-size:32.7584px;line-height:1.25;stroke-width:0.999996"
         sodipodi:role="line"
         id="tspan29455">Io!</tspan></text>
    <text
       id="text4178-0-7"
       y="1453.9064"
       x="1646.5745"
       style="font-style:normal;font-variant:normal;font-weight:normal;font-stretch:normal;font-size:18.9857px;line-height:0%;font-family:Lavi;-inkscape-font-specification:Lavi;text-align:center;letter-spacing:0px;word-spacing:0px;text-anchor:middle;fill:#000000;fill-opacity:1;stroke:none;stroke-width:0.999996"
       xml:space="preserve"><tspan
         y="1453.9064"
         x="1646.5745"
         style="font-size:64.3559px;line-height:1.25;stroke-width:0.999996"
         sodipodi:role="line"
         id="tspan4245-6-6-9">?</tspan></text>
    <text
       id="text4178-0-2"
       y="2575.7061"
       x="2014.6346"
       style="font-style:normal;font-variant:normal;font-weight:normal;font-stretch:normal;line-height:0%;font-family:Lavi;-inkscape-font-specification:Lavi;text-align:center;letter-spacing:0px;word-spacing:0px;text-anchor:middle;fill:#000000;fill-opacity:1;stroke:none"
       xml:space="preserve"><tspan
         y="2575.7061"
         x="2014.6346"
         style="font-size:40.6767px;line-height:1.25"
         sodipodi:role="line"
         id="tspan8303">Mi spieghi a</tspan><tspan
         y="2626.552"
         x="2014.6346"
         style="font-size:40.6767px;line-height:1.25"
         sodipodi:role="line"
         id="tspan30190">che gioco stai</tspan><tspan
         y="2677.3977"
         x="2014.6346"
         style="font-size:40.6767px;line-height:1.25"
         sodipodi:role="line"
         id="tspan30194">giocando?</tspan></text>
    <text
       id="text4178-0-2-2"
       y="2766.3835"
       x="2087.0959"
       style="font-style:normal;font-variant:normal;font-weight:normal;font-stretch:normal;line-height:0%;font-family:Lavi;-inkscape-font-specification:Lavi;text-align:center;letter-spacing:0px;word-spacing:0px;text-anchor:middle;fill:#000000;fill-opacity:1;stroke:none"
       xml:space="preserve"><tspan
         y="2766.3835"
         x="2087.0959"
         style="font-size:40.6767px;line-height:1.25"
         sodipodi:role="line"
         id="tspan8373">Sono mesi</tspan><tspan
         y="2817.2295"
         x="2087.0959"
         style="font-size:40.6767px;line-height:1.25"
         sodipodi:role="line"
         id="tspan30927">che ti stiamo</tspan><tspan
         y="2868.0752"
         x="2087.0959"
         style="font-size:40.6767px;line-height:1.25"
         sodipodi:role="line"
         id="tspan30929">cercando.</tspan></text>
  </g>
</svg>
