<?xml version="1.0" encoding="UTF-8" standalone="no"?>
<svg
   xmlns:dc="http://purl.org/dc/elements/1.1/"
   xmlns:cc="http://creativecommons.org/ns#"
   xmlns:rdf="http://www.w3.org/1999/02/22-rdf-syntax-ns#"
   xmlns:svg="http://www.w3.org/2000/svg"
   xmlns="http://www.w3.org/2000/svg"
   xmlns:xlink="http://www.w3.org/1999/xlink"
   xmlns:sodipodi="http://sodipodi.sourceforge.net/DTD/sodipodi-0.dtd"
   xmlns:inkscape="http://www.inkscape.org/namespaces/inkscape"
   id="svg2"
   version="1.1"
   inkscape:version="1.0.2-2 (e86c870879, 2021-01-15)"
   width="2481"
   height="3503"
   sodipodi:docname="E35P11.svg">
  <metadata
     id="metadata8">
    <rdf:RDF>
      <cc:Work
         rdf:about="">
        <dc:format>image/svg+xml</dc:format>
        <dc:type
           rdf:resource="http://purl.org/dc/dcmitype/StillImage" />
        <dc:title />
      </cc:Work>
    </rdf:RDF>
  </metadata>
  <defs
     id="defs6">
    <filter
       style="color-interpolation-filters:sRGB"
       id="filter4375-4-1-1-1-9-3-2-3-8-7-6-4-9"
       inkscape:label="deevad outline effect"
       x="-0.002101149"
       y="-0.0071745174"
       width="1.0042023"
       height="1.014349">
      <feFlood
         id="feFlood4377-7-9-0-8-1-6-9-6-7-5-32-7-4"
         flood-opacity="1"
         flood-color="rgb(95,141,211)"
         result="flood" />
      <feComposite
         id="feComposite4379-3-8-8-2-77-7-1-0-9-9-0-6-8"
         in2="SourceGraphic"
         in="flood"
         operator="in"
         result="composite1" />
      <feMorphology
         id="feMorphology4393-1-0-49-8-9-5-2-6-2-2-6-5-1"
         operator="dilate"
         radius="4"
         result="result3" />
      <feComposite
         id="feComposite4385-9-5-7-0-8-3-7-2-0-2-1-6-2"
         in2="result3"
         in="SourceGraphic"
         operator="over"
         result="composite2" />
    </filter>
  </defs>
  <sodipodi:namedview
     pagecolor="#ffffff"
     bordercolor="#666666"
     borderopacity="1"
     objecttolerance="10"
     gridtolerance="10"
     guidetolerance="10"
     inkscape:pageopacity="0"
     inkscape:pageshadow="2"
     inkscape:window-width="2560"
     inkscape:window-height="1390"
     id="namedview4"
     showgrid="false"
     inkscape:zoom="0.32711619"
     inkscape:cx="1397.6914"
     inkscape:cy="1121.9665"
     inkscape:window-x="0"
     inkscape:window-y="24"
     inkscape:window-maximized="1"
     inkscape:current-layer="layer1"
     inkscape:document-rotation="0"
     inkscape:snap-global="false"
     inkscape:pagecheckerboard="0" />
  <g
     inkscape:groupmode="layer"
     id="layer2"
     inkscape:label="artwork"
     sodipodi:insensitive="true">
    <image
       sodipodi:absref="C:\Users\stero\Documents\Kernewek\Pepper and Carrot\webcomics\ep35_The-Reflection\lang\gfx_Pepper-and-Carrot_by-David-Revoy_E35P11.png"
       xlink:href="../gfx_Pepper-and-Carrot_by-David-Revoy_E35P11.png"
       y="0"
       x="0"
       id="image10"
       height="3503"
       width="2481" />
  </g>
  <g
     inkscape:groupmode="layer"
     id="layer3"
     inkscape:label="speechbubbles">
    <path
       style="color:#000000;display:inline;overflow:visible;visibility:visible;fill:#ffffff;fill-opacity:1;fill-rule:nonzero;stroke:none;stroke-width:1.05826px;marker:none;enable-background:accumulate"
       d="m 692.7246,1526.6704 c 28.1693,-24.9106 272.04455,-35.5556 336.641,7.541 53.9173,35.9724 32.8807,122.5341 -15.0706,141.6334 -47.95088,19.099 -207.46599,13.6696 -277.37785,3.2265 -66.56578,-9.9423 -77.74329,-36.2614 -81.01761,-88.8787 -1.33637,-21.4761 8.65558,-38.612 36.82506,-63.5222 z"
       id="path4040-4-9-2"
       inkscape:connector-curvature="0"
       sodipodi:nodetypes="zssssz" />
    <path
       style="color:#000000;display:inline;overflow:visible;visibility:visible;fill:#ffffff;fill-opacity:1;fill-rule:nonzero;stroke:none;stroke-width:1.36564px;marker:none;enable-background:accumulate"
       d="m 709.55764,342.30512 c 33.46845,54.26318 16.77932,109.75225 -42.25383,148.97796 101.91057,-50.70471 112.5118,-145.0271 95.84592,-167.01491 -16.31806,-21.52888 -53.59209,18.03695 -53.59209,18.03695 z"
       id="path5010-4"
       inkscape:connector-curvature="0"
       sodipodi:nodetypes="ccsc" />
    <path
       style="display:inline;fill:#ffffff;stroke:none;stroke-width:0.593809"
       d="m 1189.7651,57.299 c -37.6383,0.291165 -75.9441,5.226017 -110.6114,20.596138 -18.9707,9.035479 -34.6736,26.398282 -38.8001,47.340992 -3.9744,20.62219 -2.5171,42.19634 3.4954,62.27217 7.1845,18.83833 23.1758,33.143 41.1121,41.62797 26.4023,13.35548 56.0864,18.26676 85.3259,20.41751 39.6467,3.26547 79.5432,6.45676 119.3042,3.28382 30.4333,-2.53403 60.9347,-10.51405 86.9358,-26.93945 14.8833,-9.57802 28.8059,-21.8084 36.8096,-37.87408 6.7527,-13.08567 8.326,-28.38022 6.1478,-42.81545 -2.6598,-17.3016 -11.6926,-33.4704 -24.9835,-44.85659 -15.9119,-14.191543 -36.2871,-21.85208 -56.4207,-27.88553 -27.3936,-7.963814 -55.8576,-11.472072 -84.239,-13.544453 -21.3271,-1.406949 -42.709,-1.66886 -64.0761,-1.623047 z"
       id="path3280-8-1"
       inkscape:connector-curvature="0"
       sodipodi:nodetypes="csssc" />
    <path
       style="color:#000000;display:inline;overflow:visible;visibility:visible;fill:#ffffff;fill-opacity:1;fill-rule:nonzero;stroke:none;stroke-width:0.815037px;marker:none;enable-background:accumulate"
       d="m 1958.3906,80.042241 c -36.0234,0.406432 -73.0512,6.568789 -102.7382,22.208449 -24.7441,13.16571 -45.4645,31.61855 -53.8111,53.53875 -4.64,13.03951 -6.1746,26.75881 -4.0734,40.16175 3.5762,21.10953 17.9501,40.74776 37.7607,56.00596 16.5165,12.70148 37.7072,22.1213 60.8781,26.47524 56.2454,12.34459 114.8619,17.93543 173.3721,19.84518 55.6112,1.52074 112.0378,-1.50162 165.5097,-13.43241 35.0765,-8.85512 68.182,-24.40452 89.2983,-47.26665 17.2101,-19.38443 22.2274,-43.2101 21.1939,-65.9967 -0.678,-21.44646 -8.6635,-43.71351 -28.3669,-60.02958 -18.6546,-15.127089 -46.1159,-22.876397 -73.3113,-24.641498 -67.1621,-7.607729 -135.3013,-5.079663 -202.9733,-6.383948 -27.5781,-0.270672 -55.1573,-0.607176 -82.7386,-0.484543 z"
       id="path4546-6-7"
       inkscape:connector-curvature="0"
       sodipodi:nodetypes="cscssssc" />
    <path
       style="color:#000000;display:inline;overflow:visible;visibility:visible;fill:#ffffff;fill-opacity:1;fill-rule:nonzero;stroke:none;stroke-width:0.985823px;marker:none;enable-background:accumulate"
       d="m 552.76188,1388.2962 c 31.93806,-25.3329 308.44158,-39.6345 381.68011,2.4936 61.13111,35.164 37.27981,122.0411 -17.08671,141.8593 -54.36626,19.818 -235.22294,16.7802 -314.48834,7.3854 -75.47159,-8.9443 -88.14456,-35.0958 -91.85696,-87.6639 -1.51515,-21.4561 9.81361,-38.7418 41.7519,-64.0744 z"
       id="path4040-4-9"
       inkscape:connector-curvature="0"
       sodipodi:nodetypes="zssssz" />
    <path
       style="fill:#ffffff;fill-rule:evenodd;stroke:none;stroke-width:0.952453px;stroke-linecap:butt;stroke-linejoin:miter;stroke-opacity:1"
       d="M 1085.5371 1635.3711 C 1052.8898 1636.0254 1020.2721 1637.7241 987.68188 1639.7022 C 967.39616 1641.1984 946.8575 1642.9465 927.41722 1649.3049 C 902.37529 1658.3442 882.43559 1679.0032 872.14074 1703.3192 C 867.40038 1714.6592 864.0808 1726.5633 861.61613 1738.589 C 859.36641 1750.7134 859.68421 1763.6035 864.5293 1775.0898 C 870.11617 1789.1838 879.50704 1801.3734 889.53711 1812.584 C 908.4962 1832.8007 934.12774 1847.0885 961.72534 1850.84 C 985.53689 1854.7634 1009.5998 1856.8771 1033.6332 1858.8993 C 1073.6819 1861.5709 1113.8633 1862.1241 1153.9807 1860.9939 C 1187.725 1859.951 1221.4648 1857.6599 1254.9312 1853.1421 C 1272.7188 1850.2909 1290.8599 1845.7776 1305.7903 1835.2475 C 1320.3 1824.7651 1330.1352 1808.5092 1333.8866 1791.1089 C 1337.6668 1777.854 1340.8885 1763.729 1337.7663 1749.9963 C 1333.8761 1733.5495 1325.2282 1718.8217 1317.123 1704.1738 C 1308.6807 1689.856 1297.7144 1676.364 1282.87 1668.3568 C 1264.9043 1658.097 1244.5739 1653.3561 1224.8492 1647.7395 C 1193.6568 1639.6004 1161.3366 1637.0569 1129.2077 1636.2733 C 1114.6575 1635.7282 1100.0998 1635.2439 1085.5371 1635.3711 z "
       id="path1079"
       inkscape:connector-curvature="0" />
    <path
       style="color:#000000;display:inline;overflow:visible;visibility:visible;fill:#ffffff;fill-opacity:1;fill-rule:nonzero;stroke:none;stroke-width:0.939237px;marker:none;enable-background:accumulate"
       d="m 1404.4998,1793.8153 c -45.9909,-29.4273 -78.0349,-27.5278 -104.8526,-18.0354 -25.7868,9.1275 -19.8278,10.3608 -19.8278,10.3608 l 10.5667,-48.0852 c -3.1179,-4.3789 71.5596,-1.8389 114.1137,55.7598 z"
       id="path3072-12"
       inkscape:connector-curvature="0"
       sodipodi:nodetypes="csccc" />
    <path
       style="display:inline;fill:#ffffff;stroke:none;stroke-width:0.912089"
       d="m 1364.1825,197.26135 c -47.5216,0.71141 -95.6195,6.56567 -139.9311,23.18281 -36.3256,15.5755 -65.7666,45.87113 -75.9487,82.0756 -6.6231,25.0237 -5.9933,51.00356 -5.6241,76.57747 1.6757,29.0786 17.5941,56.19505 39.5473,76.47645 12.9731,12.23074 28.949,21.35899 45.8405,28.16258 38.0716,15.82346 79.8497,22.86993 121.3841,24.03039 31.2129,0.6584 62.4273,-0.37645 93.6318,-0.94856 38.7376,-1.17898 77.7473,-3.0418 115.6398,-11.13023 21.0624,-4.70887 42.3306,-11.56473 59.0668,-24.77076 21.9753,-17.34664 36.1545,-41.96217 43.4215,-67.61578 7.4536,-26.9469 5.6299,-55.48535 -1.6656,-82.27993 -6.2897,-25.61175 -18.2533,-50.87469 -38.9631,-69.27695 -21.4238,-19.27673 -49.3657,-31.03158 -77.8937,-38.14607 -43.9048,-11.44019 -89.6898,-14.37129 -135.0595,-15.94323 -14.4778,-0.39537 -28.9631,-0.42638 -43.446,-0.39379 z"
       id="path3280-8-1-3"
       inkscape:connector-curvature="0"
       sodipodi:nodetypes="csssc" />
    <path
       style="display:inline;fill:#ffffff;stroke:none;stroke-width:0.986136"
       d="m 2011.8516,226.1866 c -58.2287,0.51905 -117.4901,9.31627 -171.1225,36.71618 -29.3487,16.1073 -53.642,47.05952 -60.026,84.39353 -6.1486,36.76262 -3.8941,75.2223 5.4076,111.01093 11.1149,33.5826 35.8544,59.08314 63.6028,74.20908 40.8459,23.80845 86.769,32.56366 132.0043,36.39776 61.3359,5.82125 123.0581,11.51027 184.5707,5.85396 47.0823,-4.51735 94.2697,-18.74311 134.495,-48.02423 23.0253,-17.07448 44.5645,-38.87726 56.9466,-67.51711 10.4469,-23.32748 12.8809,-50.59266 9.5111,-76.32597 -4.1149,-30.84309 -18.0892,-59.6668 -38.6511,-79.96465 -24.6166,-25.29889 -56.1382,-38.9551 -87.2862,-49.71079 -42.3795,-14.19688 -86.415,-20.45096 -130.3227,-24.14535 -32.9944,-2.50813 -66.0734,-2.97503 -99.1296,-2.89334 z"
       id="path3280-8-1-1"
       inkscape:connector-curvature="0"
       sodipodi:nodetypes="csssc" />
    <path
       style="display:inline;fill:#ffffff;stroke:none;stroke-width:0.779443"
       d="m 2034.5423,512.4303 c -42.5503,0.19386 -85.5788,6.63316 -125.0016,23.18251 -10.7396,4.44682 -21.0708,10.0195 -30.044,17.48095 -22.2846,17.96727 -38.0044,44.46777 -41.2921,73.115 -4.1095,28.04252 1.1794,58.33194 18.4633,81.25288 18.2094,24.30942 45.2201,40.65363 73.6771,50.17072 30.7247,11.07913 63.5043,14.46162 95.924,15.95827 49.0341,4.0249 98.3889,3.13843 147.3699,-1.19084 22.9055,-2.01519 46.048,-4.86784 67.6612,-13.15433 22.8201,-8.6374 43.2837,-23.49533 58.6826,-42.45094 13.0701,-16.2069 22.3491,-35.95787 24.014,-56.90329 3.4089,-36.54126 -12.2608,-74.92577 -41.9553,-96.86984 -25.5474,-19.5667 -56.7567,-29.58706 -87.6513,-36.98027 -52.3194,-12.18298 -106.365,-13.79562 -159.8478,-13.61082 z"
       id="path3280-8-1-1-8"
       inkscape:connector-curvature="0"
       sodipodi:nodetypes="csssc" />
    <path
       style="fill:#ffffff;fill-rule:evenodd;stroke:none;stroke-width:1px;stroke-linecap:butt;stroke-linejoin:miter;stroke-opacity:1"
       d="m 1917.1509,703.14914 c -35.1448,34.55495 -40.918,43.76621 -48.2945,59.20991 -7.3765,15.44359 -1.4166,45.82505 15.3336,59.77726 16.7502,13.95231 20.6476,39.75145 6.4656,51.09426 -14.1819,11.34295 -70.6572,56.04997 -12.3413,98.68519 -52.1304,-50.93005 4.6214,-80.3316 15.046,-87.77901 10.4245,-7.44749 30.9525,-25.50425 13.4446,-59.50485 -17.5082,-34.00062 -21.7713,-50.818 31.7495,-83.72489 53.5207,-32.90685 -21.4035,-37.75787 -21.4035,-37.75787 z"
       id="path1081"
       inkscape:connector-curvature="0"
       sodipodi:nodetypes="ccccccssc" />
    <path
       style="color:#000000;display:inline;overflow:visible;visibility:visible;fill:#ffffff;fill-opacity:1;fill-rule:nonzero;stroke:none;stroke-width:1.4638px;marker:none;enable-background:accumulate"
       d="m 1446.9857,482.25247 c 38.5518,83.9689 2.5856,139.06018 -54.1917,168.09629 98.918,-30.2652 116.1188,-134.92733 86.7076,-167.77583 -23.1309,-25.83416 -32.5159,-0.32046 -32.5159,-0.32046 z"
       id="path5010-4-3"
       inkscape:connector-curvature="0"
       sodipodi:nodetypes="ccsc" />
    <path
       style="color:#000000;display:inline;overflow:visible;visibility:visible;fill:#ffffff;fill-opacity:1;fill-rule:nonzero;stroke:none;stroke-width:0.861506px;marker:none;enable-background:accumulate"
       d="m 1708.9341,2344.6889 c 0.1396,-105.6475 -1.9817,-81.2211 156.3841,-79.1966 68.739,0.8787 150.308,10.6222 143.7753,157.3952 -5.1637,116.0161 -130.901,110.3132 -154.2725,113.5955 -23.2236,3.2615 -117.9728,-16.6744 -138.5725,-62.3724 -12.895,-28.6062 -8.0693,-101.383 -7.3144,-129.4217 z"
       id="path4546-6-59"
       inkscape:connector-curvature="0"
       sodipodi:nodetypes="cssssc" />
    <path
       style="fill:#ffffff;stroke:none;stroke-width:1.30569"
       d="m 720.93646,74.333351 c -50.55152,2.666765 -100.03953,13.314697 -149.93195,20.649706 -31.45318,5.391353 -62.81602,14.945173 -88.87367,32.769103 -16.49827,11.40589 -29.33925,27.6176 -35.29672,46.07082 -9.54535,26.01391 -9.93681,54.29343 -5.11563,81.21944 3.84814,19.85833 12.27848,39.5696 27.54972,54.16386 15.19086,14.78449 34.15817,25.97701 54.65516,33.10787 17.69799,6.77932 36.26553,11.45462 55.14052,14.2548 42.14937,6.7957 85.03779,8.54021 127.74302,8.16322 43.67122,-0.67191 87.28472,-5.32671 129.93481,-14.18276 21.26672,-4.13009 42.71551,-10.04436 60.62503,-21.96112 19.75792,-12.97782 35.44362,-31.38548 44.53157,-52.33101 3.97062,-9.27504 5.91123,-19.21663 6.27639,-29.18346 0.74213,-12.80907 0.81776,-25.64269 1.10115,-38.4648 0.10717,-38.71554 -3.44038,-77.5034 -11.72081,-115.457912 C 934.4578,90.167315 929.61521,91.52726 925.76808,90.342997 857.91557,81.259743 789.57167,74.09335 720.93646,74.333351 Z"
       id="path3100-2"
       inkscape:connector-curvature="0"
       sodipodi:nodetypes="cccccccccccccc" />
    <path
       style="display:inline;fill:#ffffff;fill-rule:evenodd;stroke:none;stroke-width:1.14884px;stroke-linecap:butt;stroke-linejoin:miter;stroke-opacity:1"
       d="m 1876.2442,2473.0319 c 29.6781,34.3855 -48.3918,61.0872 -32.7914,98.1006 6.1219,14.5249 50.1858,21.814 59.4409,88.3499 -23.107,-54.5774 -70.7535,-56.808 -83.5614,-79.4341 -24.3256,-42.971 15.5983,-74.4437 22.7675,-83.4264 9.5884,-12.0136 34.1444,-23.59 34.1444,-23.59 z"
       id="path4186-80"
       inkscape:connector-curvature="0"
       sodipodi:nodetypes="cscssc" />
    <path
       style="color:#000000;display:inline;overflow:visible;visibility:visible;fill:#ffffff;fill-opacity:1;fill-rule:nonzero;stroke:none;stroke-width:0.535759px;marker:none;enable-background:accumulate"
       d="m 216.96765,2086.542 c 17.19788,-13.964 166.0885,-22.406 205.52572,0.5429 32.91765,19.1552 20.0743,66.8586 -9.20077,77.8463 -29.27499,10.9877 -126.66202,9.7123 -169.34457,4.7305 -40.63967,-4.7428 -47.46375,-19.0595 -49.46278,-47.8849 -0.81591,-11.7653 5.28437,-21.2709 22.4824,-35.2348 z"
       id="path4040-4-9-3"
       inkscape:connector-curvature="0"
       sodipodi:nodetypes="zssssz" />
    <path
       style="color:#000000;display:inline;overflow:visible;visibility:visible;fill:#ffffff;fill-opacity:1;fill-rule:nonzero;stroke:none;stroke-width:0.816531px;marker:none;enable-background:accumulate"
       d="m 354.58902,2078.2586 c 35.58146,-4.2267 52.48817,-58.2989 28.13393,-95.1145 44.43236,49.6051 29.57055,64.2564 4.74971,120.5184 -6.58837,14.934 -32.88364,-25.4039 -32.88364,-25.4039 z"
       id="path5010-4-5"
       inkscape:connector-curvature="0"
       sodipodi:nodetypes="ccsc" />
    <text
       xml:space="preserve"
       style="font-size:40px;line-height:1.25;font-family:sans-serif;letter-spacing:0px;word-spacing:0px"
       x="742.85529"
       y="1589.6492"
       id="text76"><tspan
         sodipodi:role="line"
         id="tspan74"
         x="742.85529"
         y="1589.6492" /></text>
  </g>
  <g
     inkscape:groupmode="layer"
     id="layer1"
     inkscape:label="txt">
    <text
       xml:space="preserve"
       style="font-style:normal;font-variant:normal;font-weight:normal;font-stretch:normal;font-size:45px;line-height:1.25;font-family:Lavi;-inkscape-font-specification:Lavi;text-align:center;letter-spacing:0px;word-spacing:0px;text-anchor:middle;fill:#000000;fill-opacity:1;stroke:none"
       x="690.90973"
       y="179.30602"
       id="text4246-3-2-2"><tspan
         style="font-size:45px"
         sodipodi:role="line"
         x="690.90973"
         y="179.30602"
         id="tspan908">Meur ras ow kasa</tspan><tspan
         style="font-size:45px"
         sodipodi:role="line"
         x="690.90973"
         y="235.55602"
         id="tspan84">Carrot dhe dhri</tspan><tspan
         style="font-size:45px"
         sodipodi:role="line"
         x="690.90973"
         y="291.80603"
         id="tspan86">dillas fresk dhymm.</tspan></text>
    <text
       xml:space="preserve"
       style="font-style:normal;font-variant:normal;font-weight:normal;font-stretch:normal;font-size:45px;line-height:1.25;font-family:Lavi;-inkscape-font-specification:Lavi;text-align:center;letter-spacing:0px;word-spacing:0px;text-anchor:middle;fill:#000000;fill-opacity:1;stroke:none"
       x="1235.6431"
       y="179.79465"
       id="text4246-3-2-2-3-3-3"><tspan
         style="font-size:45px"
         sodipodi:role="line"
         x="1235.6431"
         y="179.79465"
         id="tspan876-3">Ow flesour.</tspan></text>
    <text
       xml:space="preserve"
       style="font-style:normal;font-variant:normal;font-weight:normal;font-stretch:normal;font-size:45px;line-height:1.25;font-family:Lavi;-inkscape-font-specification:Lavi;text-align:center;letter-spacing:0px;word-spacing:0px;text-anchor:middle;fill:#000000;fill-opacity:1;stroke:none"
       x="1403.865"
       y="288.4176"
       id="text4246-3-2-2-3-3"><tspan
         style="font-size:45px"
         sodipodi:role="line"
         x="1403.865"
         y="288.4176"
         id="tspan941">Ty a wrug agan</tspan><tspan
         style="font-size:45px"
         sodipodi:role="line"
         x="1403.865"
         y="344.6676"
         id="tspan97">oberen esya, ytho y</tspan><tspan
         style="font-size:45px"
         sodipodi:role="line"
         x="1403.865"
         y="400.9176"
         id="tspan99">tegoodhva dhymm</tspan><tspan
         style="font-size:45px"
         sodipodi:role="line"
         x="1403.865"
         y="457.1676"
         id="tspan101">daskor an favour.</tspan></text>
    <text
       xml:space="preserve"
       style="font-style:normal;font-variant:normal;font-weight:normal;font-stretch:normal;font-size:45px;line-height:1.25;font-family:Lavi;-inkscape-font-specification:Lavi;text-align:center;letter-spacing:0px;word-spacing:0px;text-anchor:middle;fill:#000000;fill-opacity:1;stroke:none"
       x="2070.6965"
       y="162.92047"
       id="text4246-3-2-2-3-3-67"><tspan
         style="font-size:45px"
         sodipodi:role="line"
         x="2070.6965"
         y="162.92047"
         id="tspan898">Mes dell wodhes, drog</tspan><tspan
         style="font-size:45px"
         sodipodi:role="line"
         x="2070.6965"
         y="219.17047"
         id="tspan105">pes o Wasabi awos sy.</tspan></text>
    <text
       xml:space="preserve"
       style="font-style:normal;font-variant:normal;font-weight:normal;font-stretch:normal;font-size:45px;line-height:1.25;font-family:Lavi;-inkscape-font-specification:Lavi;text-align:center;letter-spacing:0px;word-spacing:0px;text-anchor:middle;fill:#000000;fill-opacity:1;stroke:none"
       x="2069.8462"
       y="298.0451"
       id="text4246-3-2-2-3-3-67-2"><tspan
         style="font-size:45px"
         sodipodi:role="line"
         x="2069.8462"
         y="298.0451"
         id="tspan912">Hi a dhemond</tspan><tspan
         style="font-size:45px"
         sodipodi:role="line"
         x="2069.8462"
         y="354.2951"
         id="tspan121">perfydhder. Ty a</tspan><tspan
         style="font-size:45px"
         sodipodi:role="line"
         x="2069.8462"
         y="410.5451"
         id="tspan123">ankresyas henna gans dha</tspan><tspan
         style="font-size:45px"
         sodipodi:role="line"
         x="2069.8462"
         y="466.7951"
         id="tspan125">vostedhes, dha dhillas,</tspan><tspan
         style="font-size:45px"
         sodipodi:role="line"
         x="2069.8462"
         y="523.0451"
         id="tspan147">ha dha entrans.</tspan></text>
    <text
       xml:space="preserve"
       style="font-style:normal;font-variant:normal;font-weight:normal;font-stretch:normal;font-size:45px;line-height:1.25;font-family:Lavi;-inkscape-font-specification:Lavi;text-align:center;letter-spacing:0px;word-spacing:0px;text-anchor:middle;fill:#000000;fill-opacity:1;stroke:none"
       x="2084.2942"
       y="614.01355"
       id="text4246-3-2-2-3-3-67-2-3"><tspan
         style="font-size:45px"
         sodipodi:role="line"
         x="2084.2942"
         y="614.01355"
         id="tspan1134">Ha ty a omsettyas</tspan><tspan
         style="font-size:45px"
         sodipodi:role="line"
         x="2084.2942"
         y="670.26355"
         id="tspan154">warnedhi! Ny wra hi</tspan><tspan
         style="font-size:45px"
         sodipodi:role="line"
         x="2084.2942"
         y="726.51355"
         id="tspan156">dha jersya.</tspan></text>
    <text
       xml:space="preserve"
       style="font-style:normal;font-variant:normal;font-weight:normal;font-stretch:normal;font-size:45px;line-height:1.25;font-family:Lavi;-inkscape-font-specification:Lavi;text-align:center;letter-spacing:0px;word-spacing:0px;text-anchor:middle;fill:#000000;fill-opacity:1;stroke:none"
       x="327.56961"
       y="2138.6455"
       id="text4246-3-2-2-3-3-6-67"><tspan
         style="font-size:45px"
         sodipodi:role="line"
         x="327.56961"
         y="2138.6455"
         id="tspan1191-3">My a wor.</tspan></text>
    <text
       xml:space="preserve"
       style="font-style:normal;font-variant:normal;font-weight:normal;font-stretch:normal;font-size:45px;line-height:1.25;font-family:Lavi;-inkscape-font-specification:Lavi;text-align:center;letter-spacing:0px;word-spacing:0px;text-anchor:middle;fill:#000000;fill-opacity:1;stroke:none"
       x="743.62054"
       y="1442.3682"
       id="text4246-3-2-2-3-3-6"><tspan
         style="font-size:45px"
         sodipodi:role="line"
         x="743.62054"
         y="1442.3682"
         id="tspan909">Byttegyns, res yw</tspan><tspan
         style="font-size:45px"
         sodipodi:role="line"
         x="743.62054"
         y="1498.6182"
         id="tspan160">dhymm koska pols.</tspan></text>
    <text
       xml:space="preserve"
       style="font-style:normal;font-variant:normal;font-weight:normal;font-stretch:normal;font-size:45px;line-height:1.25;font-family:Lavi;-inkscape-font-specification:Lavi;text-align:center;letter-spacing:0px;word-spacing:0px;text-anchor:middle;fill:#000000;fill-opacity:1;stroke:none"
       x="863.08191"
       y="1579.2286"
       id="text4246-3-2-2-3-3-6-6"><tspan
         style="font-size:45px"
         sodipodi:role="line"
         x="863.08191"
         y="1579.2286"
         id="tspan949">Ni a dhiberth</tspan><tspan
         style="font-size:45px"
         sodipodi:role="line"
         x="863.08191"
         y="1635.4786"
         id="tspan164">pan dhifunav.</tspan></text>
    <text
       xml:space="preserve"
       style="font-style:normal;font-variant:normal;font-weight:normal;font-stretch:normal;font-size:45px;line-height:1.25;font-family:Lavi;-inkscape-font-specification:Lavi;text-align:center;letter-spacing:0px;word-spacing:0px;text-anchor:middle;fill:#000000;fill-opacity:1;stroke:none"
       x="1106.4032"
       y="1711.861"
       id="text4246-3-2-2-3-3-6-2"><tspan
         style="font-size:45px"
         sodipodi:role="line"
         x="1106.4032"
         y="1711.861"
         id="tspan958">Gwra dell</tspan><tspan
         style="font-size:45px"
         sodipodi:role="line"
         x="1106.4032"
         y="1768.111"
         id="tspan171">vynnydh mes</tspan><tspan
         style="font-size:45px"
         sodipodi:role="line"
         x="1106.4032"
         y="1824.361"
         id="tspan173">na wander pell...</tspan></text>
    <text
       xml:space="preserve"
       style="font-style:normal;font-variant:normal;font-weight:normal;font-stretch:normal;line-height:0%;font-family:Lavi;-inkscape-font-specification:Lavi;letter-spacing:0px;word-spacing:0px;display:inline;fill:#ffffff;fill-opacity:1;stroke:#5f8dd3;stroke-width:0.992362;stroke-miterlimit:4;stroke-dasharray:none;stroke-opacity:1;filter:url(#filter4375-4-1-1-1-9-3-2-3-8-7-6-4-9)"
       x="787.65729"
       y="1584.5073"
       id="text4580-5-0-6-2-8-5-9-9"
       transform="matrix(0.71138619,-0.38856964,0.42362052,1.0933045,-1095.3818,1936.127)"><tspan
         sodipodi:role="line"
         id="tspan4582-6-9-1-3-9-5-3-3"
         x="787.65729"
         y="1584.5073"
         style="font-size:70px;line-height:1.25;fill:#ffffff;stroke:#5f8dd3">Plowgh</tspan></text>
    <text
       xml:space="preserve"
       style="font-style:normal;font-variant:normal;font-weight:normal;font-stretch:normal;font-size:45px;line-height:1.25;font-family:Lavi;-inkscape-font-specification:Lavi;text-align:center;letter-spacing:0px;word-spacing:0px;text-anchor:middle;fill:#000000;fill-opacity:1;stroke:none"
       x="1861.7039"
       y="2364.5269"
       id="text4246-3-2-2-3-3-6-2-9"><tspan
         style="font-size:45px"
         sodipodi:role="line"
         x="1861.7039"
         y="2364.5269"
         id="tspan1080">Ass yw</tspan><tspan
         style="font-size:45px"
         sodipodi:role="line"
         x="1861.7039"
         y="2420.7769"
         id="tspan180">gwragh</tspan><tspan
         style="font-size:45px"
         sodipodi:role="line"
         x="1861.7039"
         y="2477.0269"
         id="tspan182">goynt.</tspan></text>
  </g>
</svg>
