<?xml version="1.0" encoding="UTF-8" standalone="no"?>
<!-- Created with Inkscape (http://www.inkscape.org/) -->

<svg
   xmlns:dc="http://purl.org/dc/elements/1.1/"
   xmlns:cc="http://creativecommons.org/ns#"
   xmlns:rdf="http://www.w3.org/1999/02/22-rdf-syntax-ns#"
   xmlns:svg="http://www.w3.org/2000/svg"
   xmlns="http://www.w3.org/2000/svg"
   xmlns:xlink="http://www.w3.org/1999/xlink"
   xmlns:sodipodi="http://sodipodi.sourceforge.net/DTD/sodipodi-0.dtd"
   xmlns:inkscape="http://www.inkscape.org/namespaces/inkscape"
   id="svg2"
   version="1.1"
   inkscape:version="0.92.3 (2405546, 2018-03-11)"
   width="2481"
   height="3503"
   sodipodi:docname="E23P06.svg">
  <metadata
     id="metadata8">
    <rdf:RDF>
      <cc:Work
         rdf:about="">
        <dc:format>image/svg+xml</dc:format>
        <dc:type
           rdf:resource="http://purl.org/dc/dcmitype/StillImage" />
        <dc:title />
      </cc:Work>
    </rdf:RDF>
  </metadata>
  <defs
     id="defs6" />
  <sodipodi:namedview
     pagecolor="#ffffff"
     bordercolor="#666666"
     borderopacity="1"
     objecttolerance="10"
     gridtolerance="10"
     guidetolerance="10"
     inkscape:pageopacity="0"
     inkscape:pageshadow="2"
     inkscape:window-width="1920"
     inkscape:window-height="1015"
     id="namedview4"
     showgrid="false"
     inkscape:zoom="0.3478261"
     inkscape:cx="710.43883"
     inkscape:cy="1410.9263"
     inkscape:window-x="0"
     inkscape:window-y="0"
     inkscape:window-maximized="1"
     inkscape:current-layer="layer1"
     inkscape:document-rotation="0" />
  <g
     inkscape:groupmode="layer"
     id="layer2"
     inkscape:label="artwork"
     sodipodi:insensitive="true"
     style="display:inline">
    <image
       sodipodi:absref="/home/rafael/Documents/lang/ca/ep-23-ca/.././../gfx_Pepper-and-Carrot_by-David-Revoy_E23P06.png"
       xlink:href="../gfx_Pepper-and-Carrot_by-David-Revoy_E23P06.png"
       width="2481"
       height="3503"
       id="image10"
       x="0"
       y="0" />
  </g>
  <g
     inkscape:groupmode="layer"
     id="layer3"
     inkscape:label="speechbubbles"
     style="display:inline">
    <path
       style="fill:#ffffff;fill-rule:evenodd;stroke:none;stroke-width:1px;stroke-linecap:butt;stroke-linejoin:miter;stroke-opacity:1"
       d="m 144.27345,2081.3114 c 6.03927,-58.4563 37.74545,-95.1613 69.45164,-99.2397 31.70617,-4.0783 341.21887,0 371.41523,9.5161 30.19638,9.5161 73.9811,48.9401 72.47127,78.848 -1.50982,29.9078 4.19491,74.9097 -42.2749,110.1152 -33.03248,25.0253 -223.45307,19.0323 -255.15926,19.0323 -31.70618,0 -119.083,13.2272 -169.09962,-20.3917 -50.47818,-33.9291 -46.80436,-97.8802 -46.80436,-97.8802 z"
       id="path4272"
       inkscape:connector-curvature="0"
       sodipodi:nodetypes="cssssssc" />
    <path
       style="fill:#ffffff;fill-rule:evenodd;stroke:none;stroke-width:1px;stroke-linecap:butt;stroke-linejoin:miter;stroke-opacity:1"
       d="m 1345.8132,2086.9463 c -5.0561,60.8814 -43.5778,96.5557 -74.4258,101.3173 -30.8479,4.7615 -340.74358,8.6177 -370.31304,-0.7811 -29.56935,-9.3986 -89.08397,-51.1781 -88.03724,-82.3007 1.04682,-31.1227 1.62769,-76.3154 46.42431,-113.685 31.84314,-26.5638 227.03617,-23.4604 257.94187,-23.9814 30.906,-0.5208 134.8766,-0.6491 184.1085,33.4859 49.6862,34.4498 44.3014,85.945 44.3014,85.945 z"
       id="path4272-6"
       inkscape:connector-curvature="0"
       sodipodi:nodetypes="cssssssc" />
    <path
       style="fill:#ffffff;fill-rule:evenodd;stroke:none;stroke-width:1px;stroke-linecap:butt;stroke-linejoin:miter;stroke-opacity:1"
       d="m 1174.8502,2374.625 c 53.2945,-58.4181 71.3886,-137.4736 64.8491,-196.709 -6.4438,-58.3689 -35.667,-20.5356 -35.667,-20.5356 0,0 -7.6853,2.1941 0,30.2629 7.8496,28.6688 31.1185,75.2067 -29.1821,186.9817 z"
       id="path4289"
       inkscape:connector-curvature="0"
       sodipodi:nodetypes="cscsc" />
    <path
       style="fill:#ffffff;fill-rule:evenodd;stroke:none;stroke-width:1px;stroke-linecap:butt;stroke-linejoin:miter;stroke-opacity:1"
       d="m 1875.5992,2053.7299 c 17.4012,-41.0171 52.2035,-79.5483 84.52,-91.9777 32.3165,-12.4295 110.6218,-4.9718 130.5089,-8.7006 19.8871,-3.7289 104.4071,-3.7289 129.266,0 24.8588,3.7288 90.7347,21.13 108.1359,41.017 17.4012,19.8871 45.9888,60.9042 39.7741,90.7348 -6.2147,29.8306 4.9718,42.26 -17.4011,65.8759 -22.373,23.6159 -74.5766,60.9042 -120.5654,67.1189 -45.9888,6.2147 -176.4977,9.9435 -211.3001,6.2147 -34.8024,-3.7288 -101.9212,-23.6159 -116.8365,-44.7459 -14.9153,-21.13 -41.0171,-65.8759 -26.1018,-125.5371 z"
       id="path4291"
       inkscape:connector-curvature="0" />
    <path
       style="fill:#ffffff;fill-rule:evenodd;stroke:none;stroke-width:1px;stroke-linecap:butt;stroke-linejoin:miter;stroke-opacity:1"
       d="m 2059.5546,2373.1659 c 94.4635,-48.4747 132.9947,-119.3224 130.5089,-160.3395 -2.4859,-41.0171 -23.6159,-53.4465 -28.5877,-22.3729 -4.9718,31.0735 19.8871,90.7347 -101.9212,182.7124 z"
       id="path4293"
       inkscape:connector-curvature="0" />
  </g>
  <g
     inkscape:groupmode="layer"
     id="layer1"
     inkscape:label="txt"
     style="display:inline">
    <text
       xml:space="preserve"
       style="font-style:normal;font-variant:normal;font-weight:normal;font-stretch:normal;line-height:0%;font-family:Lavi;-inkscape-font-specification:Lavi;text-align:center;letter-spacing:0px;word-spacing:0px;text-anchor:middle;fill:#000000;fill-opacity:1;stroke:#000000;stroke-width:0.41015574;stroke-miterlimit:4;stroke-dasharray:none;stroke-opacity:1"
       x="1954.752"
       y="1501.1776"
       id="text4246-8"
       transform="matrix(0.76133526,-0.51280204,0.4098681,1.0374126,0,0)"><tspan
         sodipodi:role="line"
         style="font-size:41.48361969px;line-height:1.25;fill:#000000;stroke:#000000;stroke-width:0.41015574;stroke-miterlimit:4;stroke-dasharray:none;stroke-opacity:1"
         x="1954.752"
         y="1501.1776"
         id="tspan4150-8">Corruc!</tspan></text>
    <text
       xml:space="preserve"
       style="font-style:normal;font-variant:normal;font-weight:normal;font-stretch:normal;line-height:0%;font-family:Lavi;-inkscape-font-specification:Lavi;text-align:center;letter-spacing:0px;word-spacing:0px;text-anchor:middle;fill:#000000;fill-opacity:1;stroke:#000000;stroke-width:0.41015574;stroke-miterlimit:4;stroke-dasharray:none;stroke-opacity:1"
       x="2086.8733"
       y="1374.3584"
       id="text4246-8-3"
       transform="matrix(0.8070703,-0.42305912,0.27884184,1.092883,0,0)"><tspan
         sodipodi:role="line"
         style="font-size:38.3127861px;line-height:1.25;fill:#000000;stroke:#000000;stroke-width:0.41015574;stroke-miterlimit:4;stroke-dasharray:none;stroke-opacity:1"
         x="2086.8733"
         y="1374.3584"
         id="tspan4150-8-6">Corruc!</tspan></text>
    <text
       xml:space="preserve"
       style="font-style:normal;font-variant:normal;font-weight:normal;font-stretch:normal;line-height:0%;font-family:Lavi;-inkscape-font-specification:Lavi;text-align:center;letter-spacing:0px;word-spacing:0px;text-anchor:middle;fill:#000000;fill-opacity:1;stroke:#000000;stroke-width:0.41015574;stroke-miterlimit:4;stroke-dasharray:none;stroke-opacity:1"
       x="2137.4421"
       y="1412.3752"
       id="text4246-8-3-7"
       transform="matrix(0.8070703,-0.42305912,0.27884184,1.092883,0,0)"><tspan
         sodipodi:role="line"
         style="font-size:38.3127861px;line-height:1.25;fill:#000000;stroke:#000000;stroke-width:0.41015574;stroke-miterlimit:4;stroke-dasharray:none;stroke-opacity:1"
         x="2137.4421"
         y="1412.3752"
         id="tspan4150-8-6-5">Corruc!</tspan></text>
    <text
       xml:space="preserve"
       style="font-style:normal;font-variant:normal;font-weight:normal;font-stretch:normal;line-height:0%;font-family:Lavi;-inkscape-font-specification:Lavi;text-align:center;letter-spacing:0px;word-spacing:0px;text-anchor:middle;fill:#000000;fill-opacity:1;stroke:#000000;stroke-width:0.41015574;stroke-miterlimit:4;stroke-dasharray:none;stroke-opacity:1"
       x="1869.3112"
       y="1652.55"
       id="text4246-8-3-3"
       transform="matrix(0.73266151,-0.54180126,0.44311163,1.0372069,0,0)"><tspan
         sodipodi:role="line"
         style="font-size:38.3127861px;line-height:1.25;fill:#000000;stroke:#000000;stroke-width:0.41015574;stroke-miterlimit:4;stroke-dasharray:none;stroke-opacity:1"
         x="1869.3112"
         y="1652.55"
         id="tspan4150-8-6-56">Corruc!</tspan></text>
    <text
       xml:space="preserve"
       style="font-style:normal;font-variant:normal;font-weight:normal;font-stretch:normal;line-height:0%;font-family:Lavi;-inkscape-font-specification:Lavi;text-align:center;letter-spacing:0px;word-spacing:0px;text-anchor:middle;fill:#000000;fill-opacity:1;stroke:none"
       x="390.71164"
       y="2048.1582"
       id="text4246"><tspan
         sodipodi:role="line"
         style="font-size:45px;line-height:1.25"
         x="390.71164"
         y="2048.1582"
         id="tspan4198">Veus Carrot,</tspan><tspan
         sodipodi:role="line"
         style="font-size:45px;line-height:1.25"
         x="396.55637"
         y="2104.4082"
         id="tspan4167">  jo penso que </tspan><tspan
         sodipodi:role="line"
         style="font-size:45px;line-height:1.25"
         x="390.71164"
         y="2160.6582"
         id="tspan4169">això és créixer.</tspan></text>
    <text
       xml:space="preserve"
       style="font-style:normal;font-variant:normal;font-weight:normal;font-stretch:normal;line-height:0%;font-family:Lavi;-inkscape-font-specification:Lavi;text-align:center;letter-spacing:0px;word-spacing:0px;text-anchor:middle;fill:#000000;fill-opacity:1;stroke:none"
       x="1089.3129"
       y="2041.9417"
       id="text4246-2"><tspan
         sodipodi:role="line"
         style="font-size:45px;line-height:1.25"
         x="1089.3129"
         y="2041.9417"
         id="tspan4198-2">Evitar les trampes</tspan><tspan
         sodipodi:role="line"
         style="font-size:45px;line-height:1.25"
         x="1089.3129"
         y="2098.1917"
         id="tspan4233">fàcils, reprendre</tspan><tspan
         sodipodi:role="line"
         style="font-size:45px;line-height:1.25"
         x="1089.3129"
         y="2154.4417"
         id="tspan4235">el goig de l'esforç…</tspan></text>
    <text
       xml:space="preserve"
       style="font-style:normal;font-variant:normal;font-weight:normal;font-stretch:normal;line-height:0%;font-family:Lavi;-inkscape-font-specification:Lavi;text-align:center;letter-spacing:0px;word-spacing:0px;text-anchor:middle;fill:#000000;fill-opacity:1;stroke:none"
       x="2118.6797"
       y="2010.2068"
       id="text4246-2-7"><tspan
         sodipodi:role="line"
         style="font-size:45px;line-height:1.25"
         x="2118.6797"
         y="2010.2068"
         id="tspan4235-3">…no serveix de res</tspan><tspan
         sodipodi:role="line"
         style="font-size:45px;line-height:1.25"
         x="2118.6797"
         y="2066.4568"
         id="tspan4266">tenir enveja dels</tspan><tspan
         sodipodi:role="line"
         style="font-size:45px;line-height:1.25"
         x="2118.6797"
         y="2122.7068"
         id="tspan4268">que coneixen</tspan><tspan
         sodipodi:role="line"
         style="font-size:45px;line-height:1.25"
         x="2118.6797"
         y="2178.9568"
         id="tspan4270">l'èxit !</tspan></text>
  </g>
</svg>
