<?xml version="1.0" encoding="UTF-8" standalone="no"?>
<!-- Created with Inkscape (http://www.inkscape.org/) -->

<svg
   xmlns:dc="http://purl.org/dc/elements/1.1/"
   xmlns:cc="http://creativecommons.org/ns#"
   xmlns:rdf="http://www.w3.org/1999/02/22-rdf-syntax-ns#"
   xmlns:svg="http://www.w3.org/2000/svg"
   xmlns="http://www.w3.org/2000/svg"
   xmlns:xlink="http://www.w3.org/1999/xlink"
   xmlns:sodipodi="http://sodipodi.sourceforge.net/DTD/sodipodi-0.dtd"
   xmlns:inkscape="http://www.inkscape.org/namespaces/inkscape"
   id="svg2"
   version="1.1"
   inkscape:version="0.91 r13725"
   width="2481"
   height="3503"
   sodipodi:docname="E36P09.svg">
  <metadata
     id="metadata8">
    <rdf:RDF>
      <cc:Work
         rdf:about="">
        <dc:format>image/svg+xml</dc:format>
        <dc:type
           rdf:resource="http://purl.org/dc/dcmitype/StillImage" />
        <dc:title />
      </cc:Work>
    </rdf:RDF>
  </metadata>
  <defs
     id="defs6">
    <filter
       style="color-interpolation-filters:sRGB"
       id="filter4375-4-1-1-1-9-6-9-2-1-7-1"
       inkscape:label="deevad outline effect"
       x="-0.0032722622"
       y="-0.010664709"
       width="1.0065445"
       height="1.0213294">
      <feFlood
         id="feFlood4377-7-9-0-8-1-0-2-2-06-3-9"
         flood-opacity="1"
         flood-color="rgb(0,0,0)"
         result="flood" />
      <feComposite
         id="feComposite4379-3-8-8-2-77-6-0-8-3-6-4"
         in2="SourceGraphic"
         in="flood"
         operator="in"
         result="composite1" />
      <feMorphology
         id="feMorphology4393-1-0-49-8-9-2-2-9-2-1-7"
         operator="dilate"
         radius="4"
         result="result3" />
      <feComposite
         id="feComposite4385-9-5-7-0-8-6-3-7-0-2-8"
         in2="result3"
         in="SourceGraphic"
         operator="over"
         result="composite2" />
    </filter>
    <filter
       style="color-interpolation-filters:sRGB"
       id="filter4375-4-1-1-1-9-6-9-2-1-7-1-3"
       inkscape:label="deevad outline effect"
       x="-0.0035469919"
       y="-0.010964841"
       width="1.007094"
       height="1.0219297">
      <feFlood
         id="feFlood4377-7-9-0-8-1-0-2-2-06-3-9-6"
         flood-opacity="1"
         flood-color="rgb(0,0,0)"
         result="flood" />
      <feComposite
         id="feComposite4379-3-8-8-2-77-6-0-8-3-6-4-7"
         in2="SourceGraphic"
         in="flood"
         operator="in"
         result="composite1" />
      <feMorphology
         id="feMorphology4393-1-0-49-8-9-2-2-9-2-1-7-5"
         operator="dilate"
         radius="4"
         result="result3" />
      <feComposite
         id="feComposite4385-9-5-7-0-8-6-3-7-0-2-8-3"
         in2="result3"
         in="SourceGraphic"
         operator="over"
         result="composite2" />
    </filter>
    <filter
       style="color-interpolation-filters:sRGB"
       id="filter4375-4-1-1-1-9-5-8"
       inkscape:label="Drop Shadow"
       x="-0.00081513583"
       y="-0.0054734909"
       width="1.0114872"
       height="1.0771344">
      <feFlood
         id="feFlood4377-7-9-0-8-1-7-3"
         flood-opacity="1"
         flood-color="rgb(108,125,133)"
         result="flood" />
      <feComposite
         id="feComposite4379-3-8-8-2-77-4-1"
         in2="SourceGraphic"
         in="flood"
         operator="in"
         result="composite1" />
      <feMorphology
         id="feMorphology4393-1-0-49-8-9-3-0"
         operator="dilate"
         radius="6.2000000000000002"
         result="result3" />
      <feComposite
         id="feComposite4385-9-5-7-0-8-8-7"
         in2="result3"
         in="SourceGraphic"
         operator="over"
         result="fbSourceGraphic" />
      <feColorMatrix
         result="fbSourceGraphicAlpha"
         in="fbSourceGraphic"
         values="0 0 0 -1 0 0 0 0 -1 0 0 0 0 -1 0 0 0 0 1 0"
         id="feColorMatrix4544" />
      <feTurbulence
         id="feTurbulence4546"
         type="fractalNoise"
         numOctaves="3"
         seed="37"
         baseFrequency="0.129 0.0050000000000000001"
         result="turbulence" />
      <feDisplacementMap
         id="feDisplacementMap4548"
         in2="turbulence"
         in="fbSourceGraphic"
         scale="6.6"
         yChannelSelector="G"
         xChannelSelector="R"
         result="fbSourceGraphic" />
      <feColorMatrix
         result="fbSourceGraphicAlpha"
         in="fbSourceGraphic"
         values="0 0 0 -1 0 0 0 0 -1 0 0 0 0 -1 0 0 0 0 1 0"
         id="feColorMatrix4670" />
      <feFlood
         id="feFlood4672"
         flood-opacity="1"
         flood-color="rgb(17,52,65)"
         result="flood"
         in="fbSourceGraphic" />
      <feComposite
         id="feComposite4674"
         in2="fbSourceGraphic"
         in="flood"
         operator="in"
         result="composite1" />
      <feGaussianBlur
         id="feGaussianBlur4676"
         in="composite1"
         stdDeviation="0"
         result="blur" />
      <feOffset
         id="feOffset4678"
         dx="6"
         dy="6"
         result="offset" />
      <feComposite
         id="feComposite4680"
         in2="offset"
         in="fbSourceGraphic"
         operator="over"
         result="composite2" />
    </filter>
    <filter
       style="color-interpolation-filters:sRGB"
       id="filter4375-4-1-1-1-9-5-8-2"
       inkscape:label="Drop Shadow"
       x="-0.0019961096"
       y="-0.0055514814"
       width="1.0281299"
       height="1.0782335">
      <feFlood
         id="feFlood4377-7-9-0-8-1-7-3-9"
         flood-opacity="1"
         flood-color="rgb(108,125,133)"
         result="flood" />
      <feComposite
         id="feComposite4379-3-8-8-2-77-4-1-1"
         in2="SourceGraphic"
         in="flood"
         operator="in"
         result="composite1" />
      <feMorphology
         id="feMorphology4393-1-0-49-8-9-3-0-2"
         operator="dilate"
         radius="6.2000000000000002"
         result="result3" />
      <feComposite
         id="feComposite4385-9-5-7-0-8-8-7-7"
         in2="result3"
         in="SourceGraphic"
         operator="over"
         result="fbSourceGraphic" />
      <feColorMatrix
         result="fbSourceGraphicAlpha"
         in="fbSourceGraphic"
         values="0 0 0 -1 0 0 0 0 -1 0 0 0 0 -1 0 0 0 0 1 0"
         id="feColorMatrix4544-0" />
      <feTurbulence
         id="feTurbulence4546-9"
         type="fractalNoise"
         numOctaves="3"
         seed="37"
         baseFrequency="0.129 0.0050000000000000001"
         result="turbulence" />
      <feDisplacementMap
         id="feDisplacementMap4548-3"
         in2="turbulence"
         in="fbSourceGraphic"
         scale="6.6"
         yChannelSelector="G"
         xChannelSelector="R"
         result="fbSourceGraphic" />
      <feColorMatrix
         result="fbSourceGraphicAlpha"
         in="fbSourceGraphic"
         values="0 0 0 -1 0 0 0 0 -1 0 0 0 0 -1 0 0 0 0 1 0"
         id="feColorMatrix4670-6" />
      <feFlood
         id="feFlood4672-0"
         flood-opacity="1"
         flood-color="rgb(17,52,65)"
         result="flood"
         in="fbSourceGraphic" />
      <feComposite
         id="feComposite4674-6"
         in2="fbSourceGraphic"
         in="flood"
         operator="in"
         result="composite1" />
      <feGaussianBlur
         id="feGaussianBlur4676-2"
         in="composite1"
         stdDeviation="0"
         result="blur" />
      <feOffset
         id="feOffset4678-6"
         dx="6"
         dy="6"
         result="offset" />
      <feComposite
         id="feComposite4680-1"
         in2="offset"
         in="fbSourceGraphic"
         operator="over"
         result="composite2" />
    </filter>
    <filter
       style="color-interpolation-filters:sRGB"
       id="filter4375-4-1-1-1-9-5-8-9"
       inkscape:label="Drop Shadow"
       x="-0.0017868597"
       y="-0.0055514814"
       width="1.0251811"
       height="1.0782335">
      <feFlood
         id="feFlood4377-7-9-0-8-1-7-3-2"
         flood-opacity="1"
         flood-color="rgb(108,125,133)"
         result="flood" />
      <feComposite
         id="feComposite4379-3-8-8-2-77-4-1-2"
         in2="SourceGraphic"
         in="flood"
         operator="in"
         result="composite1" />
      <feMorphology
         id="feMorphology4393-1-0-49-8-9-3-0-8"
         operator="dilate"
         radius="6.2000000000000002"
         result="result3" />
      <feComposite
         id="feComposite4385-9-5-7-0-8-8-7-9"
         in2="result3"
         in="SourceGraphic"
         operator="over"
         result="fbSourceGraphic" />
      <feColorMatrix
         result="fbSourceGraphicAlpha"
         in="fbSourceGraphic"
         values="0 0 0 -1 0 0 0 0 -1 0 0 0 0 -1 0 0 0 0 1 0"
         id="feColorMatrix4544-7" />
      <feTurbulence
         id="feTurbulence4546-3"
         type="fractalNoise"
         numOctaves="3"
         seed="37"
         baseFrequency="0.129 0.0050000000000000001"
         result="turbulence" />
      <feDisplacementMap
         id="feDisplacementMap4548-6"
         in2="turbulence"
         in="fbSourceGraphic"
         scale="6.6"
         yChannelSelector="G"
         xChannelSelector="R"
         result="fbSourceGraphic" />
      <feColorMatrix
         result="fbSourceGraphicAlpha"
         in="fbSourceGraphic"
         values="0 0 0 -1 0 0 0 0 -1 0 0 0 0 -1 0 0 0 0 1 0"
         id="feColorMatrix4670-1" />
      <feFlood
         id="feFlood4672-2"
         flood-opacity="1"
         flood-color="rgb(17,52,65)"
         result="flood"
         in="fbSourceGraphic" />
      <feComposite
         id="feComposite4674-9"
         in2="fbSourceGraphic"
         in="flood"
         operator="in"
         result="composite1" />
      <feGaussianBlur
         id="feGaussianBlur4676-3"
         in="composite1"
         stdDeviation="0"
         result="blur" />
      <feOffset
         id="feOffset4678-1"
         dx="6"
         dy="6"
         result="offset" />
      <feComposite
         id="feComposite4680-9"
         in2="offset"
         in="fbSourceGraphic"
         operator="over"
         result="composite2" />
    </filter>
    <filter
       style="color-interpolation-filters:sRGB"
       id="filter4375-4-1-1-1-9-5-8-2-4"
       inkscape:label="Drop Shadow"
       x="-0.0027293262"
       y="-0.0070472328"
       width="1.0384627"
       height="1.0993121">
      <feFlood
         id="feFlood4377-7-9-0-8-1-7-3-9-7"
         flood-opacity="1"
         flood-color="rgb(108,125,133)"
         result="flood" />
      <feComposite
         id="feComposite4379-3-8-8-2-77-4-1-1-8"
         in2="SourceGraphic"
         in="flood"
         operator="in"
         result="composite1" />
      <feMorphology
         id="feMorphology4393-1-0-49-8-9-3-0-2-4"
         operator="dilate"
         radius="6.2000000000000002"
         result="result3" />
      <feComposite
         id="feComposite4385-9-5-7-0-8-8-7-7-5"
         in2="result3"
         in="SourceGraphic"
         operator="over"
         result="fbSourceGraphic" />
      <feColorMatrix
         result="fbSourceGraphicAlpha"
         in="fbSourceGraphic"
         values="0 0 0 -1 0 0 0 0 -1 0 0 0 0 -1 0 0 0 0 1 0"
         id="feColorMatrix4544-0-0" />
      <feTurbulence
         id="feTurbulence4546-9-3"
         type="fractalNoise"
         numOctaves="3"
         seed="37"
         baseFrequency="0.129 0.0050000000000000001"
         result="turbulence" />
      <feDisplacementMap
         id="feDisplacementMap4548-3-6"
         in2="turbulence"
         in="fbSourceGraphic"
         scale="6.6"
         yChannelSelector="G"
         xChannelSelector="R"
         result="fbSourceGraphic" />
      <feColorMatrix
         result="fbSourceGraphicAlpha"
         in="fbSourceGraphic"
         values="0 0 0 -1 0 0 0 0 -1 0 0 0 0 -1 0 0 0 0 1 0"
         id="feColorMatrix4670-6-1" />
      <feFlood
         id="feFlood4672-0-0"
         flood-opacity="1"
         flood-color="rgb(17,52,65)"
         result="flood"
         in="fbSourceGraphic" />
      <feComposite
         id="feComposite4674-6-6"
         in2="fbSourceGraphic"
         in="flood"
         operator="in"
         result="composite1" />
      <feGaussianBlur
         id="feGaussianBlur4676-2-3"
         in="composite1"
         stdDeviation="0"
         result="blur" />
      <feOffset
         id="feOffset4678-6-2"
         dx="6"
         dy="6"
         result="offset" />
      <feComposite
         id="feComposite4680-1-0"
         in2="offset"
         in="fbSourceGraphic"
         operator="over"
         result="composite2" />
    </filter>
  </defs>
  <sodipodi:namedview
     pagecolor="#1e1e1e"
     bordercolor="#111111"
     borderopacity="1"
     objecttolerance="10"
     gridtolerance="10"
     guidetolerance="10"
     inkscape:pageopacity="0"
     inkscape:pageshadow="2"
     inkscape:window-width="959"
     inkscape:window-height="576"
     id="namedview4"
     showgrid="false"
     inkscape:zoom="0.34980127"
     inkscape:cx="1337.3263"
     inkscape:cy="883.28958"
     inkscape:window-x="65"
     inkscape:window-y="24"
     inkscape:window-maximized="1"
     inkscape:current-layer="layer1"
     inkscape:pagecheckerboard="0"
     inkscape:snap-global="false" />
  <g
     inkscape:groupmode="layer"
     id="layer2"
     inkscape:label="artwork"
     sodipodi:insensitive="true">
    <image
       sodipodi:absref="/home/denez/Desktop/Link to Projet ADG/AdG 2-Travaux/5-BD pepper trad/36/gfx_Pepper-and-Carrot_by-David-Revoy_E36P09.png"
       xlink:href="../gfx_Pepper-and-Carrot_by-David-Revoy_E36P09.png"
       width="2481"
       height="3503"
       id="image10"
       x="0"
       y="0" />
  </g>
  <g
     inkscape:groupmode="layer"
     id="layer3"
     inkscape:label="speechbubbles"
     style="display:inline">
    <path
       inkscape:connector-curvature="0"
       style="color:#000000;display:inline;overflow:visible;visibility:visible;fill:#ffffff;fill-opacity:1;fill-rule:nonzero;stroke:none;stroke-width:1.22642px;marker:none;enable-background:accumulate"
       d="m 1534.4927,108.20176 -47.2567,22.31204 7.6805,-4.27154 -20.6351,1.37473 c -50.2642,-12.40089 -114.2611,-9.81657 -164.3476,-0.91142 l -13.9466,-8.89282 -2.0232,12.04453 c -2.2835,0.49846 -4.5419,1.00574 -6.741,1.52885 l -15.1417,-11.0346 1.8937,14.48018 c -0.2739,0.0771 -0.5435,0.15597 -0.8155,0.23415 l -20.9988,-12.17317 3.8808,17.81547 c -0.9806,0.37318 -1.9407,0.74762 -2.8764,1.12499 l -26.9029,-26.56142 10.8792,34.68743 c -1.5851,1.07453 -2.9532,2.1516 -4.1166,3.22992 l -13.7358,-12.51301 6.7374,21.00181 c -1.5263,2.00698 -2.9683,3.96799 -4.3506,5.8972 l -17.3269,-2.76159 9.6193,14.31258 c -11.369,18.63411 -15.5576,34.41655 -14.7331,52.71899 0.1655,3.67369 0.4763,7.23279 0.9144,10.69014 l -12.5946,9.34349 14.859,3.16026 c 0.9738,4.07855 2.1517,7.99638 3.5245,11.75768 l -15.5359,23.77475 h 18.9253 l -15.9372,20.32454 29.7558,-14.22766 c 0.3776,0.45474 0.765,0.90106 1.1502,1.34976 l -9.9883,24.31187 20.918,-7.62335 -19.9208,27.9479 49.5292,-22.185 -1.0856,40.16124 25.8986,-19.05509 2.3669,-0.0476 c 7.1201,3.27056 0.9556,1.02602 8.6186,3.85193 40.4212,14.90673 115.9455,5.04085 169.8861,-10.6397 l 26.678,14.26661 -8.703,-19.97561 c 0.5694,-0.19871 1.1089,-0.40176 1.6703,-0.60146 l 27.9505,21.84639 -5.976,-17.78324 26.8939,15.24222 -16.9327,-30.48681 14.94,8.8928 -10.53,-15.34774 c 1.2324,-0.89936 2.4592,-1.84119 3.6794,-2.82366 l 13.8239,4.19865 -8.5645,-8.73684 c 2.0292,-1.86854 4.0234,-3.84314 5.9653,-5.92466 l 21.5245,7.038 -11.7775,-19.02298 c 1.1775,-1.6645 2.3211,-3.36767 3.4182,-5.11219 h 16.3279 l -7.4773,-17.33565 c 10.6237,-26.62322 10.3753,-58.78519 -13.6115,-89.53685 l 8.2725,-13.88341 -16.0702,3.88874 6.506,-30.02699 -24.4358,7.16128 14.6536,-18.24667 -20.6297,4.27392 16.3776,-18.5017 z"
       id="path4040-0"
       sodipodi:nodetypes="ccccccccccccccccccccccsccccccccccccccccccccccccccccccccccccccccccccc" />
    <path
       style="display:inline;fill:#ffffff;stroke:none;stroke-width:0.769327"
       d="m 1635.5587,209.00243 c -1.1406,-25.44453 19.3109,-89.14228 119.0723,-84.35101 99.7615,4.79126 130.9853,32.77852 133.9087,78.0064 4.6247,71.54865 -47.8597,90.66848 -123.2225,95.96848 -77.691,5.46293 -130.9642,-43.6501 -129.7585,-89.62387 z"
       id="path3280-8-3"
       inkscape:connector-curvature="0"
       sodipodi:nodetypes="csssc" />
    <path
       style="display:inline;fill:#ffffff;stroke:none;stroke-width:0.636944"
       d="m 1686.0586,328.1032 c -1.0713,-18.56882 18.1381,-65.05394 111.8409,-61.55739 93.7029,3.49655 123.0305,23.921 125.7764,56.92725 4.3438,52.21453 -44.9532,66.16773 -115.7391,70.03555 -72.9728,3.98671 -123.0107,-31.85483 -121.8782,-65.40541 z"
       id="path3280-8-3-6"
       inkscape:connector-curvature="0"
       sodipodi:nodetypes="csssc" />
    <path
       style="display:inline;fill:#ffffff;stroke:none;stroke-width:0.706745"
       d="m 1987.1326,751.38994 c -1.2705,-19.27887 21.5088,-67.54152 132.6251,-63.91126 111.1166,3.63025 145.8944,24.8357 149.1506,59.10406 5.151,54.21114 -53.3073,68.69789 -137.2479,72.71361 -86.534,4.13915 -145.8708,-33.07291 -144.5278,-67.90641 z"
       id="path3280-8-3-6-5"
       inkscape:connector-curvature="0"
       sodipodi:nodetypes="csssc" />
    <path
       style="display:inline;fill:#ffffff;stroke:none;stroke-width:0.636944"
       d="m 1748.3641,412.82376 c -1.0713,-18.56882 18.1381,-65.05394 111.8409,-61.55739 93.7029,3.49655 123.0305,23.921 125.7764,56.92725 4.3438,52.21453 -44.9532,66.16773 -115.7391,70.03555 -72.9728,3.98671 -123.0107,-31.85483 -121.8782,-65.40541 z"
       id="path3280-8-3-6-1"
       inkscape:connector-curvature="0"
       sodipodi:nodetypes="csssc" />
    <path
       style="color:#000000;display:inline;overflow:visible;visibility:visible;fill:#ffffff;fill-opacity:1;fill-rule:nonzero;stroke:none;stroke-width:0.726834px;marker:none;enable-background:accumulate"
       d="m 1994.3633,497.40752 c 26.4763,-24.04182 38.2287,-79.53679 -27.9332,-97.77721 -29.9281,-8.25083 -20.468,15.10178 -20.468,15.10178 18.7003,6.91299 84.5389,19.28667 48.4012,82.67543 z"
       id="path4035-4"
       inkscape:connector-curvature="0"
       sodipodi:nodetypes="cscc" />
    <path
       style="color:#000000;display:inline;overflow:visible;visibility:visible;fill:#ffffff;fill-opacity:1;fill-rule:nonzero;stroke:none;stroke-width:0.713612px;marker:none;enable-background:accumulate"
       d="m 2178.1785,620.93948 c -23.0277,32.44689 -18.8501,67.85601 1.0934,80.85132 10.7271,34.11102 -6.908,26.68939 -6.908,26.68939 l -15.2972,-2.68538 c -17.3389,-28.7972 -28.1116,-80.24692 21.1118,-104.85533 z"
       id="path3072-56"
       inkscape:connector-curvature="0"
       sodipodi:nodetypes="ccccc" />
    <path
       style="display:inline;fill:#ffffff;stroke:none;stroke-width:1.17353"
       d="m 214.71413,1300.0799 c 0.7191,-55.0786 27.25411,-104.6033 147.80099,-95.7636 120.54698,8.8397 160.13339,14.7739 160.37989,89.871 0.25808,78.5925 -59.68732,97.0774 -150.9301,100.1195 -94.06146,3.1358 -156.87853,-28.8032 -157.25078,-94.2269 z"
       id="path3280-64"
       inkscape:connector-curvature="0"
       sodipodi:nodetypes="csssc" />
    <path
       style="display:inline;fill:#ffffff;stroke:none;stroke-width:1.24365"
       d="m 274.58228,1469.4105 c 0.85029,-52.3128 32.22611,-99.3281 174.76448,-90.8275 142.53849,8.5006 189.3467,14.1713 189.63817,85.4983 0.30516,74.6471 -70.57615,92.1519 -178.46445,94.9619 -111.22118,2.8967 -185.49805,-27.4933 -185.9382,-89.6327 z"
       id="path3280-64-3"
       inkscape:connector-curvature="0"
       sodipodi:nodetypes="csssc" />
    <path
       style="fill:#ffffff;fill-rule:evenodd;stroke:none;stroke-width:0.744339px;stroke-linecap:butt;stroke-linejoin:miter;stroke-opacity:1"
       d="m 514.9694,1536.754 c -11.53719,28.8096 -11.89495,35.669 -10.75405,46.6441 1.14092,10.9751 18.8596,27.895 37.58928,32.4679 18.72967,4.5729 32.89639,19.2064 27.10954,29.267 -5.78678,10.0605 -29.03251,49.8451 33.59167,62.1921 -56.81275,-21.5856 -26.68209,-49.5976 -22.04127,-56.4569 4.64088,-6.8595 9.09415,-27.4534 -18.92786,-43.916 -28.02209,-16.4627 -44.32532,-25.8975 -18.18083,-57.9083 26.14444,-32.0106 -28.38648,-12.2899 -28.38648,-12.2899 z"
       id="path1081"
       inkscape:connector-curvature="0"
       sodipodi:nodetypes="ccccccssc" />
    <path
       style="color:#000000;display:inline;overflow:visible;visibility:visible;fill:#ffffff;fill-opacity:1;fill-rule:nonzero;stroke:none;stroke-width:0.797349px;marker:none;enable-background:accumulate"
       d="m 1241.8355,1823.3818 c -36.8368,0.9755 -74.1774,5.2774 -108.6933,18.8424 -23.8023,10.7893 -41.8215,33.2402 -47.7901,58.615 -3.1421,13.4922 -2.1698,27.8811 2.8919,40.7879 8.1887,21.9162 25.2533,39.4704 44.6923,51.9377 19.2739,12.3527 41.5803,19.0965 64.0524,22.6399 36.8008,6.1652 74.2466,6.8886 111.4767,6.5533 20.1693,-0.4206 40.3209,-3.4873 59.5158,-9.7709 14.1901,-4.4492 28.2145,-9.6691 41.4219,-16.5315 12.9551,-8.0621 23.2086,-19.7188 32.2176,-31.8707 7.9744,-12.226 10.3408,-27.5524 7.7705,-41.8066 -4.262,-29.6545 -23.4141,-56.8957 -50.2936,-70.318 -16.4664,-8.5231 -34.7495,-12.4897 -52.6831,-16.629 -26.0055,-5.4793 -52.4059,-8.8748 -78.8324,-11.5294 -8.5644,-0.6667 -17.1552,-1.0307 -25.7466,-0.9201 z"
       id="path4040-40"
       inkscape:connector-curvature="0"
       sodipodi:nodetypes="zssssz" />
    <path
       style="display:inline;fill:#ffffff;stroke:none;stroke-width:1.0136"
       d="m 1072.6665,2056.2164 c 5.4439,-29.0177 24.2504,-56.7927 137.5835,-60.5236 56.6666,-1.8654 165.8966,-2.6545 220.2768,10.8985 54.3803,13.554 53.9107,41.451 54.1581,52.4371 0.2475,10.985 4.7925,38.2169 -51.0629,48.8921 -55.8555,10.6751 -172.1114,4.7935 -217.8901,5.2077 -91.5574,0.8294 -140.096,-0.1191 -143.0654,-56.9118 z"
       id="path3270-6-0"
       inkscape:connector-curvature="0"
       sodipodi:nodetypes="csssssc" />
    <path
       style="display:inline;fill:#ffffff;stroke:none;stroke-width:1.20524"
       d="m 1477.0087,2178.9936 c -4.6397,42.2555 -22.3051,82.9183 -132.4598,90.1496 -55.0774,3.6155 -161.3075,6.5063 -214.5093,-12.3207 -53.2019,-18.8284 -53.3755,-59.3758 -53.8643,-75.3369 -0.489,-15.9594 -5.5253,-55.4602 48.564,-71.8652 54.0895,-16.4049 167.3043,-9.714 211.8239,-11.0469 89.039,-2.667 136.2739,-2.0636 140.4455,80.4201 z"
       id="path3270-6-0-4"
       inkscape:connector-curvature="0"
       sodipodi:nodetypes="csssssc" />
    <path
       style="color:#000000;display:inline;overflow:visible;visibility:visible;fill:#ffffff;fill-opacity:1;fill-rule:nonzero;stroke:none;stroke-width:1px;marker:none;enable-background:accumulate"
       d="m 1214.5521,1847.5799 c 38.7674,-26.2088 5.5435,-82.6347 -60.2586,-97.084 25.29,5.3642 112.2954,4.2086 101.853,112.7345 -5.1653,53.6821 -27.461,-10.4151 -27.461,-10.4151 z"
       id="path4035-4-3"
       inkscape:connector-curvature="0"
       sodipodi:nodetypes="ccscc" />
    <path
       style="color:#000000;display:inline;overflow:visible;visibility:visible;fill:#ffffff;fill-opacity:1;fill-rule:nonzero;stroke:none;stroke-width:0.728631px;marker:none;enable-background:accumulate"
       d="m 1696.0469,2000.709 c -41.2686,0.209 -82.7773,4.3329 -122.5845,15.5597 -14.9601,6.4991 -25.7745,19.8575 -33.031,34.0856 -5.5947,13.0143 -2.1461,29.3662 8.5647,38.7434 12.4778,12.247 29.8114,17.5968 46.5703,20.8652 28.4258,5.1978 57.4457,4.0814 86.1979,4.9433 51.7458,0.7198 103.542,1.9083 155.259,-0.593 21.746,-1.2277 43.5716,-3.4304 64.722,-8.7976 15.0785,-4.9268 28.326,-17.6984 30.7899,-33.7832 2.81,-18.0522 -7.7575,-36.8217 -24.0562,-44.7201 -17.1089,-9.07 -36.6754,-10.8563 -55.4048,-14.3519 -49.6806,-9.6286 -100.4373,-11.407 -150.9088,-11.9574 -2.0395,-0.011 -4.079,7e-4 -6.1185,0.01 z"
       id="path4040-3"
       inkscape:connector-curvature="0"
       sodipodi:nodetypes="zssssz" />
    <path
       style="color:#000000;display:inline;overflow:visible;visibility:visible;fill:#ffffff;fill-opacity:1;fill-rule:nonzero;stroke:none;stroke-width:0.888861px;marker:none;enable-background:accumulate"
       d="m 1744.4453,2087.8594 c -20.9009,0.5573 -41.79,1.5518 -62.6645,2.7268 -25.7447,1.6376 -51.5653,4.1525 -76.6954,10.1775 -16.9411,5.359 -30.2032,18.8698 -38.4233,34.2765 -11.9475,21.0159 -14.4378,47.8391 -4.2065,70.0305 9.9063,22.052 30.2499,38.4427 53.0752,45.6958 28.6913,10.7724 59.5878,12.9393 89.9153,14.576 32.0438,1.8243 64.1976,1.5798 96.2085,-0.7544 30.4244,-2.3589 61.0635,-3.4313 91.1144,-9.1145 10.1035,-2.02 20.4296,-4.2896 29.2435,-9.894 19.4898,-11.6918 31.2986,-33.9568 32.3417,-56.4012 0.7486,-13.1729 -2.3228,-26.4551 -8.5477,-38.0718 -11.3192,-22.1854 -32.5422,-38.5962 -56.3265,-45.4857 -27.962,-9.2165 -57.2893,-13.4564 -86.5419,-15.9235 -19.4587,-1.4813 -38.9829,-1.903 -58.4928,-1.838 z"
       id="path4040-3-8"
       inkscape:connector-curvature="0"
       sodipodi:nodetypes="zssssz" />
    <path
       style="color:#000000;display:inline;overflow:visible;visibility:visible;fill:#ffffff;fill-opacity:1;fill-rule:nonzero;stroke:none;stroke-width:1.49143px;marker:none;enable-background:accumulate"
       d="m 1805.2502,1871.4038 c -48.5665,4.6894 -79.412,70.1969 -56.1848,132.2934 25.15,70.1387 26.677,77.2265 26.677,77.2265 l -56.6491,9.3192 c 0,0 -38.1773,-219.1208 86.1569,-218.8391 z"
       id="path3072-5"
       inkscape:connector-curvature="0"
       inkscape:transform-center-x="5.7456817"
       inkscape:transform-center-y="-27.769577"
       sodipodi:nodetypes="ccccc" />
    <path
       style="fill:#ffffff;stroke:none;stroke-width:1.02243"
       d="m 122.32915,2423.2315 c -0.65099,-46.575 18.78716,-57.033 38.51304,-63.589 19.72588,-6.5549 81.03137,0.7107 76.52794,57.7048 -4.50335,56.993 -34.16537,64.8916 -58.67289,62.3722 -24.50759,-2.5194 -52.81201,-12.3567 -56.36809,-56.488 z"
       id="path3938-8"
       inkscape:connector-curvature="0"
       sodipodi:nodetypes="csssc" />
    <path
       style="color:#000000;display:inline;overflow:visible;visibility:visible;fill:#ffffff;fill-opacity:1;fill-rule:nonzero;stroke:none;stroke-width:0.705046px;marker:none;enable-background:accumulate"
       d="m 198.99826,2535.3479 c -21.21366,-18.4099 -27.69466,-26.333 -17.76531,-61.1618 9.92883,-34.8282 -1.89984,-37.3442 -1.89984,-37.3442 l -17.26661,17.1288 c 0,0 -16.48003,75.3965 36.93176,81.3772 z"
       id="path3072-5-5"
       inkscape:connector-curvature="0" />
    <path
       style="fill:#ffffff;fill-rule:evenodd;stroke:none;stroke-width:0.749286px;stroke-linecap:butt;stroke-linejoin:miter;stroke-opacity:1"
       d="m 708.75495,2449.0155 c 14.5963,-5.0277 29.45823,-7.6419 14.76359,-43.3636 20.36423,17.6363 51.43599,27.3966 64.4721,-10.3504 10.65105,35.9524 36.70966,20.1185 52.44579,10.2994 -11.51376,43.378 4.24036,35.1798 24.6432,29.1678 -34.8123,39.3654 -23.48569,65.7992 -2.37948,83.4552 -33.1887,-8.7171 -48.73493,-0.3027 -39.05901,31.0035 -23.90174,-32.391 -51.48174,-26.1466 -43.431,4.7626 -5.92921,-14.6738 -5.30213,-45.4111 -37.27911,1.9875 10.10638,-49.4182 -5.62787,-39.5296 -30.4995,-21.2855 14.72945,-17.2591 29.25012,-41.013 -4.40012,-38.3256 21.01857,-16.0026 28.32042,-28.1664 0.72354,-47.3509 z"
       id="path4584-7"
       inkscape:connector-curvature="0"
       sodipodi:nodetypes="cccccccccccc" />
    <path
       style="color:#000000;display:inline;overflow:visible;visibility:visible;fill:#ffffff;fill-opacity:1;fill-rule:nonzero;stroke:none;stroke-width:0.903953px;marker:none;enable-background:accumulate"
       d="m 781.98136,2627.2511 c 16.94744,-54.9279 15.7357,-83.4683 13.28083,-110.1888 -1.15529,-12.5729 -25.39345,0.9196 -25.39345,0.9196 l 6.2837,24.2557 c 0,0 14.8528,36.3747 5.82892,85.0135 z"
       id="path4000-2"
       inkscape:connector-curvature="0"
       sodipodi:nodetypes="csccc"
       inkscape:transform-center-x="2.4319054"
       inkscape:transform-center-y="-49.401625" />
    <path
       style="display:inline;fill:#ffffff;fill-rule:evenodd;stroke:none;stroke-width:0.868063px;stroke-linecap:butt;stroke-linejoin:miter;stroke-opacity:1"
       d="m 1139.9242,2386.4076 c 26.8263,21.7746 21.8867,31.2802 -15.9298,28.0878 60.2914,33.4358 35.4024,38.4404 -2.7703,39.0109 25.6252,12.2127 53.9791,24.1635 -4.8483,44.4726 34.091,3.2928 63.7952,7.942 5.5409,39.791 30.2237,-1.3079 55.1923,-4.204 24.2411,40.5716 40.7211,-28.2156 63.1984,-34.6217 58.1787,23.4065 20.5345,-28.9142 46.6611,-51.6771 51.2526,-10.923 9.3064,-27.8161 25.8931,-17.464 51.9453,7.022 -5.0802,-17.6591 -20.3863,-45.6462 25.6264,-11.7032 -13.9099,-26.5591 -14.9059,-55.5279 38.7246,-30.2747 -20.9448,-25.2188 -43.8462,-59.7778 8.4765,-60.1176 -40.2402,-12.711 -26.4274,1.1783 -1.4951,-15.2579 -46.6242,-9.0838 -18.3308,-15.8532 -0.5926,-16.9548 -21.426,-8.1536 -44.3269,-13.6133 1.291,-50.6039 -50.2126,15.3566 -35.6813,-10.616 -33.245,-28.8681 -23.1722,14.4932 -49.3767,37.2415 -51.2527,-6.2418 -31.0847,53.9488 -42.8542,12.7039 -60.2566,-0.7801 -18.1001,64.1941 -59.1312,5.0311 -70.6454,0.7801 23.481,26.2745 27.5808,38.1711 -24.2413,8.5826 z"
       id="path1096"
       inkscape:connector-curvature="0"
       sodipodi:nodetypes="cccccccccccccccccccc" />
    <path
       style="color:#000000;display:inline;overflow:visible;visibility:visible;fill:#ffffff;fill-opacity:1;fill-rule:nonzero;stroke:none;stroke-width:1.09189px;marker:none;enable-background:accumulate"
       d="m 1307.2436,2488.0482 c 34.4691,10.3214 137.2116,18.8814 147.5061,20.5688 -2.7296,-8.2946 -2.8183,-15.8452 -3.0574,-21.7386 18.7731,4.1984 104.5487,26.9164 121.1894,37.5539 -39.5082,-27.2781 -102.8788,-47.4443 -134.3176,-52.7848 -1.8623,7.7288 -1.338,12.6103 -2.4791,16.6583 -15.8621,-2.1642 -120.7089,-19.7202 -120.7089,-19.7202 z"
       id="path5066"
       inkscape:connector-curvature="0"
       sodipodi:nodetypes="cccccccc" />
    <path
       style="color:#000000;display:inline;overflow:visible;visibility:visible;fill:#ffffff;fill-opacity:1;fill-rule:nonzero;stroke:none;stroke-width:1px;marker:none;enable-background:accumulate"
       d="m 1243.158,494.41111 c -11.0023,-15.06298 -38.8277,-56.07942 -16.1175,-66.94339 6.656,-3.61412 12.7461,-3.99316 17.5532,-10.18221 -1.5928,-28.79108 -29.0451,-53.82693 -8.5176,-97.73612 2.2848,-5.53581 5.4855,-11.00583 10.7601,-14.34816 13.1154,-9.17132 32.0236,-11.14031 46.5765,-3.23776 8.8026,5.8805 12.0877,18.99851 5.3452,27.21065 -3.4903,4.3872 -9.5362,5.74632 -15.0619,5.40264 -10.2475,1.19375 -25.7267,8.83678 -29.9056,17.75168 -8.6972,20.74768 -1.1751,35.54466 5.9227,53.81721 2.4542,13.57995 -3.3565,25.01922 -9.1759,26.29344 -7.0448,1.62984 -15.4205,2.75049 -19.696,9.04109 -4.4656,11.69677 4.8011,35.34372 12.3168,52.93093 z"
       id="path4496-9"
       inkscape:connector-curvature="0"
       inkscape:transform-center-x="-20.153642"
       inkscape:transform-center-y="-26.822495"
       sodipodi:nodetypes="ccccccccccccc" />
  </g>
  <g
     inkscape:groupmode="layer"
     id="layer1"
     inkscape:label="txt"
     style="display:inline">
    <text
       xml:space="preserve"
       style="font-style:normal;font-variant:normal;font-weight:normal;font-stretch:normal;line-height:0%;font-family:Lavi;-inkscape-font-specification:Lavi;letter-spacing:0px;word-spacing:0px;fill:#ffffff;fill-opacity:1;stroke:#98b9ca;stroke-width:0.99236202;stroke-miterlimit:4;stroke-dasharray:none;stroke-opacity:1;filter:url(#filter4375-4-1-1-1-9-5-8-2-4)"
       x="787.65729"
       y="1584.5073"
       id="text4580-6-0-8"
       transform="matrix(0.55850362,-0.1661484,-0.08410394,0.62710861,377.14256,-370.91536)"
       sodipodi:linespacing="0%"><tspan
         sodipodi:role="line"
         id="tspan4582-1-1-7"
         x="787.65729"
         y="1584.5073"
         style="font-size:70px;line-height:1.25;fill:#ffffff;fill-opacity:1;stroke:#98b9ca;stroke-opacity:1">TEUHG<tspan
   style="font-size:93.14949799px;fill:#ffffff;fill-opacity:1;stroke:#98b9ca;stroke-opacity:1"
   id="tspan4315-8-9" /></tspan></text>
    <text
       xml:space="preserve"
       style="font-style:normal;font-variant:normal;font-weight:normal;font-stretch:normal;line-height:0%;font-family:Lavi;-inkscape-font-specification:Lavi;letter-spacing:0px;word-spacing:0px;fill:#ffffff;fill-opacity:1;stroke:#98b9ca;stroke-width:0.99236202;stroke-miterlimit:4;stroke-dasharray:none;stroke-opacity:1;filter:url(#filter4375-4-1-1-1-9-5-8-9)"
       x="787.65729"
       y="1584.5073"
       id="text4580-6-0"
       transform="matrix(0.55850362,-0.1661484,-0.08410394,0.62710861,430.87149,-330.35349)"
       sodipodi:linespacing="0%"><tspan
         sodipodi:role="line"
         id="tspan4582-1-1"
         x="787.65729"
         y="1584.5073"
         style="font-size:70px;line-height:1.25;fill:#ffffff;fill-opacity:1;stroke:#98b9ca;stroke-opacity:1"><tspan
           style="font-size:93.14949799px;fill:#ffffff;fill-opacity:1;stroke:#98b9ca;stroke-opacity:1"
           id="tspan4315-8">TEUHG !</tspan><tspan
           style="font-size:114.73200226px;fill:#ffffff;fill-opacity:1;stroke:#98b9ca;stroke-opacity:1"
           id="tspan4313-2">!</tspan></tspan></text>
    <text
       xml:space="preserve"
       style="font-style:normal;font-variant:normal;font-weight:normal;font-stretch:normal;font-size:48px;line-height:0%;font-family:Lavi;-inkscape-font-specification:Lavi;text-align:center;letter-spacing:0px;word-spacing:0px;text-anchor:middle;fill:#000000;fill-opacity:1;stroke:none;stroke-width:0.92573702"
       x="1385.8785"
       y="221.42824"
       id="text4246-1-3-2-8"
       transform="scale(0.99789912,1.0021053)"
       sodipodi:linespacing="0%"><tspan
         sodipodi:role="line"
         style="font-style:normal;font-variant:normal;font-weight:bold;font-stretch:normal;font-size:48px;line-height:1.25;font-family:Lavi;-inkscape-font-specification:'Lavi Bold';stroke-width:0.92573702"
         x="1385.8785"
         y="221.42824"
         id="tspan22950">Shichimi !</tspan><tspan
         sodipodi:role="line"
         style="font-style:normal;font-variant:normal;font-weight:bold;font-stretch:normal;font-size:48px;line-height:1.25;font-family:Lavi;-inkscape-font-specification:'Lavi Bold';stroke-width:0.92573702"
         x="1385.8785"
         y="281.42822"
         id="tspan4027">Ça rouelle ?</tspan></text>
    <text
       id="text4246-4-2-7"
       y="170.07176"
       x="1766.0021"
       style="font-style:normal;font-variant:normal;font-weight:normal;font-stretch:normal;line-height:0%;font-family:Lavi;-inkscape-font-specification:Lavi;text-align:center;letter-spacing:0px;word-spacing:0px;text-anchor:middle;fill:#000000;fill-opacity:1;stroke:none"
       xml:space="preserve"
       sodipodi:linespacing="0%"><tspan
         y="170.07176"
         x="1766.0021"
         style="font-size:42.5px;line-height:1.25"
         sodipodi:role="line"
         id="tspan33376">Ver,</tspan><tspan
         y="226.32176"
         x="1766.0021"
         style="font-size:42.5px;line-height:1.25"
         sodipodi:role="line"
         id="tspan4033">ren de coti !</tspan></text>
    <text
       id="text4246-4-2-7-0"
       y="346.55103"
       x="1808.4386"
       style="font-style:normal;font-variant:normal;font-weight:normal;font-stretch:normal;line-height:0%;font-family:Lavi;-inkscape-font-specification:Lavi;text-align:center;letter-spacing:0px;word-spacing:0px;text-anchor:middle;fill:#000000;fill-opacity:1;stroke:none"
       xml:space="preserve"
       sodipodi:linespacing="0%"><tspan
         y="346.55103"
         x="1808.4386"
         style="font-size:42.5px;line-height:1.25"
         sodipodi:role="line"
         id="tspan33376-3">E od tai ?</tspan></text>
    <text
       id="text4246-4-2-7-0-7"
       y="433.27176"
       x="1870.5101"
       style="font-style:normal;font-variant:normal;font-weight:normal;font-stretch:normal;line-height:0%;font-family:Lavi;-inkscape-font-specification:Lavi;text-align:center;letter-spacing:0px;word-spacing:0px;text-anchor:middle;fill:#000000;fill-opacity:1;stroke:none"
       xml:space="preserve"
       sodipodi:linespacing="0%"><tspan
         y="433.27176"
         x="1870.5101"
         style="font-size:42.5px;line-height:1.25"
         sodipodi:role="line"
         id="tspan33376-3-5">Carote ?</tspan></text>
    <text
       id="text4246-4-2-7-0-7-5"
       y="766.52582"
       x="2131.125"
       style="font-style:normal;font-variant:normal;font-weight:normal;font-stretch:normal;line-height:0%;font-family:Lavi;-inkscape-font-specification:Lavi;text-align:center;letter-spacing:0px;word-spacing:0px;text-anchor:middle;fill:#000000;fill-opacity:1;stroke:none"
       xml:space="preserve"
       sodipodi:linespacing="0%"><tspan
         y="766.52582"
         x="2131.125"
         style="font-size:42.5px;line-height:1.25"
         sodipodi:role="line"
         id="tspan33376-3-5-4">Je vom ben.</tspan></text>
    <text
       id="text4246-4-2-7-0-7-5-7"
       y="1281.8848"
       x="364.25861"
       style="font-style:normal;font-variant:normal;font-weight:normal;font-stretch:normal;line-height:0%;font-family:Lavi;-inkscape-font-specification:Lavi;text-align:center;letter-spacing:0px;word-spacing:0px;text-anchor:middle;fill:#000000;fill-opacity:1;stroke:none"
       xml:space="preserve"
       sodipodi:linespacing="0%"><tspan
         y="1281.8848"
         x="364.25861"
         style="font-size:45px;line-height:1.25"
         sodipodi:role="line"
         id="tspan48860"><tspan
           style="font-size:40px"
           id="tspan4041"> Saprae maodit,</tspan></tspan><tspan
         y="1331.8848"
         x="364.25861"
         style="font-size:40px;line-height:1.25"
         sodipodi:role="line"
         id="tspan4039">ça aloure...</tspan></text>
    <text
       id="text4246-4-2-7-0-7-5-7-5"
       y="1461.5585"
       x="463.72198"
       style="font-style:normal;font-variant:normal;font-weight:normal;font-stretch:normal;line-height:0%;font-family:Lavi;-inkscape-font-specification:Lavi;text-align:center;letter-spacing:0px;word-spacing:0px;text-anchor:middle;fill:#000000;fill-opacity:1;stroke:none"
       xml:space="preserve"
       sodipodi:linespacing="0%"><tspan
         y="1461.5585"
         x="463.72198"
         style="font-size:40px;line-height:1.25"
         sodipodi:role="line"
         id="tspan52516">J’en…</tspan><tspan
         y="1517.8085"
         x="463.72198"
         style="font-size:40px;line-height:1.25"
         sodipodi:role="line"
         id="tspan4045">erviens pas...</tspan></text>
    <text
       id="text4246-4-2-7-0-7-5-7-5-7"
       y="1875.9082"
       x="1260.1219"
       style="font-style:normal;font-variant:normal;font-weight:normal;font-stretch:normal;line-height:0%;font-family:Lavi;-inkscape-font-specification:Lavi;text-align:center;letter-spacing:0px;word-spacing:0px;text-anchor:middle;fill:#000000;fill-opacity:1;stroke:none"
       xml:space="preserve"
       sodipodi:linespacing="0%"><tspan
         y="1875.9082"
         x="1260.1219"
         style="font-size:40px;line-height:1.25"
         sodipodi:role="line"
         id="tspan60233">D’eyou q’il</tspan><tspan
         y="1925.9082"
         x="1260.1219"
         style="font-size:40px;line-height:1.25"
         sodipodi:role="line"
         id="tspan4049">venant lez</tspan><tspan
         y="1975.9082"
         x="1260.1219"
         style="font-size:40px;line-height:1.25"
         sodipodi:role="line"
         id="tspan4055">armeys-la ?!</tspan></text>
    <text
       id="text4246-4-2-7-0-7-5-7-5-7-2"
       y="2072.1074"
       x="1280.4735"
       style="font-style:normal;font-variant:normal;font-weight:normal;font-stretch:normal;line-height:0%;font-family:Lavi;-inkscape-font-specification:Lavi;text-align:center;letter-spacing:0px;word-spacing:0px;text-anchor:middle;fill:#000000;fill-opacity:1;stroke:none"
       xml:space="preserve"
       sodipodi:linespacing="0%"><tspan
         y="2072.1074"
         x="1280.4735"
         style="font-size:40px;line-height:1.25"
         sodipodi:role="line"
         id="tspan60233-4">Dez arochoeres ?!</tspan></text>
    <text
       id="text4246-4-2-7-0-7-5-7-5-7-2-7"
       y="2172.0605"
       x="1274.9243"
       style="font-style:normal;font-variant:normal;font-weight:normal;font-stretch:normal;line-height:0%;font-family:Lavi;-inkscape-font-specification:Lavi;text-align:center;letter-spacing:0px;word-spacing:0px;text-anchor:middle;fill:#000000;fill-opacity:1;stroke:none"
       xml:space="preserve"
       sodipodi:linespacing="0%"><tspan
         y="2172.0605"
         x="1274.9243"
         style="font-size:40px;line-height:1.25"
         sodipodi:role="line"
         id="tspan87192">Qhi q’il ont</tspan><tspan
         y="2228.3105"
         x="1274.9243"
         style="font-size:40px;line-height:1.25"
         sodipodi:role="line"
         id="tspan4059">aprés nouz ?!</tspan></text>
    <text
       id="text4246-4-2-7-0-7-5-7-5-7-2-7-0"
       y="2074.8538"
       x="1742.6324"
       style="font-style:normal;font-variant:normal;font-weight:normal;font-stretch:normal;line-height:0%;font-family:Lavi;-inkscape-font-specification:Lavi;text-align:center;letter-spacing:0px;word-spacing:0px;text-anchor:middle;fill:#000000;fill-opacity:1;stroke:none"
       xml:space="preserve"
       sodipodi:linespacing="0%"><tspan
         y="2074.8538"
         x="1742.6324"
         style="font-size:40px;line-height:1.25"
         sodipodi:role="line"
         id="tspan87192-8">Je sae pas mais...</tspan></text>
    <text
       id="text4246-4-2-7-0-7-5-7-5-7-2-7-0-6"
       y="2150.2126"
       x="1747.0179"
       style="font-style:normal;font-variant:normal;font-weight:normal;font-stretch:normal;line-height:0%;font-family:Lavi;-inkscape-font-specification:Lavi;text-align:center;letter-spacing:0px;word-spacing:0px;text-anchor:middle;fill:#000000;fill-opacity:1;stroke:none"
       xml:space="preserve"
       sodipodi:linespacing="0%"><tspan
         y="2150.2126"
         x="1747.0179"
         style="font-size:40px;line-height:1.25"
         sodipodi:role="line"
         id="tspan94572">Maez lez deuz-la</tspan><tspan
         y="2200.2126"
         x="1747.0179"
         style="font-size:40px;line-height:1.25"
         sodipodi:role="line"
         id="tspan4063">sont de ma</tspan><tspan
         y="2250.2126"
         x="1747.0179"
         style="font-size:40px;line-height:1.25"
         sodipodi:role="line"
         id="tspan4065">coneùe.</tspan></text>
    <text
       id="text4246-4-2-7-0-7-5-7-5-7-2-7-0-6-4"
       y="2545.9878"
       x="171.54672"
       style="font-style:normal;font-variant:normal;font-weight:normal;font-stretch:normal;font-size:20.1855px;line-height:0%;font-family:Lavi;-inkscape-font-specification:Lavi;text-align:center;letter-spacing:0px;word-spacing:0px;text-anchor:middle;fill:#000000;fill-opacity:1;stroke:none;stroke-width:1.68213"
       xml:space="preserve"
       transform="scale(1.0415118,0.96014276)"><tspan
         y="2545.9878"
         x="171.54672"
         style="font-style:normal;font-variant:normal;font-weight:normal;font-stretch:normal;font-size:75.6958px;line-height:1.25;font-family:Lavi;-inkscape-font-specification:Lavi;stroke-width:1.68213"
         sodipodi:role="line"
         id="tspan94572-1">?</tspan></text>
    <text
       id="text4246-4-2-7-0-7-5-7-5-7-2-7-0-6-4-4"
       y="2570.4646"
       x="757.89764"
       style="font-style:normal;font-variant:normal;font-weight:normal;font-stretch:normal;font-size:18.2467px;line-height:0%;font-family:Lavi;-inkscape-font-specification:Lavi;text-align:center;letter-spacing:0px;word-spacing:0px;text-anchor:middle;fill:#000000;fill-opacity:1;stroke:none;stroke-width:1.52057"
       xml:space="preserve"
       transform="scale(1.0289557,0.97185912)"><tspan
         y="2570.4646"
         x="757.89764"
         style="font-style:normal;font-variant:normal;font-weight:normal;font-stretch:normal;font-size:68.4254px;line-height:1.25;font-family:Lavi;-inkscape-font-specification:Lavi;stroke-width:1.52057"
         sodipodi:role="line"
         id="tspan94572-1-9"><tspan
   style="font-size:63.2767px;stroke-width:1.52057"
   id="tspan113997"><tspan
   style="font-size:58.7569px;stroke-width:1.52057"
   id="tspan117389">!</tspan>!</tspan>!</tspan></text>
    <text
       id="text4246-4-2-7-0-7-5-7-5-7-2-7-0-6-2"
       y="2468.5437"
       x="1251.2621"
       style="font-style:normal;font-variant:normal;font-weight:normal;font-stretch:normal;font-size:11.00459957px;line-height:0%;font-family:Lavi;-inkscape-font-specification:Lavi;text-align:center;letter-spacing:0px;word-spacing:0px;text-anchor:middle;fill:#000000;fill-opacity:1;stroke:none;stroke-width:0.91705102"
       xml:space="preserve"
       sodipodi:linespacing="0%"><tspan
         y="2468.5437"
         x="1251.2621"
         style="font-size:41.26729965px;line-height:1.25;stroke-width:0.91705102"
         sodipodi:role="line"
         id="tspan119847">Toreya,</tspan><tspan
         y="2520.1279"
         x="1251.2621"
         style="font-size:41.26729965px;line-height:1.25;stroke-width:0.91705102"
         sodipodi:role="line"
         id="tspan4069">par ilae !</tspan></text>
  </g>
</svg>
