<?xml version="1.0" encoding="UTF-8" standalone="no"?>
<svg
   xmlns:dc="http://purl.org/dc/elements/1.1/"
   xmlns:cc="http://creativecommons.org/ns#"
   xmlns:rdf="http://www.w3.org/1999/02/22-rdf-syntax-ns#"
   xmlns:svg="http://www.w3.org/2000/svg"
   xmlns="http://www.w3.org/2000/svg"
   xmlns:xlink="http://www.w3.org/1999/xlink"
   xmlns:sodipodi="http://sodipodi.sourceforge.net/DTD/sodipodi-0.dtd"
   xmlns:inkscape="http://www.inkscape.org/namespaces/inkscape"
   id="svg2"
   version="1.1"
   inkscape:version="1.0.2 (e86c870879, 2021-01-15)"
   width="2481"
   height="3503"
   sodipodi:docname="E34P09.svg">
  <metadata
     id="metadata8">
    <rdf:RDF>
      <cc:Work
         rdf:about="">
        <dc:format>image/svg+xml</dc:format>
        <dc:type
           rdf:resource="http://purl.org/dc/dcmitype/StillImage" />
        <dc:title />
      </cc:Work>
    </rdf:RDF>
  </metadata>
  <defs
     id="defs6">
    <filter
       style="color-interpolation-filters:sRGB"
       id="filter4375-4-1-1-1-9-5-8-8-5-5-3-3-3-0"
       inkscape:label="soundFX1">
      <feFlood
         id="feFlood4377-7-9-0-8-1-7-3-1-2-7-6-6-5-96"
         flood-opacity="1"
         flood-color="rgb(52,52,52)"
         result="flood" />
      <feComposite
         id="feComposite4379-3-8-8-2-77-4-1-0-6-4-7-7-6-3"
         in2="SourceGraphic"
         in="flood"
         operator="in"
         result="composite1"
         baseFrequency="0.053999999999999999 0.053999999999999999" />
      <feMorphology
         id="feMorphology4393-1-0-49-8-9-3-0-1-9-9-5-5-2-8"
         operator="dilate"
         radius="2.5856550817276021"
         result="result3" />
      <feComposite
         id="feComposite4385-9-5-7-0-8-8-7-5-4-9-3-3-9-5"
         in2="result3"
         in="SourceGraphic"
         operator="over"
         result="fbSourceGraphic" />
      <feColorMatrix
         result="fbSourceGraphicAlpha"
         in="fbSourceGraphic"
         values="0 0 0 -1 0 0 0 0 -1 0 0 0 0 -1 0 0 0 0 1 0"
         id="feColorMatrix4544-9-4-4-5-5-1-6" />
      <feTurbulence
         id="feTurbulence4546-3-6-5-6-6-2-1"
         type="fractalNoise"
         numOctaves="4"
         seed="147"
         baseFrequency="0.046080819231719368"
         result="turbulence" />
      <feDisplacementMap
         id="feDisplacementMap4548-8-0-9-2-2-7-1"
         in2="turbulence"
         in="fbSourceGraphic"
         scale="13.20326"
         yChannelSelector="G"
         xChannelSelector="R"
         result="fbSourceGraphic" />
      <feColorMatrix
         result="fbSourceGraphicAlpha"
         in="fbSourceGraphic"
         values="0 0 0 -1 0 0 0 0 -1 0 0 0 0 -1 0 0 0 0 1 0"
         id="feColorMatrix4670-7-7-3-9-9-0-5" />
      <feFlood
         id="feFlood4672-4-4-5-1-1-9-9"
         flood-opacity="1"
         flood-color="rgb(28,28,28)"
         result="flood"
         in="fbSourceGraphic" />
      <feComposite
         id="feComposite4674-8-3-7-2-2-3-8"
         in2="fbSourceGraphic"
         in="flood"
         operator="in"
         result="composite1" />
      <feGaussianBlur
         id="feGaussianBlur4676-3-7-08-7-7-6-4"
         in="composite1"
         stdDeviation="0"
         result="blur" />
      <feOffset
         id="feOffset4678-6-9-1-0-0-0-8"
         dx="-8.3919392296330813"
         dy="1.5526614972014983"
         result="offset" />
      <feComposite
         id="feComposite4680-4-0-9-9-9-6-1"
         in2="offset"
         in="fbSourceGraphic"
         operator="over"
         result="composite2" />
    </filter>
    <filter
       style="color-interpolation-filters:sRGB"
       id="filter4375-4-1-1-1-9-5-8-8-5-5-3-3-3-0-6"
       inkscape:label="soundFX1">
      <feFlood
         id="feFlood4377-7-9-0-8-1-7-3-1-2-7-6-6-5-96-3"
         flood-opacity="1"
         flood-color="rgb(52,52,52)"
         result="flood" />
      <feComposite
         id="feComposite4379-3-8-8-2-77-4-1-0-6-4-7-7-6-3-2"
         in2="SourceGraphic"
         in="flood"
         operator="in"
         result="composite1"
         baseFrequency="0.053999999999999999 0.053999999999999999" />
      <feMorphology
         id="feMorphology4393-1-0-49-8-9-3-0-1-9-9-5-5-2-8-0"
         operator="dilate"
         radius="2.5856550817276021"
         result="result3" />
      <feComposite
         id="feComposite4385-9-5-7-0-8-8-7-5-4-9-3-3-9-5-6"
         in2="result3"
         in="SourceGraphic"
         operator="over"
         result="fbSourceGraphic" />
      <feColorMatrix
         result="fbSourceGraphicAlpha"
         in="fbSourceGraphic"
         values="0 0 0 -1 0 0 0 0 -1 0 0 0 0 -1 0 0 0 0 1 0"
         id="feColorMatrix4544-9-4-4-5-5-1-6-1" />
      <feTurbulence
         id="feTurbulence4546-3-6-5-6-6-2-1-5"
         type="fractalNoise"
         numOctaves="4"
         seed="147"
         baseFrequency="0.046080819231719368"
         result="turbulence" />
      <feDisplacementMap
         id="feDisplacementMap4548-8-0-9-2-2-7-1-5"
         in2="turbulence"
         in="fbSourceGraphic"
         scale="13.20326"
         yChannelSelector="G"
         xChannelSelector="R"
         result="fbSourceGraphic" />
      <feColorMatrix
         result="fbSourceGraphicAlpha"
         in="fbSourceGraphic"
         values="0 0 0 -1 0 0 0 0 -1 0 0 0 0 -1 0 0 0 0 1 0"
         id="feColorMatrix4670-7-7-3-9-9-0-5-4" />
      <feFlood
         id="feFlood4672-4-4-5-1-1-9-9-7"
         flood-opacity="1"
         flood-color="rgb(28,28,28)"
         result="flood"
         in="fbSourceGraphic" />
      <feComposite
         id="feComposite4674-8-3-7-2-2-3-8-6"
         in2="fbSourceGraphic"
         in="flood"
         operator="in"
         result="composite1" />
      <feGaussianBlur
         id="feGaussianBlur4676-3-7-08-7-7-6-4-5"
         in="composite1"
         stdDeviation="0"
         result="blur" />
      <feOffset
         id="feOffset4678-6-9-1-0-0-0-8-6"
         dx="-8.3919392296330813"
         dy="1.5526614972014983"
         result="offset" />
      <feComposite
         id="feComposite4680-4-0-9-9-9-6-1-9"
         in2="offset"
         in="fbSourceGraphic"
         operator="over"
         result="composite2" />
    </filter>
  </defs>
  <sodipodi:namedview
     pagecolor="#ffffff"
     bordercolor="#666666"
     borderopacity="1"
     objecttolerance="10"
     gridtolerance="10"
     guidetolerance="10"
     inkscape:pageopacity="0"
     inkscape:pageshadow="2"
     inkscape:window-width="959"
     inkscape:window-height="1020"
     id="namedview4"
     showgrid="false"
     inkscape:zoom="0.33230799"
     inkscape:cx="1213.6285"
     inkscape:cy="2997.6638"
     inkscape:window-x="960"
     inkscape:window-y="0"
     inkscape:window-maximized="0"
     inkscape:current-layer="layer1"
     inkscape:document-rotation="0"
     inkscape:snap-global="false"
     borderlayer="true" />
  <g
     inkscape:groupmode="layer"
     id="layer2"
     inkscape:label="artwork"
     sodipodi:insensitive="true">
    <image
       sodipodi:absref="/media/twilight/Carlota/Proyectos/webcomics/new-ep34_The-Knighting-of-Shichimi/lang/gfx_Pepper-and-Carrot_by-David-Revoy_E34P09.png"
       xlink:href="../gfx_Pepper-and-Carrot_by-David-Revoy_E34P09.png"
       width="2481"
       height="3503"
       id="image10"
       x="0"
       y="0" />
  </g>
  <g
     inkscape:groupmode="layer"
     id="layer3"
     inkscape:label="speechbubbles"
     style="display:inline">
    <path
       style="color:#000000;display:inline;overflow:visible;visibility:visible;fill:#ffffff;fill-opacity:1;fill-rule:nonzero;stroke:none;stroke-width:1.17949px;marker:none;enable-background:accumulate"
       d="m 1474.9842,2288.6897 c -25.5518,-5.3737 -99.2292,-47.9371 -8.8672,-45.7139 -66.5041,-17.9093 -57.6634,-53.5519 -3.0119,-74.369 -71.6837,4.2548 -122.3568,0.6207 -85.4202,-36.1664 -96.3731,3.5955 -149.3977,10.2673 -133.5776,-28.5578 -48.8448,42.6369 -95.6959,34.6793 -107.765,-15.1981 -8.4275,35.2294 -99.3924,33.1271 -204.3804,12.6992 10.10208,14.5849 107.6392,54.7735 -37.16688,45.7152 57.23778,26.0011 59.78185,39.3386 -37.61986,50.3382 49.63946,11.6971 81.2953,27.5422 3.93053,52.7159 50.12869,7.9508 129.43441,5.6199 33.12972,53.7673 63.49267,-22.7557 169.40559,-6.3139 123.75569,30.3911 124.4191,-41.2428 148.3488,-30.2458 167.1356,-0.6941 46.2614,-43.2711 113.1175,-38.37 152.004,-13.2168 -18.9041,-38.3461 80.7212,-31.727 137.8535,-31.7108 z"
       id="path3549-3-78-5"
       inkscape:connector-curvature="0"
       sodipodi:nodetypes="ccccccccccccccc" />
    <path
       style="color:#000000;display:inline;overflow:visible;visibility:visible;fill:#ffffff;fill-opacity:1;fill-rule:nonzero;stroke:none;stroke-width:1.53798px;marker:none;enable-background:accumulate"
       d="M 1165.125 2415.5957 C 1130.4961 2415.3971 1095.0603 2423.1298 1065.7591 2442.1634 C 1034.0314 2463.018 1012.4338 2496.9293 1002.3955 2533.1554 C 992.59617 2568.5592 994.46263 2607.4336 1009.3327 2641.1701 C 1016.1701 2656.2876 1027.4362 2668.8862 1039.3142 2680.254 C 1046.8855 2687.8765 1055.8402 2694.0208 1065.5476 2698.6 C 1080.001 2705.4324 1095.4478 2709.892 1110.918 2713.7598 C 1137.2367 2719.946 1164.6219 2721.6842 1191.4772 2718.4018 C 1210.0229 2716.3248 1228.6862 2712.8862 1245.8592 2705.3477 C 1267.2776 2695.5069 1285.9394 2680.4166 1301.9961 2663.3125 C 1312.5213 2651.8799 1320.8033 2638.3469 1325.6024 2623.5344 C 1336.6453 2590.7606 1334.1192 2554.4228 1322.3121 2522.2219 C 1312.2354 2494.3965 1294.7895 2469.0929 1271.4314 2450.7849 C 1248.3998 2432.4135 1220.2152 2420.7112 1190.9864 2417.1249 C 1182.4155 2416.0108 1173.7662 2415.5389 1165.125 2415.5957 z "
       id="path3365-3"
       inkscape:connector-curvature="0"
       sodipodi:nodetypes="cssccsc" />
    <path
       style="display:inline;fill:#ffffff;fill-rule:evenodd;stroke:none;stroke-width:1.17316px;stroke-linecap:butt;stroke-linejoin:miter;stroke-opacity:1"
       d="m 109.73501,2177.5481 c 29.38768,28.2738 32.98668,48.0781 7.52226,37.3592 24.78089,18.3529 19.6543,22.6486 1.44979,31.3901 48.77683,44.6505 36.38287,79.6697 22.55019,114.4624 50.36055,-22.7687 53.1625,5.7616 66.37961,23.0583 10.40076,-40.1063 16.5215,-16.3343 21.44818,25.2615 10.4281,-51.3518 18.32089,-56.502 23.90445,-19.5221 10.2434,-33.0408 24.10947,-47.2326 42.13891,-39.7596 33.05542,-34.3551 46.53514,3.8148 66.34191,18.5438 -2.00545,-38.2097 11.96212,-50.519 45.98999,-17.8885 -0.90281,-23.148 22.7875,-26.3836 48.33814,2.7713 -35.76732,-59.6355 17.79954,-9.4497 25.77979,-6.8831 -17.38584,-30.8533 -3.62278,-55.8076 64.23923,-21.1803 -21.59349,-4.7726 -36.35199,-41.4194 -7.17745,-59.5301 -32.47566,-9.3466 -32.13349,-26.1759 -14.5508,-46.9366 -37.07982,-21.36 0.11551,-53.0572 18.77768,-82.1747 -37.68069,18.2569 -67.76001,22.5325 -74.46291,-16.1893 -57.26266,39.7577 -48.69658,21.4624 -43.13175,5.8137 -35.58384,42.7655 -41.93624,9.6512 -42.47987,-0.8674 -49.31202,48.2542 -93.73623,13.4114 -113.68756,-8.7539 -8.27741,55.1075 -28.62971,37.5649 -49.03206,19.7228 15.20585,37.0218 -3.23279,36.9256 -23.86649,24.0365 8.68221,25.1383 -4.52852,50.2569 -39.83864,18.6313 12.71345,16.4532 -5.18382,28.3673 -46.6326,-1.3653 z"
       id="path4289-9"
       inkscape:connector-curvature="0"
       sodipodi:nodetypes="cccccccccccccccccccccccc" />
    <path
       style="fill:#ffffff;fill-rule:evenodd;stroke:none;stroke-width:1.82px;stroke-linecap:butt;stroke-linejoin:miter;stroke-opacity:1"
       d="m 862.34153,1281.9721 c 49.24921,91.7805 67.9304,84.7087 75.58641,41.9832 13.45702,15.4323 16.32168,60.6932 54.82727,5.5858 23.77569,40.023 42.94939,34.914 58.35239,-7.1739 41.3018,75.8538 66.4858,32.0394 88.6487,15.1094 55.9268,42.4272 209.7445,48.8759 277.0761,-5.8369 14.2611,19.5051 29.4575,34.8489 58.0491,-1.9364 -2.7973,44.5449 34.5117,7.5009 66.1916,-49.2058 -4.0578,33.3537 -24.8906,90.2026 18.3732,57.2753 5.0091,23.8344 1.0517,55.3699 93.5903,4.0248 -26.9151,67.9175 50.9592,-1.2141 126.4188,-67.1871 -47.5557,57.5257 -112.5282,128.2944 -31.3123,105.1684 -45.66,48.1932 -41.5696,65.8771 88.0559,63.4999 -122.6885,24.8181 -152.8019,57.3228 -79.4641,123.2148 -53.064,-31.0307 -129.261,-35.2418 -63.76,7.5461 -66.0044,-34.2663 -75.5133,-17.672 -52.0236,10.4041 -72.0633,-49.3277 -38.1748,-9.7825 -34.1787,29.1527 -51.877,-24.5276 -86.607,-52.6972 -78.9699,10.0835 -53.99,-48.1752 -63.1971,-30.9006 -69.5441,-9.4462 -95.8595,-72.8026 -83.4586,-29.2975 -101.8802,-18.9061 -27.7172,-26.9338 -27.0156,-4.8298 -21.906,24.8798 -26.5269,-31.4777 -50.5589,-43.6108 -68.1974,-6.1606 -16.6187,-17.3167 -32.9273,-41.8525 -51.8559,-5.4578 -22.8906,-19.8523 -47.0343,-27.744 -76.5949,16.0725 -12.5728,-26.4714 -31.1245,-45.5282 -93.3131,-10.4684 -11.7231,-56.7978 -64.96743,-47.6201 -131.73016,-16.9621 2.04936,-33.3735 -3.22389,-55.2983 -72.41546,22.7077 14.375,-34.0901 30.74732,-70.0258 -11.15322,-52.1235 26.29241,-65.2228 -10.51003,-47.7521 -88.44937,-34.4229 79.61884,-37.9606 120.95094,-76.2312 44.06736,-75.6147 52.83758,-37.8995 48.69361,-57.7575 24.8769,-56.1043 3.60861,-11.7108 46.63496,-32.981 -13.63884,-32.175 31.83107,-15.9508 78.78672,-11.3665 66.27322,-87.5263 z"
       id="path4656"
       inkscape:connector-curvature="0"
       sodipodi:nodetypes="ccccccccccccccccccccccccccccccccc" />
    <path
       style="fill:#ffffff;fill-rule:evenodd;stroke:none;stroke-width:0.793247px;stroke-linecap:butt;stroke-linejoin:miter;stroke-opacity:1"
       d="m 813.13856,1262.2592 c 19.77665,13.0145 70.50085,20.2269 2.0153,59.0427 36.25276,0.9305 56.30836,1.6872 22.16803,18.3995 46.39347,0.3035 0.98407,9.5262 -21.94971,18.5645 25.24899,-0.2491 62.66241,-7.0026 5.75577,23.701 47.06985,-8.9351 34.51056,1.9576 -12.91868,23.2476 45.97169,-17.4043 64.96267,-14.9517 45.46979,-1.2055 19.28402,-4.2979 21.67832,9.0377 -16.45,22.3005 51.88545,-17.9566 50.7848,-11.1489 53.57334,33.3347 12.33286,-78.3463 14.43106,-17.3236 17.38548,20.3083 19.65971,-116.8016 46.23869,-30.5416 52.06616,-17.965 -4.89068,-90.7849 30.93838,-53.3669 40.30556,-18.8531 -2.41481,-22.1405 9.0727,-66.8547 43.3593,-12.6218 -8.175,-19.9636 -2.6113,-40.694 28.1831,8.7295 -9.3388,-33.0441 7.9611,-42.4952 61.8604,-11.3536 -0.4158,-16.4302 -5.6724,-33.6876 50.9955,-4.65 -1.0632,-15.0828 -12.6175,-35.7979 64.4888,-8.9038 0.5031,-26.3384 12.9235,-28.0072 34.563,-15.8871 -3.6968,-22.6033 19.936,-12.413 49.8894,2.6894 -19.0774,-30.8281 6.9346,-27.5399 44.5256,-18.1086 -3.6502,-14.9758 -8.8688,-30.3436 13.0993,-38.9047 -42.4744,-44.0813 -4.9021,-47.6608 8.0611,-52.3655 -21.2756,-1.3561 -37.1798,-16.7929 -9.781,-29.0253 -31.9012,7.1631 -20.1869,-14.587 -18.4329,-26.4527 l -51.3895,-18.1888 -50.3821,-8.0719 -60.4584,-7.9988 -56.4279,-1.2787 -57.4355,0.416 -50.382,3.74 -43.3286,-8.1229 -44.33611,8.7579 -62.47368,-1.235 -30.22919,28.9044 c 10.17947,27.7013 -21.98903,27.466 -51.38966,29.0568 z"
       id="path4323"
       inkscape:connector-curvature="0"
       sodipodi:nodetypes="ccccccccccccccccccccccccccccccccccc" />
    <path
       style="color:#000000;display:inline;overflow:visible;visibility:visible;fill:#ffffff;fill-opacity:1;fill-rule:nonzero;stroke:none;stroke-width:1.35813px;marker:none;enable-background:accumulate"
       d="m 1915.8144,2196.9193 c -43.0842,1.6625 -86.3062,1.7932 -129.2086,6.2878 -22.1339,2.6696 -44.281,9.0988 -62.2949,21.9885 -24.7194,16.8362 -40.9685,43.9344 -44.6912,72.5415 -5.4302,30.1077 -9.0065,61.3223 -2.1642,91.5017 6.8859,24.0415 28.9925,42.3572 53.864,48.7845 52.1045,15.7157 107.0196,20.5974 161.4339,21.6138 34.5789,0.6629 69.1692,0.2292 103.7495,-0.023 48.6151,-1.1053 97.0616,-5.5872 145.3775,-10.5872 20.5982,-2.5703 41.5071,-5.7442 60.5837,-13.9192 20.1067,-8.9603 37.0546,-24.6461 45.7712,-44.1947 13.5093,-28.3165 13.3206,-61.2633 3.9558,-90.6872 -9.5085,-29.0892 -30.4198,-54.751 -58.0975,-70.1975 -28.3669,-16.6745 -61.7835,-23.9269 -94.8137,-25.4174 -59.3451,-4.6915 -118.8738,-7.6161 -178.4278,-7.8805 -1.6792,0.063 -3.3585,0.1256 -5.0377,0.1885 z"
       id="path4546-6-5-5"
       inkscape:connector-curvature="0"
       sodipodi:nodetypes="cssssc" />
    <path
       style="color:#000000;display:inline;overflow:visible;visibility:visible;fill:#ffffff;fill-opacity:1;fill-rule:nonzero;stroke:none;stroke-width:0.710908px;marker:none;enable-background:accumulate"
       d="m 427.36079,1539.322 c -18.49435,2.3317 -20.41009,4.4325 -21.96654,15.8617 -1.55611,11.4299 -0.85275,28.3587 -14.56075,40.6485 -13.70771,12.2903 -23.6764,10.0093 -30.31719,9.0645 4.26773,13.7681 1.4232,41.4005 9.47615,45.7822 8.05295,4.3816 -16.23573,2.0167 -16.23573,2.0167 0,0 -18.78665,-30.5045 -14.52874,-48.8854 4.25786,-18.3808 31.63742,-15.9961 42.0788,-22.7096 10.44133,-6.7135 10.50842,-30.2213 17.90427,-37.5835 7.39563,-7.363 19.29539,-5.4547 28.14973,-4.1951 z"
       id="path4538-7"
       inkscape:connector-curvature="0"
       sodipodi:nodetypes="ccscccsscc" />
    <path
       style="color:#000000;display:inline;overflow:visible;visibility:visible;fill:#ffffff;fill-opacity:1;fill-rule:nonzero;stroke:none;stroke-width:0.576009px;marker:none;enable-background:accumulate"
       d="m 269.38616,1653.529 c 23.98622,-18.7388 72.99975,-31.6297 113.83578,1.6461 32.33893,26.3516 21.53309,64.4595 4.25504,76.2832 -17.27802,11.8238 -72.26174,14.2552 -97.55286,8.4261 -19.52455,-4.5006 -40.92884,-15.7046 -42.10867,-45.5966 -0.48149,-12.2006 -2.41553,-22.02 21.57071,-40.7588 z"
       id="path4040-2-9"
       inkscape:connector-curvature="0"
       sodipodi:nodetypes="zssssz" />
    <path
       style="color:#000000;display:inline;overflow:visible;visibility:visible;fill:#ffffff;fill-opacity:1;fill-rule:nonzero;stroke:none;stroke-width:0.590855px;marker:none;enable-background:accumulate"
       d="m 248.38875,1580.4882 c 25.2386,-18.1575 76.81125,-29.8607 119.77943,4.4047 34.02742,27.1353 22.65738,64.9814 4.47719,76.3864 -18.18014,11.405 -76.0347,12.504 -102.64632,6.062 -20.54397,-4.9737 -43.06584,-16.6964 -44.30727,-46.617 -0.50663,-12.2123 -2.54165,-22.0785 22.69697,-40.2361 z"
       id="path4040-2"
       inkscape:connector-curvature="0"
       sodipodi:nodetypes="zssssz" />
    <path
       style="display:inline;fill:#ffffff;stroke:none;stroke-width:0.931723"
       d="m 1997.4497,1062.6294 c -1.6375,-25.9962 27.7227,-91.07497 170.9405,-86.1798 143.2177,4.89516 188.0427,33.4892 192.2396,79.6976 6.6392,73.1 -68.7075,92.6343 -176.8985,98.0493 -111.5333,5.5813 -188.0125,-44.5966 -186.2816,-91.5671 z"
       id="path3280-8-3-6"
       inkscape:connector-curvature="0"
       sodipodi:nodetypes="csssc" />
    <path
       style="display:inline;fill:#ffffff;stroke:none;stroke-width:1.57021"
       d="m 2044.627,161.73242 c -54.0056,1.22741 -108.5399,0.65377 -161.6966,11.64271 -35.4047,7.26866 -70.6384,18.24311 -101.3961,37.64919 -23.4263,15.61757 -40.1544,40.37176 -47.1869,67.52394 -9.1202,34.18818 -3.5468,72.58536 17.1333,101.60212 12.855,18.28386 31.5585,31.94767 52.1575,40.32323 25.535,11.11943 52.707,17.69836 79.6244,24.49612 77.6206,18.23843 158.6975,23.55943 237.7057,11.66052 31.8455,-4.66315 63.5229,-11.36172 93.9262,-22.04822 28.7136,-10.79845 56.3348,-26.26921 77.4442,-48.85575 18.1851,-21.28933 26.1643,-49.8403 25.6785,-77.51336 -0.01,-24.0505 -5.9252,-48.94976 -20.9718,-68.15825 -14.9648,-18.42402 -35.8778,-30.59177 -56.6705,-41.34071 -31.3034,-15.26532 -65.7302,-22.13652 -99.7181,-28.50582 -31.6269,-5.93596 -63.8456,-8.90582 -96.0298,-8.47572 z"
       id="path3280-8-3"
       inkscape:connector-curvature="0"
       sodipodi:nodetypes="csssc" />
    <path
       style="color:#000000;display:inline;overflow:visible;visibility:visible;fill:#ffffff;fill-opacity:1;fill-rule:nonzero;stroke:none;stroke-width:0.608783px;marker:none;enable-background:accumulate"
       d="m 1751.2966,118.06982 c -18.0333,0.18933 -36.0674,0.22455 -54.1008,0.0344 -11.8069,-0.14349 -23.6739,0.0747 -35.3256,1.9339 -21.7025,3.33547 -42.8876,10.36344 -60.9783,21.58126 -5.0414,3.15184 -9.8752,6.71023 -13.2123,11.37103 -12.5007,16.257 -12.9164,39.54684 0.49,55.49229 8.9508,10.35064 22.6898,16.12839 36.063,20.81189 33.1778,11.68115 69.2079,15.30029 104.6925,15.4305 30.6511,0.016 61.6457,3.38414 92.0083,-1.81956 26.5951,-4.66092 52.6534,-14.43113 72.6572,-30.91977 12.1858,-10.71873 18.2326,-27.36074 13.0367,-42.12219 -4.9328,-15.01303 -18.236,-26.96879 -33.7278,-33.98225 -24.2465,-11.69586 -52.0403,-16.28689 -79.4047,-17.27415 -14.0556,-0.58807 -28.1303,-0.61588 -42.1982,-0.53739 z"
       id="path3525-8"
       inkscape:connector-curvature="0"
       sodipodi:nodetypes="cscsc" />
    <path
       style="fill:#ffffff;fill-rule:evenodd;stroke:none;stroke-width:1.06468px;stroke-linecap:butt;stroke-linejoin:miter;stroke-opacity:1"
       d="m 786.34361,430.16165 c 0,0 22.37691,25.375 30.38987,41.353 9.55841,41.6769 -15.08254,52.26548 -11.80509,72.946 4.69971,21.617 12.77263,34.196 42.40829,52.053 -36.46109,-14.098 -60.72938,-25.376 -65.42892,-46.992 -4.6996,-21.617 12.02504,-48.872 9.37974,-58.27 -2.64548,-9.399 -11.01511,-33.835 -33.19349,-51.692 -22.17826,-17.857 28.2496,-9.398 28.2496,-9.398 z"
       id="path1303"
       inkscape:connector-curvature="0"
       sodipodi:nodetypes="cccccccc" />
    <path
       style="color:#000000;display:inline;overflow:visible;visibility:visible;fill:#ffffff;fill-opacity:1;fill-rule:nonzero;stroke:none;stroke-width:1.01383px;marker:none;enable-background:accumulate"
       d="m 1306.1372,933.87003 c -52.2194,0.60259 -104.9875,6.18237 -153.3201,20.55394 -24.3339,6.8158 -44.3213,20.20051 -56.8039,36.26591 -17.6476,20.72842 -24.4581,45.23962 -23.9074,69.18952 -0.3404,21.7572 1.9885,44.0819 13.919,64.4005 9.9877,16.3502 23.5266,32.3696 44.2372,43.0868 15.7737,7.9151 35.2701,10.8229 54.2492,12.0262 46.1856,3.2038 92.89,-3.3074 138.8408,2.4567 33.8402,3.7138 67.7831,9.2669 102.2566,7.7134 20.762,-1.3133 40.5951,-6.2024 61.0882,-8.6256 13.4668,-1.6374 27.6596,-2.7177 39.5377,-7.8656 3.3861,-1.1629 5.397,-3.4509 6.4839,-5.9122 2.7612,-6.2805 1.347,-12.9579 0.7773,-19.3896 -1.7334,-12.7405 -4.2109,-25.749 -0.2252,-38.4116 4.4335,-27.0264 13.0393,-54.101 9.2266,-81.4382 -3.2776,-19.522 -12.1947,-39.13286 -29.9728,-54.58743 -16.0561,-12.5725 -38.627,-19.71581 -61.0372,-24.9568 -34.3483,-7.67817 -70.3296,-10.66881 -106.0392,-13.30256 -13.0714,-0.78675 -26.1889,-1.25367 -39.3107,-1.20338 z"
       id="path4040-40"
       inkscape:connector-curvature="0"
       sodipodi:nodetypes="zsssszccccccccz" />
    <path
       style="display:inline;fill:#ffffff;stroke:none;stroke-width:0.943189"
       d="m 761.84913,81.42033 c -61.13017,2.67032 -129.21314,-2.532677 -162.06224,0.992708 -4.67361,87.829412 -22.00262,155.670332 -16.10878,197.386812 5.12884,34.54789 10.88761,69.08694 19.71836,103.16233 5.83158,19.27707 16.84694,38.21047 35.57878,51.5226 20.84604,15.28973 47.8276,23.53084 74.57657,29.58115 64.5829,14.64912 134.52459,15.8856 198.93474,-0.0462 17.42231,-4.17863 33.97941,-10.55254 49.02225,-18.76966 28.33011,-15.26348 52.20239,-35.90923 69.08549,-59.75907 16.6721,-25.11063 21.6847,-53.78722 25.2303,-81.74462 4.24,-34.09315 2.5719,-69.38237 -12.1343,-101.84404 -11.317,-24.51247 -28.5992,-47.57221 -52.3331,-65.57337 C 962.02819,115.03417 924.56964,102.78166 886.92426,94.496412 846.22867,85.582333 804.02561,81.121389 761.84913,81.42033 Z"
       id="path3280-5"
       inkscape:connector-curvature="0"
       sodipodi:nodetypes="ccsscccccccccc" />
    <path
       style="fill:#ffffff;fill-rule:evenodd;stroke:none;stroke-width:1.36569px;stroke-linecap:butt;stroke-linejoin:miter;stroke-opacity:1"
       d="m 1309.5687,939.23352 c 8.7674,-29.78389 -2.55,-70.85724 -21.3421,-92.51878 19.294,12.00335 47.6581,40.90723 49.4868,77.53639 2.8542,57.16677 -26.6522,18.09019 -26.6522,18.09019 z"
       id="path4248"
       inkscape:connector-curvature="0"
       sodipodi:nodetypes="ccscc" />
    <path
       style="color:#000000;display:inline;overflow:visible;visibility:visible;fill:#ffffff;fill-opacity:1;fill-rule:nonzero;stroke:none;stroke-width:1.27845px;marker:none;enable-background:accumulate"
       d="m 2159.8838,536.71889 c 47.5494,-40.109 11.4958,-121.92186 -22.0631,-138.04748 -43.9644,-41.61081 21.7355,-52.5057 21.7355,-52.5057 l 27.3389,46.67174 c -4.9414,6.99806 59.5251,106.49368 -27.0113,143.88144 z"
       id="path3072-56"
       inkscape:connector-curvature="0"
       sodipodi:nodetypes="ccccc" />
    <path
       style="fill:#ffffff;fill-rule:evenodd;stroke:none;stroke-width:1px;stroke-linecap:butt;stroke-linejoin:miter;stroke-opacity:1"
       d="m 2145.9447,911.76156 c 17.8164,6.86787 32.8659,22.27667 36.9127,41.22902 2.4357,13.03639 -1.9004,26.29118 -8.401,37.50329 -6.139,11.51773 -13.902,22.87523 -15.1546,36.21623 -0.038,3.7486 4.352,7.1591 7.7995,4.9374 5.4591,-2.2621 9.1063,-7.2123 13.9986,-10.3572 13.619,-10.9723 25.9848,-24.85172 30.732,-42.05359 4.3293,-16.93725 -3.8025,-35.55082 -17.8163,-45.50969 -14.6218,-11.8782 -32.4276,-19.47815 -50.851,-23.07104 0.9267,0.36853 1.8534,0.73706 2.7801,1.10558 z"
       id="path914"
       inkscape:connector-curvature="0"
       sodipodi:nodetypes="cscc" />
    <path
       style="fill:#ffffff;fill-rule:evenodd;stroke:none;stroke-width:1px;stroke-linecap:butt;stroke-linejoin:miter;stroke-opacity:1"
       d="m 1859.1104,1611.6362 -101.7503,-92.9388 -6.0669,33.3207 -71.4256,-61.6811 -11.1854,27.4382 91.4542,66.5103 8.19,-37.7549 z"
       id="path4667"
       inkscape:connector-curvature="0" />
    <path
       style="color:#000000;display:inline;overflow:visible;visibility:visible;fill:#ffffff;fill-opacity:1;fill-rule:nonzero;stroke:none;stroke-width:1.14715px;marker:none;enable-background:accumulate"
       d="m 284.24765,2318.4867 c -40.4116,58.36 -53.3089,167.707 24.2468,263.215 -108.4132,-99.32 -82.2954,-214.062 -72.6196,-244.978 2.0322,-33.697 48.3728,-18.237 48.3728,-18.237 z"
       id="path4008-0"
       inkscape:connector-curvature="0"
       sodipodi:nodetypes="cccc" />
    <path
       style="color:#000000;display:inline;overflow:visible;visibility:visible;fill:#ffffff;fill-opacity:1;fill-rule:nonzero;stroke:none;stroke-width:1px;marker:none;enable-background:accumulate"
       d="m 2007.8186,2508.6854 c -16.2035,68.7147 -23.8042,123.8365 19.1198,161.3448 -35.9827,-18.9303 -60.1167,-37.3437 -55.228,-133.0047 3.2811,-29.3033 15.4575,-25.6682 36.1082,-28.3401 z"
       id="path4064-5"
       inkscape:connector-curvature="0"
       sodipodi:nodetypes="cccc" />
    <path
       style="fill:#ffffff;fill-rule:evenodd;stroke:none;stroke-width:1.0599px;stroke-linecap:butt;stroke-linejoin:miter;stroke-opacity:1"
       d="m 1312.6704,2517.7831 c 23.7195,-14.0861 43.1327,-10.969 67.1439,-1.3968 -21.0663,-24.318 -50.0172,-29.1023 -87.4659,-14.9118 -44.493,16.8599 17.6099,16.5876 17.6099,16.5876 z"
       id="path4248-5"
       inkscape:connector-curvature="0"
       sodipodi:nodetypes="ccscc" />
    <path
       style="fill:#ffffff;fill-opacity:1;stroke:none;stroke-width:0.656533"
       d="m 2186.6362,2529.7013 c -20.2714,-4.5023 -28.068,-8.6829 -24.4295,-11.2559 -33.9462,-21.5129 -5.0712,-41.3861 -1.0396,-43.737 -0.011,-1.592 -10.9154,0.6431 -12.4746,-0.643 -1.5593,-1.2869 10.7022,-12.0255 8.6232,-12.6686 -2.0793,-0.6437 -46.567,3.9856 -53.3241,1.0911 -6.7572,-2.8945 -3.1188,-10.2913 -5.1978,-10.6129 -2.0791,-0.3215 -21.311,1.6078 -23.9099,1.2862 -2.5987,-0.3215 -7.2767,-9.9691 -9.8756,-10.2907 -2.599,-0.3215 -14.5539,4.1808 -16.633,3.8592 -2.0791,-0.3216 -1.0395,-8.3614 -3.6384,-8.6829 -2.599,-0.3216 -14.034,6.753 -15.5934,6.4315 -1.5593,-0.3216 -7.2769,-16.4013 -9.8758,-17.3659 -2.599,-0.9647 -19.2317,17.6874 -20.7911,18.0089 -1.5593,0.3222 -11.4351,-21.8681 -13.5143,-22.1897 -2.0791,-0.3215 -12.4746,15.1152 -14.0339,14.7936 -1.5594,-0.3216 -11.4352,-9.3267 -13.5142,-9.9698 -2.0791,-0.643 -15.5934,19.9389 -17.6725,19.9389 -2.0792,0 -19.7516,-8.6829 -21.3109,-10.2907 -1.5594,-1.6083 -3.1187,8.3615 -5.1978,8.3615 -2.0791,0 -25.9889,-5.7891 -26.5088,-5.4676 -0.5197,0.3216 3.6386,6.4322 2.0792,6.4322 -1.5593,0 -25.9888,-8.0398 -27.0285,-6.4322 -1.0395,1.6084 -53.0173,-8.0398 -56.6558,-6.7536 -3.6385,1.2868 23.3901,26.371 20.7912,28.3009 -2.5989,1.9292 -11.955,-0.3215 -12.4748,0.6431 -0.5197,0.9646 5.7176,5.1453 4.1584,6.4315 -1.5595,1.2868 -19.2319,6.4321 -20.7912,8.0399 -1.5594,1.6083 7.7966,5.789 5.7176,6.7536 -2.0792,0.9653 -32.7463,7.0753 -33.2659,8.6836 -0.5198,1.6078 15.5934,9.326 13.5142,11.5768 -2.0791,2.2515 -7.7967,3.2161 -7.2769,4.8245 0.5198,1.6077 10.3957,3.5376 9.8758,5.1453 -0.5197,1.6077 -5.7175,9.6483 -7.2768,10.9344 -1.5594,1.2862 10.9153,0.6431 10.9153,1.9293 0,1.2868 -0.9181,20.6031 -19.3844,32.291 32.2989,-7.7421 45.8931,-3.9901 63.0458,-1.4178 17.1527,2.573 10.3955,18.6528 12.9944,19.6174 2.5988,0.9652 21.8307,-5.4669 24.4296,-3.2161 2.5989,2.2515 3.6384,6.4321 5.7176,6.4321 2.079,0 14.034,-9.0045 16.6328,-8.6829 2.5989,0.3215 27.0285,14.472 30.6671,14.7935 3.6384,0.3216 17.6723,-5.4675 20.7911,-5.789 3.1187,-0.3216 5.7174,7.7183 8.3164,7.0752 2.5989,-0.6431 19.2318,-6.4321 21.8305,-5.789 2.599,0.6437 4.6781,3.216 6.7573,2.573 2.079,-0.6432 11.4351,-3.2161 11.4351,-3.2161 0,0 6.7571,1.9299 9.8757,1.9299 3.1187,0 24.4295,-10.6129 27.0285,-11.256 2.5989,-0.6431 29.2801,10.9614 27.7207,12.8907 3.3116,-8.4443 19.3137,-13.7539 22.6978,-14.1768 3.6384,-0.9653 14.5538,1.9292 15.5933,0.9646 1.0396,-0.9646 4.1582,-6.1106 7.2769,-6.4322 3.1187,-0.3215 10.3956,-1.6077 10.3956,-1.6077 l -1.0395,-1.9298 c 0,0 21.8306,5.1459 24.4296,7.0751 2.5988,1.93 -1.5594,-8.3614 -3.1188,-10.9343 9.356,2.5729 36.9043,8.0398 38.9833,9.6482 2.0792,1.6077 -3.6383,-5.789 -6.757,-8.0399 4.1582,0.9646 7.7967,1.2862 7.7967,1.2862 l -11.955,-7.7183 3.6386,-0.6431 c 0,0 -7.7967,-3.5376 -7.7967,-5.1453 0,-1.6084 20.2712,-3.5376 20.2712,-3.5376 0,0 -8.3164,-2.8945 -6.2373,-4.5023 2.0792,-1.6083 7.277,-2.573 7.277,-2.573 l 1.0394,-4.1807 z"
       id="path5888-3"
       inkscape:connector-curvature="0"
       sodipodi:nodetypes="cccccsscccccccsccscscsccsccccccsccscscssccsccscscccccccsccccccsccccc" />
  </g>
  <g
     inkscape:groupmode="layer"
     id="layer1"
     inkscape:label="txt">
    <text
       xml:space="preserve"
       style="font-style:normal;font-variant:normal;font-weight:normal;font-stretch:normal;font-size:80px;line-height:1.25;font-family:Lavi;-inkscape-font-specification:Lavi;letter-spacing:0px;word-spacing:0px;fill:#ffffff;fill-opacity:1;stroke:#ffffff;stroke-width:0.668774;stroke-miterlimit:4;stroke-dasharray:none;stroke-opacity:1;filter:url(#filter4375-4-1-1-1-9-5-8-8-5-5-3-3-3-0)"
       id="text4580-6-0-0-0-9-3-3-2-0"
       transform="matrix(1.1484433,-0.31259721,-0.62973044,2.2133476,1615.3614,-1809.1372)"
       x="-607.91235"
       y="1245.0809"><tspan
         id="tspan1534-6"
         style="font-size:61.3371px"><tspan
   id="tspan882"
   style="font-size:71.8115px">DR</tspan><tspan
   style="font-size:66.5743px"
   id="tspan1814">Z</tspan>OW!!</tspan></text>
    <text
       xml:space="preserve"
       style="font-style:normal;font-variant:normal;font-weight:normal;font-stretch:normal;font-size:45px;line-height:1.25;font-family:Lavi;-inkscape-font-specification:Lavi;text-align:center;letter-spacing:0px;word-spacing:0px;text-anchor:middle;fill:#000000;fill-opacity:1;stroke:none"
       x="817.04907"
       y="178.81442"
       id="text4246-3-2-2-6-3-7-9-3-3-56-9-3-20"><tspan
         style="font-size:45px"
         sodipodi:role="line"
         x="817.04907"
         y="178.81442"
         id="tspan970">Ya veo. Has</tspan><tspan
         style="font-size:45px"
         sodipodi:role="line"
         x="817.04907"
         y="235.06442"
         id="tspan136"> alcanzado el nivel de</tspan><tspan
         style="font-size:45px"
         sodipodi:role="line"
         x="817.04907"
         y="291.31442"
         id="tspan140"> tus predecesores</tspan><tspan
         style="font-size:45px"
         sodipodi:role="line"
         x="817.04907"
         y="347.56442"
         id="tspan144"> mucho más pronto</tspan><tspan
         style="font-size:45px"
         sodipodi:role="line"
         x="817.04907"
         y="403.81442"
         id="tspan146"> de lo que anticipé.</tspan></text>
    <text
       xml:space="preserve"
       style="font-style:normal;font-variant:normal;font-weight:normal;font-stretch:normal;font-size:45px;line-height:1.25;font-family:Lavi;-inkscape-font-specification:Lavi;text-align:center;letter-spacing:0px;word-spacing:0px;text-anchor:middle;fill:#000000;fill-opacity:1;stroke:none"
       x="1312.303"
       y="1014.1287"
       id="text4246-3-2-2-6-3-7-9-3-3-56-9-3-20-3"><tspan
         style="font-size:45px"
         sodipodi:role="line"
         x="1312.303"
         y="1014.1287"
         id="tspan985">Esto acelera mis</tspan><tspan
         style="font-size:45px"
         sodipodi:role="line"
         x="1312.303"
         y="1070.3787"
         id="tspan155"> planes, pero eso</tspan><tspan
         style="font-size:45px"
         sodipodi:role="line"
         x="1312.303"
         y="1126.6287"
         id="tspan153"> son buenas noticias.</tspan></text>
    <text
       xml:space="preserve"
       style="font-style:normal;font-variant:normal;font-weight:normal;font-stretch:normal;font-size:45px;line-height:1.25;font-family:Lavi;-inkscape-font-specification:Lavi;text-align:center;letter-spacing:0px;word-spacing:0px;text-anchor:middle;fill:#000000;fill-opacity:1;stroke:none"
       x="1743.1007"
       y="193.33838"
       id="text4246-3-2-2-6-3-7-9-3-3-56-9-3-20-3-2"><tspan
         style="font-size:45px"
         sodipodi:role="line"
         x="1743.1007"
         y="193.33838"
         id="tspan994-7">¿Tus planes?</tspan></text>
    <text
       xml:space="preserve"
       style="font-style:normal;font-variant:normal;font-weight:normal;font-stretch:normal;font-size:45px;line-height:1.25;font-family:Lavi;-inkscape-font-specification:Lavi;text-align:center;letter-spacing:0px;word-spacing:0px;text-anchor:middle;fill:#000000;fill-opacity:1;stroke:none"
       x="2028.2909"
       y="246.40437"
       id="text4246-3-2-2-6-3-7-9-3-3-56-9-3-20-3-2-0"><tspan
         style="font-size:45px"
         sodipodi:role="line"
         x="2028.2909"
         y="246.40437"
         id="tspan8482">¿O sea que solo has</tspan><tspan
         style="font-size:45px"
         sodipodi:role="line"
         x="2028.2909"
         y="302.65436"
         id="tspan166"> estado probándome, y esto</tspan><tspan
         style="font-size:45px"
         sodipodi:role="line"
         x="2028.2909"
         y="358.90436"
         id="tspan172"> no tiene nada qué ver con</tspan><tspan
         style="font-size:45px"
         sodipodi:role="line"
         x="2028.2909"
         y="415.15436"
         id="tspan174"> haber llegado tarde?</tspan></text>
    <text
       xml:space="preserve"
       style="font-style:normal;font-variant:normal;font-weight:normal;font-stretch:normal;font-size:45px;line-height:1.25;font-family:Lavi;-inkscape-font-specification:Lavi;text-align:center;letter-spacing:0px;word-spacing:0px;text-anchor:middle;fill:#000000;fill-opacity:1;stroke:none"
       x="2179.271"
       y="1053.5718"
       id="text4246-3-2-2-6-3-7-9-3-3-56-9-3-20-3-2-0-3"><tspan
         style="font-size:45px"
         sodipodi:role="line"
         x="2179.271"
         y="1053.5718"
         id="tspan1147">¡Realmente</tspan><tspan
         style="font-size:45px"
         sodipodi:role="line"
         x="2186.3022"
         y="1109.8218"
         id="tspan178"> estás loca! </tspan></text>
    <text
       xml:space="preserve"
       style="font-style:normal;font-variant:normal;font-weight:normal;font-stretch:normal;font-size:45px;line-height:1.25;font-family:Lavi;-inkscape-font-specification:Lavi;text-align:center;letter-spacing:0px;word-spacing:0px;text-anchor:middle;fill:#000000;fill-opacity:1;stroke:none"
       x="314.83337"
       y="1631.6757"
       id="text4246-3-2-2-6-3-7-9-3-3-56-9-3-20-3-2-0-3-1"><tspan
         style="font-size:45px"
         sodipodi:role="line"
         x="314.83337"
         y="1631.6757"
         id="tspan1224">ji, ji</tspan></text>
    <text
       xml:space="preserve"
       style="font-style:normal;font-variant:normal;font-weight:normal;font-stretch:normal;font-size:45px;line-height:1.25;font-family:Lavi;-inkscape-font-specification:Lavi;text-align:center;letter-spacing:0px;word-spacing:0px;text-anchor:middle;fill:#000000;fill-opacity:1;stroke:none"
       x="327.27063"
       y="1708.0287"
       id="text4246-3-2-2-6-3-7-9-3-3-56-9-3-20-3-2-0-3-1-2"><tspan
         style="font-size:45px"
         sodipodi:role="line"
         x="327.27063"
         y="1708.0287"
         id="tspan1224-2">ji</tspan></text>
    <text
       xml:space="preserve"
       style="font-style:normal;font-variant:normal;font-weight:normal;font-stretch:normal;font-size:51.7551px;line-height:1.25;font-family:Lavi;-inkscape-font-specification:Lavi;text-align:center;letter-spacing:0px;word-spacing:0px;text-anchor:middle;fill:#000000;fill-opacity:1;stroke:none;stroke-width:1.15011"
       x="1273.3981"
       y="1290.0323"
       id="text4246-3-2-2-6-3-7-9-3-3-56-9-3-20-3-3"
       transform="skewX(-7.1285627)"><tspan
         style="font-style:normal;font-variant:normal;font-weight:bold;font-stretch:normal;font-size:51.7551px;font-family:Lavi;-inkscape-font-specification:'Lavi Bold';stroke-width:1.15011"
         sodipodi:role="line"
         x="1273.3981"
         y="1290.0323"
         id="tspan1341">¡¿QUÉ ESTÁN</tspan><tspan
         style="font-style:normal;font-variant:normal;font-weight:bold;font-stretch:normal;font-size:51.7551px;font-family:Lavi;-inkscape-font-specification:'Lavi Bold';stroke-width:1.15011"
         sodipodi:role="line"
         x="1273.3981"
         y="1354.7262"
         id="tspan186"> ESPERANDO?!</tspan></text>
    <text
       xml:space="preserve"
       style="font-style:normal;font-variant:normal;font-weight:normal;font-stretch:normal;font-size:47.4643px;line-height:1.25;font-family:Lavi;-inkscape-font-specification:Lavi;text-align:center;letter-spacing:0px;word-spacing:0px;text-anchor:middle;fill:#000000;fill-opacity:1;stroke:none;stroke-width:1.05476"
       x="1452.0516"
       y="1431.9385"
       id="text4246-3-2-2-6-3-7-9-3-3-56-9-3-20-3-3-2"
       transform="skewX(-7.1285625)"><tspan
         style="font-style:normal;font-variant:normal;font-weight:bold;font-stretch:normal;font-size:47.4643px;font-family:Lavi;-inkscape-font-specification:'Lavi Bold';stroke-width:1.05476"
         sodipodi:role="line"
         x="1452.0516"
         y="1431.9385"
         id="tspan1016"> ACABO DE SER ATACADA,</tspan><tspan
         style="font-style:normal;font-variant:normal;font-weight:bold;font-stretch:normal;font-size:47.4643px;font-family:Lavi;-inkscape-font-specification:'Lavi Bold';stroke-width:1.05476"
         sodipodi:role="line"
         x="1452.0516"
         y="1491.2688"
         id="tspan193"> ¡¿Y SOLO PIENSAN EN QUEDARSE</tspan><tspan
         style="font-style:normal;font-variant:normal;font-weight:bold;font-stretch:normal;font-size:47.4643px;font-family:Lavi;-inkscape-font-specification:'Lavi Bold';stroke-width:1.05476"
         sodipodi:role="line"
         x="1452.0516"
         y="1550.5992"
         id="tspan195"> PARADOS?! ¡¡¡ATRÁPENLA!!!</tspan></text>
    <text
       xml:space="preserve"
       style="font-style:normal;font-variant:normal;font-weight:normal;font-stretch:normal;font-size:55.0712px;line-height:1.25;font-family:Lavi;-inkscape-font-specification:Lavi;text-align:center;letter-spacing:0px;word-spacing:0px;text-anchor:middle;fill:#000000;fill-opacity:1;stroke:none;stroke-width:1.22379"
       x="615.35333"
       y="2229.3088"
       id="text4246-3-2-2-6-3-7-9-3-3-56-9-3-20-3-3-2-7"
       transform="matrix(0.99725425,0,-0.12471947,1.0027533,0,0)"><tspan
         style="font-style:normal;font-variant:normal;font-weight:bold;font-stretch:normal;font-size:55.0712px;font-family:Lavi;-inkscape-font-specification:'Lavi Bold';stroke-width:1.22379"
         sodipodi:role="line"
         x="615.35333"
         y="2229.3088"
         id="tspan1414">¡LA QUIERO</tspan><tspan
         style="font-style:normal;font-variant:normal;font-weight:bold;font-stretch:normal;font-size:55.0712px;font-family:Lavi;-inkscape-font-specification:'Lavi Bold';stroke-width:1.22379"
         sodipodi:role="line"
         x="615.35333"
         y="2298.1479"
         id="tspan199"> VIVA!</tspan></text>
    <text
       xml:space="preserve"
       style="font-style:normal;font-variant:normal;font-weight:normal;font-stretch:normal;font-size:70.9781px;line-height:1.25;font-family:Lavi;-inkscape-font-specification:Lavi;text-align:center;letter-spacing:0px;word-spacing:0px;text-anchor:middle;fill:#000000;fill-opacity:1;stroke:none;stroke-width:1.57727"
       x="1546.9048"
       y="2006.6577"
       id="text4246-3-2-2-6-3-7-9-3-3-56-9-3-20-3-3-2-7-2"
       transform="matrix(0.89307378,0,-0.11169036,1.1197283,0,0)"><tspan
         style="font-style:normal;font-variant:normal;font-weight:bold;font-stretch:normal;font-size:70.9781px;font-family:Lavi;-inkscape-font-specification:'Lavi Bold';stroke-width:1.57727"
         sodipodi:role="line"
         x="1546.9048"
         y="2006.6577"
         id="tspan1414-3">¡¡¡ATRÁPENLA!!!</tspan></text>
    <text
       xml:space="preserve"
       style="font-style:normal;font-variant:normal;font-weight:normal;font-stretch:normal;font-size:45px;line-height:1.25;font-family:Lavi;-inkscape-font-specification:Lavi;text-align:center;letter-spacing:0px;word-spacing:0px;text-anchor:middle;fill:#000000;fill-opacity:1;stroke:none"
       x="1159.3292"
       y="2502.3032"
       id="text4246-3-2-2-6-3-7-9-3-3-56-9-3-20-3-2-0-3-19"><tspan
         style="font-size:45px"
         sodipodi:role="line"
         x="1159.3292"
         y="2502.3032"
         id="tspan1484">Shichimi, </tspan><tspan
         style="font-size:45px"
         sodipodi:role="line"
         x="1159.3292"
         y="2558.5532"
         id="tspan1031">¡hablaremos</tspan><tspan
         style="font-size:45px"
         sodipodi:role="line"
         x="1159.3292"
         y="2614.8032"
         id="tspan206"> de esto </tspan><tspan
         style="font-size:45px"
         sodipodi:role="line"
         x="1159.3292"
         y="2671.0532"
         id="tspan208">más tarde!</tspan></text>
    <text
       xml:space="preserve"
       style="font-style:normal;font-variant:normal;font-weight:normal;font-stretch:normal;font-size:45px;line-height:1.25;font-family:Lavi;-inkscape-font-specification:Lavi;text-align:center;letter-spacing:0px;word-spacing:0px;text-anchor:middle;fill:#000000;fill-opacity:1;stroke:none"
       x="1958.2208"
       y="2265.5603"
       id="text4246-3-2-2-6-3-7-9-3-3-56-9-3-20-3-2-0-3-19-8-3"><tspan
         style="font-size:45px"
         sodipodi:role="line"
         x="1958.2208"
         y="2265.5603"
         id="tspan8507">Perdona, Carrot,</tspan><tspan
         style="font-size:45px"
         sodipodi:role="line"
         x="1958.2208"
         y="2321.8103"
         id="tspan221"> pero tendremos qué</tspan><tspan
         style="font-size:45px"
         sodipodi:role="line"
         x="1958.2208"
         y="2378.0603"
         id="tspan231"> acelerar supersónicamente</tspan><tspan
         style="font-size:45px"
         sodipodi:role="line"
         x="1958.2208"
         y="2434.3103"
         id="tspan229"> otra vez.</tspan></text>
    <text
       xml:space="preserve"
       style="font-style:normal;font-variant:normal;font-weight:normal;font-stretch:normal;font-size:45px;line-height:1.25;font-family:Lavi;-inkscape-font-specification:Lavi;text-align:center;letter-spacing:0px;word-spacing:0px;text-anchor:middle;fill:#000000;fill-opacity:1;stroke:none"
       x="1974.8418"
       y="2527.3699"
       id="text4246-3-2-2-6-3-7-9-3-3-56-9-3-20-3-2-0-3-19-8"><tspan
         style="font-size:45px"
         sodipodi:role="line"
         x="1974.8418"
         y="2527.3699"
         id="tspan1046">¡Agárrate!</tspan></text>
    <text
       xml:space="preserve"
       style="font-style:normal;font-variant:normal;font-weight:normal;font-stretch:normal;font-size:6.99764px;line-height:0%;font-family:Lavi;-inkscape-font-specification:Lavi;letter-spacing:0px;word-spacing:0px;fill:#000000;fill-opacity:1;stroke:#000000;stroke-width:6.65341;stroke-miterlimit:4;stroke-dasharray:none;stroke-opacity:1;paint-order:stroke fill markers"
       x="1234.3364"
       y="2988.7241"
       id="text4580-25"
       transform="matrix(0.70061135,-0.52267462,0.27429036,1.222697,0,0)"><tspan
         sodipodi:role="line"
         id="tspan4582-4"
         x="1234.3364"
         y="2988.7241"
         style="font-size:40.8195px;line-height:100%;letter-spacing:2.84772px;fill:#ffffff;stroke:#000000;stroke-width:6.65341;stroke-miterlimit:4;stroke-dasharray:none;stroke-opacity:1;paint-order:stroke fill markers"><tspan
           style="font-size:46.8842px;line-height:100%;letter-spacing:2.84772px;stroke:#000000;stroke-width:6.65341;stroke-miterlimit:4;stroke-dasharray:none;stroke-opacity:1;paint-order:stroke fill markers"
           id="tspan4617-9">Tap!</tspan></tspan></text>
    <text
       xml:space="preserve"
       style="font-style:normal;font-variant:normal;font-weight:normal;font-stretch:normal;font-size:6.12727px;line-height:0%;font-family:Lavi;-inkscape-font-specification:Lavi;letter-spacing:0px;word-spacing:0px;fill:#000000;fill-opacity:1;stroke:#000000;stroke-width:5.82585;stroke-miterlimit:4;stroke-dasharray:none;stroke-opacity:1;paint-order:stroke fill markers"
       x="1244.6915"
       y="2939.7729"
       id="text4580-25-6"
       transform="matrix(0.70061135,-0.52267462,0.27429036,1.222697,0,0)"><tspan
         sodipodi:role="line"
         id="tspan4582-4-1"
         x="1244.6915"
         y="2939.7729"
         style="font-size:35.7423px;line-height:100%;letter-spacing:2.49352px;fill:#ffffff;stroke:#000000;stroke-width:5.82585;stroke-miterlimit:4;stroke-dasharray:none;stroke-opacity:1;paint-order:stroke fill markers"><tspan
           style="font-size:41.0527px;line-height:100%;letter-spacing:2.49352px;stroke:#000000;stroke-width:5.82585;stroke-miterlimit:4;stroke-dasharray:none;stroke-opacity:1;paint-order:stroke fill markers"
           id="tspan4617-9-0">Tap!</tspan></tspan></text>
    <text
       xml:space="preserve"
       style="font-style:normal;font-variant:normal;font-weight:normal;font-stretch:normal;font-size:80px;line-height:1.25;font-family:Lavi;-inkscape-font-specification:Lavi;letter-spacing:0px;word-spacing:0px;fill:#ffffff;fill-opacity:1;stroke:#ffffff;stroke-width:0.668774;stroke-miterlimit:4;stroke-dasharray:none;stroke-opacity:1;filter:url(#filter4375-4-1-1-1-9-5-8-8-5-5-3-3-3-0-6)"
       id="text4580-6-0-0-0-9-3-3-2-0-3"
       transform="matrix(1.2199315,-0.31719701,-0.66892978,2.2459164,3443.4589,177.24169)"
       x="-607.91235"
       y="1245.0809"><tspan
         id="tspan1534-6-7"
         style="font-size:61.3371px"><tspan
   style="font-size:66.5743px"
   id="tspan1814-4">Ziioo</tspan>OO!!</tspan></text>
  </g>
</svg>
