<?xml version="1.0" encoding="UTF-8" standalone="no"?>
<!-- Created with Inkscape (http://www.inkscape.org/) -->

<svg
   xmlns:dc="http://purl.org/dc/elements/1.1/"
   xmlns:cc="http://creativecommons.org/ns#"
   xmlns:rdf="http://www.w3.org/1999/02/22-rdf-syntax-ns#"
   xmlns:svg="http://www.w3.org/2000/svg"
   xmlns="http://www.w3.org/2000/svg"
   xmlns:xlink="http://www.w3.org/1999/xlink"
   xmlns:sodipodi="http://sodipodi.sourceforge.net/DTD/sodipodi-0.dtd"
   xmlns:inkscape="http://www.inkscape.org/namespaces/inkscape"
   id="svg2"
   version="1.1"
   inkscape:version="0.92.2 (5c3e80d, 2017-08-06)"
   width="2481"
   height="3503"
   sodipodi:docname="E26P05.svg">
  <metadata
     id="metadata8">
    <rdf:RDF>
      <cc:Work
         rdf:about="">
        <dc:format>image/svg+xml</dc:format>
        <dc:type
           rdf:resource="http://purl.org/dc/dcmitype/StillImage" />
        <dc:title />
      </cc:Work>
    </rdf:RDF>
  </metadata>
  <defs
     id="defs6" />
  <sodipodi:namedview
     pagecolor="#ffffff"
     bordercolor="#666666"
     borderopacity="1"
     objecttolerance="10"
     gridtolerance="10"
     guidetolerance="10"
     inkscape:pageopacity="0"
     inkscape:pageshadow="2"
     inkscape:window-width="1290"
     inkscape:window-height="1033"
     id="namedview4"
     showgrid="false"
     inkscape:zoom="0.42773946"
     inkscape:cx="1341.2938"
     inkscape:cy="872.33655"
     inkscape:window-x="624"
     inkscape:window-y="2"
     inkscape:window-maximized="0"
     inkscape:current-layer="layer1"
     inkscape:snap-global="false" />
  <g
     inkscape:groupmode="layer"
     id="layer2"
     inkscape:label="artwork"
     sodipodi:insensitive="true">
    <image
       sodipodi:absref="C:\Users\Kari\Documents\Pepper and Carrot\Episode 26\fi\../gfx_Pepper-and-Carrot_by-David-Revoy_E26P05.png"
       xlink:href="../gfx_Pepper-and-Carrot_by-David-Revoy_E26P05.png"
       y="0"
       x="0"
       id="image10"
       height="3503"
       width="2481" />
  </g>
  <g
     inkscape:groupmode="layer"
     id="layer3"
     inkscape:label="speechbubbles">
    <path
       style="color:#000000;display:inline;overflow:visible;visibility:visible;fill:#ffffff;fill-opacity:1;fill-rule:nonzero;stroke:none;stroke-width:0.904504px;marker:none;enable-background:accumulate"
       d="m 680.13191,135.7782 c 21.4962,-26.29902 188.64941,-42.805964 242.65004,19.61939 54.00063,62.42536 14.00888,128.56377 -20.80327,147.75882 -34.81214,19.19515 -134.4332,35.07079 -177.81574,12.48855 -43.38265,-22.58226 -76.23641,-53.66009 -74.49619,-111.51787 0.71026,-23.61408 8.9689,-42.04977 30.46516,-68.34889 z"
       id="path4040"
       inkscape:connector-curvature="0"
       sodipodi:nodetypes="zssssz" />
    <path
       style="color:#000000;display:inline;overflow:visible;visibility:visible;fill:#ffffff;fill-opacity:1;fill-rule:nonzero;stroke:none;stroke-width:1px;marker:none;enable-background:accumulate"
       d="m 723.30366,175.8066 c 15.6509,39.1272 126.32477,118.49941 138.62187,131.91441 12.2971,13.415 38.0092,32.4196 58.1317,35.7734 20.1226,3.3537 29.8656,-15.8488 47.3048,-18.9433 14.983,-2.6587 26.47777,2.1745 35.42117,12.2357 -14.533,-25.7121 -39.12717,-25.7121 -49.18837,-21.2404 -10.0613,4.4717 -27.948,17.8867 -44.7168,5.5896 -16.7687,-12.2971 -86.0797,-88.31561 -103.96637,-91.66931 -17.8867,-3.3538 -40.245,-29.0659 -40.245,-43.5988 0,-14.533 -41.363,-10.0613 -41.363,-10.0613 z"
       id="path4562"
       inkscape:connector-curvature="0"
       sodipodi:nodetypes="cssscssssc" />
    <path
       style="color:#000000;display:inline;overflow:visible;visibility:visible;fill:#ffffff;fill-opacity:1;fill-rule:nonzero;stroke:none;stroke-width:1px;marker:none;enable-background:accumulate"
       d="m 629.44972,1457.2356 c 5.31864,112.846 187.39235,142.8215 217.19246,120.0477 -67.73192,45.7834 -243.1513,-13.454 -259.18624,-91.6691 -22.55675,-34.7368 41.99378,-28.3786 41.99378,-28.3786 z"
       id="path4480"
       inkscape:connector-curvature="0"
       sodipodi:nodetypes="cccc" />
    <path
       style="color:#000000;display:inline;overflow:visible;visibility:visible;fill:#ffffff;fill-opacity:1;fill-rule:nonzero;stroke:none;stroke-width:0.77267522px;marker:none;enable-background:accumulate"
       d="m 1697.506,1517.4852 c 5.6292,-47.4416 52.8446,-80.5244 171.6921,-67.0728 63.6611,7.2055 136.0402,13.0874 128.5345,82.6142 -7.5057,69.5266 -111.6467,63.8009 -133.2255,64.6189 -21.5789,0.818 -133.3386,-10.7214 -151.9897,-35.1724 -11.6753,-15.3056 -15.9497,-30.2645 -15.0114,-44.9879 z"
       id="path4546-6"
       inkscape:connector-curvature="0"
       sodipodi:nodetypes="cssssc" />
    <path
       style="fill:#ffffff;fill-opacity:1;stroke:none;stroke-width:1.17011929"
       d="m 1822.1841,1642.7664 c -3.072,-33.1575 17.3038,-49.6518 35.8561,-57.4653 23.5123,-9.9025 193.1276,-20.9391 213.5953,6.8159 18.8502,25.5615 32.243,72.5563 -24.0436,95.7706 -56.2865,23.2142 -150.2248,10.4987 -166.2153,6.278 -15.9905,-4.2208 -55.9945,-15.5227 -59.1925,-51.3992 z"
       id="path3659-8"
       inkscape:connector-curvature="0"
       sodipodi:nodetypes="cssssc" />
    <path
       style="fill:#ffffff;fill-opacity:1;fill-rule:evenodd;stroke:none;stroke-width:0.57074118px;stroke-linecap:butt;stroke-linejoin:miter;stroke-opacity:1"
       d="m 2045.2157,1752.4365 c 2.8478,6.2781 -2.7067,12.8754 -6.6854,14.9282 -4.7257,4.1933 -9.9339,3.4238 -14.756,2.3824 -4.7156,-1.6167 -8.9124,2.4725 -12.725,6.7734 -5.8446,5.4542 -13.3739,6.5511 -18.6228,1.2394 -3.9397,-3.6716 -8.4641,-8.1406 -13.7451,-5.3035 -6.2088,2.7499 -13.9137,4.8375 -18.6038,-1.7964 -2.9664,-7.3562 -9.8827,-5.3756 -15.0565,-3.3626 -6.6035,2.2865 -13.6152,3.2535 -19.5505,-0.695 -3.9688,-2.3804 -9.0795,-3.9874 -10.2159,-11.0177 -1.4774,-7.7322 -2.9448,-16.9207 -8.5192,-19.9579 -3.8972,-2.4942 -9.7267,-4.4919 -9.6976,-12.3212 1.0837,-6.8382 4.2374,-13.2886 7.0808,-18.978 7.0153,-6.9042 15.2764,0.321 23.1079,-0.7647 5.1177,-0.6887 10.1757,-3.071 14.8599,-6.8213 7.3585,-4.1094 14.4416,1.0655 21.8212,-1.2502 8.5897,-1.9266 17.2829,-0.2509 25.7891,-4.696 9.5237,-3.9035 19.6465,-0.7854 26.2121,8.5566 2.7393,4.5693 6.7227,6.697 11.0541,6.5043 5.6774,0.514 8.7552,-0.3982 11.9308,7.2374 2.6334,5.4974 1.9582,3.7813 3.3976,9.6865 1.5504,5.8484 6.7819,7.8078 7.4887,14.5687 0.4858,5.574 -4.44,9.3467 -4.5644,15.0876 z"
       id="path4367-3-5"
       inkscape:connector-curvature="0"
       sodipodi:nodetypes="ccccccccccccccccccccccc" />
    <path
       style="opacity:1;fill:#ffffff;fill-rule:evenodd;stroke:none;stroke-width:1.3443836px;stroke-linecap:butt;stroke-linejoin:miter;stroke-opacity:1"
       d="m 1542.1535,1496.6176 c 57.2733,-8.6915 60.9764,19.7045 77.6569,27.317 17.2205,7.8588 50.5803,-25.7702 66.8815,-19.2081 16.3015,6.562 20.9961,40.3754 46.6514,50.2361 25.6551,9.861 44.0985,-16.5088 14.0519,-27.3374 -30.0465,-10.8286 -24.8419,-34.9697 -49.8325,-40.9228 -41.6779,-9.928 -54.8951,20.1792 -69.9481,24.4763 -9.9661,2.8447 -19.8986,-16.3184 -38.035,-21.5527 -18.1365,-5.2344 -47.4261,6.9916 -47.4261,6.9916 z"
       id="path4272"
       inkscape:connector-curvature="0"
       sodipodi:nodetypes="csssssssc" />
    <path
       style="color:#000000;display:inline;overflow:visible;visibility:visible;fill:#ffffff;fill-opacity:1;fill-rule:nonzero;stroke:none;stroke-width:0.82009757px;marker:none;enable-background:accumulate"
       d="m 1142.4856,2864.1872 c -11.6468,-10.5306 -29.7748,-23.9453 23.708,-26.9445 -66.889,-25.4199 -53.5528,-66.5215 -17.3827,-77.5114 -55.1347,-2.4623 -60.018,-5.9422 13.2506,-86.1248 -85.2431,76.5575 -92.9723,77.6987 -97.8123,39.8671 -14.6476,22.2479 -42.9096,20.2317 -38.0902,-13.2081 -16.7142,26.9328 -61.15462,44.4068 -63.03601,3.5626 -20.87583,32.1468 -40.64507,30.134 -61.18688,23.193 4.26855,24.5984 3.06513,52.2255 2.20375,90.2578 -1.06945,22.4558 1.16284,27.1694 5.45989,42.6743 -3.48967,24.576 2.60062,25.021 5.3607,43.2742 36.13143,-21.8896 36.15537,-19.3678 36.78079,8.5148 66.05216,-49.2416 53.10916,-10.5176 68.00046,-3.5241 24.7362,-37.6615 49.5345,-14.6169 75.1973,-9.0224 11.4565,-43.0546 27.8498,-39.8265 47.5466,-35.0085 z"
       id="path3549-3-78"
       inkscape:connector-curvature="0"
       sodipodi:nodetypes="ccccccccccccccc" />
    <path
       style="fill:#ffffff;fill-rule:evenodd;stroke:none;stroke-width:1.13942826px;stroke-linecap:butt;stroke-linejoin:miter;stroke-opacity:1"
       d="m 1055.299,2806.717 c -25.1197,64.215 -54.0457,72.7746 -87.66413,12.7138 -8.94606,20.4377 -0.83517,78.6676 -57.38081,-6.3569 6.07008,38.7216 -2.66014,49.8986 -17.75406,49.2317 v 226.6974 c 14.68992,-5.4113 25.97406,-1.0175 30.50535,22.8308 31.78739,-26.212 53.67595,-27.9814 55.78782,19.0706 29.93623,-53.9416 42.33503,-32.1147 55.78603,-14.8326 45.2271,-52.0727 63.9393,-12.5032 89.2571,4.2378 -4.6254,-29.1834 2.9855,-44.4248 57.3808,-6.3568 -10.25,-18.5154 -25.6357,-38.1685 38.2539,-40.2577 -27.2868,-15.0872 -40.5494,-36.3181 -20.7218,-72.0419 -37.323,-24.5226 -18.4415,-44.6505 15.9391,-63.5661 -49.4938,-12.3263 -41.2442,-33.6833 -19.127,-57.2092 -50.0593,22.3563 -99.7623,16.6001 -73.5418,-25.5226 -30.7635,23.2235 -52.5198,43.9887 -66.7205,-48.6383 z"
       id="path4582"
       inkscape:connector-curvature="0"
       sodipodi:nodetypes="cccccccccccccccc" />
    <path
       style="fill:#ffffff;fill-rule:evenodd;stroke:none;stroke-width:1.04186749px;stroke-linecap:butt;stroke-linejoin:miter;stroke-opacity:1"
       d="m 889.1222,3121.7914 c 26.68633,3.0659 65.76398,-11.4345 44.18918,-57.5933 41.87691,32.7043 76.21162,26.9951 144.33082,-24.3574 -5.6607,71.5508 24.7852,64.8658 52.2327,51.129 -26.342,24.0774 20.9429,37.8744 46.3779,39.2269 -53.8053,52.0776 -25.5515,68.6398 -4.3504,88.2547 -52.8779,-14.512 -40.0892,14.892 -46.4049,31.5195 -45.3613,-37.6735 -78.3497,-28.7323 -104.4112,6.304 -13.6306,-19.0538 -17.9091,-58.4345 -68.15728,2.1012 18.47745,-52.2597 -5.74243,-46.7743 -44.95483,-21.0129 6.14546,-17.8005 42.67059,-44.8684 -18.85199,-42.0262 38.42816,-16.9219 46.48674,-39.8449 0,-73.5455 z"
       id="path4584"
       inkscape:connector-curvature="0"
       sodipodi:nodetypes="cccccccccccc" />
    <path
       style="fill:#ffffff;fill-opacity:1;fill-rule:evenodd;stroke:none;stroke-width:1.27030337px;stroke-linecap:butt;stroke-linejoin:miter;stroke-opacity:1"
       d="m 1978.5454,2095.4158 c -20.5263,-1.5223 -31.9681,18.0478 -48.3075,25.3169 -16.7439,3.3996 -35.4505,-9.2125 -50.6222,2.5021 -13.7286,6.7377 -28.6165,19.3452 -23.8219,36.0743 1.3619,15.1861 -15.8149,24.2719 -13.6183,39.2468 0.6179,15.6807 19.807,24.0087 16.7264,40.4556 -5.3314,15.1007 -17.1913,32.733 -3.9137,47.8464 13.8047,17.2246 39.8919,7.6412 56.3396,19.1599 13.1749,17.2057 28.7548,36.9898 52.6758,38.0463 22.3624,1.4821 39.0563,-14.3951 61.5878,-11.8857 16.6767,-0.287 36.7018,13.6572 53.1914,17.8578 13.831,-1.0198 29.4462,2.961 41.6118,-5.5384 11.7904,-11.4485 27.9385,-10.4115 35.6552,4.4895 12.9567,11.3302 32.23,3.4196 45.7108,-3.1129 16.4555,-11.7288 31.3681,5.9989 45.5812,12.265 19.2935,8.9104 39.0599,-20.6886 49.7136,-35.7545 10.2276,-16.5074 31.0677,-8.4676 46.7781,-11.6339 14.4048,-5.5575 28.8372,-17.4848 33.0922,-32.6789 -2.4725,-13.7824 -3.6056,-28.9873 5.2462,-41.3811 5.2336,-15.2678 -7.9795,-27.6914 -18.0208,-37.1481 -12.3817,-14.982 5.4195,-31.1904 0.257,-47.1801 -4.2164,-21.012 -28.8289,-23.9244 -46.7035,-21.4313 -16.3674,3.7548 -26.2096,-9.0404 -36.9828,-18.3283 -16.255,-15.0953 -41.2832,-19.3262 -61.5136,-9.5518 -17.905,9.8046 -33.8695,2.2845 -53.977,5.0792 -14.5987,3.7884 -29.4168,14.8989 -44.7022,12.6674 -12.7728,-2.5082 -27.852,15.2238 -41.2662,-1.2579 -10.7508,-13.084 -28.2853,-4.4436 -42.4167,-0.3477 -18.7614,8.9863 -30.4667,-12.247 -44.4286,-20.0776 -4.2042,-2.3468 -9.0035,-3.8277 -13.8721,-3.699 z"
       id="path4367"
       inkscape:connector-curvature="0"
       sodipodi:nodetypes="cccccccccccccccccccccccccccccc" />
    <path
       style="color:#000000;display:inline;overflow:visible;visibility:visible;fill:#ffffff;fill-opacity:1;fill-rule:nonzero;stroke:none;stroke-width:1.3837055px;marker:none;enable-background:accumulate"
       d="m 2170.3615,2309.0962 c -0.3713,38.0127 6.7641,58.9988 10.8638,63.5533 4.0997,4.5543 14.1043,16.9116 18.197,24.3263 3.3617,6.1716 9.6066,12.58 5.6022,19.0563 -4.0042,6.4764 -34.1758,30.3537 -35.5389,56.2139 -1.3632,25.8606 5.3064,30.7584 16.8647,34.3062 11.5583,3.5478 26.5828,8.5604 26.6542,27.601 0.071,19.0406 -9.8738,34.7396 -15.8025,39.9571 -5.9287,5.2176 -38.3186,24.4352 -54.9686,48.0709 -8.8964,12.629 -3.6957,116.332 -77.1531,147.1353 96.1421,-38.7249 86.06,-126.0636 93.2119,-138.7724 6.2517,-11.109 19.0349,-23.9504 28.6904,-28.7662 12.35,-6.1599 23.5652,-12.3444 30.546,-25.4347 6.9807,-13.0901 15.9013,-23.3083 13.774,-42.6236 -2.1271,-19.3153 -5.4443,-39.4224 -23.4332,-41.8264 -11.5582,-3.5478 -18.351,-12.9635 -18.0761,-18.9365 0.2753,-5.9731 12.8845,-27.1311 24.7298,-33.5613 11.8453,-6.4303 16.5638,-17.6507 16.086,-29.7343 -0.4779,-12.0835 -10.5747,-31.5425 -12.3436,-41.7953 -1.7687,-10.2527 -15.6194,-65.4734 -15.6194,-65.4734 z"
       id="path5058"
       inkscape:connector-curvature="0"
       sodipodi:nodetypes="cscsssssscssssccscccc" />
  </g>
  <g
     inkscape:groupmode="layer"
     id="layer1"
     inkscape:label="txt">
    <text
       xml:space="preserve"
       style="color:#000000;font-style:normal;font-variant:normal;font-weight:normal;font-stretch:normal;font-size:14.56374168px;line-height:0.01%;font-family:Arial;-inkscape-font-specification:Arial;letter-spacing:1.17453516px;word-spacing:0px;display:inline;overflow:visible;visibility:visible;fill:#e69d76;fill-opacity:1;fill-rule:nonzero;stroke:#e99f77;stroke-width:2;stroke-miterlimit:4;stroke-dasharray:none;stroke-opacity:1;marker:none;enable-background:accumulate"
       x="-789.3432"
       y="134.55949"
       id="text1711-2"
       transform="matrix(-0.05075958,-0.85891373,1.1934833,0.49447225,0,0)"><tspan
         sodipodi:role="line"
         x="-787.76733"
         y="134.55949"
         id="tspan1709-8"
         style="font-style:normal;font-variant:normal;font-weight:bold;font-stretch:normal;font-family:Lavi;-inkscape-font-specification:'Lavi Bold';letter-spacing:3.15169597px;word-spacing:0px;fill:#ffffff;fill-opacity:1;stroke:#ffffff;stroke-width:2;stroke-miterlimit:4;stroke-dasharray:none;stroke-opacity:1"><tspan
           x="-789.3432"
           y="134.55949"
           style="color:#000000;font-style:normal;font-variant:normal;font-weight:bold;font-stretch:normal;font-size:77.6733017px;line-height:1.25;font-family:Lavi;-inkscape-font-specification:'Lavi Bold';text-align:center;letter-spacing:3.15169597px;word-spacing:0px;text-anchor:middle;display:inline;overflow:visible;visibility:visible;fill:#ffffff;fill-opacity:1;fill-rule:nonzero;stroke:#ffffff;stroke-width:2;stroke-miterlimit:4;stroke-dasharray:none;stroke-opacity:1;marker:none;enable-background:accumulate"
           id="tspan1707-9"><tspan
   style="font-style:normal;font-variant:normal;font-weight:bold;font-stretch:normal;font-size:63.57888031px;font-family:Lavi;-inkscape-font-specification:'Lavi Bold';letter-spacing:3.15169597px;stroke-width:2;stroke-miterlimit:4;stroke-dasharray:none"
   id="tspan1156-7">Shkrrkrr</tspan>!</tspan></tspan></text>
    <text
       xml:space="preserve"
       style="font-style:normal;font-variant:normal;font-weight:normal;font-stretch:normal;line-height:0%;font-family:Lavi;-inkscape-font-specification:Lavi;text-align:center;letter-spacing:0px;word-spacing:0px;text-anchor:middle;fill:#000000;fill-opacity:1;stroke:none"
       x="796.22394"
       y="136.39999"
       id="text4246-5-3"><tspan
         sodipodi:role="line"
         style="font-size:45px;line-height:1.25"
         x="796.22394"
         y="139.8878"
         id="tspan890" /><tspan
         sodipodi:role="line"
         style="font-size:45px;line-height:1.25"
         x="796.22394"
         y="177.60426"
         id="tspan843">Ahaa!</tspan><tspan
         sodipodi:role="line"
         style="font-size:45px;line-height:1.25"
         x="796.22394"
         y="233.85426"
         id="tspan849">Tässä on</tspan><tspan
         sodipodi:role="line"
         style="font-size:45px;line-height:1.25"
         x="796.22394"
         y="290.10425"
         id="tspan90">uloskäynti!</tspan><tspan
         sodipodi:role="line"
         style="font-size:45px;line-height:1.25"
         x="796.22394"
         y="308.63779"
         id="tspan917" /></text>
    <text
       xml:space="preserve"
       style="color:#000000;font-style:normal;font-variant:normal;font-weight:normal;font-stretch:normal;font-size:10.93896103px;line-height:0.01%;font-family:Arial;-inkscape-font-specification:Arial;letter-spacing:0.88220423px;word-spacing:0px;display:inline;overflow:visible;visibility:visible;fill:#e69d76;fill-opacity:1;fill-rule:nonzero;stroke:#e99f77;stroke-width:2;stroke-miterlimit:4;stroke-dasharray:none;stroke-opacity:1;marker:none;enable-background:accumulate"
       x="224.66396"
       y="1548.6953"
       id="text1711-2-3"
       transform="matrix(-0.02665862,-0.84533119,1.1912388,0.26225273,0,0)"><tspan
         sodipodi:role="line"
         x="225.8476"
         y="1548.6953"
         id="tspan1709-8-6"
         style="font-style:normal;font-variant:normal;font-weight:bold;font-stretch:normal;font-family:Lavi;-inkscape-font-specification:'Lavi Bold';letter-spacing:2.36726809px;word-spacing:0px;fill:#ffffff;fill-opacity:1;stroke:#ffffff;stroke-width:2;stroke-miterlimit:4;stroke-dasharray:none;stroke-opacity:1"><tspan
           x="224.66396"
           y="1548.6953"
           style="color:#000000;font-style:normal;font-variant:normal;font-weight:bold;font-stretch:normal;font-size:58.34113693px;line-height:1.25;font-family:Lavi;-inkscape-font-specification:'Lavi Bold';text-align:center;letter-spacing:2.36726809px;word-spacing:0px;text-anchor:middle;display:inline;overflow:visible;visibility:visible;fill:#ffffff;fill-opacity:1;fill-rule:nonzero;stroke:#ffffff;stroke-width:2;stroke-miterlimit:4;stroke-dasharray:none;stroke-opacity:1;marker:none;enable-background:accumulate"
           id="tspan1707-9-7">Wuuup!</tspan></tspan></text>
    <path
       style="fill:#ffffff;fill-opacity:1;fill-rule:evenodd;stroke:none;stroke-width:0.9326129px;stroke-linecap:butt;stroke-linejoin:miter;stroke-opacity:1"
       d="m 337.8574,1202.3778 c -6.6742,-8.5996 1.61188,-19.3901 8.21833,-23.2096 7.40645,-7.1039 16.92229,-7.0471 25.81571,-6.5131 8.84698,1.3971 15.33255,-5.4459 21.07721,-12.5198 9.0924,-9.1782 22.29458,-12.3279 33.02412,-5.6348 7.97424,4.5624 17.1955,10.1714 25.93609,4.9375 10.4235,-5.2969 23.69134,-9.9318 33.75259,-1.1899 7.15722,10.1523 19.04019,5.8356 27.796,1.8292 11.24623,-4.6999 23.55466,-7.5533 35.17073,-2.9954 7.70197,2.6678 17.25376,3.9699 21.05348,14.0209 4.58625,11.0078 9.52022,24.1481 20.26112,27.4471 7.60272,2.8488 18.5393,4.575 20.45326,16.0339 -0.22279,10.2257 -4.24825,20.309 -7.90926,29.2151 -10.82405,11.5394 -27.42592,2.6654 -41.172,5.8607 -8.98795,2.0576 -17.44373,6.5807 -24.88679,13.028 -12.14017,7.5216 -26.11864,1.4049 -38.74673,6.3068 -14.89227,4.5811 -30.87408,3.9138 -44.98427,12.162 -16.0674,7.6646 -34.97082,5.1806 -49.06923,-7.1381 -6.05085,-6.1221 -13.71569,-8.4171 -21.4206,-7.2464 -10.29187,0.4132 -15.57209,2.3794 -23.17406,-8.1387 -6.09402,-7.5017 -4.4547,-5.1298 -8.514,-13.4728 -4.24387,-8.2372 -14.10059,-10.0299 -17.06344,-19.7751 -2.26948,-8.0541 5.60073,-14.584 4.38174,-23.0075 z"
       id="path4367-3"
       inkscape:connector-curvature="0"
       sodipodi:nodetypes="ccccccccccccccccccccccc" />
    <text
       xml:space="preserve"
       style="font-style:normal;font-variant:normal;font-weight:normal;font-stretch:normal;line-height:0%;font-family:Lavi;-inkscape-font-specification:Lavi;text-align:center;letter-spacing:0px;word-spacing:0px;text-anchor:middle;fill:#000000;fill-opacity:1;stroke:none"
       x="480.21338"
       y="1182.6732"
       id="text4246-5-3-7-2-0"><tspan
         sodipodi:role="line"
         style="font-size:45px;line-height:1.25"
         x="480.21338"
         y="1186.161"
         id="tspan890-5-9-9" /><tspan
         sodipodi:role="line"
         style="font-style:normal;font-variant:normal;font-weight:bold;font-stretch:normal;font-size:53.33333206px;line-height:1.25;font-family:Lavi;-inkscape-font-specification:'Lavi Bold'"
         x="480.21338"
         y="1231.5079"
         id="tspan950-2-3">Iiih...</tspan><tspan
         sodipodi:role="line"
         style="font-style:normal;font-variant:normal;font-weight:bold;font-stretch:normal;font-size:53.33333206px;line-height:1.25;font-family:Lavi;-inkscape-font-specification:'Lavi Bold'"
         x="480.21338"
         y="1252.8276"
         id="tspan917-6-7-6" /></text>
    <path
       style="color:#000000;display:inline;overflow:visible;visibility:visible;fill:#ffffff;fill-opacity:1;fill-rule:nonzero;stroke:none;stroke-width:1.30749774px;marker:none;enable-background:accumulate"
       d="m 381.7757,1263.1003 c 55.63158,-38.7655 302.33339,-60.8245 405.52694,14.6962 103.1935,75.5207 66.66111,180.9783 7.45161,209.8134 -59.20936,28.8352 -242.17885,39.3072 -325.99402,27.2248 -142.05466,-20.4777 -153.39309,-65.5663 -157.43617,-141.2153 -1.65014,-30.8754 14.82008,-71.7536 70.45164,-110.5191 z"
       id="path4040-3"
       inkscape:connector-curvature="0"
       sodipodi:nodetypes="zssssz" />
    <text
       xml:space="preserve"
       style="font-style:normal;font-variant:normal;font-weight:normal;font-stretch:normal;font-size:45px;line-height:0%;font-family:Lavi;-inkscape-font-specification:'Lavi, Normal';font-variant-ligatures:normal;font-variant-caps:normal;font-variant-numeric:normal;font-feature-settings:normal;text-align:center;letter-spacing:0px;word-spacing:0px;writing-mode:lr-tb;text-anchor:middle;fill:#000000;fill-opacity:1;stroke:none"
       x="584.40906"
       y="1263.9965"
       id="text4246-5-3-5"><tspan
         sodipodi:role="line"
         style="font-style:normal;font-variant:normal;font-weight:normal;font-stretch:normal;font-size:45px;line-height:1.25;font-family:Lavi;-inkscape-font-specification:'Lavi, Normal';font-variant-ligatures:normal;font-variant-caps:normal;font-variant-numeric:normal;font-feature-settings:normal;text-align:center;writing-mode:lr-tb;text-anchor:middle"
         x="584.40906"
         y="1277.0757"
         id="tspan890-6" /><tspan
         sodipodi:role="line"
         style="font-style:normal;font-variant:normal;font-weight:normal;font-stretch:normal;font-size:45px;line-height:1.25;font-family:Lavi;-inkscape-font-specification:'Lavi, Normal';font-variant-ligatures:normal;font-variant-caps:normal;font-variant-numeric:normal;font-feature-settings:normal;text-align:center;writing-mode:lr-tb;text-anchor:middle"
         x="584.40906"
         y="1305.2007"
         id="tspan849-1">Olen varma, että</tspan><tspan
         sodipodi:role="line"
         style="font-style:normal;font-variant:normal;font-weight:normal;font-stretch:normal;font-size:45px;line-height:1.25;font-family:Lavi;-inkscape-font-specification:'Lavi, Normal';font-variant-ligatures:normal;font-variant-caps:normal;font-variant-numeric:normal;font-feature-settings:normal;text-align:center;writing-mode:lr-tb;text-anchor:middle"
         x="584.40906"
         y="1361.4507"
         id="tspan917-2">kirjassa kerrotaan,</tspan><tspan
         sodipodi:role="line"
         style="font-style:normal;font-variant:normal;font-weight:normal;font-stretch:normal;font-size:45px;line-height:1.25;font-family:Lavi;-inkscape-font-specification:'Lavi, Normal';font-variant-ligatures:normal;font-variant-caps:normal;font-variant-numeric:normal;font-feature-settings:normal;text-align:center;writing-mode:lr-tb;text-anchor:middle"
         x="584.40906"
         y="1417.7007"
         id="tspan103">miten tämän otuksen</tspan><tspan
         sodipodi:role="line"
         style="font-style:normal;font-variant:normal;font-weight:normal;font-stretch:normal;font-size:45px;line-height:1.25;font-family:Lavi;-inkscape-font-specification:'Lavi, Normal';font-variant-ligatures:normal;font-variant-caps:normal;font-variant-numeric:normal;font-feature-settings:normal;text-align:center;writing-mode:lr-tb;text-anchor:middle"
         x="584.40906"
         y="1473.9507"
         id="tspan105">saa irrotettua ...</tspan></text>
    <text
       xml:space="preserve"
       style="font-style:normal;font-variant:normal;font-weight:normal;font-stretch:normal;font-size:9.23767757px;line-height:0%;font-family:Lavi;-inkscape-font-specification:Lavi;text-align:center;letter-spacing:0px;word-spacing:0px;text-anchor:middle;fill:#000000;fill-opacity:1;stroke:none;stroke-width:0.76980644"
       x="1847.3668"
       y="1480.8993"
       id="text4246-5-3-5-7"><tspan
         sodipodi:role="line"
         style="font-size:34.64128876px;line-height:1.25;stroke-width:0.76980644"
         x="1847.3668"
         y="1483.5842"
         id="tspan890-6-0" /><tspan
         sodipodi:role="line"
         style="font-style:normal;font-variant:normal;font-weight:normal;font-stretch:normal;font-size:34.66666794px;line-height:1.25;font-family:Lavi;-inkscape-font-specification:Lavi;stroke-width:0.76980644"
         x="1847.3668"
         y="1512.6418"
         id="tspan1049">Carrot... Voisitko</tspan><tspan
         sodipodi:role="line"
         style="font-style:normal;font-variant:normal;font-weight:normal;font-stretch:normal;font-size:34.66666794px;line-height:1.25;font-family:Lavi;-inkscape-font-specification:Lavi;stroke-width:0.76980644"
         x="1847.3668"
         y="1555.9752"
         id="tspan109">lukea sen?</tspan><tspan
         sodipodi:role="line"
         style="font-style:normal;font-variant:normal;font-weight:normal;font-stretch:normal;font-size:34.66666794px;line-height:1.25;font-family:Lavi;-inkscape-font-specification:Lavi;stroke-width:0.76980644"
         x="1847.3668"
         y="1570.2509"
         id="tspan917-2-2" /></text>
    <text
       xml:space="preserve"
       style="font-style:normal;font-variant:normal;font-weight:normal;font-stretch:normal;font-size:9.49034405px;line-height:0%;font-family:Lavi;-inkscape-font-specification:Lavi;text-align:center;letter-spacing:0px;word-spacing:0px;text-anchor:middle;fill:#000000;fill-opacity:1;stroke:none;stroke-width:0.79086202"
       x="1955.5698"
       y="1604.2694"
       id="text4246-5-3-5-7-6"><tspan
         sodipodi:role="line"
         style="font-size:35.58879089px;line-height:1.25;stroke-width:0.79086202"
         x="1955.5698"
         y="1607.0278"
         id="tspan890-6-0-1" /><tspan
         sodipodi:role="line"
         style="font-style:normal;font-variant:normal;font-weight:normal;font-stretch:normal;font-size:30.66666603px;line-height:1.25;font-family:Lavi;-inkscape-font-specification:Lavi;stroke-width:0.79086202"
         x="1955.5698"
         y="1632.3494"
         id="tspan1080">Hmm... etpä</tspan><tspan
         sodipodi:role="line"
         style="font-style:normal;font-variant:normal;font-weight:normal;font-stretch:normal;font-size:30.66666603px;line-height:1.25;font-family:Lavi;-inkscape-font-specification:Lavi;stroke-width:0.79086202"
         x="1955.5698"
         y="1670.6827"
         id="tspan113">taida osata ...</tspan><tspan
         sodipodi:role="line"
         style="font-style:normal;font-variant:normal;font-weight:normal;font-stretch:normal;font-size:30.66666603px;line-height:1.25;font-family:Lavi;-inkscape-font-specification:Lavi;stroke-width:0.79086202"
         x="1955.5698"
         y="1683.6945"
         id="tspan917-2-2-9" /></text>
    <text
       xml:space="preserve"
       style="font-style:normal;font-variant:normal;font-weight:normal;font-stretch:normal;font-size:10.48344421px;line-height:0%;font-family:Lavi;-inkscape-font-specification:Lavi;text-align:center;letter-spacing:0px;word-spacing:0px;text-anchor:middle;fill:#000000;fill-opacity:1;stroke:none;stroke-width:0.87362039"
       x="1984.7023"
       y="1719.391"
       id="text4246-5-3-5-7-6-2"><tspan
         sodipodi:role="line"
         style="font-size:39.3129158px;line-height:1.25;stroke-width:0.87362039"
         x="1984.7023"
         y="1722.438"
         id="tspan890-6-0-1-0" /><tspan
         sodipodi:role="line"
         style="font-style:normal;font-variant:normal;font-weight:normal;font-stretch:normal;font-size:26.66666794px;line-height:1.25;font-family:Lavi;-inkscape-font-specification:Lavi;stroke-width:0.87362039"
         x="1984.7023"
         y="1743.8083"
         id="tspan1080-3">No...</tspan><tspan
         sodipodi:role="line"
         style="font-style:normal;font-variant:normal;font-weight:normal;font-stretch:normal;font-size:39.3129158px;line-height:1.25;font-family:Lavi;-inkscape-font-specification:Lavi;stroke-width:0.87362039"
         x="1984.7023"
         y="1755.7714"
         id="tspan917-2-2-9-7" /></text>
    <text
       xml:space="preserve"
       style="color:#000000;font-style:normal;font-variant:normal;font-weight:normal;font-stretch:normal;font-size:13.68011093px;line-height:0.01%;font-family:Arial;-inkscape-font-specification:Arial;letter-spacing:1.1032722px;word-spacing:0px;display:inline;overflow:visible;visibility:visible;fill:#e69d76;fill-opacity:1;fill-rule:nonzero;stroke:#e99f77;stroke-width:0;stroke-miterlimit:4;stroke-dasharray:none;stroke-opacity:1;marker:none;enable-background:accumulate"
       x="2813.7102"
       y="434.09442"
       id="text1711-2-3-9"
       transform="matrix(0.8793411,0.03700556,-0.36761453,1.1217447,0,0)"><tspan
         sodipodi:role="line"
         x="2815.1904"
         y="434.09442"
         id="tspan1709-8-6-2"
         style="font-style:normal;font-variant:normal;font-weight:bold;font-stretch:normal;font-family:Lavi;-inkscape-font-specification:'Lavi Bold';letter-spacing:2.96047211px;word-spacing:0px;fill:#ffffff;fill-opacity:1;stroke:#ffffff;stroke-width:0;stroke-miterlimit:4;stroke-dasharray:none;stroke-opacity:1"><tspan
           x="2813.7102"
           y="434.09442"
           style="color:#000000;font-style:normal;font-variant:normal;font-weight:bold;font-stretch:normal;font-size:72.96060944px;line-height:1.25;font-family:Lavi;-inkscape-font-specification:'Lavi Bold';text-align:center;letter-spacing:2.96047211px;word-spacing:0px;text-anchor:middle;display:inline;overflow:visible;visibility:visible;fill:#ffffff;fill-opacity:1;fill-rule:nonzero;stroke:#ffffff;stroke-width:0;stroke-miterlimit:4;stroke-dasharray:none;stroke-opacity:1;marker:none;enable-background:accumulate"
           id="tspan1707-9-7-2">?!</tspan></tspan></text>
    <text
       xml:space="preserve"
       style="font-style:normal;font-variant:normal;font-weight:normal;font-stretch:normal;line-height:0%;font-family:Lavi;-inkscape-font-specification:Lavi;text-align:center;letter-spacing:0px;word-spacing:0px;text-anchor:middle;fill:#000000;fill-opacity:1;stroke:none"
       x="1035.7271"
       y="3135.5305"
       id="text4246-5-3-5-5"><tspan
         sodipodi:role="line"
         style="font-size:45px;line-height:1.25"
         x="1035.7271"
         y="3139.0183"
         id="tspan890-6-6" /><tspan
         sodipodi:role="line"
         style="font-style:normal;font-variant:normal;font-weight:bold;font-stretch:normal;font-size:53.33333206px;line-height:1.25;font-family:Lavi;-inkscape-font-specification:'Lavi Bold'"
         x="1035.7271"
         y="3184.3652"
         id="tspan954-2">Grrr!!!</tspan><tspan
         sodipodi:role="line"
         style="font-style:normal;font-variant:normal;font-weight:bold;font-stretch:normal;font-size:53.33333206px;line-height:1.25;font-family:Lavi;-inkscape-font-specification:'Lavi Bold'"
         x="1035.7271"
         y="3205.6851"
         id="tspan917-2-0" /></text>
    <text
       xml:space="preserve"
       style="font-style:normal;font-variant:normal;font-weight:normal;font-stretch:normal;font-size:10.72316265px;line-height:0%;font-family:Lavi;-inkscape-font-specification:Lavi;text-align:center;letter-spacing:0px;word-spacing:0px;text-anchor:middle;fill:#000000;fill-opacity:1;stroke:none;stroke-width:0.89359683"
       x="1024.2609"
       y="2766.0842"
       id="text4246-5-3-5-5-9"><tspan
         sodipodi:role="line"
         style="font-size:40.21185684px;line-height:1.25;stroke-width:0.89359683"
         x="1024.2609"
         y="2769.2009"
         id="tspan890-6-6-3" /><tspan
         sodipodi:role="line"
         style="font-style:normal;font-variant:normal;font-weight:bold;font-stretch:normal;font-size:41.70118713px;line-height:1.25;font-family:Lavi;-inkscape-font-specification:'Lavi Bold';stroke-width:0.89359683"
         x="1024.2609"
         y="2804.2678"
         id="tspan962">ARVASIN</tspan><tspan
         sodipodi:role="line"
         style="font-style:normal;font-variant:normal;font-weight:bold;font-stretch:normal;font-size:41.70118713px;line-height:1.25;font-family:Lavi;-inkscape-font-specification:'Lavi Bold';stroke-width:0.89359683"
         x="1024.2609"
         y="2856.3945"
         id="tspan966">SEN!!!</tspan><tspan
         sodipodi:role="line"
         style="font-style:normal;font-variant:normal;font-weight:bold;font-stretch:normal;font-size:41.70118713px;line-height:1.25;font-family:Lavi;-inkscape-font-specification:'Lavi Bold';stroke-width:0.89359683"
         x="1024.2609"
         y="2873.4539"
         id="tspan917-2-0-0" /></text>
    <text
       xml:space="preserve"
       style="font-style:normal;font-variant:normal;font-weight:normal;font-stretch:normal;line-height:0%;font-family:Lavi;-inkscape-font-specification:Lavi;text-align:center;letter-spacing:0px;word-spacing:0px;text-anchor:middle;fill:#000000;fill-opacity:1;stroke:none"
       x="1037.8059"
       y="2898.6663"
       id="text4246-5-3-5-9"><tspan
         sodipodi:role="line"
         style="font-size:45px;line-height:1.25"
         x="1037.8059"
         y="2902.1541"
         id="tspan890-6-2" /><tspan
         sodipodi:role="line"
         style="font-style:normal;font-variant:normal;font-weight:normal;font-stretch:normal;font-size:45px;line-height:1.25;font-family:Lavi;-inkscape-font-specification:Lavi"
         x="1037.8059"
         y="2939.8706"
         id="tspan954-7">Tämä olikin</tspan><tspan
         sodipodi:role="line"
         style="font-style:normal;font-variant:normal;font-weight:normal;font-stretch:normal;font-size:45px;line-height:1.25;font-family:Lavi;-inkscape-font-specification:Lavi"
         x="1037.8059"
         y="2996.1206"
         id="tspan119">liian hyvää</tspan><tspan
         sodipodi:role="line"
         style="font-style:normal;font-variant:normal;font-weight:normal;font-stretch:normal;font-size:45px;line-height:1.25;font-family:Lavi;-inkscape-font-specification:Lavi"
         x="1037.8059"
         y="3052.3706"
         id="tspan121">ollakseen</tspan><tspan
         sodipodi:role="line"
         style="font-style:normal;font-variant:normal;font-weight:normal;font-stretch:normal;font-size:45px;line-height:1.25;font-family:Lavi;-inkscape-font-specification:Lavi"
         x="1037.8059"
         y="3108.6206"
         id="tspan1048">totta!</tspan><tspan
         sodipodi:role="line"
         style="font-style:normal;font-variant:normal;font-weight:normal;font-stretch:normal;font-size:45px;line-height:1.25;font-family:Lavi;-inkscape-font-specification:Lavi"
         x="1037.8059"
         y="3127.1541"
         id="tspan917-2-9" /></text>
    <text
       xml:space="preserve"
       style="font-style:normal;font-variant:normal;font-weight:normal;font-stretch:normal;line-height:0%;font-family:Lavi;-inkscape-font-specification:Lavi;text-align:center;letter-spacing:0px;word-spacing:0px;text-anchor:middle;fill:#000000;fill-opacity:1;stroke:none"
       x="2107.0674"
       y="2142.3289"
       id="text4246-5-3-5-9-2"><tspan
         sodipodi:role="line"
         style="font-size:45px;line-height:1.25"
         x="2107.0674"
         y="2145.8167"
         id="tspan890-6-2-2" /><tspan
         sodipodi:role="line"
         style="font-style:normal;font-variant:normal;font-weight:normal;font-stretch:normal;font-size:45px;line-height:1.25;font-family:Lavi;-inkscape-font-specification:Lavi"
         x="2107.0674"
         y="2183.5332"
         id="tspan130">Ehkä kirjat eivät</tspan><tspan
         sodipodi:role="line"
         style="font-style:normal;font-variant:normal;font-weight:normal;font-stretch:normal;font-size:45px;line-height:1.25;font-family:Lavi;-inkscape-font-specification:Lavi"
         x="2107.0674"
         y="2239.7832"
         id="tspan132">voikaan auttaa jokai-</tspan><tspan
         sodipodi:role="line"
         style="font-style:normal;font-variant:normal;font-weight:normal;font-stretch:normal;font-size:45px;line-height:1.25;font-family:Lavi;-inkscape-font-specification:Lavi"
         x="2107.0674"
         y="2296.0332"
         id="tspan1117">sessa tilanteessa ...</tspan><tspan
         sodipodi:role="line"
         style="font-style:normal;font-variant:normal;font-weight:normal;font-stretch:normal;font-size:45px;line-height:1.25;font-family:Lavi;-inkscape-font-specification:Lavi"
         x="2107.0674"
         y="2314.5667"
         id="tspan917-2-9-3" /></text>
    <text
       xml:space="preserve"
       style="color:#000000;font-style:normal;font-variant:normal;font-weight:normal;font-stretch:normal;font-size:10.93896103px;line-height:0.01%;font-family:Arial;-inkscape-font-specification:Arial;letter-spacing:0.88220423px;word-spacing:0px;display:inline;overflow:visible;visibility:visible;fill:#e69d76;fill-opacity:1;fill-rule:nonzero;stroke:#e99f77;stroke-width:2;stroke-miterlimit:4;stroke-dasharray:none;stroke-opacity:1;marker:none;enable-background:accumulate"
       x="4271.3828"
       y="2071.3848"
       id="text1711-2-3-1"
       transform="matrix(0.79338838,0.2929682,-0.69069394,1.0053697,0,0)"><tspan
         sodipodi:role="line"
         x="4272.5664"
         y="2071.3848"
         id="tspan1709-8-6-29"
         style="font-style:normal;font-variant:normal;font-weight:bold;font-stretch:normal;font-family:Lavi;-inkscape-font-specification:'Lavi Bold';letter-spacing:2.36726809px;word-spacing:0px;fill:#ffffff;fill-opacity:1;stroke:#ffffff;stroke-width:2;stroke-miterlimit:4;stroke-dasharray:none;stroke-opacity:1"><tspan
           x="4271.3828"
           y="2071.3848"
           style="color:#000000;font-style:normal;font-variant:normal;font-weight:bold;font-stretch:normal;font-size:58.34113693px;line-height:1.25;font-family:Lavi;-inkscape-font-specification:'Lavi Bold';text-align:center;letter-spacing:2.36726809px;word-spacing:0px;text-anchor:middle;display:inline;overflow:visible;visibility:visible;fill:#ffffff;fill-opacity:1;fill-rule:nonzero;stroke:#ffffff;stroke-width:2;stroke-miterlimit:4;stroke-dasharray:none;stroke-opacity:1;marker:none;enable-background:accumulate"
           id="tspan1707-9-7-3">Paf!</tspan></tspan></text>
  </g>
</svg>
