<?xml version="1.0" encoding="UTF-8" standalone="no"?>
<svg
   xmlns:dc="http://purl.org/dc/elements/1.1/"
   xmlns:cc="http://creativecommons.org/ns#"
   xmlns:rdf="http://www.w3.org/1999/02/22-rdf-syntax-ns#"
   xmlns:svg="http://www.w3.org/2000/svg"
   xmlns="http://www.w3.org/2000/svg"
   xmlns:xlink="http://www.w3.org/1999/xlink"
   xmlns:sodipodi="http://sodipodi.sourceforge.net/DTD/sodipodi-0.dtd"
   xmlns:inkscape="http://www.inkscape.org/namespaces/inkscape"
   id="svg2"
   version="1.1"
   inkscape:version="1.0.2-2 (e86c870879, 2021-01-15)"
   width="2481"
   height="3503"
   sodipodi:docname="E19P02.svg">
  <sodipodi:namedview
     pagecolor="#ffffff"
     bordercolor="#666666"
     inkscape:pageopacity="0"
     inkscape:pageshadow="2"
     inkscape:window-width="1350"
     inkscape:window-height="729"
     id="namedview70"
     showgrid="false"
     inkscape:zoom="0.4"
     inkscape:cx="1364.2659"
     inkscape:cy="2833.8627"
     inkscape:current-layer="layer3"
     inkscape:document-rotation="0"
     inkscape:window-x="0"
     inkscape:window-y="0"
     inkscape:window-maximized="0" />
  <metadata
     id="metadata8">
    <rdf:RDF>
      <cc:Work
         rdf:about="">
        <dc:format>image/svg+xml</dc:format>
        <dc:type
           rdf:resource="http://purl.org/dc/dcmitype/StillImage" />
        <dc:title />
      </cc:Work>
    </rdf:RDF>
  </metadata>
  <defs
     id="defs6">
    <filter
       inkscape:collect="always"
       style="color-interpolation-filters:sRGB"
       id="filter5236-4-16-3"
       x="-0.0089085409"
       width="1.0178171"
       y="-0.027928527"
       height="1.0558571">
      <feGaussianBlur
         inkscape:collect="always"
         stdDeviation="0.49168068"
         id="feGaussianBlur5238-0-4-6" />
    </filter>
    <filter
       inkscape:collect="always"
       style="color-interpolation-filters:sRGB"
       id="filter5236-4-16"
       x="-0.0089085409"
       width="1.0178171"
       y="-0.027928527"
       height="1.0558571">
      <feGaussianBlur
         inkscape:collect="always"
         stdDeviation="0.49168068"
         id="feGaussianBlur5238-0-4" />
    </filter>
  </defs>
  <sodipodi:namedview
     pagecolor="#ffffff"
     bordercolor="#666666"
     borderopacity="1"
     objecttolerance="10"
     gridtolerance="10"
     guidetolerance="10"
     inkscape:pageopacity="0"
     inkscape:pageshadow="2"
     inkscape:window-width="1920"
     inkscape:window-height="1025"
     id="namedview4"
     showgrid="false"
     inkscape:zoom="0.4224276"
     inkscape:cx="1121.6917"
     inkscape:cy="997.33668"
     inkscape:window-x="0"
     inkscape:window-y="26"
     inkscape:window-maximized="1"
     inkscape:current-layer="layer1" />
  <g
     inkscape:groupmode="layer"
     id="layer2"
     inkscape:label="artwork"
     sodipodi:insensitive="true">
    <image
       sodipodi:absref="C:\Users\quentinlipeck\Downloads\webcomics-master-ec7d62e6553c2c63bb1cf2e799ee31f9cb9ce5e2\webcomics-master-ec7d62e6553c2c63bb1cf2e799ee31f9cb9ce5e2\ep19_Pollution\lang\gfx_Pepper-and-Carrot_by-David-Revoy_E19P02.png"
       xlink:href="../gfx_Pepper-and-Carrot_by-David-Revoy_E19P02.png"
       y="0"
       x="0"
       id="image10"
       height="3503"
       width="2481" />
  </g>
  <g
     inkscape:groupmode="layer"
     id="layer4"
     inkscape:label="translatornotes"
     sodipodi:insensitive="true">
    <path
       inkscape:connector-curvature="0"
       id="path3446"
       d="m 2763.8482,1498.4924 0,-189.0352 -203.8301,0 0,90.9805 -10,0 0,-15.6308 -30.9824,26.9824 30.9824,26.9804 0,-16.6171 10,0 0,76.3398 203.8301,0 z"
       style="color:#000000;clip-rule:nonzero;display:inline;overflow:visible;visibility:visible;opacity:0.481;isolation:auto;mix-blend-mode:normal;color-interpolation:sRGB;color-interpolation-filters:linearRGB;solid-color:#000000;solid-opacity:1;fill:#ffe680;fill-opacity:1;fill-rule:nonzero;stroke:#565656;stroke-width:1.20000005;stroke-linecap:butt;stroke-linejoin:miter;stroke-miterlimit:4;stroke-dasharray:none;stroke-dashoffset:0;stroke-opacity:1;marker:none;color-rendering:auto;image-rendering:auto;shape-rendering:auto;text-rendering:auto;enable-background:accumulate" />
    <flowRoot
       transform="translate(2793.4167,295.2096)"
       style="font-style:normal;font-variant:normal;font-weight:normal;font-stretch:normal;line-height:0.01%;font-family:Lavi;-inkscape-font-specification:'Lavi, Normal';text-align:center;letter-spacing:0px;word-spacing:0px;writing-mode:lr-tb;text-anchor:middle;display:inline;opacity:0.481;fill:#000000;fill-opacity:1;stroke:none;stroke-width:1px;stroke-linecap:butt;stroke-linejoin:miter;stroke-opacity:1"
       id="flowRoot3448"
       xml:space="preserve"><flowRegion
         id="flowRegion3450"><rect
           y="1061.6674"
           x="-275.14545"
           height="247.52747"
           width="291.95547"
           id="rect3452" /></flowRegion><flowPara
         id="flowPara3473"
         style="font-size:25.3242px;line-height:1.25">labels</flowPara><flowPara
         id="flowPara4255"
         style="font-size:25.3242px;line-height:1.25">in the </flowPara><flowPara
         id="flowPara4257"
         style="font-size:25.3242px;line-height:1.25">garden :-)</flowPara></flowRoot>
  </g>
  <g
     inkscape:groupmode="layer"
     id="layer3"
     inkscape:label="speechbubbles"
     style="display:inline">
    <path
       style="color:#000000;display:inline;overflow:visible;visibility:visible;fill:#ffffff;fill-opacity:1;fill-rule:nonzero;stroke:none;stroke-width:1px;marker:none;enable-background:accumulate"
       d="m 1044.2756,224.52874 c 23.4914,-33.27491 247.7294,-52.28964 318.5883,1.14813 59.1448,44.60374 66.4311,141.48874 22.4921,167.96102 -43.9391,26.47238 -217.5976,27.59731 -288.1506,16.62641 -67.1763,-10.44584 -75.0279,-37.67302 -87.1691,-105.67133 -4.9554,-27.75276 10.7476,-46.78923 34.2393,-80.06423 z"
       id="path4040-4"
       inkscape:connector-curvature="0"
       sodipodi:nodetypes="zssssz" />
    <path
       style="color:#000000;display:inline;overflow:visible;visibility:visible;fill:#ffffff;fill-opacity:1;fill-rule:nonzero;stroke:none;stroke-width:1.02743px;marker:none;enable-background:accumulate"
       d="m 1233.1798,480.45513 c 7.804,-74.57459 85.7999,-127.65177 285.4507,-109.4945 106.9438,9.72595 228.4533,17.15929 218.2637,126.43132 -10.1897,109.27192 -184.9269,102.87166 -221.0649,104.69029 -36.1381,1.81874 -223.8442,-13.51421 -255.9439,-51.41456 -20.0939,-23.72462 -27.7719,-47.08868 -26.7056,-70.21255 z"
       id="path4546-6"
       inkscape:connector-curvature="0"
       sodipodi:nodetypes="cssssc" />
    <path
       style="color:#000000;display:inline;overflow:visible;visibility:visible;fill:#ffffff;fill-opacity:1;fill-rule:nonzero;stroke:none;stroke-width:0.94378px;marker:none;enable-background:accumulate"
       d="m 1405.9465,597.42803 c 44.6253,-56.53134 278.4436,-44.42084 361.242,-31.70856 122.9227,18.87273 117.6714,71.16786 121.4276,86.13526 3.7559,14.96728 -5.6343,84.36126 -46.9525,97.96804 -41.3179,13.60664 -159.6377,20.40995 -200.9557,20.40995 -41.318,0 -173.2142,-8.66058 -206.5905,-28.57405 -31.9275,-19.04932 -72.7968,-87.69942 -28.1709,-144.23064 z"
       id="path3330"
       inkscape:connector-curvature="0"
       sodipodi:nodetypes="zsssssz" />
    <path
       style="color:#000000;display:inline;overflow:visible;visibility:visible;fill:#ffffff;fill-opacity:1;fill-rule:nonzero;stroke:none;stroke-width:1px;marker:none;enable-background:accumulate"
       d="m 1537.5273,696.39507 c -4.748,19.68499 -0.6503,33.38997 2.5742,37.35036 3.2245,3.96027 2.3513,12.12365 5.2378,17.57337 2.3614,4.51862 3.5729,10.81257 -0.8434,12.64306 -4.4163,1.83058 -29.4289,3.69855 -33.6755,16.66121 -4.2467,12.96272 3.9771,24.00648 14.1454,30.32451 10.1684,6.31815 24.4145,10.44127 22.2717,20.40102 -2.1427,9.95976 -9.8422,13.23017 -15.8741,13.66024 -6.0318,0.43007 -42.6593,-1.86158 -51.9545,1.56498 -9.295,3.4266 -34.8875,18.35716 -31.0179,31.36521 11.9004,-13.15184 18.3151,-19.01847 27.1348,-20.36055 8.8198,-1.34212 24.7212,-5.09072 34.6744,-1.78852 9.9534,3.30225 30.2251,7.01956 38.1327,2.88942 7.9077,-4.13 22.6869,-13.91278 22.9796,-24.81049 0.2928,-10.89767 -5.2053,-22.98724 -21.3925,-31.19418 -10.1682,-6.31811 -14.5522,-10.2849 -13.6078,-13.29434 0.9444,-3.00939 11.8681,-7.35452 23.4562,-6.13032 11.5882,1.22424 17.0469,-9.49086 18.0108,-15.97871 0.9638,-6.48781 -2.7884,-15.67273 -3.2186,-21.7046 -0.4301,-6.03183 -6.7045,-40.19004 -6.7045,-40.19004 z"
       id="path5058"
       inkscape:connector-curvature="0"
       sodipodi:nodetypes="cscsssssscssssccscccc" />
    <path
       style="color:#000000;display:inline;overflow:visible;visibility:visible;fill:#ffffff;fill-opacity:1;fill-rule:nonzero;stroke:none;stroke-width:0.86665px;marker:none;enable-background:accumulate"
       d="m 1503.2558,1866.3516 c 5.0891,-69.8494 33.0013,-95.0896 94.3605,-98.7527 30.4648,-1.8188 140.8035,-8.1256 185.5299,4.5118 44.7262,12.6375 83.0117,51.3422 79.619,102.5251 -3.3928,51.1828 -7.4059,90.8284 -56.2517,105.3166 -48.8458,14.4881 -142.5242,3.8187 -152.2786,4.4209 -19.5085,1.2043 -120.5462,-15.7854 -137.408,-51.7851 -10.555,-22.5348 -14.4193,-44.559 -13.5711,-66.2366 z"
       id="path4546-6-3"
       inkscape:connector-curvature="0"
       sodipodi:nodetypes="cssssssc" />
    <path
       style="color:#000000;display:inline;overflow:visible;visibility:visible;fill:#ffffff;fill-opacity:1;fill-rule:nonzero;stroke:none;stroke-width:1px;marker:none;enable-background:accumulate"
       d="m 1760.2318,2003.0096 c -2.1894,-13.9006 21.8159,-72.4119 155.3725,-63.1448 133.5566,9.2671 147.5063,20.9339 153.6003,70.8244 2.2523,18.4386 -18.5316,45.3021 -38.2367,49.9356 -19.7051,4.6335 -77.3192,17.7137 -110.1609,14.007 -32.8418,-3.7069 -81.3209,-2.8275 -129.6411,-22.2636 -29.1638,-11.7307 -28.7446,-45.6518 -30.9341,-49.3586 z"
       id="path3365"
       inkscape:connector-curvature="0"
       sodipodi:nodetypes="csssssc" />
    <path
       style="fill:#ffffff;fill-opacity:1;stroke:none;stroke-width:0.959298"
       d="m 1760.0982,2194.8117 c -11.0377,-118.6928 67.5603,-159.8657 276.8911,-159.6972 209.3308,0.1682 294.032,33.9583 302.8277,104.627 19.6679,158.0216 -108.8166,197.4339 -177.6749,207.2425 -137.5419,19.5926 -336.3135,-17.2735 -364.3985,-50.3687 -28.085,-33.0952 -35.2223,-70.7702 -37.6454,-101.8036 z"
       id="path3238"
       inkscape:connector-curvature="0"
       sodipodi:nodetypes="cssssc" />
    <path
       style="color:#000000;display:inline;overflow:visible;visibility:visible;fill:#ffffff;fill-opacity:1;fill-rule:nonzero;stroke:none;stroke-width:1px;marker:none;enable-background:accumulate"
       d="m 1882.8016,2295.7967 c -30.6436,39.5697 -91.823,73.3362 -171.3605,30.1552 76.0815,26.4581 119.8575,-5.9599 145.0149,-45.5895 21.7184,-34.2122 33.4899,-49.0683 33.4899,-49.0683 z"
       id="path4440"
       inkscape:connector-curvature="0"
       sodipodi:nodetypes="ccscc" />
    <path
       style="color:#000000;display:inline;overflow:visible;visibility:visible;fill:#ffffff;fill-opacity:1;fill-rule:nonzero;stroke:none;stroke-width:1px;marker:none;enable-background:accumulate"
       d="m 99.104281,2756.9074 c 26.232639,-10.9597 38.666349,-18.5558 0.458237,-34.3247 7.844982,-0.1198 51.624252,-2.1442 9.767152,-32.9366 13.8,3.9749 35.86784,14.5291 11.02706,-36.5871 14.93612,8.1494 35.65375,34.2072 17.48056,-14.0742 19.68024,16.3179 45.60842,6.0013 40.30072,-2.5708 15.83874,10.4052 46.94431,9.5448 44.27984,0.7154 11.64511,9.6323 43.19202,12.4562 40.71636,-3.6881 9.67608,11.0973 39.70587,9.9541 36.76192,0.5253 25.36934,11.2241 62.04581,18.1422 75.90708,2.4934 11.83584,14.8098 66.89103,10.3376 113.06616,0.2295 0.7233,10.4538 52.11644,12.2889 94.00148,-4.7288 0.63394,15.8808 15.74858,21.2619 34.21827,9.5749 6.5956,6.5186 4.83525,10.3103 30.75452,-5.1216 -1.23739,10.6121 3.37613,20.4024 21.43492,10.2432 3.14588,6.5649 -8.36616,23.5801 37.27833,-1.2805 0.30174,9.2802 -10.41257,27.5037 28.8906,5.1216 -31.88352,55.1372 -14.21246,49.2359 7.4556,38.4113 -16.87112,32.5259 -38.63091,72.8685 4.24505,71.3855 -33.57227,7.514 -32.98537,18.687 -28.47585,36.1663 -42.07694,-35.1981 -47.02081,-8.4487 -65.23697,-3.8411 -19.23063,-5.8556 -36.94693,-27.3135 -59.64504,2.5608 -34.77236,-12.2937 -41.66636,-1.0176 -53.12155,6.402 -60.74999,-23.5924 -59.31498,-4.468 -86.67197,-5.1217 -16.17448,-29.1834 -52.67449,-7.1717 -79.2163,-10.2429 -33.55031,-23.9307 -83.47464,-2.9536 -109.59281,6.2711 12.76533,-14.9487 -18.6704,-28.2936 -48.56601,4.1237 14.84555,-27.3926 -9.51158,-36.628 -54.98539,-1.3493 21.36932,-32.458 -8.18465,-27.285 -41.27952,-6.4848 32.39001,-31.5409 -1.83686,-34.2446 -21.252449,-31.8718 z"
       id="path3557"
       inkscape:connector-curvature="0"
       sodipodi:nodetypes="cccccccccccccccccccccccccccccc" />
    <path
       style="color:#000000;display:inline;overflow:visible;visibility:visible;fill:#ffffff;fill-opacity:1;fill-rule:nonzero;stroke:none;stroke-width:1.03834px;marker:none;enable-background:accumulate"
       d="m 228.09625,2839.5634 c 9.09794,-73.3533 100.70404,-126.6439 335.34412,-111.7966 125.68587,7.953 268.48662,13.4367 256.61902,120.9006 -11.86774,107.4636 -217.21881,103.79 -259.68509,106.116 -42.46627,2.3262 -263.0666,-9.926 -300.8261,-46.6664 -23.63658,-22.9987 -32.68244,-45.8287 -31.45195,-68.5536 z"
       id="path4546"
       inkscape:connector-curvature="0"
       sodipodi:nodetypes="cssssc" />
    <path
       style="color:#000000;display:inline;overflow:visible;visibility:visible;fill:#ffffff;fill-opacity:1;fill-rule:nonzero;stroke:none;stroke-width:1px;marker:none;enable-background:accumulate"
       d="m 990.3039,2942.0433 c -39.7219,-30.7338 -84.6659,-56.332 -118.3207,-93.0329 l 9.2071,41.4633 c -19.1495,-7.3977 -31.9655,-24.339 -46.9322,-38.0398 l 1.0996,26.2988 c -44.9905,-17.9715 -75.7521,-49.3371 -113.3909,-74.2288 l 5.8989,45.8738 c 41.0512,21.0955 84.9859,35.8216 122.7937,64.0815 l 1.7812,-25.6614 c 14.445,8.0961 28.5921,16.7337 41.4085,27.7896 l -0.8973,-32.5393 z"
       id="path4032-6"
       inkscape:connector-curvature="0"
       sodipodi:nodetypes="cccccccccccc" />
    <path
       style="fill:#ffffff;stroke:none;stroke-width:1.1853"
       d="m 1699.0807,2771.0202 c 7.0951,-60.4636 49.8882,-85.0538 69.3057,-93.079 19.4173,-8.0252 100.9329,-18.3199 154.181,-16.548 53.2481,1.7719 185.2485,10.4999 207.4477,13.4066 22.1992,2.9066 81.422,48.234 80.7866,87.2344 -0.6351,39.0001 -12.5097,64.619 -44.8658,87.3886 -32.3563,22.7698 -225.3906,27.1856 -237.2835,24.6219 -11.8934,-2.5636 -170.723,-23.0237 -180.6369,-29.8572 -9.9139,-6.8334 -50.0926,-25.5131 -48.9348,-73.1673 z"
       id="path3278"
       inkscape:connector-curvature="0" />
    <path
       style="color:#000000;display:inline;overflow:visible;visibility:visible;fill:#ffffff;fill-opacity:1;fill-rule:nonzero;stroke:none;stroke-width:0.9755px;marker:none;enable-background:accumulate"
       d="m 1751.8024,2881.7265 c 40.137,-44.6327 378.9373,-93.0789 498.0135,-1.1001 119.076,91.9788 46.8496,202.3534 -21.4729,237.4725 -68.3223,35.1192 -269.3852,73.5831 -361.1324,43.4809 -91.7471,-30.1021 -163.2125,-75.099 -167.8779,-167.2341 -1.9041,-37.6041 12.3329,-67.9862 52.4697,-112.6192 z"
       id="path4040"
       inkscape:connector-curvature="0"
       sodipodi:nodetypes="zssssz" />
    <path
       style="display:inline;fill:#ffffff;fill-rule:evenodd;stroke:none;stroke-width:1.05845px;stroke-linecap:butt;stroke-linejoin:miter;stroke-opacity:1"
       d="m 1852.1909,3086.771 c 53.9162,28.5286 84.6277,16.9272 83.7021,-49.3868 25.7232,71.6603 43.5737,87.6873 54.1605,52.3799 34.0557,30.3481 55.3263,21.8353 72.2137,0 6.2944,28.0816 19.7927,16.7498 31.4748,15.3549 3.8477,6.3532 -9.3673,22.1376 44.0214,1.1073 3.4581,8.4093 8.1168,15.651 39.3891,-2.9931 8.1018,34.1321 34.0957,-1.8917 60.7255,-40.4074 -16.5912,47.3518 -9.7115,54.0398 11.4884,35.9176 -9.6925,19.4998 -15.4896,34.5948 21.3358,1.4966 -12.6071,35.9927 20.4676,11.2875 73.855,-40.4072 -26.7051,38.2124 -97.5211,102.6164 -50.8778,97.2767 -6.5047,11.2651 -29.7066,21.0802 39.3892,38.9107 -12.8993,7.6442 -52.2802,-3.5263 -19.4294,28.8398 4.4014,3.7834 -10.3333,6.0937 17.7883,16.0571 -16.6005,-0.6778 -26.7812,1.7436 -11.4887,16.4623 -30.302,-0.7959 -18.9643,14.6808 3.2825,34.4209 -43.8815,-25.3209 -46.2964,-16.1182 -47.5955,-5.9862 -54.9965,-34.521 -58.2246,-23.6523 -65.6487,-16.4623 -26.8066,0.2694 -53.6133,-4.0779 -80.42,34.421 -7.0203,-23.9452 -21.0951,-42.3768 -80.4198,-25.4415 26.0481,-30.4626 -11.0086,-11.0548 -39.3893,1.4965 15.5418,-38.0554 -23.901,-13.0797 -73.855,23.945 27.9741,-42.0237 -3.7978,-26.8437 -50.8779,2.9932 17.7884,-41.2842 -11.1815,-61.2497 -80.4197,-62.8558 33.1395,-14.8917 52.4647,-33.6324 18.0535,-67.3454 38.7911,9.9269 50.3619,0.7062 22.9771,-35.9176 42.3107,30.0605 23.0737,-13.5407 6.5649,-53.8762 z"
       id="path4508"
       inkscape:connector-curvature="0"
       sodipodi:nodetypes="cccccccccccccccccccccccccccc" />
    <path
       style="color:#000000;display:inline;overflow:visible;visibility:visible;fill:#ffffff;fill-opacity:1;fill-rule:nonzero;stroke:none;stroke-width:1px;marker:none;enable-background:accumulate"
       d="m 1490.4164,2866.2226 c 36.6716,-30.7338 78.1642,-56.332 109.2346,-93.0329 l -8.5001,41.4633 c 17.679,-7.3977 29.5108,-24.339 43.3282,-38.0398 l -1.0152,26.2988 c 41.5356,-17.9715 69.9349,-49.3371 104.6834,-74.2288 l -5.4459,45.8738 c -37.8988,21.0955 -78.4597,35.8216 -113.3641,64.0815 l -1.6444,-25.6614 c -13.3358,8.0961 -26.3965,16.7337 -38.2287,27.7896 l 0.8284,-32.5393 z"
       id="path4032"
       inkscape:connector-curvature="0"
       sodipodi:nodetypes="cccccccccccc" />
  </g>
  <g
     inkscape:groupmode="layer"
     id="layer1"
     inkscape:label="txt">
    <text
       xml:space="preserve"
       style="font-style:normal;font-variant:normal;font-weight:normal;font-stretch:normal;line-height:0%;font-family:Lavi;-inkscape-font-specification:Lavi;text-align:center;letter-spacing:0px;word-spacing:0px;text-anchor:middle;fill:#000000;fill-opacity:1;stroke:none"
       x="1194.6492"
       y="249.16325"
       id="text4246"><tspan
         sodipodi:role="line"
         style="font-size:45px;line-height:1.25"
         x="1194.6492"
         y="249.16325"
         id="tspan4252">aaa...</tspan></text>
    <text
       xml:space="preserve"
       style="font-style:normal;font-variant:normal;font-weight:normal;font-stretch:normal;line-height:0%;font-family:Lavi;-inkscape-font-specification:Lavi;text-align:center;letter-spacing:0px;word-spacing:0px;text-anchor:middle;fill:#000000;fill-opacity:1;stroke:none"
       x="1213.9131"
       y="317.91959"
       id="text4246-3"><tspan
         sodipodi:role="line"
         style="font-size:45px;line-height:1.25"
         x="1213.9131"
         y="317.91959"
         id="tspan3831">mi jan pi </tspan><tspan
         sodipodi:role="line"
         style="font-size:45px;line-height:1.25"
         x="1213.9131"
         y="374.16959"
         id="tspan97">sona lili taso...</tspan></text>
    <text
       xml:space="preserve"
       style="font-style:normal;font-variant:normal;font-weight:normal;font-stretch:normal;line-height:0%;font-family:Lavi;-inkscape-font-specification:Lavi;text-align:center;letter-spacing:0px;word-spacing:0px;text-anchor:middle;fill:#000000;fill-opacity:1;stroke:none"
       x="1487.9285"
       y="471.09341"
       id="text4246-3-7"><tspan
         sodipodi:role="line"
         style="font-size:45px;line-height:1.25"
         x="1487.9285"
         y="471.09341"
         id="tspan116">taso tenpo sike ni la, </tspan><tspan
         sodipodi:role="line"
         style="font-size:45px;line-height:1.25"
         x="1487.9285"
         y="527.34338"
         id="tspan120">kasi kili li nasa mute</tspan></text>
    <text
       xml:space="preserve"
       style="font-style:normal;font-variant:normal;font-weight:normal;font-stretch:normal;line-height:0%;font-family:Lavi;-inkscape-font-specification:Lavi;text-align:center;letter-spacing:0px;word-spacing:0px;text-anchor:middle;fill:#000000;fill-opacity:1;stroke:none"
       x="1637.3901"
       y="619.19336"
       id="text4246-3-7-6"><tspan
         sodipodi:role="line"
         style="font-size:45px;line-height:1.25"
         x="1637.3901"
         y="619.19336"
         id="tspan3849">kasi ante lon </tspan><tspan
         sodipodi:role="line"
         style="font-size:45px;line-height:1.25"
         x="1637.3901"
         y="675.44336"
         id="tspan129">poka tomo la, </tspan><tspan
         sodipodi:role="line"
         style="font-size:45px;line-height:1.25"
         x="1637.3901"
         y="731.69336"
         id="tspan127">nasa sama li lon</tspan></text>
    <text
       id="text4178-6-5-9-0-7-0-4"
       style="font-style:normal;font-variant:normal;font-weight:normal;font-stretch:normal;line-height:0%;font-family:Lavi;-inkscape-font-specification:Lavi;text-align:center;letter-spacing:0px;word-spacing:0px;text-anchor:middle;opacity:0.633;fill:#ffffff;fill-opacity:1;stroke:none;filter:url(#filter5236-4-16)"
       xml:space="preserve"
       y="3129.8394"
       x="1318.7137"
       transform="matrix(0.6851492,-0.06612027,-0.09994133,0.78144216,149.5816,-965.35698)"><tspan
         y="3129.8394"
         x="1318.7137"
         style="font-style:normal;font-variant:normal;font-weight:normal;font-stretch:normal;font-size:40.6767px;line-height:1.25;font-family:Fondamento;-inkscape-font-specification:Fondamento;fill:#ffffff;fill-opacity:1"
         sodipodi:role="line"
         id="tspan4293-1-6-3-5-0-2">kili loje</tspan></text>
    <text
       id="text4178-6-5-9-0-7-0-4-7"
       style="font-style:normal;font-variant:normal;font-weight:normal;font-stretch:normal;line-height:1;font-family:Lavi;-inkscape-font-specification:Lavi;text-align:center;letter-spacing:0px;word-spacing:0px;text-anchor:middle;opacity:0.633;fill:#ffffff;fill-opacity:1;stroke:none;filter:url(#filter5236-4-16-3)"
       xml:space="preserve"
       y="3129.8394"
       x="1318.7137"
       transform="matrix(0.58543203,0.08325699,-0.38986142,0.70644422,2169.8616,-977.83592)"><tspan
         style="font-style:normal;font-variant:normal;font-weight:normal;font-stretch:normal;font-size:40.6767px;font-family:Fondamento;-inkscape-font-specification:Fondamento;fill:#ffffff;fill-opacity:1"
         sodipodi:role="line"
         id="tspan96"
         x="1318.7137"
         y="3129.8394">kili pi </tspan><tspan
         y="3170.5161"
         x="1318.7137"
         style="font-style:normal;font-variant:normal;font-weight:normal;font-stretch:normal;font-size:40.6767px;font-family:Fondamento;-inkscape-font-specification:Fondamento;fill:#ffffff;fill-opacity:1"
         sodipodi:role="line"
         id="tspan94">   laso loje</tspan></text>
    <text
       xml:space="preserve"
       style="font-style:normal;font-variant:normal;font-weight:normal;font-stretch:normal;line-height:0%;font-family:Lavi;-inkscape-font-specification:Lavi;text-align:center;letter-spacing:0px;word-spacing:0px;text-anchor:middle;fill:#000000;fill-opacity:1;stroke:none"
       x="1687.533"
       y="1829.5331"
       id="text4246-3-2"><tspan
         sodipodi:role="line"
         style="font-size:45px;line-height:1.25"
         x="1687.533"
         y="1829.5331"
         id="tspan3858">sama la, </tspan><tspan
         sodipodi:role="line"
         style="font-size:45px;line-height:1.25"
         x="1687.533"
         y="1885.7831"
         id="tspan136">pipi li pali e </tspan><tspan
         sodipodi:role="line"
         style="font-size:45px;line-height:1.25"
         x="1687.533"
         y="1942.0331"
         id="tspan138">ijo nasa.</tspan></text>
    <text
       xml:space="preserve"
       style="font-style:normal;font-variant:normal;font-weight:normal;font-stretch:normal;line-height:0%;font-family:Lavi;-inkscape-font-specification:Lavi;text-align:center;letter-spacing:0px;word-spacing:0px;text-anchor:middle;fill:#000000;fill-opacity:1;stroke:none"
       x="1928.5547"
       y="2017.0601"
       id="text4246-3-2-9"><tspan
         sodipodi:role="line"
         style="font-size:45px;line-height:1.25"
         x="1928.5547"
         y="2017.0601"
         id="tspan4259-0">pilin mi la...</tspan></text>
    <text
       xml:space="preserve"
       style="font-style:normal;font-variant:normal;font-weight:normal;font-stretch:normal;line-height:0%;font-family:Lavi;-inkscape-font-specification:Lavi;text-align:center;letter-spacing:0px;word-spacing:0px;text-anchor:middle;fill:#000000;fill-opacity:1;stroke:none"
       x="2053.186"
       y="2123.1831"
       id="text4246-3-2-9-6"><tspan
         sodipodi:role="line"
         style="font-size:45px;line-height:1.25"
         x="2053.186"
         y="2123.1831"
         id="tspan3888">ken la, ma li jaki lili </tspan><tspan
         sodipodi:role="line"
         style="font-size:45px;line-height:1.25"
         x="2053.186"
         y="2179.4331"
         id="tspan110">tan pali mi. ken la, mi ken </tspan><tspan
         sodipodi:role="line"
         style="font-size:45px;line-height:1.25"
         x="2053.186"
         y="2235.6831"
         id="tspan114">ante e pali mi. ken la, </tspan><tspan
         sodipodi:role="line"
         style="font-size:45px;line-height:1.25"
         x="2053.186"
         y="2291.9331"
         id="tspan112">mi ken weka e jaki ni...</tspan></text>
    <text
       xml:space="preserve"
       style="font-style:normal;font-variant:normal;font-weight:normal;font-stretch:normal;line-height:0%;font-family:Lavi;-inkscape-font-specification:Lavi;text-align:center;letter-spacing:0px;word-spacing:0px;text-anchor:middle;fill:#000000;fill-opacity:1;stroke:none;stroke-width:2.8;stroke-miterlimit:4;stroke-dasharray:none"
       x="419.67166"
       y="2684.5779"
       id="text4246-3-2-9-6-6"><tspan
         sodipodi:role="line"
         style="font-size:45px;line-height:1.25;stroke-width:2.8;stroke-miterlimit:4;stroke-dasharray:none"
         x="419.67166"
         y="2684.5779"
         id="tspan3892">o kute, jan </tspan><tspan
         sodipodi:role="line"
         style="font-size:45px;line-height:1.25;stroke-width:2.8;stroke-miterlimit:4;stroke-dasharray:none"
         x="419.67166"
         y="2740.8279"
         id="tspan3900">&quot;<tspan
   style="stroke:#000000;stroke-width:2.8;stroke-miterlimit:4;stroke-dasharray:none;stroke-opacity:1"
   id="tspan4217">mi-ike-e-telo-pali-ale-mi</tspan>&quot; o,</tspan><tspan
         sodipodi:role="line"
         style="font-size:45px;line-height:1.25;stroke-width:2.8;stroke-miterlimit:4;stroke-dasharray:none"
         x="426.70291"
         y="2797.0779"
         id="tspan4378"> </tspan></text>
    <text
       xml:space="preserve"
       style="font-style:normal;font-variant:normal;font-weight:normal;font-stretch:normal;line-height:0%;font-family:Lavi;-inkscape-font-specification:Lavi;text-align:center;letter-spacing:0px;word-spacing:0px;text-anchor:middle;fill:#000000;fill-opacity:1;stroke:none"
       x="527.53906"
       y="2811.6135"
       id="text4246-3-2-9-6-6-7"><tspan
         sodipodi:role="line"
         style="font-size:45px;line-height:1.25"
         x="527.53906"
         y="2811.6135"
         id="tspan211">ken la </tspan><tspan
         sodipodi:role="line"
         style="font-size:45px;line-height:1.25"
         x="527.53906"
         y="2867.8635"
         id="tspan217">len sina pi kulupu Piponaa </tspan><tspan
         sodipodi:role="line"
         style="font-size:45px;line-height:1.25"
         x="527.53906"
         y="2924.1135"
         id="tspan151">li nasa e lawa sina.</tspan><tspan
         sodipodi:role="line"
         style="font-size:45px;line-height:1.25"
         x="534.57031"
         y="2980.3635"
         id="tspan4378-5"> </tspan></text>
    <text
       xml:space="preserve"
       style="font-style:normal;font-variant:normal;font-weight:normal;font-stretch:normal;line-height:0%;font-family:Lavi;-inkscape-font-specification:Lavi;text-align:center;letter-spacing:0px;word-spacing:0px;text-anchor:middle;fill:#000000;fill-opacity:1;stroke:none"
       x="1962.85"
       y="2725.4656"
       id="text4246-3-2-9-6-6-0"><tspan
         sodipodi:role="line"
         style="font-size:45px;line-height:1.25"
         x="1962.85"
         y="2725.4656"
         id="tspan3913">kulupu Pakalaa la, </tspan><tspan
         sodipodi:role="line"
         style="font-size:45px;line-height:1.25"
         x="1962.85"
         y="2781.7156"
         id="tspan160">mi weka e pali pakala </tspan><tspan
         sodipodi:role="line"
         style="font-size:45px;line-height:1.25"
         x="1962.85"
         y="2837.9656"
         id="tspan158">lon anpa ma!</tspan><tspan
         sodipodi:role="line"
         style="font-size:45px;line-height:1.25"
         x="1969.8812"
         y="2894.2156"
         id="tspan4378-7"> </tspan></text>
    <text
       xml:space="preserve"
       style="font-style:normal;font-variant:normal;font-weight:normal;font-stretch:normal;line-height:0%;font-family:Lavi;-inkscape-font-specification:Lavi;text-align:center;letter-spacing:0px;word-spacing:0px;text-anchor:middle;fill:#000000;fill-opacity:1;stroke:none;stroke-width:2.8;stroke-miterlimit:4;stroke-dasharray:none"
       x="2002.6411"
       y="2925.0608"
       id="text4246-3-2-9-6-6-0-5"><tspan
         sodipodi:role="line"
         style="font-size:45px;line-height:1.25;stroke-width:2.8;stroke-miterlimit:4;stroke-dasharray:none"
         x="2002.6411"
         y="2925.0608"
         id="tspan203">tenpo pini ale la, </tspan><tspan
         sodipodi:role="line"
         style="font-size:45px;line-height:1.25;stroke-width:2.8;stroke-miterlimit:4;stroke-dasharray:none"
         x="2002.6411"
         y="2981.3108"
         id="tspan196">ni li nasin. ma li wile e <tspan
   style="font-weight:bold"
   id="tspan172" /></tspan><tspan
         sodipodi:role="line"
         style="font-size:45px;line-height:1.25;stroke-width:2.8;stroke-miterlimit:4;stroke-dasharray:none"
         x="2002.6411"
         y="3037.5608"
         id="tspan102"><tspan
   style="font-weight:bold"
   id="tspan104">NASIN ANTE</tspan> la, </tspan><tspan
         sodipodi:role="line"
         style="font-size:45px;line-height:1.25;stroke-width:2.8;stroke-miterlimit:4;stroke-dasharray:none"
         x="2002.6411"
         y="3093.8108"
         id="tspan225">ni li suli ala tawa mi!</tspan><tspan
         sodipodi:role="line"
         style="font-size:45px;line-height:1.25;stroke-width:2.8;stroke-miterlimit:4;stroke-dasharray:none"
         x="2009.6724"
         y="3150.0608"
         id="tspan4378-7-6"> </tspan></text>
    <text
       xml:space="preserve"
       style="font-style:normal;font-variant:normal;font-weight:normal;font-stretch:normal;line-height:0%;font-family:Lavi;-inkscape-font-specification:Lavi;text-align:center;letter-spacing:0px;word-spacing:0px;text-anchor:middle;fill:#000000;fill-opacity:1;stroke:none;stroke-width:2.8;stroke-miterlimit:4;stroke-dasharray:none"
       x="2083.4753"
       y="3183.5076"
       id="text4246-3-2-9-6-6-0-5-1"><tspan
         sodipodi:role="line"
         style="font-size:45px;line-height:1.25;stroke-width:2.8;stroke-miterlimit:4;stroke-dasharray:none"
         x="2083.4753"
         y="3183.5076"
         id="tspan164">ni la o kalama ala, </tspan><tspan
         sodipodi:role="line"
         style="font-size:45px;line-height:1.25;stroke-width:2.8;stroke-miterlimit:4;stroke-dasharray:none"
         x="2083.4753"
         y="3239.7576"
         id="tspan169">o <tspan
   style="stroke:#000000;stroke-width:2.8;stroke-miterlimit:4;stroke-dasharray:none;stroke-opacity:1"
   id="tspan4219">PALI</tspan>!! </tspan><tspan
         sodipodi:role="line"
         style="font-size:45px;line-height:1.25;stroke-width:2.8;stroke-miterlimit:4;stroke-dasharray:none"
         x="2090.5066"
         y="3296.0076"
         id="tspan4378-7-6-4"> </tspan></text>
  </g>
</svg>
