<?xml version="1.0" encoding="UTF-8" standalone="no"?>
<svg
   xmlns:dc="http://purl.org/dc/elements/1.1/"
   xmlns:cc="http://creativecommons.org/ns#"
   xmlns:rdf="http://www.w3.org/1999/02/22-rdf-syntax-ns#"
   xmlns:svg="http://www.w3.org/2000/svg"
   xmlns="http://www.w3.org/2000/svg"
   xmlns:xlink="http://www.w3.org/1999/xlink"
   xmlns:sodipodi="http://sodipodi.sourceforge.net/DTD/sodipodi-0.dtd"
   xmlns:inkscape="http://www.inkscape.org/namespaces/inkscape"
   sodipodi:docname="E03P07.svg"
   height="3503"
   width="2481"
   inkscape:version="1.0 (4035a4f, 2020-05-01)"
   version="1.1"
   id="svg2">
  <sodipodi:namedview
     inkscape:window-maximized="1"
     inkscape:window-y="0"
     inkscape:window-x="0"
     inkscape:document-rotation="0"
     inkscape:current-layer="layer1"
     inkscape:cy="2918.6204"
     inkscape:cx="1542.1224"
     inkscape:zoom="0.4"
     showgrid="false"
     id="namedview70"
     inkscape:window-height="1031"
     inkscape:window-width="1920"
     inkscape:pageshadow="2"
     inkscape:pageopacity="0"
     bordercolor="#666666"
     pagecolor="#ffffff" />
  <metadata
     id="metadata8">
    <rdf:RDF>
      <cc:Work
         rdf:about="">
        <dc:format>image/svg+xml</dc:format>
        <dc:type
           rdf:resource="http://purl.org/dc/dcmitype/StillImage" />
        <dc:title />
      </cc:Work>
    </rdf:RDF>
  </metadata>
  <defs
     id="defs6" />
  <sodipodi:namedview
     inkscape:current-layer="layer1"
     inkscape:window-maximized="1"
     inkscape:window-y="26"
     inkscape:window-x="0"
     inkscape:cy="1456.9801"
     inkscape:cx="694.92632"
     inkscape:zoom="0.27255257"
     showgrid="false"
     id="namedview4"
     inkscape:window-height="1025"
     inkscape:window-width="1920"
     inkscape:pageshadow="2"
     inkscape:pageopacity="0"
     guidetolerance="10"
     gridtolerance="10"
     objecttolerance="10"
     borderopacity="1"
     bordercolor="#666666"
     pagecolor="#ffffff" />
  <g
     sodipodi:insensitive="true"
     inkscape:label="artwork"
     id="layer2"
     inkscape:groupmode="layer">
    <image
       sodipodi:absref="/home/kraftwerk/Downloads/lang/gfx_Pepper-and-Carrot_by-David-Revoy_E03P07.png"
       xlink:href="../gfx_Pepper-and-Carrot_by-David-Revoy_E03P07.png"
       width="2481"
       height="3503"
       id="image10"
       x="0"
       y="0" />
  </g>
  <g
     inkscape:label="speechbubbles"
     id="layer3"
     inkscape:groupmode="layer">
    <path
       sodipodi:nodetypes="zssszsssssssz"
       inkscape:connector-curvature="0"
       id="path3250"
       d="m 503.47767,2211.4516 c -6.41079,-26.4597 50.37762,-30.6925 57.72435,-36.1733 7.34674,-5.4808 24.13929,-25.2117 36.73373,-28.5002 12.59434,-3.2885 58.77382,10.9617 74.51687,18.6347 15.74295,7.6732 38.70751,-8.0464 61.92243,-4.3845 23.21493,3.6618 30.43653,24.1155 40.93183,30.6923 10.4953,6.577 59.8234,8.7694 60.87297,37.2695 1.04957,28.5002 -71.36827,28.5002 -83.96271,30.6925 -12.59444,2.1924 -47.22905,17.5385 -66.12061,15.3462 -18.89156,-2.1923 -54.57574,-13.1539 -72.41783,-15.3462 -17.84209,-2.1923 -44.08041,9.8654 -55.62528,1.0962 -11.54487,-8.7694 -10.49534,-15.3463 -15.743,-19.7309 -5.24767,-4.3846 -32.42196,-3.1367 -38.83275,-29.5963 z"
       style="fill:#ffffff;stroke:none" />
    <path
       inkscape:connector-curvature="0"
       id="path3270"
       d="m 346.26392,2402.1905 c 11.85374,-75.2667 52.80304,-147.3077 299.5764,-156.9849 246.77337,-9.6771 348.06899,89.2449 349.1466,146.2325 1.07762,56.9876 -72.20007,163.4363 -271.55846,165.5868 -199.3584,2.1505 -370.69886,-7.5267 -377.16454,-154.8344 z"
       style="fill:#ffffff;stroke:none" />
    <path
       sodipodi:nodetypes="ccscscsc"
       inkscape:connector-curvature="0"
       id="path3272"
       d="m 929.28059,2436.0482 c 18.77335,14.6015 45.8904,32.3319 55.27707,31.2889 9.38668,-1.0429 39.63264,-1.0429 57.36304,-9.3867 17.7303,-8.3437 82.191,36.2751 86.3629,68.607 -35.4608,-37.5467 -84.9631,-43.4989 -101.1675,-40.6756 -13.9753,2.4349 -44.64436,26.3028 -54.03104,26.3028 -26.07409,2.0859 -55.27707,-10.4297 -64.66374,-34.4178 -9.38667,-23.9882 20.85927,-41.7186 20.85927,-41.7186 z"
       style="fill:#ffffff;stroke:none" />
    <path
       inkscape:connector-curvature="0"
       id="path3274"
       d="m 311.98216,2717.3523 c 9.97618,-83.2969 104.29637,-178.9072 325.58604,-165.1451 221.28967,13.7621 305.63369,73.1564 299.28521,186.8747 -6.34847,113.7183 -126.06256,157.9019 -311.98216,151.3829 -185.9196,-6.5188 -323.77219,-52.8753 -312.88909,-173.1125 z"
       style="fill:#ffffff;stroke:none;stroke-width:0.893675" />
    <path
       sodipodi:nodetypes="cscsscc"
       inkscape:connector-curvature="0"
       id="path3276"
       d="m 919.61883,2718.3696 c 48.74721,-18.1385 83.15697,8.1623 93.67117,29.0216 10.5141,20.8592 63.0845,9.9761 74.5545,-11.7901 -19.9609,52.676 -79.703,54.6393 -121.73244,26.0768 -12.33917,-8.3855 -34.85287,3.408 -41.54166,27.8751 -6.18209,22.6137 -31.71475,33.9701 -31.71475,33.9701 z"
       style="fill:#ffffff;stroke:none" />
    <path
       inkscape:connector-curvature="0"
       id="path3278"
       d="m 548.12953,1179.7464 c 2.39882,-33.5835 31.18462,-47.9764 44.37811,-52.774 13.19349,-4.7976 69.56567,-11.9941 106.74732,-11.9941 37.18166,0 129.53609,2.3988 145.12839,3.5983 15.59231,1.1994 58.771,25.1875 59.97041,46.7769 1.19941,21.5893 -5.99704,35.9822 -27.58639,49.1757 -21.58934,13.1935 -155.92306,19.1905 -164.31892,17.9911 -8.39585,-1.1994 -119.94081,-9.5952 -127.13726,-13.1935 -7.19645,-3.5982 -35.98225,-13.1934 -37.18166,-39.5804 z"
       style="fill:#ffffff;stroke:none" />
    <path
       inkscape:connector-curvature="0"
       id="path3280"
       d="m 580.51355,1272.1008 c 8.39586,-51.5746 31.18462,-85.158 169.11656,-77.9615 137.93194,7.1964 184.70886,32.384 183.50945,73.1639 -1.19941,40.7798 -61.16982,94.7532 -170.31596,85.1579 -109.14615,-9.5952 -185.90827,-20.3899 -182.31005,-80.3603 z"
       style="fill:#ffffff;stroke:none" />
    <path
       sodipodi:nodetypes="csccssscc"
       inkscape:connector-curvature="0"
       id="path3282"
       d="m 916.67011,1251.9255 c 34.97404,-9.6007 44.08738,-22.9239 59.17422,-29.0958 15.08684,-6.1719 37.37227,13.723 46.96907,13.7075 9.256,-0.6973 19.9337,-8.8917 36.0086,-26.0513 -21.96,40.2843 -33.2152,37.0962 -41.8047,37.7132 -11.8077,0.8482 -22.22209,-10.1381 -34.98947,-2.4485 -12.36675,7.4482 -45.47364,48.1035 -67.41814,49.475 -21.94449,1.3715 -28.60064,-6.5624 -28.60064,-6.5624 z"
       style="fill:#ffffff;stroke:none" />
    <path
       sodipodi:nodetypes="csssssssc"
       inkscape:connector-curvature="0"
       id="path3286"
       d="m 541.43417,242.60501 c -11.79003,-57.13627 19.04541,-104.29636 38.99776,-116.08639 19.95235,-11.79002 54.4155,-26.30082 71.64707,-29.021594 17.23157,-2.720775 290.21596,-10.883099 306.54061,-3.6277 16.32465,7.255404 89.78559,33.556224 106.11019,68.926294 16.3247,35.37007 18.1385,98.85481 -3.6277,118.80716 -21.7662,19.95235 -42.6254,58.95012 -166.87416,64.39167 -124.24871,5.44155 -287.47275,-9.8672 -322.86526,-51.69472 -19.95235,-23.58005 -29.92851,-51.69472 -29.92851,-51.69472 z"
       style="fill:#ffffff;stroke:none" />
    <path
       inkscape:connector-curvature="0"
       id="path3288"
       d="m 1059.9192,210.46832 c 57.57,-27.60206 176.6532,-67.82221 291.0046,52.83824 -146.6853,-86.74934 -164.8238,-65.45632 -280.7524,-28.3907 -115.92869,37.06563 -106.46512,3.15452 -106.46512,3.15452 z"
       style="fill:#ffffff;stroke:none" />
  </g>
  <g
     inkscape:label="txt"
     id="layer1"
     inkscape:groupmode="layer">
    <flowRoot
       transform="translate(408.71268,-137.28313)"
       style="font-style:normal;font-variant:normal;font-weight:normal;font-stretch:normal;line-height:0.01%;font-family:Lavi;-inkscape-font-specification:Lavi;letter-spacing:0px;word-spacing:0px;fill:#000000;fill-opacity:1;stroke:none"
       id="flowRoot2987"
       xml:space="preserve"><flowRegion
         id="flowRegion2989"><rect
           style="font-style:normal;font-variant:normal;font-weight:normal;font-stretch:normal;font-family:Lavi;-inkscape-font-specification:Lavi"
           y="265.53046"
           x="120.55251"
           height="226.82907"
           width="558.34851"
           id="rect2991" /></flowRegion><flowPara
         id="flowPara3017"
         style="font-size:48px;line-height:1.25;text-align:center;text-anchor:middle">İşte bu kadar Carrot.</flowPara><flowPara
         id="flowPara6416"
         style="font-size:48px;line-height:1.25;text-align:center;text-anchor:middle">Sanırım lazım olan her</flowPara><flowPara
         id="flowPara6418"
         style="font-size:48px;line-height:1.25;text-align:center;text-anchor:middle">şeyi aldık.</flowPara></flowRoot>
    <flowRoot
       transform="translate(296.71434,868.58695)"
       style="font-style:normal;font-variant:normal;font-weight:normal;font-stretch:normal;line-height:0.01%;font-family:Lavi;-inkscape-font-specification:Lavi;letter-spacing:0px;word-spacing:0px;fill:#000000;fill-opacity:1;stroke:none"
       id="flowRoot2987-8"
       xml:space="preserve"><flowRegion
         id="flowRegion2989-57"><rect
           style="font-style:normal;font-variant:normal;font-weight:normal;font-stretch:normal;font-family:Lavi;-inkscape-font-specification:Lavi"
           y="265.53046"
           x="120.55251"
           height="79.985016"
           width="646.4549"
           id="rect2991-1" /></flowRegion><flowPara
         id="flowPara3017-3"
         style="font-size:48px;line-height:1.25;text-align:center;text-anchor:middle">Kusursuz ...</flowPara><flowPara
         id="flowPara3057"
         style="font-size:48px;line-height:1.25;text-align:center;text-anchor:middle"> </flowPara></flowRoot>
    <flowRoot
       transform="translate(297.95115,977.80802)"
       style="font-style:normal;font-variant:normal;font-weight:normal;font-stretch:normal;line-height:0.01%;font-family:Lavi;-inkscape-font-specification:Lavi;letter-spacing:0px;word-spacing:0px;fill:#000000;fill-opacity:1;stroke:none"
       id="flowRoot2987-8-6"
       xml:space="preserve"><flowRegion
         id="flowRegion2989-57-9"><rect
           style="font-style:normal;font-variant:normal;font-weight:normal;font-stretch:normal;font-family:Lavi;-inkscape-font-specification:Lavi"
           y="265.53046"
           x="120.55251"
           height="79.985016"
           width="646.4549"
           id="rect2991-1-7" /></flowRegion><flowPara
         id="flowPara3017-3-3"
         style="font-size:48px;line-height:1.25;text-align:center;text-anchor:middle">... görünüyor.</flowPara><flowPara
         id="flowPara3057-7"
         style="font-size:48px;line-height:1.25;text-align:center;text-anchor:middle"> </flowPara></flowRoot>
    <flowRoot
       transform="translate(215.17296,1914.6074)"
       style="font-style:normal;font-variant:normal;font-weight:normal;font-stretch:normal;line-height:0.01%;font-family:Lavi;-inkscape-font-specification:Lavi;letter-spacing:0px;word-spacing:0px;fill:#000000;fill-opacity:1;stroke:none"
       id="flowRoot2987-8-6-0"
       xml:space="preserve"><flowRegion
         id="flowRegion2989-57-9-5"><rect
           style="font-style:normal;font-variant:normal;font-weight:normal;font-stretch:normal;font-family:Lavi;-inkscape-font-specification:Lavi"
           y="265.53046"
           x="120.55251"
           height="79.985016"
           width="646.4549"
           id="rect2991-1-7-6" /></flowRegion><flowPara
         id="flowPara3017-3-3-0"
         style="font-size:48px;line-height:1.25;text-align:center;text-anchor:middle">Mmm ...</flowPara><flowPara
         id="flowPara3057-7-3"
         style="font-size:48px;line-height:1.25;text-align:center;text-anchor:middle"> </flowPara></flowRoot>
    <flowRoot
       transform="matrix(1.0270069,0,0,1.0526176,191.3772,2052.5853)"
       style="font-style:normal;font-variant:normal;font-weight:normal;font-stretch:normal;line-height:0.01%;font-family:Lavi;-inkscape-font-specification:Lavi;letter-spacing:0px;word-spacing:0px;fill:#000000;fill-opacity:1;stroke:none"
       id="flowRoot2987-8-6-0-1"
       xml:space="preserve"><flowRegion
         id="flowRegion2989-57-9-5-4"><rect
           style="font-style:normal;font-variant:normal;font-weight:normal;font-stretch:normal;font-family:Lavi;-inkscape-font-specification:Lavi"
           y="265.53046"
           x="120.55251"
           height="220.44458"
           width="697.53107"
           id="rect2991-1-7-6-9" /></flowRegion><flowPara
         id="flowPara3149"
         style="font-size:64px;line-height:1.25;text-align:center;text-anchor:middle">Tattığım en iyi </flowPara><flowPara
         id="flowPara6422"
         style="font-size:64px;line-height:1.25;text-align:center;text-anchor:middle">kahve !</flowPara><flowPara
         id="flowPara3057-7-3-2"
         style="font-size:64px;line-height:1.25;text-align:center;text-anchor:middle"> </flowPara></flowRoot>
    <flowRoot
       transform="translate(169.43763,2308.3542)"
       style="font-style:normal;font-variant:normal;font-weight:normal;font-stretch:normal;line-height:0.01%;font-family:Lavi;-inkscape-font-specification:Lavi;letter-spacing:0px;word-spacing:0px;fill:#000000;fill-opacity:1;stroke:none"
       id="flowRoot2987-4"
       xml:space="preserve"><flowRegion
         id="flowRegion2989-3"><rect
           style="font-style:normal;font-variant:normal;font-weight:normal;font-stretch:normal;font-family:Lavi;-inkscape-font-specification:Lavi"
           y="265.53046"
           x="120.55251"
           height="400.5246"
           width="676.55792"
           id="rect2991-15" /></flowRegion><flowPara
         style="font-size:48px;line-height:1.25;text-align:center;text-anchor:middle"
         id="flowPara3639" /><flowPara
         style="font-size:48px;line-height:1.25;text-align:center;text-anchor:middle"
         id="flowPara3647">Bütün gece çalışıp yarına</flowPara><flowPara
         style="font-size:48px;line-height:1.25;text-align:center;text-anchor:middle"
         id="flowPara3643">hazırlanmam için gereken</flowPara><flowPara
         style="font-size:48px;line-height:1.25;text-align:center;text-anchor:middle"
         id="flowPara3645">şey işte bu.</flowPara></flowRoot>
    <flowRoot
       transform="translate(1782.1297,3155.1742)"
       style="font-style:normal;font-variant:normal;font-weight:normal;font-stretch:normal;line-height:0.01%;font-family:Lavi;-inkscape-font-specification:Lavi;letter-spacing:0px;word-spacing:0px;fill:#000000;fill-opacity:1;stroke:none"
       id="flowRoot2987-4-6"
       xml:space="preserve"><flowRegion
         id="flowRegion2989-3-2"><rect
           style="font-style:normal;font-variant:normal;font-weight:normal;font-stretch:normal;font-family:Lavi;-inkscape-font-specification:Lavi"
           y="265.53046"
           x="120.55251"
           height="400.5246"
           width="676.55792"
           id="rect2991-15-0" /></flowRegion><flowPara
         id="flowPara3195-9"
         style="font-size:48px;line-height:1.25;text-align:center;text-anchor:middle">Devam edecek ...</flowPara></flowRoot>
  </g>
</svg>
