<?xml version="1.0" encoding="UTF-8" standalone="no"?>
<!-- Created with Inkscape (http://www.inkscape.org/) -->

<svg
   id="svg2"
   version="1.1"
   inkscape:version="1.3 (1:1.3+202307231459+0e150ed6c4)"
   width="2481"
   height="3503"
   sodipodi:docname="E17P06.svg"
   xmlns:inkscape="http://www.inkscape.org/namespaces/inkscape"
   xmlns:sodipodi="http://sodipodi.sourceforge.net/DTD/sodipodi-0.dtd"
   xmlns:xlink="http://www.w3.org/1999/xlink"
   xmlns="http://www.w3.org/2000/svg"
   xmlns:svg="http://www.w3.org/2000/svg"
   xmlns:rdf="http://www.w3.org/1999/02/22-rdf-syntax-ns#"
   xmlns:cc="http://creativecommons.org/ns#"
   xmlns:dc="http://purl.org/dc/elements/1.1/">
  <sodipodi:namedview
     pagecolor="#ffffff"
     bordercolor="#666666"
     inkscape:pageopacity="0"
     inkscape:pageshadow="2"
     inkscape:window-width="1920"
     inkscape:window-height="997"
     id="namedview70"
     showgrid="false"
     inkscape:zoom="0.56568542"
     inkscape:cx="1232.1336"
     inkscape:cy="1520.2796"
     inkscape:current-layer="layer3"
     inkscape:window-x="0"
     inkscape:window-y="0"
     inkscape:window-maximized="1"
     borderopacity="1"
     inkscape:showpageshadow="0"
     inkscape:pagecheckerboard="0"
     inkscape:deskcolor="#d1d1d1" />
  <metadata
     id="metadata8">
    <rdf:RDF>
      <cc:Work
         rdf:about="">
        <dc:format>image/svg+xml</dc:format>
        <dc:type
           rdf:resource="http://purl.org/dc/dcmitype/StillImage" />
        <dc:title />
      </cc:Work>
    </rdf:RDF>
  </metadata>
  <defs
     id="defs6">
    <filter
       inkscape:collect="always"
       style="color-interpolation-filters:sRGB"
       id="filter1"
       x="-0.001570253"
       y="-0.0021311035"
       width="1.0031405"
       height="1.0042622">
      <feGaussianBlur
         inkscape:collect="always"
         stdDeviation="0.20957719"
         id="feGaussianBlur1" />
    </filter>
  </defs>
  <sodipodi:namedview
     pagecolor="#ffffff"
     bordercolor="#666666"
     borderopacity="1"
     objecttolerance="10"
     gridtolerance="10"
     guidetolerance="10"
     inkscape:pageopacity="0"
     inkscape:pageshadow="2"
     inkscape:window-width="1920"
     inkscape:window-height="1025"
     id="namedview4"
     showgrid="false"
     inkscape:zoom="0.2287013"
     inkscape:cx="1446.2302"
     inkscape:cy="2692.45"
     inkscape:window-x="0"
     inkscape:window-y="26"
     inkscape:window-maximized="1"
     inkscape:current-layer="layer3" />
  <g
     inkscape:groupmode="layer"
     id="layer2"
     inkscape:label="artwork"
     sodipodi:insensitive="true"
     style="display:inline">
    <image
       xlink:href="../gfx_Pepper-and-Carrot_by-David-Revoy_E17P06.png"
       width="2481"
       height="3503"
       id="image10"
       x="0"
       y="0" />
  </g>
  <g
     inkscape:groupmode="layer"
     id="layer3"
     inkscape:label="speechbubbles">
    <path
       style="fill:#d3d3d3;stroke:none;stroke-width:1.05358;fill-opacity:1"
       d="m 1173.0077,1451.4835 c -23.3565,-91.5539 -158.8125,-114.3577 -122.4868,-117.2114 28.1718,-2.2134 257.425,-2.2635 334.534,-4.0593 77.109,-1.796 275.7173,2.6477 340.7003,7.1499 69.6057,4.8223 90.4143,48.229 95.5536,97.486 6.7454,64.6552 -23.6456,77.8073 -72.7345,99.6199 -49.8035,22.13 -306.2758,30.52 -323.857,28.7848 -17.581,-1.7356 -381.9829,5.2809 -397.4154,-0.7946 -15.4329,-6.0755 151.9223,-63.9311 145.7058,-110.9753 z"
       id="path3278-7"
       inkscape:connector-curvature="0"
       sodipodi:nodetypes="csssssssc" />
    <path
       style="color:#000000;display:inline;overflow:visible;visibility:visible;fill:#ffe4a0;fill-opacity:1;fill-rule:nonzero;stroke:none;stroke-width:1.09196px;marker:none;enable-background:accumulate"
       d="m 170.31297,2448.5057 c 3.09912,-57.048 56.12088,-99.0445 196.7492,-89.032 75.3281,5.3632 160.80067,8.6969 157.13311,92.2637 -3.66765,83.5668 -126.44528,82.0452 -151.73724,84.1281 -25.29198,2.0827 -157.45141,-6.0046 -181.17567,-34.3037 -14.85084,-17.7147 -20.98093,-35.3928 -20.9694,-53.0561 z"
       id="path4546-6"
       inkscape:connector-curvature="0"
       sodipodi:nodetypes="cssssc" />
    <path
       style="color:#000000;display:inline;overflow:visible;visibility:visible;fill:#ffe4a0;fill-opacity:1;fill-rule:nonzero;stroke:none;stroke-width:1px;marker:none;enable-background:accumulate"
       d="m 870.07243,2590.5972 c -23.62035,-34.1403 -42.50363,-36.5905 -55.96461,-39.6154 -1.87547,3.3952 -6.49852,8.7941 -6.49852,8.7941 0,0 -25.97688,-8.0908 -36.79234,-8.3139 -10.8154,-0.2233 -11.06323,11.4471 -11.06323,11.4471 0,0 50.13669,16.8309 59.91961,23.2139 4.71046,-9.5178 8.40315,-13.5624 8.49056,-17.6813 8.12621,-0.5191 33.14349,10.2991 41.90853,22.1555 z"
       id="path4456"
       inkscape:connector-curvature="0" />
    <path
       style="color:#000000;display:inline;overflow:visible;visibility:visible;fill:#ffe4a0;fill-opacity:1;fill-rule:nonzero;stroke:none;stroke-width:1px;marker:none;enable-background:accumulate"
       d="m 448.12172,2488.6542 c 32.25651,-42.3494 207.70264,-38.7341 266.07685,-20.3864 58.37393,18.3477 80.09451,49.9464 82.80955,61.159 2.71492,11.2124 -4.07256,63.1976 -33.9384,73.3908 -29.86573,10.1932 -115.39034,15.2897 -145.25618,15.2897 -29.86574,0 -125.20384,-6.4878 -149.329,-21.4057 -23.07813,-14.2704 -52.61947,-65.6983 -20.36282,-108.0474 z"
       id="path3330"
       inkscape:connector-curvature="0"
       sodipodi:nodetypes="zsssssz" />
    <path
       style="fill:#d3d3d3;stroke:none;fill-opacity:1"
       d="m 1305.4599,1686.9052 c -61.4509,-16.3887 -30.8533,-65.2702 -45.5225,-67.9315 -14.6694,-2.6615 -27.8562,-6.807 -33.7712,-15.0125 -5.9149,-8.2051 -17.4337,-18.7558 -18.2822,-28.6243 -0.8487,-9.8684 -23.7836,-10.6121 -33.4878,-14.4455 -9.7043,-3.8334 -11.9428,-27.0084 -31.3844,-32.284 5.3237,-14.6209 97.6313,-19.5261 101.1522,-6.625 3.0581,11.2046 -31.3327,8.8903 -26.385,11.6146 4.9478,2.7247 15.8223,5.1341 19.2489,15.2244 3.4267,10.0904 1.9896,20.862 2.9452,28.9403 0.9559,8.0785 12.0525,14.9191 22.8341,19.6159 10.8918,4.7448 13.7129,2.9923 22.8729,15.641 10.2162,14.1071 -25.9903,41.4407 19.7798,73.8866 z"
       id="path3023-2"
       inkscape:connector-curvature="0"
       sodipodi:nodetypes="csssscssssssc" />
    <path
       style="color:#000000;display:inline;overflow:visible;visibility:visible;fill:#ffe4a0;fill-opacity:1;fill-rule:nonzero;stroke:none;stroke-width:0.814962px;marker:none;enable-background:accumulate"
       d="m 1863.8656,1660.0713 c -1.7142,-50.914 48.0144,-99.7619 193.7818,-90.2344 168.8195,11.0342 175.9261,16.1804 176.4395,113.1205 0.3896,73.5639 -49.4501,94.4393 -70.9145,102.8167 -21.4643,8.3775 -56.036,13.2595 -118.8344,13.6088 -62.1652,0.3458 -117.8457,-19.437 -143.6537,-40.5095 -20.9214,-17.0826 -36.7327,-40.4717 -36.8187,-98.8021 z"
       id="path3365"
       inkscape:connector-curvature="0"
       sodipodi:nodetypes="csssssc" />
    <path
       style="color:#000000;display:inline;overflow:visible;visibility:visible;fill:#ffe4a0;fill-opacity:1;fill-rule:nonzero;stroke:none;stroke-width:1px;marker:none;enable-background:accumulate"
       d="m 1773.6345,1852.6935 c 20.6585,1.8503 42.0221,4.0502 66.635,-2.9295 7.0191,-2.1076 14.3439,-4.6924 21.2622,-8.6072 6.8497,-5.1792 10.0657,-12.467 9.831,-17.98 0.3909,-8.2705 -3.5388,-15.3573 1.1997,-24.9485 3.6243,-6.9865 12.0808,-11.4315 19.0666,-15.6028 17.8952,-10.396 36.4648,-19.1971 53.5972,-31.4906 19.8044,-13.0719 40.1589,-27.7498 54.2823,-45.8251 5.4819,-7.1824 10.3168,-14.933 11.2221,-21.9705 3.3226,-18.3701 -5.898,-33.4735 -24.721,-35.5762 -12.7554,-0.1579 -31.116,10.8278 -37.1785,23.8071 -3.3077,6.857 -1.2679,12.4236 2.5712,15.9087 4.8396,8.3144 1.708,21.3756 -6.8119,33.2872 -6.8835,9.8609 -16.573,19.0871 -27.2529,26.4949 -13.0662,12.4722 -29.8055,18.2178 -44.9671,25.8816 -6.9126,3.5757 -14.194,7.7145 -19.8565,13.2749 -6.6316,8.8458 -4.9747,16.822 -2.4875,23.0116 2.3193,6.5328 6.0945,13.475 0.9017,22.8012 -2.7306,6.501 -11.3267,8.4182 -17.2848,11.3996 -19.5136,7.7854 -38.7819,10.7385 -55.5968,9.9195 -1.533,-0.1984 -2.9725,-0.5244 -4.412,-0.8559 z"
       id="path4496"
       inkscape:connector-curvature="0" />
    <path
       style="fill:#d3d3d3;fill-opacity:1;fill-rule:evenodd;stroke-width:5;filter:url(#filter1)"
       d="m 958.35723,1329.9586 c 1.21838,1.4896 2.1525,2.9791 4.96851,4.4687 1.78223,1.8335 2.75227,3.3346 -1.18768,2.4315 l 19.05445,14.1467 2.74062,8.2053 c 1.89559,0.6147 3.45465,-0.1042 4.98251,-0.9468 1.98095,0.3822 4.03996,0.6655 4.96966,2.3811 3.83137,0.5575 7.705,1.221 11.7959,2.43 7.9382,6.8037 15.674,14.0926 23.0353,22.2797 4.369,6.0213 6.294,11.8903 8.817,17.7966 -2.2244,2.3564 -4.3633,4.8031 -7.3969,6.3055 3.369,0.7475 6.0839,1.0327 7.7028,0.5432 1.5959,-3.5542 3.623,-5.6892 7.4118,-2.0246 0.719,2.694 1.2061,5.4144 1.2251,8.1878 0.8502,5.1553 0.2004,8.3708 -0.2679,11.8209 -1.1906,5.2192 -2.2723,10.41 -7.8526,16.7768 -4.2992,2.2912 -7.5847,4.9412 -12.9459,6.8564 -0.097,0.9099 -0.1563,1.8198 -0.3405,2.7297 -1.4816,1.0475 -2.8612,1.2065 -4.2539,1.479 -2.8073,0.7952 -4.9269,2.6535 -6.6461,5.131 -0.1242,1.111 -0.2078,2.1186 -0.2043,2.9038 6.2391,2.9175 1.5383,5.8426 -0.3164,8.7658 1.5753,4.0359 3.9328,8.4174 -3.7221,8.3736 -0.5742,4.4069 -0.047,9.4429 -6.7453,10.3533 -0.2107,2.0089 -0.9973,3.6213 -3.0091,4.3901 -1.3869,3.0015 -3.37082,4.0222 -5.99301,2.9253 -3.45612,2.771 -7.69638,5.3557 -11.83964,7.8356 -1.70846,1.6117 -3.59664,1.7388 -5.43192,2.3029 -2.61367,2.4415 -5.85788,2.432 -9.09261,2.4593 -1.31402,-0.3793 -3.17236,-0.2191 -5.29113,0.1994 -1.17574,3.4135 -1.89917,4.362 -2.76138,6.0669 0.86899,5.4689 -1.21393,9.0937 -5.63672,11.2569 0.11919,3.565 -2.57812,4.1048 -5.48395,4.4207 -1.98168,0.7896 -2.59477,2.6858 -3.30608,4.5026 0.65239,1.2634 3.42548,3.2428 -1.10746,2.7555 -1.59365,-0.8206 -2.49519,-1.9187 -3.47144,-3.5519 -0.59843,2.115 -1.17965,4.9621 -2.17758,6.0382 -1.50372,5.5292 -3.01962,2.7549 -4.41922,-0.2929 -1.85531,1.8405 -3.49511,4.1795 -5.1641,6.459 -0.54761,0.7491 -1.31554,1.1415 -2.7041,0.529 -1.62405,1.3995 -3.21584,-0.091 -4.80882,-1.4757 -2.23216,3.7992 -6.28683,4.8642 -11.06907,1.249 -2.16802,1.0125 -4.38193,1.9033 -7.67482,-0.067 -1.30479,1.1116 -2.88332,0.7213 -4.5222,0 0.96224,2.0739 2.91342,3.7137 7.16436,4.3439 2.45666,0.4007 4.97563,0.6677 7.88003,0.1081 4.14377,2.627 8.03408,5.3907 13.41537,7.3504 1.81399,0.5702 3.37715,1.4781 6.16117,0.7424 5.06077,-6.2461 8.42202,-13.5978 15.18231,-18.7382 2.61353,-0.5724 6.6384,-1.293 8.175,0.5364 -1.67345,6.0922 -4.10842,10.915 -6.54501,16.7029 3.04563,0.8671 4.64704,2.1912 5.74305,3.6752 44.36819,3.5266 88.73637,1.0929 133.10457,0.9671 l 130.0403,-115.126 -132.6417,-116.4997 z"
       id="path1"
       sodipodi:nodetypes="cccccccccccccccccccccccccccccccccccccccccccccccccccccccc" />
  </g>
  <g
     inkscape:groupmode="layer"
     id="layer1"
     inkscape:label="txt">
    <text
       xml:space="preserve"
       style="font-style:normal;font-variant:normal;font-weight:normal;font-stretch:normal;line-height:0%;font-family:Lavi;-inkscape-font-specification:Lavi;text-align:center;letter-spacing:0px;word-spacing:0px;text-anchor:middle;fill:#000000;fill-opacity:1;stroke:none"
       x="1431.7656"
       y="1387.6788"
       id="text4246-1"><tspan
         sodipodi:role="line"
         style="font-style:italic;font-variant:normal;font-weight:normal;font-stretch:normal;font-size:45px;line-height:1.45;font-family:Lavi;-inkscape-font-specification:'Lavi Italic'"
         x="1431.7656"
         y="1387.6788"
         id="tspan367">„Prava kaosaška čarovnica ne</tspan><tspan
         sodipodi:role="line"
         style="font-style:italic;font-variant:normal;font-weight:normal;font-stretch:normal;font-size:45px;line-height:1.45;font-family:Lavi;-inkscape-font-specification:'Lavi Italic'"
         x="1431.7656"
         y="1452.9288"
         id="tspan373">potrebuje ne kompasa ne zemljevida.</tspan><tspan
         sodipodi:role="line"
         style="font-style:italic;font-variant:normal;font-weight:normal;font-stretch:normal;font-size:45px;line-height:1.45;font-family:Lavi;-inkscape-font-specification:'Lavi Italic'"
         x="1431.7656"
         y="1518.1788"
         id="tspan369">Zvezdnato nebo zadostuje.“</tspan></text>
    <text
       xml:space="preserve"
       style="font-style:normal;font-variant:normal;font-weight:normal;font-stretch:normal;line-height:0%;font-family:Lavi;-inkscape-font-specification:Lavi;text-align:center;letter-spacing:0px;word-spacing:0px;text-anchor:middle;fill:#000000;fill-opacity:1;stroke:none"
       x="345.69949"
       y="2502.7402"
       id="text4246-2-5-8"
       transform="scale(1.0253273,0.97529833)"><tspan
         sodipodi:role="line"
         style="font-size:46.1397px;line-height:1.25"
         x="345.69949"
         y="2502.7402"
         id="tspan4406-1">Glavo pokonci,</tspan><tspan
         sodipodi:role="line"
         style="font-size:46.1397px;line-height:1.25"
         x="345.69949"
         y="2560.4148"
         id="tspan4487">Korenček!</tspan></text>
    <text
       xml:space="preserve"
       style="font-style:normal;font-variant:normal;font-weight:normal;font-stretch:normal;line-height:0%;font-family:Lavi;-inkscape-font-specification:Lavi;text-align:center;letter-spacing:0px;word-spacing:0px;text-anchor:middle;fill:#000000;fill-opacity:1;stroke:none"
       x="623.70428"
       y="2517.637"
       id="text4246-2-5-8-5"><tspan
         sodipodi:role="line"
         style="font-size:45px;line-height:1.25"
         x="623.70428"
         y="2517.637"
         id="tspan4487-4">Poglej,</tspan><tspan
         sodipodi:role="line"
         style="font-size:45px;line-height:1.25"
         x="623.70428"
         y="2573.887"
         id="tspan3479">prispela sva!</tspan></text>
    <text
       xml:space="preserve"
       style="font-style:normal;font-variant:normal;font-weight:normal;font-stretch:normal;line-height:0%;font-family:Lavi;-inkscape-font-specification:Lavi;text-align:center;letter-spacing:0px;word-spacing:0px;text-anchor:middle;fill:#000000;fill-opacity:1;stroke:none"
       x="2058.249"
       y="1636.7229"
       id="text4246-2-5-7"><tspan
         sodipodi:role="line"
         style="font-size:45px;line-height:1.25"
         x="2058.249"
         y="1636.7229"
         id="tspan4300">Raje bi imela</tspan><tspan
         sodipodi:role="line"
         style="font-size:45px;line-height:1.25"
         x="2058.249"
         y="1692.9729"
         id="tspan3472"><tspan
   style="font-style:italic"
   id="tspan3470">pravi</tspan> tečaj</tspan><tspan
         sodipodi:role="line"
         style="font-size:45px;line-height:1.25"
         x="2058.249"
         y="1749.2229"
         id="tspan3475">vedeževanja!</tspan></text>
  </g>
</svg>
