<?xml version="1.0" encoding="UTF-8" standalone="no"?>
<svg
   xmlns:dc="http://purl.org/dc/elements/1.1/"
   xmlns:cc="http://creativecommons.org/ns#"
   xmlns:rdf="http://www.w3.org/1999/02/22-rdf-syntax-ns#"
   xmlns:svg="http://www.w3.org/2000/svg"
   xmlns="http://www.w3.org/2000/svg"
   xmlns:xlink="http://www.w3.org/1999/xlink"
   xmlns:sodipodi="http://sodipodi.sourceforge.net/DTD/sodipodi-0.dtd"
   xmlns:inkscape="http://www.inkscape.org/namespaces/inkscape"
   id="svg2"
   version="1.1"
   inkscape:version="1.0.2 (e86c8708, 2021-01-15)"
   width="2481"
   height="3503"
   sodipodi:docname="E35P05.svg">
  <metadata
     id="metadata8">
    <rdf:RDF>
      <cc:Work
         rdf:about="">
        <dc:format>image/svg+xml</dc:format>
        <dc:type
           rdf:resource="http://purl.org/dc/dcmitype/StillImage" />
        <dc:title />
      </cc:Work>
    </rdf:RDF>
  </metadata>
  <defs
     id="defs6" />
  <sodipodi:namedview
     pagecolor="#ffffff"
     bordercolor="#666666"
     borderopacity="1"
     objecttolerance="10"
     gridtolerance="10"
     guidetolerance="10"
     inkscape:pageopacity="0"
     inkscape:pageshadow="2"
     inkscape:window-width="960"
     inkscape:window-height="1114"
     id="namedview4"
     showgrid="false"
     inkscape:zoom="0.25863546"
     inkscape:cx="1240.5"
     inkscape:cy="1751.5"
     inkscape:window-x="960"
     inkscape:window-y="25"
     inkscape:window-maximized="0"
     inkscape:current-layer="layer1"
     inkscape:document-rotation="0"
     inkscape:snap-global="false"
     inkscape:pagecheckerboard="0" />
  <g
     inkscape:groupmode="layer"
     id="layer2"
     inkscape:label="artwork"
     sodipodi:insensitive="true">
    <image
       sodipodi:absref="/Users/gand/Documents/Pepper&amp;Carrot/ep35_The-Reflection/lang/gfx_Pepper-and-Carrot_by-David-Revoy_E35P05.png"
       xlink:href="../gfx_Pepper-and-Carrot_by-David-Revoy_E35P05.png"
       y="0"
       x="0"
       id="image10"
       height="3503"
       width="2481" />
  </g>
  <g
     inkscape:groupmode="layer"
     id="layer3"
     inkscape:label="speechbubbles">
    <path
       style="color:#000000;display:inline;overflow:visible;visibility:visible;fill:#ffffff;fill-opacity:1;fill-rule:nonzero;stroke:none;stroke-width:1.35867px;marker:none;enable-background:accumulate"
       d="m 1302.3944,3036.6191 c 3.327,-35.2866 18.2395,-34.9849 69.5855,-3.067 -13.5491,-62.9304 55.3877,-65.9059 119.6358,-72.2891 -7.3688,-17.6816 -35.8155,-37.9887 10.3001,-49.0096 -24.7698,-10.5394 -24.85,-24.5601 -2.9002,-41.6866 -51.2789,8.1611 -70.5671,3.1364 -9.9172,-34.8365 -57.2426,21.5729 -112.0598,40.777 -90.4713,-14.6168 -21.676,7.5397 -33.7693,51.3953 -118.6662,-28.8246 -0.9612,36.9373 -86.1477,67.3285 -127.9825,19.6447 21.1789,39.7309 -48.2446,85.3245 -80.7977,53.4256 19.3385,22.2732 3.3551,44.0543 -21.0141,47.7038 69.189,5.8931 55.3088,19.3944 7.415,41.7916 142.5078,3.496 64.0822,25.7471 64.7807,40.8097 86.7534,-13.8535 81.1781,14.2909 93.5986,35.1552 82.617,-63.6402 57.5174,-52.2733 86.4335,5.7996 z"
       id="path3549-3-1"
       inkscape:connector-curvature="0"
       sodipodi:nodetypes="ccccccccccccccc" />
    <path
       style="color:#000000;display:inline;overflow:visible;visibility:visible;fill:#ffffff;fill-opacity:1;fill-rule:nonzero;stroke:none;stroke-width:1.16713px;marker:none;enable-background:accumulate"
       d="m 1225.2919,2922.758 c -7.3464,30.0563 -48.7803,32.5766 -64.0332,26.4672 30.7464,33.6236 29.6746,54.5143 -12.0704,57.758 70.0071,60.5985 22.3703,70.9626 1.5142,66.7946 54.9683,20.8835 57.8966,70.3701 20.5886,72.7463 63.181,0.8888 42.5045,42.3617 45.1678,75.3924 5.356,-15.4994 30.8018,-62.6866 32.3331,-10.1468 34.5747,-38.979 76.3383,-58.1159 96.1226,5.2157 16.8381,-44.1297 33.6257,-62.7807 32.3333,-10.1468 41.7195,-68.457 79.2102,-43.8156 116.9231,-24.4672 -8.5854,-20.9938 -31.2642,-53.1645 43.1044,-44.9659 -26.1698,-19.8306 -27.2637,-33.5516 30.7617,-42.9171 -32.4701,-12.3711 -38.454,-25.1317 21.8353,-38.8641 -45.8769,-1.3283 -88.6572,-4.0497 -34.8335,-50.8811 -16.8861,-1.1331 -56.9499,37.9442 -38.2705,-76.4165 -29.0362,36.6108 -60.0151,56.8175 -98.8658,-19.8729 -18.3861,38.313 -50.2763,57.2718 -64.1499,9.4158 -4.9867,20.4019 -25.6634,28.0747 -43.2166,29.0051 -6.7876,-8.1039 -13.7888,-19.1113 -21.0944,-33.5326 -11.9404,30.281 -29.8022,50.7315 -64.1498,9.4159 z"
       id="path3549-3-7"
       inkscape:connector-curvature="0"
       sodipodi:nodetypes="cccccccccccccccccccc" />
    <path
       style="fill:#ffffff;fill-rule:evenodd;stroke:none;stroke-width:1.65188px;stroke-linecap:butt;stroke-linejoin:miter;stroke-opacity:1"
       d="m 1204.7404,2519.8617 c 50.5917,78.9459 60.9555,113.3414 65.2028,134.3512 -41.2056,-22.133 -58.2095,-26.0517 -64.1574,-16.5377 -5.9478,9.5142 78.8131,323.8736 78.8131,323.8736 l 27.3427,-77.0906 c 0,0 -45.9792,-134.5245 -55.8759,-162.7161 -9.897,-28.1916 -17.6794,-59.5815 -17.6794,-59.5815 0,0 32.7448,22.5895 42.5581,23.1114 9.813,0.5218 45.9229,-15.5328 -76.204,-165.4103 z"
       id="path891"
       inkscape:connector-curvature="0"
       inkscape:transform-center-x="-51.96084"
       inkscape:transform-center-y="220.66697"
       sodipodi:nodetypes="ccsccscsc" />
    <path
       style="fill:#ffffff;fill-rule:evenodd;stroke:none;stroke-width:1px;stroke-linecap:butt;stroke-linejoin:miter;stroke-opacity:1"
       d="m 2185.1028,3280.612 c 1.0808,-19.455 14.0506,-55.122 33.5054,-61.607 19.4547,-6.485 73.4956,-6.485 84.3038,-3.242 10.8082,3.242 28.1013,27.02 32.4246,36.748 4.3233,9.727 16.2123,44.313 -3.2424,58.364 -19.4548,14.051 -38.9095,24.859 -59.4451,23.778 -20.5356,-1.081 -61.6067,-8.647 -71.334,-21.616 -9.7274,-12.97 -16.2123,-32.425 -16.2123,-32.425 z"
       id="path1355"
       inkscape:connector-curvature="0" />
    <path
       style="fill:#ffffff;fill-rule:evenodd;stroke:none;stroke-width:1.40704px;stroke-linecap:butt;stroke-linejoin:miter;stroke-opacity:1"
       d="m 2210.3858,3260.9854 c 0,0 -9.9729,30.1184 -20.5324,37.3461 -10.5597,7.2275 -37.179,18.9359 -56.6531,11.8546 35.6758,21.6634 55.6021,14.7863 64.3759,10.0326 8.7751,-4.7533 39.4153,-35.3687 39.4153,-35.3687 z"
       id="path1367"
       inkscape:connector-curvature="0" />
  </g>
  <g
     inkscape:groupmode="layer"
     id="layer1"
     inkscape:label="txt">
    <text
       xml:space="preserve"
       style="font-style:normal;font-variant:normal;font-weight:normal;font-stretch:normal;font-size:64px;line-height:1.25;font-family:Lavi;-inkscape-font-specification:Lavi;text-align:center;letter-spacing:0px;word-spacing:0px;text-anchor:middle;fill:#000000;fill-opacity:1;stroke:none"
       x="1781.5028"
       y="2937.1594"
       id="text4246-3-2-2"
       transform="skewX(-9.8231434)"><tspan
         style="font-style:normal;font-variant:normal;font-weight:bold;font-stretch:normal;font-size:64px;font-family:Lavi;-inkscape-font-specification:'Lavi Bold'"
         sodipodi:role="line"
         x="1791.5028"
         y="2937.1594"
         id="tspan905">DIAMINE! </tspan></text>
    <text
       xml:space="preserve"
       style="font-style:normal;font-variant:normal;font-weight:normal;font-stretch:normal;font-size:56px;line-height:1.25;font-family:Lavi;-inkscape-font-specification:Lavi;text-align:center;letter-spacing:0px;word-spacing:0px;text-anchor:middle;fill:#000000;fill-opacity:1;stroke:none"
       x="1354.6593"
       y="3047.1643"
       id="text4246-3-2-2-7"><tspan
         style="font-style:normal;font-variant:normal;font-weight:bold;font-stretch:normal;font-size:56px;font-family:Lavi;-inkscape-font-specification:'Lavi Bold'"
         sodipodi:role="line"
         x="1354.6593"
         y="3047.1643"
         id="tspan905-5">COSA</tspan><tspan
         style="font-style:normal;font-variant:normal;font-weight:bold;font-stretch:normal;font-size:56px;font-family:Lavi;-inkscape-font-specification:'Lavi Bold'"
         sodipodi:role="line"
         x="1354.6593"
         y="3117.8196"
         id="tspan935"> FACCIO?!</tspan></text>
    <text
       xml:space="preserve"
       style="font-style:normal;font-variant:normal;font-weight:normal;font-stretch:normal;font-size:56px;line-height:1.25;font-family:Lavi;-inkscape-font-specification:Lavi;text-align:center;letter-spacing:0px;word-spacing:0px;text-anchor:middle;fill:#000000;fill-opacity:1;stroke:none"
       x="2261.2617"
       y="3292.04"
       id="text4246-3-2-2-7-3"><tspan
         style="font-style:normal;font-variant:normal;font-weight:bold;font-stretch:normal;font-size:56px;font-family:Lavi;-inkscape-font-specification:'Lavi Bold'"
         sodipodi:role="line"
         x="2261.2617"
         y="3292.04"
         id="tspan935-6">Oh!</tspan></text>
  </g>
</svg>
