<?xml version="1.0" encoding="UTF-8" standalone="no"?>
<svg
   xmlns:dc="http://purl.org/dc/elements/1.1/"
   xmlns:cc="http://creativecommons.org/ns#"
   xmlns:rdf="http://www.w3.org/1999/02/22-rdf-syntax-ns#"
   xmlns:svg="http://www.w3.org/2000/svg"
   xmlns="http://www.w3.org/2000/svg"
   xmlns:xlink="http://www.w3.org/1999/xlink"
   xmlns:sodipodi="http://sodipodi.sourceforge.net/DTD/sodipodi-0.dtd"
   xmlns:inkscape="http://www.inkscape.org/namespaces/inkscape"
   id="svg2"
   version="1.1"
   inkscape:version="1.0.2 (e86c870879, 2021-01-15)"
   width="2481"
   height="3503"
   sodipodi:docname="E34P04.svg">
  <metadata
     id="metadata8">
    <rdf:RDF>
      <cc:Work
         rdf:about="">
        <dc:format>image/svg+xml</dc:format>
        <dc:type
           rdf:resource="http://purl.org/dc/dcmitype/StillImage" />
        <dc:title />
      </cc:Work>
    </rdf:RDF>
  </metadata>
  <defs
     id="defs6">
    <filter
       style="color-interpolation-filters:sRGB"
       id="filter4375-4-1-1-1-9-5-8-8-5-5-3-8"
       inkscape:label="soundFX1">
      <feFlood
         id="feFlood4377-7-9-0-8-1-7-3-1-2-7-6-7"
         flood-opacity="1"
         flood-color="rgb(255,255,255)"
         result="flood" />
      <feComposite
         id="feComposite4379-3-8-8-2-77-4-1-0-6-4-7-9"
         in2="SourceGraphic"
         in="flood"
         operator="in"
         result="composite1"
         baseFrequency="0.053999999999999999 0.053999999999999999" />
      <feMorphology
         id="feMorphology4393-1-0-49-8-9-3-0-1-9-9-5-2"
         operator="dilate"
         radius="2.9756367599225957"
         result="result3" />
      <feComposite
         id="feComposite4385-9-5-7-0-8-8-7-5-4-9-3-0"
         in2="result3"
         in="SourceGraphic"
         operator="over"
         result="fbSourceGraphic" />
      <feColorMatrix
         result="fbSourceGraphicAlpha"
         in="fbSourceGraphic"
         values="0 0 0 -1 0 0 0 0 -1 0 0 0 0 -1 0 0 0 0 1 0"
         id="feColorMatrix4544-9-4-4-5-2" />
      <feTurbulence
         id="feTurbulence4546-3-6-5-6-3"
         type="fractalNoise"
         numOctaves="5"
         seed="174"
         baseFrequency="0.053999999999999999 0.054054054054054057"
         result="turbulence" />
      <feDisplacementMap
         id="feDisplacementMap4548-8-0-9-2-7"
         in2="turbulence"
         in="fbSourceGraphic"
         scale="6.6"
         yChannelSelector="G"
         xChannelSelector="R"
         result="fbSourceGraphic" />
      <feColorMatrix
         result="fbSourceGraphicAlpha"
         in="fbSourceGraphic"
         values="0 0 0 -1 0 0 0 0 -1 0 0 0 0 -1 0 0 0 0 1 0"
         id="feColorMatrix4670-7-7-3-9-5" />
      <feFlood
         id="feFlood4672-4-4-5-1-9"
         flood-opacity="1"
         flood-color="rgb(255,255,255)"
         result="flood"
         in="fbSourceGraphic" />
      <feComposite
         id="feComposite4674-8-3-7-2-22"
         in2="fbSourceGraphic"
         in="flood"
         operator="in"
         result="composite1" />
      <feGaussianBlur
         id="feGaussianBlur4676-3-7-08-7-8"
         in="composite1"
         stdDeviation="0"
         result="blur" />
      <feOffset
         id="feOffset4678-6-9-1-0-9"
         dx="-6.3258232761971414"
         dy="6"
         result="offset" />
      <feComposite
         id="feComposite4680-4-0-9-9-7"
         in2="offset"
         in="fbSourceGraphic"
         operator="over"
         result="composite2" />
    </filter>
  </defs>
  <sodipodi:namedview
     pagecolor="#ffffff"
     bordercolor="#666666"
     borderopacity="1"
     objecttolerance="10"
     gridtolerance="10"
     guidetolerance="10"
     inkscape:pageopacity="0"
     inkscape:pageshadow="2"
     inkscape:window-width="1920"
     inkscape:window-height="967"
     id="namedview4"
     showgrid="false"
     inkscape:zoom="0.52900002"
     inkscape:cx="1428.9517"
     inkscape:cy="2518.7997"
     inkscape:window-x="0"
     inkscape:window-y="72"
     inkscape:window-maximized="1"
     inkscape:current-layer="layer1"
     inkscape:document-rotation="0"
     borderlayer="true"
     inkscape:snap-global="false" />
  <g
     inkscape:groupmode="layer"
     id="layer2"
     inkscape:label="artwork"
     sodipodi:insensitive="true">
    <image
       sodipodi:absref="/felles/omsetting/pepper-carrot/webcomics/new-ep34_The-Knighting-of-Shichimi/lang/gfx_Pepper-and-Carrot_by-David-Revoy_E34P04.png"
       xlink:href="../gfx_Pepper-and-Carrot_by-David-Revoy_E34P04.png"
       width="2481"
       height="3503"
       id="image10"
       x="0"
       y="0" />
  </g>
  <g
     inkscape:groupmode="layer"
     id="layer3"
     inkscape:label="speechbubbles"
     style="display:inline">
    <path
       style="color:#000000;display:inline;overflow:visible;visibility:visible;fill:#ffffff;fill-opacity:1;fill-rule:nonzero;stroke:none;stroke-width:0.865993px;marker:none;enable-background:accumulate"
       d="m 942.60024,140.18951 c -31.91919,0.211 -64.48071,4.95609 -93.3829,19.12925 -21.5604,10.86216 -37.65135,31.38351 -44.08438,54.55007 -6.35327,20.15773 -6.97011,42.87106 1.87995,62.39202 9.00782,18.72527 27.00418,31.94083 46.55449,38.04613 40.78419,14.89576 84.4479,20.28572 127.68419,20.64969 34.39011,-0.54015 69.30881,-9.23071 98.03251,-28.62612 14.0693,-9.8231 25.0342,-24.39462 29.279,-41.1365 7.5949,-26.96895 1.7202,-57.18896 -14.7554,-79.74789 -10.7189,-14.33495 -26.2154,-24.94169 -43.4158,-29.86718 -18.618,-6.06677 -38.0268,-9.15884 -57.32486,-12.16095 -16.72361,-2.21837 -33.59579,-3.32292 -50.4668,-3.22852 z"
       id="path4040-4-5-3-5"
       inkscape:connector-curvature="0"
       sodipodi:nodetypes="zssssz" />
    <path
       style="color:#000000;display:inline;overflow:visible;visibility:visible;fill:#ffffff;fill-opacity:1;fill-rule:nonzero;stroke:none;stroke-width:1.1734px;marker:none;enable-background:accumulate"
       d="m 972.01562,313.60938 c -41.13618,1.49582 -81.6738,9.69036 -121.56557,19.37631 -22.87554,6.53437 -46.97616,16.54834 -60.67969,36.01585 -14.9431,21.22846 -16.13442,40.15214 -14.90639,66.67694 2.03696,43.99729 10.35856,73.15227 33.19949,94.45683 19.15622,18.19081 27.76637,19.28412 43.72763,23.86288 48.43936,13.89564 100.49739,8.47176 150.91451,8.94174 30.0517,0.29244 60.1405,-0.10575 90.1245,-2.24208 27.5142,-2.98331 37.3882,-8.27813 61.8595,-21.4558 21.2402,-29.19203 37.4526,-93.44164 28.8807,-140.46931 -3.4339,-18.83925 -11.4885,-35.97742 -30.6797,-48.57094 -15.8144,-10.50906 -49.8951,-17.18547 -68.1669,-21.62076 -19.5136,-4.45675 -39.0867,-8.79948 -58.9537,-11.37926 -17.809,-2.41024 -35.77821,-3.72547 -53.75438,-3.5924 z"
       id="path4040-4-5-3"
       inkscape:connector-curvature="0"
       sodipodi:nodetypes="zssssacccacccz" />
    <path
       style="color:#000000;display:inline;overflow:visible;visibility:visible;fill:#ffffff;fill-opacity:1;fill-rule:nonzero;stroke:none;stroke-width:1px;marker:none;enable-background:accumulate"
       d="m 907.21667,619.60054 c 72.99905,-2.53565 65.7638,-63.19299 71.48587,-78.47444 l 37.78086,7.15422 c 0,0 -26.16471,95.6219 -109.26673,71.32022 z"
       id="path3072-5-5"
       inkscape:connector-curvature="0"
       sodipodi:nodetypes="cccc" />
    <path
       style="display:inline;fill:#ffffff;fill-rule:evenodd;stroke:none;stroke-width:1.408px;stroke-linecap:butt;stroke-linejoin:miter;stroke-opacity:1"
       d="m 1729.4941,1533.8343 c -263.4619,-188.6648 -719.6026,-198.4778 -988.12534,-169.638 l -8.73311,23.8296 c 289.95695,-44.5653 772.14605,6.8513 996.85845,145.8084 z"
       id="path1094"
       inkscape:connector-curvature="0"
       sodipodi:nodetypes="cccc" />
    <path
       style="color:#000000;display:inline;overflow:visible;visibility:visible;fill:#ffffff;fill-opacity:1;fill-rule:nonzero;stroke:none;stroke-width:1.48321px;marker:none;enable-background:accumulate"
       d="m 1212.4825,1266.2938 c -33.5354,-0.413 -67.4754,5.2155 -98.4131,21.147 -19.6448,10.1932 -37.6666,26.1924 -49.865,47.9041 -14.5249,25.6578 -18.5217,60.5634 -8.8435,90.1247 9.4531,28.8684 27.9272,52.5226 49.6885,67.9418 18.0933,12.594 38.78,17.9267 59.2048,19.9819 26.7753,2.9905 53.6955,2.1231 80.3736,-0.8479 14.0394,-1.5675 28.0638,-3.4286 41.997,-5.9783 21.5476,-4.6104 42.6478,-15.1117 58.9021,-33.2953 15.117,-16.4958 27.4265,-37.7197 32.5889,-62.0981 4.3592,-22.1678 -0.3706,-46.8517 -12.394,-64.5203 -18.5041,-30.2111 -44.7044,-52.9811 -73.6541,-65.1389 -25.5855,-10.91 -52.7334,-14.9138 -79.5852,-15.2207 z"
       id="path3365-3"
       inkscape:connector-curvature="0"
       sodipodi:nodetypes="cssccc" />
    <path
       style="fill:#ffffff;fill-rule:evenodd;stroke:none;stroke-width:1.09003px;stroke-linecap:butt;stroke-linejoin:miter;stroke-opacity:1"
       d="m 551.15157,1252.2614 c -40.09223,0.5879 -80.24197,-0.1725 -120.26882,2.9118 -22.23471,2.5986 -44.65649,5.241 -66.1487,12.4482 -22.12022,9.2683 -43.42936,22.5702 -59.59128,42.1622 -12.87033,16.3654 -21.9867,36.9928 -23.66952,58.8871 -0.67847,15.8656 4.54938,31.1506 11.08975,44.9403 9.85218,21.1267 24.62896,39.8236 43.53757,51.1417 16.26739,9.8984 34.63483,14.1975 52.75775,17.417 20.93462,3.516 42.10205,4.7715 63.22328,5.9616 62.68916,2.7583 125.44321,-1.5191 187.82632,-8.3305 24.72856,-3.1038 49.59807,-6.8391 73.35389,-15.4375 17.80533,-7.2421 34.46191,-19.7156 44.99118,-37.6377 8.5774,-14.9974 13.31545,-32.2012 17.61439,-49.2021 2.25206,-13.0313 -1.44289,-26.2074 -6.14269,-38.0259 -6.09627,-15.4504 -14.2931,-29.9264 -24.48189,-42.3989 -7.09609,-8.2659 -15.96339,-14.3985 -25.42046,-18.6765 -14.35815,-6.9679 -29.40323,-11.9598 -44.47753,-16.5611 -23.22622,-6.6142 -47.23281,-9.5885 -71.18451,-9.2947 -17.66746,-0.3744 -35.33904,-0.3038 -53.00873,-0.305 z"
       id="path1079"
       inkscape:connector-curvature="0" />
    <path
       id="path5050-5"
       style="color:#000000;display:inline;overflow:visible;visibility:visible;fill:#ffffff;fill-opacity:1;fill-rule:nonzero;stroke:none;stroke-width:1.10542px;marker:none;enable-background:accumulate"
       d="m 1055.3066,2327.9473 c -6.7695,3.1849 -13.5391,6.3698 -20.3086,9.5547 -5.4515,8.7234 -8.4665,18.631 -12.08,28.1855 0.2877,8.9888 4.778,17.1081 7.4112,25.5492 4.8043,13.3509 10.142,27.6669 6.8338,42.0256 -3.4158,16.5674 -11.898,31.5008 -16.4345,47.7397 -0.956,12.8214 5.6959,25.4955 16.2957,32.604 7.6345,5.5383 17.8577,10.6572 22.2668,17.4448 4.4091,6.7876 3.9198,12.9565 3.0275,20.0069 -0.8923,7.0504 -6.8233,13.4216 -10.106,20.1773 -2.5543,5.2297 -6.5724,10.2065 -4.8898,16.3644 0.5485,8.6419 3.5528,16.9498 8.2569,24.18 1.9155,5.167 7.5375,11.5732 1.5157,15.9953 -3.2977,3.3341 -6.6403,6.6236 -10.0035,9.8933 6.6199,-4.2691 13.2848,-8.7213 18.4668,-14.7364 2.2175,-7.1316 -0.2102,-14.5787 -3.3587,-21.0008 -3.3881,-9.4513 -0.8017,-19.8562 4.2602,-28.1901 5.6073,-9.9289 13.8919,-19.3951 13.8982,-31.4245 0.5595,-12.2965 -5.2038,-24.6049 -15.0512,-32.0084 -6.3523,-5.6552 -13.9693,-10.3956 -18.4457,-17.7889 -5.2096,-11.3685 -1.3783,-24.1347 3.0069,-35.0894 5.3982,-14.2627 13.5704,-28.4586 12.1858,-44.2358 -1.3898,-17.7099 -13.4465,-33.5966 -10.8255,-51.7808 1.5634,-10.2967 5.5548,-20.0386 7.2382,-30.3113 -0.044,-1.6098 -1.4268,-3.3809 -3.1602,-3.1543 z"
       sodipodi:nodetypes="ccccccczzcccccccccccccccc" />
    <path
       id="path1086-2"
       style="display:inline;fill:#ffffff;fill-rule:evenodd;stroke:none;stroke-width:1.72192px;stroke-linecap:butt;stroke-linejoin:miter;stroke-opacity:1"
       d="m 966.60234,2362.244 c -23.21217,2.072 -45.36289,11.2864 -68.96243,10.1905 -17.03328,-0.046 -35.11921,-3.2616 -51.06446,4.1788 -12.40079,5.7666 -25.44204,12.7516 -32.53181,24.4734 -7.78137,14.5227 -10.44081,33.1117 -0.80509,47.4824 13.05829,19.6335 36.95927,32.5447 61.50628,32.4581 20.8356,0.1222 41.68912,2.0994 61.89137,7.0853 16.11468,3.5903 33.09099,5.4007 49.28756,1.128 15.70264,-3.5641 31.88444,-7.7909 48.11894,-4.9333 20.457,2.8709 40.8898,8.7921 61.767,5.9357 25.7225,-2.8639 50.8289,-12.2598 77.0644,-9.4962 15.4812,1.1364 32.5177,2.2363 45.8542,-6.8501 21.8361,-13.656 30.2888,-43.783 18.3505,-65.8698 -9.1631,-13.4201 -25.7655,-19.8261 -41.1467,-24.6114 -23.2886,-6.8718 -48.4371,-1.9296 -71.6284,-9.3646 -14.4201,-4.261 -29.3064,-8.1533 -44.5683,-6.9259 -27.236,1.1429 -54.9358,6.2281 -81.8531,-0.3296 -10.31006,-2.1008 -20.67266,-4.5119 -31.27998,-4.5513 z" />
    <path
       id="path1086"
       style="display:inline;fill:#ffffff;fill-rule:evenodd;stroke:none;stroke-width:1.00719px;stroke-linecap:butt;stroke-linejoin:miter;stroke-opacity:1"
       d="m 921.25638,2286.697 c 11.57318,-13.685 30.93088,-21.4622 50.05249,-26.4176 19.75278,-5.0798 40.52593,-7.0969 61.21443,-7.2702 19.1285,-0.363 38.9112,-1.5827 57.3438,3.4314 8.9127,2.7081 17.1279,6.6753 25.462,10.3452 11.1311,5.2783 22.7507,11.7835 27.2038,22.0029 2.904,6.5698 0.7158,13.5515 0.7448,20.315 -0.5276,10.3704 -1.2121,21.7852 -10.0611,30.0676 -8.5703,8.5683 -22.2216,11.8808 -34.7912,14.9904 -20.7653,4.6594 -42.0746,7.8134 -63.5299,9.5205 -13.8147,1.1541 -27.9402,2.2901 -41.63548,-0.2388 -16.42386,-2.826 -31.18155,-9.7935 -44.85876,-17.3656 -11.01741,-6.4953 -21.94569,-14.0856 -27.37059,-24.4127 -3.25144,-7.4711 -2.61439,-15.5989 -1.91968,-23.3688 0.46621,-3.8919 1.14605,-7.7714 2.14539,-11.5993 z" />
    <path
       style="color:#000000;display:inline;overflow:visible;visibility:visible;fill:#ffffff;fill-opacity:1;fill-rule:nonzero;stroke:none;stroke-width:1.00142px;marker:none;enable-background:accumulate"
       d="m 1551.4802,2844.6354 c -29.2718,23.6335 -49.9774,61.4772 -38.0228,102.9845 11.9549,41.5072 -6.8025,41.4052 -6.8025,41.4052 l -37.425,-15.5296 c 0,0 -6.4717,-90.5725 82.2503,-128.8601 z"
       id="path3072-6"
       inkscape:connector-curvature="0"
       sodipodi:nodetypes="csccc" />
    <path
       style="display:inline;fill:#ffffff;stroke:none;stroke-width:0.761618"
       d="m 1477.956,3073.9932 c -41.5208,0.8465 -83.335,10.7042 -118.5623,31.2547 -27.6507,16.7488 -48.7405,43.2844 -55.2157,73.3156 -3.8398,19.6687 0.1731,39.6523 4.5514,58.9434 5.6838,24.5628 20.5405,47.3104 41.8536,63.1191 14.5966,10.8716 31.724,18.6069 49.4569,24.143 22.3387,6.8736 45.9461,9.5931 69.4301,10.0138 38.7776,1.4504 77.603,0.6618 116.3802,-0.3562 33.033,-1.4397 66.518,-5.3895 97.222,-17.2386 31.7886,-12.4491 59.3801,-35.0047 74.1551,-63.9052 13.5525,-26.6043 15.6554,-58.417 3.6178,-85.8203 -10.5791,-22.9661 -24.8347,-43.8003 -47.4625,-57.05 -22.0074,-12.8756 -53.0569,-17.936 -78.6031,-22.286 -28.188,-5.1345 -56.7696,-8.1093 -85.2857,-11.2172 -23.7634,-2.178 -47.6577,-3.1422 -71.5378,-2.9161 z"
       id="path3280-5"
       inkscape:connector-curvature="0"
       sodipodi:nodetypes="csssccccccccccc" />
    <path
       style="fill:#ffffff;stroke:none;stroke-width:0.474903"
       d="m 1462.2704,2953.7552 c -24.844,0.633 -50.1052,3.7032 -73.3807,13.9642 -13.0878,5.798 -25.9723,13.0877 -36.1772,23.9528 -6.3597,6.773 -11.1916,15.2426 -13.66,24.549 -3.5012,12.6449 -3.7275,26.2476 -1.2217,39.0708 2.0364,9.4931 7.0704,18.4033 14.7315,23.6259 10.2738,7.6321 22.3521,11.6508 34.2611,15.1757 24.0145,6.2355 48.917,5.9742 73.494,6.4885 28.1968,0.4309 56.4727,0.7796 84.5983,-2.3138 16.304,-1.8784 32.9688,-3.6385 48.2762,-10.6108 9.6577,-4.4913 18.2909,-12.0982 23.3812,-22.2255 9.6653,-18.5058 8.6964,-43.3427 -3.5819,-59.9401 -9.9603,-13.69 -24.3097,-22.4891 -38.8682,-29.2278 -25.9753,-12.2593 -53.9051,-19.5362 -82.2017,-21.7936 -9.8588,-0.8261 -19.7592,-0.9812 -29.6509,-0.7153 z"
       id="path3280-8-0"
       inkscape:connector-curvature="0"
       sodipodi:nodetypes="csssc" />
  </g>
  <g
     inkscape:groupmode="layer"
     id="layer1"
     inkscape:label="txt">
    <text
       xml:space="preserve"
       style="font-style:normal;font-variant:normal;font-weight:normal;font-stretch:normal;font-size:45px;line-height:1.25;font-family:Lavi;-inkscape-font-specification:Lavi;text-align:center;letter-spacing:0px;word-spacing:0px;text-anchor:middle;fill:#000000;fill-opacity:1;stroke:none"
       x="961.93353"
       y="164.39328"
       id="text4246-3-2-2-6-3-7-9-3"><tspan
         style="font-size:45px"
         sodipodi:role="line"
         x="961.93353"
         y="164.39328"
         id="tspan850" /><tspan
         style="font-size:45px"
         sodipodi:role="line"
         x="961.93353"
         y="220.64328"
         id="tspan891">Ja, dykkar</tspan><tspan
         style="font-size:45px"
         sodipodi:role="line"
         x="961.93353"
         y="276.89328"
         id="tspan893">høgvyrde.</tspan></text>
    <text
       xml:space="preserve"
       style="font-style:normal;font-variant:normal;font-weight:normal;font-stretch:normal;font-size:45px;line-height:1.25;font-family:Lavi;-inkscape-font-specification:Lavi;text-align:center;letter-spacing:0px;word-spacing:0px;text-anchor:middle;fill:#000000;fill-opacity:1;stroke:none"
       x="979.35199"
       y="400.5528"
       id="text4246-3-2-2-6-3-7-9-3-3"><tspan
         style="font-size:45px"
         sodipodi:role="line"
         x="979.35199"
         y="400.5528"
         id="tspan896">Ho heiter Pepar</tspan><tspan
         style="font-size:45px"
         sodipodi:role="line"
         x="979.35199"
         y="456.8028"
         id="tspan900">og høyrer til</tspan><tspan
         style="font-size:45px"
         sodipodi:role="line"
         x="979.35199"
         y="513.0528"
         id="tspan902">kaosah-skulen.</tspan></text>
    <text
       xml:space="preserve"
       style="font-style:normal;font-variant:normal;font-weight:normal;font-stretch:normal;font-size:45px;line-height:1.25;font-family:Lavi;-inkscape-font-specification:Lavi;text-align:center;letter-spacing:0px;word-spacing:0px;text-anchor:middle;fill:#000000;fill-opacity:1;stroke:none"
       x="528.80383"
       y="1326.5137"
       id="text4246-3-2-2-6-3-7-9-3-3-3"><tspan
         style="font-size:45px"
         sodipodi:role="line"
         x="528.80383"
         y="1326.5137"
         id="tspan909">Nærværet hennar</tspan><tspan
         style="font-size:45px"
         sodipodi:role="line"
         x="528.80383"
         y="1382.7637"
         id="tspan913">skitnar til den</tspan><tspan
         style="font-size:45px"
         sodipodi:role="line"
         x="528.80383"
         y="1439.0137"
         id="tspan919">heilage skulen vår.</tspan></text>
    <text
       xml:space="preserve"
       style="font-style:normal;font-variant:normal;font-weight:normal;font-stretch:normal;font-size:45px;line-height:1.25;font-family:Lavi;-inkscape-font-specification:Lavi;text-align:center;letter-spacing:0px;word-spacing:0px;text-anchor:middle;fill:#000000;fill-opacity:1;stroke:none"
       x="1211.2877"
       y="1350.3201"
       id="text4246-3-2-2-6-3-7-9-3-3-3-9"><tspan
         style="font-size:45px"
         sodipodi:role="line"
         x="1211.2877"
         y="1350.3201"
         id="tspan918">Få henne</tspan><tspan
         style="font-size:45px"
         sodipodi:role="line"
         x="1211.2877"
         y="1406.5701"
         id="tspan926">bort med</tspan><tspan
         style="font-size:45px"
         sodipodi:role="line"
         x="1211.2877"
         y="1462.8201"
         id="tspan894">det same!</tspan></text>
    <text
       xml:space="preserve"
       style="font-style:normal;font-variant:normal;font-weight:normal;font-stretch:normal;font-size:45px;line-height:1.25;font-family:Lavi;-inkscape-font-specification:Lavi;text-align:center;letter-spacing:0px;word-spacing:0px;text-anchor:middle;fill:#000000;fill-opacity:1;stroke:none"
       x="1033.251"
       y="2320.762"
       id="text4246-3-2-2-6-3-7-9-3-3-3-9-0-0"><tspan
         style="font-size:45px"
         sodipodi:role="line"
         x="1033.251"
         y="2320.762"
         id="tspan1031-6-6">Men ...</tspan></text>
    <text
       xml:space="preserve"
       style="font-style:normal;font-variant:normal;font-weight:normal;font-stretch:normal;font-size:45px;line-height:1.25;font-family:Lavi;-inkscape-font-specification:Lavi;text-align:center;letter-spacing:0px;word-spacing:0px;text-anchor:middle;fill:#000000;fill-opacity:1;stroke:none"
       x="1026.7343"
       y="2444.2068"
       id="text4246-3-2-2-6-3-7-9-3-3-3-9-0"><tspan
         style="font-size:45px"
         sodipodi:role="line"
         x="1026.7343"
         y="2444.2068"
         id="tspan1031-6">Meister Wasabi ...</tspan></text>
    <text
       xml:space="preserve"
       style="font-style:normal;font-variant:normal;font-weight:normal;font-stretch:normal;font-size:45px;line-height:1.25;font-family:Lavi;-inkscape-font-specification:Lavi;text-align:center;letter-spacing:0px;word-spacing:0px;text-anchor:middle;fill:#000000;fill-opacity:1;stroke:none"
       x="1478.0569"
       y="3045.5544"
       id="text4246-3-2-2-6-3-7-9-3-3-3-9-0-6"><tspan
         style="font-size:45px"
         sodipodi:role="line"
         x="1478.0569"
         y="3045.5544"
         id="tspan1199">Men <tspan
   style="font-style:italic;font-variant:normal;font-weight:normal;font-stretch:normal;font-family:Lavi;-inkscape-font-specification:'Lavi Italic'"
   id="tspan922">kva</tspan>?</tspan></text>
    <text
       xml:space="preserve"
       style="font-style:normal;font-variant:normal;font-weight:normal;font-stretch:normal;font-size:45px;line-height:1.25;font-family:Lavi;-inkscape-font-specification:Lavi;text-align:center;letter-spacing:0px;word-spacing:0px;text-anchor:middle;fill:#000000;fill-opacity:1;stroke:none"
       x="1539.076"
       y="3173.2551"
       id="text4246-3-2-2-6-3-7-9-3-3-3-9-0-6-8"><tspan
         style="font-size:45px"
         sodipodi:role="line"
         x="1539.076"
         y="3173.2551"
         id="tspan1233">Vil du heller verta</tspan><tspan
         style="font-size:45px"
         sodipodi:role="line"
         x="1539.076"
         y="3229.5051"
         id="tspan933"> utvist frå skulen</tspan><tspan
         style="font-size:45px"
         sodipodi:role="line"
         x="1539.076"
         y="3285.7551"
         id="tspan935">vår for alltid?</tspan></text>
    <text
       xml:space="preserve"
       style="font-style:normal;font-variant:normal;font-weight:normal;font-stretch:normal;font-size:105.817px;line-height:1.25;font-family:Lavi;-inkscape-font-specification:Lavi;letter-spacing:0px;word-spacing:0px;fill:#000000;fill-opacity:1;stroke:#030303;stroke-width:0.716208;stroke-miterlimit:4;stroke-dasharray:none;stroke-opacity:1;filter:url(#filter4375-4-1-1-1-9-5-8-8-5-5-3-8)"
       x="787.65729"
       y="1584.5073"
       id="text4580-6-0-0-0-9-3-36"
       transform="matrix(0.78722097,-0.19942868,-0.30990333,0.91892591,1994.5561,1995.3356)"><tspan
         style="font-size:195.17px;fill:#000000;fill-opacity:1;stroke:#030303;stroke-width:0.716208;stroke-miterlimit:4;stroke-dasharray:none;stroke-opacity:1"
         sodipodi:role="line"
         id="tspan876-6-1"
         x="787.65729"
         y="1584.5073">!<tspan
   style="font-size:173.821px;fill:#000000;stroke:#030303;stroke-opacity:1"
   id="tspan1317">!</tspan><tspan
   id="tspan1322"
   style="font-size:152.472px;fill:#000000;stroke:#030303;stroke-opacity:1">!</tspan></tspan></text>
  </g>
</svg>
