<?xml version="1.0" encoding="UTF-8" standalone="no"?>
<!-- Created with Inkscape (http://www.inkscape.org/) -->

<svg
   xmlns:dc="http://purl.org/dc/elements/1.1/"
   xmlns:cc="http://creativecommons.org/ns#"
   xmlns:rdf="http://www.w3.org/1999/02/22-rdf-syntax-ns#"
   xmlns:svg="http://www.w3.org/2000/svg"
   xmlns="http://www.w3.org/2000/svg"
   xmlns:xlink="http://www.w3.org/1999/xlink"
   xmlns:sodipodi="http://sodipodi.sourceforge.net/DTD/sodipodi-0.dtd"
   xmlns:inkscape="http://www.inkscape.org/namespaces/inkscape"
   id="svg2"
   version="1.1"
   inkscape:version="0.92.1 r15371"
   width="2481"
   height="2479"
   viewBox="0 0 2646.3999 2644.2666"
   sodipodi:docname="Pepper-and-Carrot_by-David-Revoy_E07P06.svg">
  <metadata
     id="metadata8">
    <rdf:RDF>
      <cc:Work
         rdf:about="">
        <dc:format>image/svg+xml</dc:format>
        <dc:type
           rdf:resource="http://purl.org/dc/dcmitype/StillImage" />
        <dc:title />
      </cc:Work>
    </rdf:RDF>
  </metadata>
  <defs
     id="defs6" />
  <sodipodi:namedview
     pagecolor="#ffffff"
     bordercolor="#666666"
     borderopacity="1"
     objecttolerance="10"
     gridtolerance="10"
     guidetolerance="10"
     inkscape:pageopacity="0"
     inkscape:pageshadow="2"
     inkscape:window-width="1305"
     inkscape:window-height="744"
     id="namedview4"
     showgrid="false"
     inkscape:zoom="0.30245747"
     inkscape:cx="1218.4496"
     inkscape:cy="708.91893"
     inkscape:window-x="61"
     inkscape:window-y="24"
     inkscape:window-maximized="1"
     inkscape:current-layer="layer2"
     inkscape:object-nodes="true" />
  <g
     inkscape:groupmode="layer"
     id="layer1"
     inkscape:label="artwork"
     style="display:inline"
     sodipodi:insensitive="true">
    <image
       sodipodi:absref="/home/emmiline/Documents/git/peppercarrot/peppercarrot_ep07_translation/da/../gfx_Pepper-and-Carrot_by-David-Revoy_E07P06.png"
       xlink:href="../gfx_Pepper-and-Carrot_by-David-Revoy_E07P06.png"
       y="0"
       x="0"
       id="image10"
       height="2644.2666"
       width="2646.3999" />
  </g>
  <g
     inkscape:groupmode="layer"
     id="layer3"
     inkscape:label="speechbubbles"
     style="display:inline">
    <path
       style="fill:#ffffff;stroke:none;stroke-width:1.06666672"
       d="m -2156.6811,689.27911 c 1.1337,-54.41685 28.3421,-109.96738 181.3895,-120.17053 153.0473,-10.20316 216.5337,52.14948 221.0685,96.36316 4.5347,44.21369 -88.4275,103.16527 -173.4538,104.29896 -85.0262,1.13367 -229.0042,-12.47053 -229.0042,-80.49159 z"
       id="path4279"
       inkscape:connector-curvature="0" />
    <path
       style="fill:#ffffff;stroke:none;stroke-width:1.06666672"
       d="m -1907.2705,957.96228 c 74.8231,-47.61474 94.0958,-132.64105 48.7484,-202.92948 -45.3474,-70.28843 -88.4274,-57.8179 -88.4274,-57.8179 l 37.4116,44.21369 c 0,0 104.299,104.29895 2.2674,216.53369 z"
       id="path4281"
       inkscape:connector-curvature="0"
       sodipodi:nodetypes="csccc" />
  </g>
  <g
     inkscape:groupmode="layer"
     id="layer2"
     inkscape:label="text"
     style="display:inline">
    <flowRoot
       xml:space="preserve"
       id="flowRoot3027"
       style="font-style:normal;font-variant:normal;font-weight:normal;font-stretch:normal;line-height:0.01%;font-family:Arial;-inkscape-font-specification:Arial;text-align:center;letter-spacing:0px;word-spacing:0px;text-anchor:middle;display:inline;fill:#000000;fill-opacity:1;stroke:none"
       transform="matrix(1.3156368,0,0,1.3708641,-484.43871,-203.90879)"><flowRegion
         id="flowRegion3029"><rect
           id="rect3031"
           width="2475.8752"
           height="241.27675"
           x="135.21135"
           y="219.33444"
           style="text-align:center;text-anchor:middle" /></flowRegion><flowPara
         id="flowPara3033"
         style="font-size:12px;line-height:1.25"> </flowPara><flowPara
         style="font-style:normal;font-variant:normal;font-weight:normal;font-stretch:normal;font-size:48px;line-height:1.25;font-family:Lavi;-inkscape-font-specification:Lavi;text-align:center;text-anchor:middle"
         id="flowPara3044">Pepper&amp;Carrot er helt gratis, open-source, og sponsoreret af læsere.</flowPara><flowPara
         style="font-style:normal;font-variant:normal;font-weight:normal;font-stretch:normal;font-size:48px;line-height:1.25;font-family:Lavi;-inkscape-font-specification:Lavi;text-align:center;text-anchor:middle"
         id="flowPara90">Denne episode kunne ikke være blevet til uden støtte fra de 273 tilhængere:</flowPara></flowRoot>    <flowRoot
       xml:space="preserve"
       id="flowRoot3027-8-8"
       style="font-style:normal;font-variant:normal;font-weight:normal;font-stretch:normal;line-height:0.01%;font-family:Arial;-inkscape-font-specification:Arial;text-align:center;letter-spacing:0px;word-spacing:0px;text-anchor:middle;display:inline;fill:#a72f14;fill-opacity:1;stroke:none"
       transform="matrix(1.3049839,0,0,1.3340167,-308.47335,1794.6986)"><flowRegion
         id="flowRegion3029-9-3"><rect
           id="rect3031-9-1"
           width="2230.314"
           height="376.21677"
           x="135.21135"
           y="219.33444"
           style="text-align:center;text-anchor:middle;fill:#a72f14;fill-opacity:1" /></flowRegion><flowPara
         id="flowPara3033-3-0"
         style="font-size:12px;line-height:1.25"> </flowPara><flowPara
         style="font-style:normal;font-variant:normal;font-weight:normal;font-stretch:normal;font-size:48px;line-height:1.25;font-family:Lavi;-inkscape-font-specification:Lavi;text-align:center;text-anchor:middle;fill:#a72f14;fill-opacity:1"
         id="flowPara3067-4">https://www.patreon.com/davidrevoy</flowPara></flowRoot>    <flowRoot
       xml:space="preserve"
       id="flowRoot3027-8-8-2"
       style="font-style:normal;font-variant:normal;font-weight:normal;font-stretch:normal;line-height:0.01%;font-family:Arial;-inkscape-font-specification:Arial;text-align:center;letter-spacing:0px;word-spacing:0px;text-anchor:middle;display:inline;fill:#000000;fill-opacity:1;stroke:none"
       transform="matrix(0.97308564,0,0,1.0040452,106.88857,1840.1139)"><flowRegion
         id="flowRegion3029-9-3-5"><rect
           id="rect3031-9-1-6"
           width="2230.314"
           height="376.21677"
           x="135.21135"
           y="219.33444"
           style="text-align:center;text-anchor:middle" /></flowRegion><flowPara
         style="font-style:normal;font-variant:normal;font-weight:normal;font-stretch:normal;font-size:48px;line-height:1.25;font-family:Lavi;-inkscape-font-specification:Lavi;text-align:center;text-anchor:middle"
         id="flowPara3055">Støt næste episode af Pepper&amp;Carrot; hver en krone gør en forskel:</flowPara></flowRoot>    <flowRoot
       xml:space="preserve"
       id="flowRoot3027-8-8-2-8"
       style="font-style:normal;font-variant:normal;font-weight:normal;font-stretch:normal;line-height:0.01%;font-family:Arial;-inkscape-font-specification:Arial;text-align:center;letter-spacing:0px;word-spacing:0px;text-anchor:middle;display:inline;fill:#000000;fill-opacity:1;stroke:none"
       transform="matrix(0.84096166,0,0,0.88977077,271.05184,2185.71)"><flowRegion
         id="flowRegion3029-9-3-5-1"><rect
           id="rect3031-9-1-6-8"
           width="2230.314"
           height="376.21677"
           x="135.21135"
           y="219.33444"
           style="text-align:center;text-anchor:middle" /></flowRegion><flowPara
         id="flowPara3033-3-0-2-4"
         style="font-size:12px;line-height:1.25"> </flowPara><flowPara
         style="font-style:normal;font-variant:normal;font-weight:normal;font-stretch:normal;font-size:48px;line-height:1.25;font-family:Lavi;-inkscape-font-specification:Lavi;text-align:center;text-anchor:middle"
         id="flowPara3231-9">Værktøj: Denne episode er 100% designet med fri software:</flowPara><flowPara
         style="font-style:normal;font-variant:normal;font-weight:normal;font-stretch:normal;font-size:48px;line-height:1.25;font-family:Lavi;-inkscape-font-specification:Lavi;text-align:center;text-anchor:middle"
         id="flowPara3279">Krita og Inkscape på Linux Mint</flowPara><flowPara
         style="font-style:normal;font-variant:normal;font-weight:normal;font-stretch:normal;font-size:48px;line-height:1.25;font-family:Lavi;-inkscape-font-specification:Lavi;text-align:center;text-anchor:middle"
         id="flowPara3233-6"> </flowPara></flowRoot>    <flowRoot
       xml:space="preserve"
       id="flowRoot3027-8-8-2-8-6"
       style="font-style:normal;font-variant:normal;font-weight:normal;font-stretch:normal;line-height:0.01%;font-family:Arial;-inkscape-font-specification:Arial;text-align:center;letter-spacing:0px;word-spacing:0px;text-anchor:middle;display:inline;fill:#000000;fill-opacity:1;stroke:none"
       transform="matrix(0.84096166,0,0,0.87275229,271.14053,2085.6895)"><flowRegion
         id="flowRegion3029-9-3-5-1-2"><rect
           id="rect3031-9-1-6-8-7"
           width="2230.314"
           height="376.21677"
           x="135.21135"
           y="219.33444"
           style="text-align:center;text-anchor:middle" /></flowRegion><flowPara
         id="flowPara3033-3-0-2-4-3"
         style="font-size:12px;line-height:1.25"> </flowPara><flowPara
         style="font-style:normal;font-variant:normal;font-weight:normal;font-stretch:normal;font-size:48px;line-height:1.25;font-family:Lavi;-inkscape-font-specification:Lavi;text-align:center;text-anchor:middle"
         id="flowPara3278">Open source: al kildematerialet, skrifttyper, og lagdelte filer</flowPara><flowPara
         style="font-style:normal;font-variant:normal;font-weight:normal;font-stretch:normal;font-size:48px;line-height:1.25;font-family:Lavi;-inkscape-font-specification:Lavi;text-align:center;text-anchor:middle"
         id="flowPara109">kan downloades i høj opløsning fra den officielle hjemmeside</flowPara><flowPara
         style="font-style:normal;font-variant:normal;font-weight:normal;font-stretch:normal;font-size:48px;line-height:1.25;font-family:Lavi;-inkscape-font-specification:Lavi;text-align:center;text-anchor:middle"
         id="flowPara3233-6-14"> </flowPara></flowRoot>    <flowRoot
       xml:space="preserve"
       id="flowRoot3027-8-8-2-8-6-3"
       style="font-style:normal;font-variant:normal;font-weight:normal;font-stretch:normal;line-height:0.01%;font-family:Arial;-inkscape-font-specification:Arial;text-align:center;letter-spacing:0px;word-spacing:0px;text-anchor:middle;display:inline;fill:#000000;fill-opacity:1;stroke:none"
       transform="matrix(0.84096166,0,0,0.88909938,271.66285,1979.3015)"><flowRegion
         id="flowRegion3029-9-3-5-1-2-8"><rect
           id="rect3031-9-1-6-8-7-4"
           width="2230.314"
           height="376.21677"
           x="135.21135"
           y="219.33444"
           style="text-align:center;text-anchor:middle" /></flowRegion><flowPara
         id="flowPara3033-3-0-2-4-3-2"
         style="font-size:12px;line-height:1.25"> </flowPara><flowPara
         style="font-style:normal;font-variant:normal;font-weight:normal;font-stretch:normal;font-size:48px;line-height:1.25;font-family:Lavi;-inkscape-font-specification:Lavi;text-align:center;text-anchor:middle"
         id="flowPara3318">Licens: Creative Commons Kreditering</flowPara><flowPara
         style="font-style:normal;font-variant:normal;font-weight:normal;font-stretch:normal;font-size:48px;line-height:1.25;font-family:Lavi;-inkscape-font-specification:Lavi;text-align:center;text-anchor:middle"
         id="flowPara94">Du kan dele og tilpasse materialet til alle formål, også kommercielle</flowPara><flowPara
         style="font-style:normal;font-variant:normal;font-weight:normal;font-stretch:normal;font-size:48px;line-height:1.25;font-family:Lavi;-inkscape-font-specification:Lavi;text-align:center;text-anchor:middle"
         id="flowPara3233-6-14-6"> </flowPara></flowRoot>    <flowRoot
       xml:space="preserve"
       id="flowRoot2987"
       style="font-style:normal;font-variant:normal;font-weight:normal;font-stretch:normal;line-height:0.01%;font-family:Arial;-inkscape-font-specification:Arial;text-align:justify;letter-spacing:0px;word-spacing:0px;text-anchor:start;display:inline;fill:#000000;fill-opacity:1;stroke:none"
       transform="matrix(0.82715436,0,0,0.85416209,201.09813,-49.530013)"><flowRegion
         id="flowRegion2989"><rect
           id="rect2991"
           width="2996.0627"
           height="2440.8586"
           x="-141.0901"
           y="266.68515"
           style="text-align:justify;text-anchor:start" /></flowRegion><flowPara
         style="font-style:normal;font-variant:normal;font-weight:normal;font-stretch:normal;font-size:47.11256409px;line-height:150%;font-family:Lavi;-inkscape-font-specification:Lavi;text-align:justify;writing-mode:lr-tb;text-anchor:start"
         id="flowPara3241"> </flowPara><flowPara
         style="font-style:normal;font-variant:normal;font-weight:normal;font-stretch:normal;font-size:47.11256409px;line-height:120.00000477%;font-family:Lavi;-inkscape-font-specification:Lavi;text-align:justify;writing-mode:lr-tb;text-anchor:start"
         id="flowPara3095"> </flowPara><flowPara
         style="font-style:normal;font-variant:normal;font-weight:normal;font-stretch:normal;font-size:47.11256409px;line-height:120.00000477%;font-family:Lavi;-inkscape-font-specification:Lavi;text-align:center;writing-mode:lr-tb;text-anchor:middle"
         id="flowPara3111">Addison Lewis ❀ A Distinguished Robot ❀ Adrian Lord ❀ Ahmad Ali ❀ Aina Reich ❀ Alandran ❀ Alan Hardman ❀ Albert Westra ❀ Alcide</flowPara><flowPara
         style="font-style:normal;font-variant:normal;font-weight:normal;font-stretch:normal;font-size:47.11256409px;line-height:120.00000477%;font-family:Lavi;-inkscape-font-specification:Lavi;text-align:center;writing-mode:lr-tb;text-anchor:middle"
         id="flowPara3034">Alex ❀ Alexander Bülow Tomassen ❀ Alexander Sopicki ❀ Alexandra Jordan ❀ Alexey Golubev ❀ Alex Flores ❀ Alex Lusco ❀ Alex Silver</flowPara><flowPara
         style="font-style:normal;font-variant:normal;font-weight:normal;font-stretch:normal;font-size:47.11256409px;line-height:120.00000477%;font-family:Lavi;-inkscape-font-specification:Lavi;text-align:center;writing-mode:lr-tb;text-anchor:middle"
         id="flowPara3036">Alex Vandiver ❀ Alfredo ❀ Ali Poulton (Aunty Pol) ❀ Allan Zieser ❀ Andreas Rieger ❀ Andreas Ulmer ❀ Andrej Kwadrin ❀ Andrew</flowPara><flowPara
         style="font-style:normal;font-variant:normal;font-weight:normal;font-stretch:normal;font-size:47.11256409px;line-height:120.00000477%;font-family:Lavi;-inkscape-font-specification:Lavi;text-align:center;writing-mode:lr-tb;text-anchor:middle"
         id="flowPara3038">Andrew Godfrey ❀ Andrey Alekseenko ❀ Angela K ❀ Anna Orlova ❀ anonymous ❀ Antan Karmola ❀ Anthony Edlin ❀ Antoine</flowPara><flowPara
         style="font-style:normal;font-variant:normal;font-weight:normal;font-stretch:normal;font-size:47.11256409px;line-height:120.00000477%;font-family:Lavi;-inkscape-font-specification:Lavi;text-align:center;writing-mode:lr-tb;text-anchor:middle"
         id="flowPara3040">Antonio Mendoza ❀ Antonio Parisi ❀ Ardash Crowfoot ❀ Arjun Chennu ❀ Arne Brix ❀ Arturo J. Pérez ❀ Aslak Kjølås-Sæverud </flowPara><flowPara
         style="font-style:normal;font-variant:normal;font-weight:normal;font-stretch:normal;font-size:47.11256409px;line-height:120.00000477%;font-family:Lavi;-inkscape-font-specification:Lavi;text-align:center;writing-mode:lr-tb;text-anchor:middle"
         id="flowPara3042">Axel Bordelon ❀ Axel Philipsenburg ❀ barbix ❀ BataMoth ❀ Ben Evans ❀ Bernd ❀ Betsy Luntao ❀ Birger Tuer Thorvaldsen</flowPara><flowPara
         style="font-style:normal;font-variant:normal;font-weight:normal;font-stretch:normal;font-size:47.11256409px;line-height:120.00000477%;font-family:Lavi;-inkscape-font-specification:Lavi;text-align:center;writing-mode:lr-tb;text-anchor:middle"
         id="flowPara3044-7">Boonsak Watanavisit ❀ Boris Fauret ❀ Boudewijn Rempt ❀ BoxBoy ❀ Brent Houghton ❀ Brett Smith ❀ Brian Behnke ❀ Bryan Butler</flowPara><flowPara
         style="font-style:normal;font-variant:normal;font-weight:normal;font-stretch:normal;font-size:47.11256409px;line-height:120.00000477%;font-family:Lavi;-inkscape-font-specification:Lavi;text-align:center;writing-mode:lr-tb;text-anchor:middle"
         id="flowPara3046">BS ❀ Bui Dang Hai Trieu ❀ BXS ❀ carlos levischi ❀ Carola Hänggi ❀ Cedric Wohlleber ❀ Charlotte Lacombe-bar ❀ Chris Radcliff</flowPara><flowPara
         style="font-style:normal;font-variant:normal;font-weight:normal;font-stretch:normal;font-size:47.11256409px;line-height:120.00000477%;font-family:Lavi;-inkscape-font-specification:Lavi;text-align:center;writing-mode:lr-tb;text-anchor:middle"
         id="flowPara3048">Chris Sakkas ❀ Christian Gruenwaldner ❀ Christophe Carré ❀ Christopher Bates ❀ Clara Dexter ❀ codl ❀ Colby Driedger</flowPara><flowPara
         style="font-style:normal;font-variant:normal;font-weight:normal;font-stretch:normal;font-size:47.11256409px;line-height:120.00000477%;font-family:Lavi;-inkscape-font-specification:Lavi;text-align:center;writing-mode:lr-tb;text-anchor:middle"
         id="flowPara3050">Conway Scott Smith ❀ Coppin Olivier ❀ Cuthbert Williams ❀ Cyol ❀ Cyrille Largillier ❀ Cyril Paciullo ❀ Damien ❀ Daniel</flowPara><flowPara
         style="font-style:normal;font-variant:normal;font-weight:normal;font-stretch:normal;font-size:47.11256409px;line-height:120.00000477%;font-family:Lavi;-inkscape-font-specification:Lavi;text-align:center;writing-mode:lr-tb;text-anchor:middle"
         id="flowPara3052">Daniel Björkman ❀ Danny Grimm ❀ David ❀ David Tang ❀ DiCola Jamn ❀ Dmitry ❀ Donald Hayward ❀ Duke ❀ Eitan Goldshtrom</flowPara><flowPara
         style="font-style:normal;font-variant:normal;font-weight:normal;font-stretch:normal;font-size:47.11256409px;line-height:120.00000477%;font-family:Lavi;-inkscape-font-specification:Lavi;text-align:center;writing-mode:lr-tb;text-anchor:middle"
         id="flowPara3054">Enrico Billich ❀ epsilon ❀ Eric Schulz ❀ Faolan Grady ❀ Francois Schnell ❀ freecultureftw ❀ Garret Patterson ❀ Ginny Hendricks</flowPara><flowPara
         style="font-style:normal;font-variant:normal;font-weight:normal;font-stretch:normal;font-size:47.11256409px;line-height:120.00000477%;font-family:Lavi;-inkscape-font-specification:Lavi;text-align:center;writing-mode:lr-tb;text-anchor:middle"
         id="flowPara3056">GreenAngel5 ❀ Grigory Petrov ❀ G. S. Davis ❀ Guillaume ❀ Guillaume Ballue ❀ Gustav Strömbom ❀ Happy Mimic ❀ Helmar Suschka</flowPara><flowPara
         style="font-style:normal;font-variant:normal;font-weight:normal;font-stretch:normal;font-size:47.11256409px;line-height:120.00000477%;font-family:Lavi;-inkscape-font-specification:Lavi;text-align:center;writing-mode:lr-tb;text-anchor:middle"
         id="flowPara3058">Henning Döscher ❀ Henry Ståhle ❀ Ilyas ❀ Irina Rempt ❀ Ivan Korotkov ❀ James Frazier ❀ Jamie Sutherland ❀ Janusz ❀ Jared Tritsch</flowPara><flowPara
         style="font-style:normal;font-variant:normal;font-weight:normal;font-stretch:normal;font-size:47.11256409px;line-height:120.00000477%;font-family:Lavi;-inkscape-font-specification:Lavi;text-align:center;writing-mode:lr-tb;text-anchor:middle"
         id="flowPara3060">JDB ❀ Jean-Baptiste Hebbrecht ❀ Jean-Gabriel LOQUET ❀ Jeffrey Schneider ❀ Jessey Wright ❀ Jim ❀ Jim Street ❀ Jiska</flowPara><flowPara
         style="font-style:normal;font-variant:normal;font-weight:normal;font-stretch:normal;font-size:47.11256409px;line-height:120.00000477%;font-family:Lavi;-inkscape-font-specification:Lavi;text-align:center;writing-mode:lr-tb;text-anchor:middle"
         id="flowPara3062">JoÃ£o Luiz Machado Junior ❀ Joerg Raidt ❀ Joern Konopka ❀ joe rutledge ❀ John ❀ John ❀ John Urquhart Ferguson ❀ Jónatan Nilsson</flowPara><flowPara
         style="font-style:normal;font-variant:normal;font-weight:normal;font-stretch:normal;font-size:47.11256409px;line-height:120.00000477%;font-family:Lavi;-inkscape-font-specification:Lavi;text-align:center;writing-mode:lr-tb;text-anchor:middle"
         id="flowPara3064">Jonathan Leroy ❀ Jonathan Ringstad ❀ Jon Brake ❀ Jorge Bernal ❀ Joseph Bowman ❀ Juju Mendivil ❀ Julien Duroure ❀ Justus Kat</flowPara><flowPara
         style="font-style:normal;font-variant:normal;font-weight:normal;font-stretch:normal;font-size:47.11256409px;line-height:120.00000477%;font-family:Lavi;-inkscape-font-specification:Lavi;text-align:center;writing-mode:lr-tb;text-anchor:middle"
         id="flowPara3066">Kai-Ting (Danil) Ko ❀ Kasper Hansen ❀ Kate ❀ Kathryn Wuerstl ❀ Ken Mingyuan Xia ❀ Kingsquee ❀ Kroet ❀ Lars Ivar Igesund</flowPara><flowPara
         style="font-style:normal;font-variant:normal;font-weight:normal;font-stretch:normal;font-size:47.11256409px;line-height:120.00000477%;font-family:Lavi;-inkscape-font-specification:Lavi;text-align:center;writing-mode:lr-tb;text-anchor:middle"
         id="flowPara3068">Levi Kornelsen ❀ Liang ❀ Liselle ❀ Lise-Lotte Pesonen ❀ Lorentz Grip ❀ Louis Yung ❀ L S ❀ Luc Stepniewski ❀ Luke Hochrein ❀ MacCoy</flowPara><flowPara
         style="font-style:normal;font-variant:normal;font-weight:normal;font-stretch:normal;font-size:47.11256409px;line-height:120.00000477%;font-family:Lavi;-inkscape-font-specification:Lavi;text-align:center;writing-mode:lr-tb;text-anchor:middle"
         id="flowPara3070">Magnus Kronnäs ❀ Manuel ❀ Manu Järvinen ❀ Marc &amp; Rick ❀ marcus ❀ Martin Owens ❀ Mary Brownlee ❀ Masked Admirer</flowPara><flowPara
         style="font-style:normal;font-variant:normal;font-weight:normal;font-stretch:normal;font-size:47.11256409px;line-height:120.00000477%;font-family:Lavi;-inkscape-font-specification:Lavi;text-align:center;writing-mode:lr-tb;text-anchor:middle"
         id="flowPara3072">Mathias Stærk ❀ mefflin ross bullis-bates ❀ Michael ❀ Michael Gill ❀ Michael Pureka ❀ Michelle Pereira Garcia ❀ Mike Mosher</flowPara><flowPara
         style="font-style:normal;font-variant:normal;font-weight:normal;font-stretch:normal;font-size:47.11256409px;line-height:120.00000477%;font-family:Lavi;-inkscape-font-specification:Lavi;text-align:center;writing-mode:lr-tb;text-anchor:middle"
         id="flowPara3074">Miroslav ❀ mjkj ❀ Nazhif ❀ Nicholas DeLateur ❀ Nicholas Terranova ❀ Nicki Aya ❀ Nicola Angel ❀ Nicolae Berbece ❀ Nicole Heersema</flowPara><flowPara
         style="font-style:normal;font-variant:normal;font-weight:normal;font-stretch:normal;font-size:47.11256409px;line-height:120.00000477%;font-family:Lavi;-inkscape-font-specification:Lavi;text-align:center;writing-mode:lr-tb;text-anchor:middle"
         id="flowPara3076">Nielas Sinclair ❀ NinjaKnight Comics ❀ Noble Hays ❀ Noelia Calles Marcos ❀ Nora Czaykowski ❀ No Reward ❀ Nyx ❀ Olivier Amrein</flowPara><flowPara
         style="font-style:normal;font-variant:normal;font-weight:normal;font-stretch:normal;font-size:47.11256409px;line-height:120.00000477%;font-family:Lavi;-inkscape-font-specification:Lavi;text-align:center;writing-mode:lr-tb;text-anchor:middle"
         id="flowPara3078">Olivier Brun ❀ Olivier Gavrois ❀ Omar Willey ❀ Oscar Moreno ❀ Öykü Su Gürler ❀ Ozone S. ❀ Pablo Lopez Soriano ❀ Pat David</flowPara><flowPara
         style="font-style:normal;font-variant:normal;font-weight:normal;font-stretch:normal;font-size:47.11256409px;line-height:120.00000477%;font-family:Lavi;-inkscape-font-specification:Lavi;text-align:center;writing-mode:lr-tb;text-anchor:middle"
         id="flowPara3080">Patrick Gamblin ❀ Paul ❀ Paul ❀ Pavel Semenov ❀ Pet0r ❀ Peter ❀ Peter Moonen ❀ Petr Vlašic ❀ Philippe Jean Edward Bateman</flowPara><flowPara
         style="font-style:normal;font-variant:normal;font-weight:normal;font-stretch:normal;font-size:47.11256409px;line-height:120.00000477%;font-family:Lavi;-inkscape-font-specification:Lavi;text-align:center;writing-mode:lr-tb;text-anchor:middle"
         id="flowPara3082">Pierre Geier ❀ Pierre Vuillemin ❀ Pranab Shenoy ❀ Pyves &amp; Ran ❀ Raghavendra Kamath ❀ Rajul Gupta ❀ Reorx Meng ❀ Ret Samys</flowPara><flowPara
         style="font-style:normal;font-variant:normal;font-weight:normal;font-stretch:normal;font-size:47.11256409px;line-height:120.00000477%;font-family:Lavi;-inkscape-font-specification:Lavi;text-align:center;writing-mode:lr-tb;text-anchor:middle"
         id="flowPara3084">rictic ❀ RJ van der Weide ❀ Roberto Zaghis ❀ Robin Moussu ❀ Roman  Burdun ❀ Rumiko Hoshino ❀ Rustin Simons ❀ Sally Bridgewater</flowPara><flowPara
         style="font-style:normal;font-variant:normal;font-weight:normal;font-stretch:normal;font-size:47.11256409px;line-height:120.00000477%;font-family:Lavi;-inkscape-font-specification:Lavi;text-align:center;writing-mode:lr-tb;text-anchor:middle"
         id="flowPara3086">Sami T ❀ Samuel Mitson ❀ Scott Petrovic ❀ Sean Adams ❀ Shadefalcon ❀ ShadowMist ❀ shafak ❀ Shawn Meyer ❀ Simon Forster</flowPara><flowPara
         style="font-style:normal;font-variant:normal;font-weight:normal;font-stretch:normal;font-size:47.11256409px;line-height:120.00000477%;font-family:Lavi;-inkscape-font-specification:Lavi;text-align:center;writing-mode:lr-tb;text-anchor:middle"
         id="flowPara3088">Simon Isenberg ❀ Sonja Reimann-Klieber ❀ Sonny W. ❀ Soriac ❀ Stanislav Vodetskyi ❀ Stephanie Cheshire ❀ Stephen Bates</flowPara><flowPara
         style="font-style:normal;font-variant:normal;font-weight:normal;font-stretch:normal;font-size:47.11256409px;line-height:120.00000477%;font-family:Lavi;-inkscape-font-specification:Lavi;text-align:center;writing-mode:lr-tb;text-anchor:middle"
         id="flowPara3090">Stephen Smoogen ❀ Steven Bennett ❀ Stuart Dickson ❀ surt ❀ Sybille Marchetto ❀ TamaskanLEM ❀ tar8156 ❀ Terry Hancock</flowPara><flowPara
         style="font-style:normal;font-variant:normal;font-weight:normal;font-stretch:normal;font-size:47.11256409px;line-height:120.00000477%;font-family:Lavi;-inkscape-font-specification:Lavi;text-align:center;writing-mode:lr-tb;text-anchor:middle"
         id="flowPara3092">TheFaico ❀ thibhul ❀ Thomas Citharel ❀ Thomas Courbon ❀ Thomas Schwery ❀ Thornae ❀ Tim Burbank ❀ Tim J. ❀ Tomas Hajek</flowPara><flowPara
         style="font-style:normal;font-variant:normal;font-weight:normal;font-stretch:normal;font-size:47.11256409px;line-height:120.00000477%;font-family:Lavi;-inkscape-font-specification:Lavi;text-align:center;writing-mode:lr-tb;text-anchor:middle"
         id="flowPara3094">Tom Demian ❀ Tom Savage ❀ Tracey Reuben ❀ Travis Humble ❀ tree ❀ Tyson Tan ❀ Urm ❀ Victoria ❀ Victoria White</flowPara><flowPara
         style="font-style:normal;font-variant:normal;font-weight:normal;font-stretch:normal;font-size:47.11256409px;line-height:120.00000477%;font-family:Lavi;-inkscape-font-specification:Lavi;text-align:center;writing-mode:lr-tb;text-anchor:middle"
         id="flowPara3097">Vladislav Kurdyukov ❀ Vlad Tomash ❀ WakoTabacco ❀ Wander ❀ Westen Curry ❀ Witt N. Vest ❀ WoodChi ❀ Xavier Claude</flowPara><flowPara
         style="font-style:normal;font-variant:normal;font-weight:normal;font-stretch:normal;font-size:47.11256409px;line-height:120.00000477%;font-family:Lavi;-inkscape-font-specification:Lavi;text-align:center;writing-mode:lr-tb;text-anchor:middle"
         id="flowPara3099">Yalyn Vinkindo ❀ Yaroslav ❀ Zeni Pong ❀ Źmicier Kušnaroŭ ❀ Глеб Бузало ❀ 獨孤欣 &amp; 獨弧悦</flowPara><flowPara
         style="font-style:normal;font-variant:normal;font-weight:normal;font-stretch:normal;font-size:47.11256409px;line-height:120.00000477%;font-family:Lavi;-inkscape-font-specification:Lavi;text-align:justify;writing-mode:lr-tb;text-anchor:start"
         id="flowPara3113"> </flowPara></flowRoot>  </g>
</svg>
