<?xml version="1.0" encoding="UTF-8" standalone="no"?>
<!-- Created with Inkscape (http://www.inkscape.org/) -->

<svg
   id="svg2"
   version="1.1"
   inkscape:version="1.3 (1:1.3+202307231459+0e150ed6c4)"
   width="2481"
   height="3503"
   sodipodi:docname="E23P05.svg"
   xmlns:inkscape="http://www.inkscape.org/namespaces/inkscape"
   xmlns:sodipodi="http://sodipodi.sourceforge.net/DTD/sodipodi-0.dtd"
   xmlns:xlink="http://www.w3.org/1999/xlink"
   xmlns="http://www.w3.org/2000/svg"
   xmlns:svg="http://www.w3.org/2000/svg"
   xmlns:rdf="http://www.w3.org/1999/02/22-rdf-syntax-ns#"
   xmlns:cc="http://creativecommons.org/ns#"
   xmlns:dc="http://purl.org/dc/elements/1.1/">
  <metadata
     id="metadata8">
    <rdf:RDF>
      <cc:Work
         rdf:about="">
        <dc:format>image/svg+xml</dc:format>
        <dc:type
           rdf:resource="http://purl.org/dc/dcmitype/StillImage" />
        <dc:title />
      </cc:Work>
    </rdf:RDF>
  </metadata>
  <defs
     id="defs6" />
  <sodipodi:namedview
     pagecolor="#ffffff"
     bordercolor="#666666"
     borderopacity="1"
     objecttolerance="10"
     gridtolerance="10"
     guidetolerance="10"
     inkscape:pageopacity="0"
     inkscape:pageshadow="2"
     inkscape:window-width="1920"
     inkscape:window-height="997"
     id="namedview4"
     showgrid="false"
     inkscape:zoom="0.18597368"
     inkscape:cx="1150.7005"
     inkscape:cy="1666.9025"
     inkscape:window-x="0"
     inkscape:window-y="0"
     inkscape:window-maximized="1"
     inkscape:current-layer="layer3"
     inkscape:document-rotation="0"
     inkscape:snap-global="false"
     inkscape:showpageshadow="0"
     inkscape:pagecheckerboard="0"
     inkscape:deskcolor="#d1d1d1" />
  <g
     inkscape:groupmode="layer"
     id="layer2"
     inkscape:label="artwork"
     sodipodi:insensitive="true">
    <image
       xlink:href="../gfx_Pepper-and-Carrot_by-David-Revoy_E23P05.png"
       y="0"
       x="0"
       id="image10"
       height="3503"
       width="2481" />
  </g>
  <g
     inkscape:groupmode="layer"
     id="layer3"
     inkscape:label="speechbubbles"
     style="display:inline">
    <path
       style="color:#000000;display:inline;overflow:visible;visibility:visible;fill:#ffffff;fill-opacity:1;fill-rule:nonzero;stroke:none;stroke-width:0.84104px;marker:none;enable-background:accumulate"
       d="M 217.49419,352.57109 C 111.29515,344.39452 78.924521,311.91724 79.099566,254.45657 79.262822,200.86559 71.363485,99.748755 99.670378,91.143483 127.81084,82.588806 205.97713,79.472125 308.38465,79.906978 c 93.17389,0.395644 266.19641,-21.817742 324.1503,81.087332 28.27361,50.20371 20.19114,138.20578 -100.64838,176.92849 -117.31004,37.59171 -314.39238,14.64829 -314.39238,14.64829 z"
       id="path3970"
       inkscape:connector-curvature="0"
       sodipodi:nodetypes="csssssc" />
    <path
       style="fill:#ffffff;fill-rule:evenodd;stroke:none;stroke-width:1px;stroke-linecap:butt;stroke-linejoin:miter;stroke-opacity:1"
       d="m 617.68228,456.28871 c -121.38083,49.38881 -256.31247,-95.32463 -258.83312,-145.4528 -2.52067,-50.12817 37.41406,-63.26325 37.41406,-63.26325 l 23.64456,25.22238 c 0,0 -14.71233,-10.50946 -12.29662,35.09981 2.41571,45.60928 92.15905,171.93056 210.07112,148.39386 z"
       id="path4367"
       inkscape:connector-curvature="0"
       sodipodi:nodetypes="csccsc" />
    <path
       style="fill:#ffe4a0;stroke:none;stroke-width:1.02238;fill-opacity:1"
       d="m 1179.5693,1197.0847 c -1.6569,-50.4669 61.8775,-65.8294 106.5163,-72.2723 44.6391,-6.4427 192.5083,1.1288 182.5353,62.7078 -9.9729,61.5793 -111.7153,67.9753 -167.2167,64.4297 -55.5015,-3.5456 -113.6096,-6.9484 -121.8349,-54.8652 z"
       id="path3938"
       inkscape:connector-curvature="0"
       sodipodi:nodetypes="csssc" />
    <path
       style="fill:#ffe4a0;fill-rule:evenodd;stroke:none;stroke-width:1px;stroke-linecap:butt;stroke-linejoin:miter;stroke-opacity:1;fill-opacity:1"
       d="m 1319.9169,1430.5563 c -79.6639,-37.1698 -55.9039,-129.7638 14.1457,-180.8499 70.0496,-51.086 29.4921,-47.0022 29.4921,-47.0022 0,0 -17.1327,-11.2383 -67.0329,47.9216 -49.9003,59.16 -82.7104,161.2474 23.3951,179.9305 z"
       id="path4375"
       inkscape:connector-curvature="0"
       sodipodi:nodetypes="cscsc" />
    <path
       style="fill:#ffe4a0;fill-opacity:1;stroke:none;stroke-width:0.898369"
       d="m 1742.3617,1175.1138 c 5.3395,-62.9 44.6758,-96.1982 58.3453,-100.4339 38.196,-11.8357 442.2972,-23.5397 481.0464,20.7526 23.6991,27.0893 70.8014,144.7625 -23.0426,220.0178 -51.2504,41.0985 -397.1307,25.5783 -439.291,-2.5955 -43.9719,-29.3844 -85.7462,-65.7517 -77.0581,-137.741 z"
       id="path3659"
       inkscape:connector-curvature="0"
       sodipodi:nodetypes="cssssc" />
    <path
       style="fill:#ffe4a0;fill-rule:evenodd;stroke:none;stroke-width:1px;stroke-linecap:butt;stroke-linejoin:miter;stroke-opacity:1;fill-opacity:1"
       d="m 1702.8004,1449.6984 c 24.2675,-5.1738 2.3375,-12.1848 -4.0584,-24.266 -6.3959,-12.0811 -8.0227,-26.9013 9.033,-30.4546 17.0557,-3.5532 50.4566,10.6599 50.4566,10.6599 0,0 -21.3197,-32.6902 -9.2386,-41.9287 12.0812,-9.2385 54.7206,6.3959 54.7206,6.3959 0,0 -16.3452,-45.482 19.8983,-63.2484 36.2435,-17.7664 81.7255,6.3959 55.4312,15.6344 -26.2943,9.2386 -84.5681,7.1066 -44.7713,77.4615 -62.5378,-29.8475 -60.4058,-23.4516 -64.6697,-19.1877 -4.264,4.264 9.2385,41.9287 14.2131,53.2992 -17.0558,-10.6598 -66.8017,-36.9541 -74.6189,-22.741 -7.8172,14.2132 12.0812,25.5837 11.3705,32.6902 -0.7107,7.1066 -17.7664,5.6853 -17.7664,5.6853 z"
       id="path4394"
       inkscape:connector-curvature="0"
       sodipodi:nodetypes="csscscsscscssc" />
    <path
       style="fill:#ffe4a0;fill-rule:evenodd;stroke:none;stroke-width:0.95065194px;stroke-linecap:butt;stroke-linejoin:miter;stroke-opacity:1;fill-opacity:1"
       d="m 1854.8484,1656.4383 c 23.6477,-31.1144 233.6305,-52.6703 346.2203,-21.0573 46.2073,18.1919 105.6355,73.7196 61.7523,118.6237 -58.7406,27.4879 -129.9536,16.9214 -193.6673,29.5032 -73.5729,5.4391 -139.6604,9.166 -210.2054,-14.8264 -49.7999,-27.481 -32.1609,-81.2154 -4.0999,-112.2432 z"
       id="path4405"
       inkscape:connector-curvature="0"
       sodipodi:nodetypes="cccccc" />
    <path
       style="fill:#ffe4a0;fill-rule:evenodd;stroke:none;stroke-width:1px;stroke-linecap:butt;stroke-linejoin:miter;stroke-opacity:1;fill-opacity:1"
       d="m 1750.9267,1594.1797 c 19.7367,-19.7367 46.0523,-32.8945 56.3906,-21.6163 10.3382,11.2781 2.8195,39.4733 2.8195,39.4733 0,0 42.2929,-21.6163 90.2249,34.7742 47.932,56.3906 17.857,52.6312 17.857,52.6312 0,0 -10.3383,-3.7594 -34.7742,-32.8945 -24.4359,-29.1351 -45.1124,-46.9921 -72.3679,-35.714 -9.3984,3.7594 -19.7367,-1.8797 -16.9171,-9.3984 12.2179,-30.075 15.9773,-64.8492 -43.2328,-27.2555 z"
       id="path4419"
       inkscape:connector-curvature="0" />
    <path
       style="fill:#ffe4a0;fill-rule:evenodd;stroke:none;stroke-width:0.795831px;stroke-linecap:butt;stroke-linejoin:miter;stroke-opacity:1;fill-opacity:1"
       d="m 2229.2539,1761.7319 c 51.3916,7.8144 67.9414,31.0951 86.2334,58.6085 12.9703,19.5091 18.2675,54.0902 -5.1697,84.3453 -21.198,27.3645 -68.0291,25.9768 -100.3942,30.7538 -48.8065,7.2037 -120.7343,2.8387 -159.2334,-1.7895 -36.0536,-4.3342 -73.1676,-8.5959 -87.1043,-32.0393 -13.9367,-23.4433 -9.5816,-67.2043 -4.3552,-79.7075 5.2262,-12.503 22.6472,-49.231 36.5837,-52.3569 13.9367,-3.1257 226.4714,-7.8144 226.4714,-7.8144 z"
       id="path4423"
       inkscape:connector-curvature="0"
       sodipodi:nodetypes="cssssssscc" />
    <path
       style="color:#000000;display:inline;overflow:visible;visibility:visible;fill:#ffe4a0;fill-opacity:1;fill-rule:nonzero;stroke:none;stroke-width:0.964702px;marker:none;enable-background:accumulate"
       d="m 176.14016,2284.2402 c -5.89769,-33.0758 9.82945,-120.9334 130.73247,-113.698 120.90292,7.2352 140.56202,48.58 143.51082,60.9834 2.9489,12.4034 28.5056,82.6895 -65.85766,101.2947 -94.36337,18.6052 -178.89707,-1.0337 -208.38563,-48.5801 z"
       id="path3525"
       inkscape:connector-curvature="0" />
    <path
       style="color:#000000;display:inline;overflow:visible;visibility:visible;fill:#ffe4a0;fill-opacity:1;fill-rule:nonzero;stroke:none;stroke-width:0.764262px;marker:none;enable-background:accumulate"
       d="m 115.73104,2513.0402 c -3.42587,-73.9622 -35.004086,-184.4295 168.49105,-187.4985 166.90214,-2.517 364.34863,-26.4168 363.91265,164.7461 -0.3,131.5374 -153.31644,131.0954 -234.22014,133.601 -172.76353,5.3506 -295.52007,-35.6771 -298.18356,-110.8486 z"
       id="path3525-0"
       inkscape:connector-curvature="0"
       sodipodi:nodetypes="csssc" />
    <path
       style="fill:#ffe4a0;fill-rule:evenodd;stroke:none;stroke-width:1.07212px;stroke-linecap:butt;stroke-linejoin:miter;stroke-opacity:1;fill-opacity:1"
       d="m 663.57087,2323.1002 c 113.10844,-131.9432 276.19578,-289.5009 930.41633,1.3835 -593.7651,-308.5275 -784.36777,-199.7384 -956.08211,-32.1073 -192.35604,187.7819 25.66578,30.7238 25.66578,30.7238 z"
       id="path4446"
       inkscape:connector-curvature="0"
       sodipodi:nodetypes="ccsc" />
  </g>
  <g
     inkscape:groupmode="layer"
     id="layer1"
     inkscape:label="txt">
    <text
       xml:space="preserve"
       style="font-style:normal;font-variant:normal;font-weight:normal;font-stretch:normal;line-height:0%;font-family:Lavi;-inkscape-font-specification:Lavi;text-align:center;letter-spacing:0px;word-spacing:0px;text-anchor:middle;fill:#000000;fill-opacity:1;stroke:none"
       x="360.60239"
       y="142.71449"
       id="text4246"><tspan
         sodipodi:role="line"
         style="font-size:45px;line-height:1.25"
         x="360.60239"
         y="142.71449"
         id="tspan4205">Potrebujem le</tspan><tspan
         sodipodi:role="line"
         style="font-size:45px;line-height:1.25"
         x="360.60239"
         y="198.96449"
         id="tspan57">droben podpis na dnu te</tspan><tspan
         sodipodi:role="line"
         style="font-size:45px;line-height:1.25"
         x="360.60239"
         y="255.21449"
         id="tspan59">pogodbe in vrata slave</tspan><tspan
         sodipodi:role="line"
         style="font-size:45px;line-height:1.25"
         x="360.60239"
         y="311.46448"
         id="tspan68">vam bodo odprta!</tspan></text>
    <text
       xml:space="preserve"
       style="font-style:normal;font-variant:normal;font-weight:normal;font-stretch:normal;line-height:0%;font-family:Lavi;-inkscape-font-specification:Lavi;text-align:center;letter-spacing:0px;word-spacing:0px;text-anchor:middle;fill:#000000;fill-opacity:1;stroke:none"
       x="1327.0709"
       y="1201.9977"
       id="text4246-3"><tspan
         sodipodi:role="line"
         style="font-size:45px;line-height:1.25"
         x="1327.0709"
         y="1201.9977"
         id="tspan96">Čakaj malo.</tspan></text>
    <text
       xml:space="preserve"
       style="font-style:normal;font-variant:normal;font-weight:normal;font-stretch:normal;line-height:0%;font-family:Lavi;-inkscape-font-specification:Lavi;text-align:center;letter-spacing:0px;word-spacing:0px;text-anchor:middle;fill:#000000;fill-opacity:1;stroke:none"
       x="2049.8047"
       y="1688.8641"
       id="text4246-3-6"><tspan
         sodipodi:role="line"
         style="font-size:45px;line-height:1.25"
         x="2049.8047"
         y="1688.8641"
         id="tspan4225">Kaj stoji za to</tspan><tspan
         sodipodi:role="line"
         style="font-size:45px;line-height:1.25"
         x="2049.8047"
         y="1745.1141"
         id="tspan4263"><tspan
   style="font-style:italic;font-variant:normal;font-weight:normal;font-stretch:normal;font-family:Lavi;-inkscape-font-specification:'Lavi Italic'"
   id="tspan4265">deus ex machino</tspan> ?!</tspan></text>
    <text
       xml:space="preserve"
       style="font-style:normal;font-variant:normal;font-weight:normal;font-stretch:normal;line-height:0%;font-family:Lavi;-inkscape-font-specification:Lavi;text-align:center;letter-spacing:0px;word-spacing:0px;text-anchor:middle;fill:#000000;fill-opacity:1;stroke:none"
       x="2033.4575"
       y="1126.6616"
       id="text4246-3-6-1"><tspan
         sodipodi:role="line"
         style="font-size:45px;line-height:1.25"
         x="2033.4575"
         y="1126.6616"
         id="tspan140">Točno takrat, ko sem</tspan><tspan
         sodipodi:role="line"
         style="font-size:45px;line-height:1.25"
         x="2033.4575"
         y="1182.9116"
         id="tspan6282">najbolj potrta, padeš z</tspan><tspan
         sodipodi:role="line"
         style="font-size:45px;line-height:1.25"
         x="2033.4575"
         y="1239.1616"
         id="tspan6284">neba s čarobno rešitvijo</tspan><tspan
         sodipodi:role="line"
         style="font-size:45px;line-height:1.25"
         x="2033.4575"
         y="1295.4116"
         id="tspan6286">za vse moje težave?!</tspan></text>
    <text
       xml:space="preserve"
       style="font-style:normal;font-variant:normal;font-weight:normal;font-stretch:normal;line-height:0%;font-family:Lavi;-inkscape-font-specification:Lavi;text-align:center;letter-spacing:0px;word-spacing:0px;text-anchor:middle;fill:#000000;fill-opacity:1;stroke:none"
       x="2141.8181"
       y="1836.5913"
       id="text4246-3-6-3"><tspan
         sodipodi:role="line"
         style="font-size:45px;line-height:1.25"
         x="2141.8181"
         y="1836.5913"
         id="tspan151">Tole je sumljivo,</tspan><tspan
         sodipodi:role="line"
         style="font-size:45px;line-height:1.25"
         x="2141.8181"
         y="1892.8413"
         id="tspan142"><tspan
   style="font-style:italic;font-weight:bold"
   id="tspan114">zelo</tspan> sumljivo!</tspan></text>
    <text
       xml:space="preserve"
       style="font-style:normal;font-variant:normal;font-weight:normal;font-stretch:normal;line-height:0%;font-family:Lavi;-inkscape-font-specification:Lavi;text-align:center;letter-spacing:0px;word-spacing:0px;text-anchor:middle;fill:#000000;fill-opacity:1;stroke:none"
       x="319.67175"
       y="2233.8538"
       id="text4246-3-6-3-2"><tspan
         sodipodi:role="line"
         style="font-size:45px;line-height:1.25"
         x="319.67175"
         y="2233.8538"
         id="tspan4295-8">Pridi</tspan><tspan
         sodipodi:role="line"
         style="font-size:45px;line-height:1.25"
         x="319.67175"
         y="2290.1038"
         id="tspan4326">Korenček.</tspan></text>
    <text
       xml:space="preserve"
       style="font-style:normal;font-variant:normal;font-weight:normal;font-stretch:normal;line-height:0%;font-family:Lavi;-inkscape-font-specification:Lavi;text-align:center;letter-spacing:0px;word-spacing:0px;text-anchor:middle;fill:#000000;fill-opacity:1;stroke:none"
       x="375.36023"
       y="2413.3296"
       id="text4246-3-6-3-2-7"><tspan
         sodipodi:role="line"
         style="font-size:45px;line-height:1.25"
         x="375.36023"
         y="2413.3296"
         id="tspan179">Taka zvijača bi nekoč</tspan><tspan
         sodipodi:role="line"
         style="font-size:45px;line-height:1.25"
         x="375.36023"
         y="2469.5796"
         id="tspan6307">mogoče še vžgala,</tspan><tspan
         sodipodi:role="line"
         style="font-size:45px;line-height:1.25"
         x="375.36023"
         y="2525.8296"
         id="tspan6309">vendar nisva več tako</tspan><tspan
         sodipodi:role="line"
         style="font-size:45px;line-height:1.25"
         x="375.36023"
         y="2582.0796"
         id="tspan6327">lahkoverna!</tspan></text>
  </g>
</svg>
