<?xml version="1.0" encoding="UTF-8" standalone="no"?>
<!-- Created with Inkscape (http://www.inkscape.org/) -->

<svg
   xmlns:dc="http://purl.org/dc/elements/1.1/"
   xmlns:cc="http://creativecommons.org/ns#"
   xmlns:rdf="http://www.w3.org/1999/02/22-rdf-syntax-ns#"
   xmlns:svg="http://www.w3.org/2000/svg"
   xmlns="http://www.w3.org/2000/svg"
   xmlns:xlink="http://www.w3.org/1999/xlink"
   xmlns:sodipodi="http://sodipodi.sourceforge.net/DTD/sodipodi-0.dtd"
   xmlns:inkscape="http://www.inkscape.org/namespaces/inkscape"
   id="svg2"
   version="1.1"
   inkscape:version="0.92.4 (5da689c313, 2019-01-14)"
   width="2481"
   height="3503"
   sodipodi:docname="E37P05.svg">
  <metadata
     id="metadata8">
    <rdf:RDF>
      <cc:Work
         rdf:about="">
        <dc:format>image/svg+xml</dc:format>
        <dc:type
           rdf:resource="http://purl.org/dc/dcmitype/StillImage" />
        <dc:title />
      </cc:Work>
    </rdf:RDF>
  </metadata>
  <defs
     id="defs6">
    <filter
       inkscape:label="Magmah-FX"
       inkscape:menu="Distort"
       inkscape:menu-tooltip="Horizontal rippling of edges"
       style="color-interpolation-filters:sRGB"
       id="filter4265-7"
       y="0"
       x="0"
       width="1"
       height="1">
      <feTurbulence
         numOctaves="1"
         baseFrequency="0.002 0.107"
         id="feTurbulence4267-7" />
      <feColorMatrix
         values="5 0 0 0 0 0 0 0 0 0 0 0 0 0 0 0 0 0 4 0 "
         result="result91"
         id="feColorMatrix4269-1" />
      <feDisplacementMap
         yChannelSelector="A"
         xChannelSelector="R"
         scale="14.3"
         in="SourceGraphic"
         in2="result91"
         id="feDisplacementMap4271-2" />
    </filter>
    <filter
       style="color-interpolation-filters:sRGB"
       inkscape:label="Magmah-spell-glow"
       id="filter4751"
       x="-0.033441791"
       y="-0.12562146"
       width="1.0668836"
       height="1.2512429">
      <feFlood
         flood-opacity="1"
         flood-color="rgb(255,255,255)"
         result="flood"
         id="feFlood4753" />
      <feComposite
         in="flood"
         in2="SourceGraphic"
         operator="in"
         result="composite1"
         id="feComposite4755" />
      <feGaussianBlur
         in="composite1"
         stdDeviation="5.4"
         result="blur"
         id="feGaussianBlur4757" />
      <feOffset
         dx="0"
         dy="0"
         result="offset"
         id="feOffset4759" />
      <feComposite
         in="SourceGraphic"
         in2="offset"
         operator="over"
         result="composite2"
         id="feComposite4761" />
    </filter>
    <filter
       inkscape:label="Magmah-FX"
       inkscape:menu="Distort"
       inkscape:menu-tooltip="Horizontal rippling of edges"
       style="color-interpolation-filters:sRGB"
       id="filter4265-7-5"
       y="0"
       x="0"
       width="1"
       height="1">
      <feTurbulence
         numOctaves="1"
         baseFrequency="0.002 0.107"
         id="feTurbulence4267-7-3" />
      <feColorMatrix
         values="5 0 0 0 0 0 0 0 0 0 0 0 0 0 0 0 0 0 4 0 "
         result="result91"
         id="feColorMatrix4269-1-5" />
      <feDisplacementMap
         yChannelSelector="A"
         xChannelSelector="R"
         scale="14.3"
         in="SourceGraphic"
         in2="result91"
         id="feDisplacementMap4271-2-6" />
    </filter>
  </defs>
  <sodipodi:namedview
     pagecolor="#ffffff"
     bordercolor="#666666"
     borderopacity="1"
     objecttolerance="10"
     gridtolerance="10"
     guidetolerance="10"
     inkscape:pageopacity="0"
     inkscape:pageshadow="2"
     inkscape:window-width="1536"
     inkscape:window-height="811"
     id="namedview4"
     showgrid="false"
     inkscape:zoom="0.4"
     inkscape:cx="1266.7655"
     inkscape:cy="2988.75"
     inkscape:window-x="-8"
     inkscape:window-y="-8"
     inkscape:window-maximized="1"
     inkscape:current-layer="layer1"
     inkscape:pagecheckerboard="0"
     inkscape:showpageshadow="0"
     inkscape:deskcolor="#d1d1d1" />
  <g
     inkscape:groupmode="layer"
     id="layer2"
     inkscape:label="artwork"
     sodipodi:insensitive="true">
    <image
       sodipodi:absref="C:\Users\rumiko\Desktop\P&amp;c\ep37_lang\ja\../gfx_Pepper-and-Carrot_by-David-Revoy_E37P05.png"
       xlink:href="../gfx_Pepper-and-Carrot_by-David-Revoy_E37P05.png"
       width="2481"
       height="3503"
       id="image10"
       x="0"
       y="0" />
  </g>
  <g
     inkscape:groupmode="layer"
     id="layer3"
     inkscape:label="speechbubbles"
     style="display:inline">
    <path
       style="fill:#ffffff;stroke:none;stroke-width:0.75896"
       d="m 398.28776,328.05131 c -32.50907,0.87745 -64.87308,8.371 -94.36813,22.08176 -19.79361,11.41744 -30.2288,37.57841 -22.27663,59.25867 5.18949,14.84132 17.74323,26.07636 31.87482,32.32604 24.15804,11.55249 51.26524,14.65106 77.7238,15.65341 26.4149,0.9798 53.02587,0.5484 79.16333,-3.70855 17.03013,-3.36159 33.61514,-10.74126 46.32952,-22.73243 11.4226,-10.95627 18.99687,-26.80807 17.45011,-42.85162 -1.14125,-12.02368 -8.2502,-22.76664 -17.6153,-30.09633 -9.83995,-7.70344 -21.48745,-12.65095 -33.07922,-17.07836 -27.20294,-9.84809 -56.42709,-12.8829 -85.2023,-12.85259 z"
       id="path3280-81"
       inkscape:connector-curvature="0"
       sodipodi:nodetypes="csssc" />
    <path
       style="display:inline;fill:#ffffff;stroke:none;stroke-width:0.75896"
       d="M 339.75781 240.44336 C 316.76682 241.59346 293.35873 243.73316 271.79149 252.3479 C 261.04266 256.56779 250.57807 263.17755 244.69984 273.41776 C 236.67359 286.63596 235.41939 304.26229 243.15686 317.89554 C 250.33906 330.05605 263.57624 337.74013 277.2832 340.10938 C 302.49359 345.87739 328.25165 348.6627 353.9245 351.44115 C 382.54722 353.18337 411.89595 348.71169 437.84365 336.18651 C 448.11578 330.86655 457.14717 322.1337 460.67966 310.89345 C 465.82522 296.53591 462.54628 279.11265 451.45945 268.39097 C 444.09492 261.38539 434.68407 257.12625 425.46638 253.14042 C 408.77591 246.38017 390.85196 243.35064 373.01797 241.54703 C 361.9629 240.55842 350.85195 240.33192 339.75781 240.44336 z "
       id="path3280-81-3"
       inkscape:connector-curvature="0"
       sodipodi:nodetypes="csssc" />
    <path
       style="color:#000000;display:inline;overflow:visible;visibility:visible;fill:#ffffff;fill-opacity:1;fill-rule:nonzero;stroke:none;stroke-width:2.02177px;marker:none;enable-background:accumulate"
       d="m 2010.6417,253.23827 c -73.0654,0.51735 -146.9419,5.0691 -217.0609,22.07105 -34.5441,8.63225 -68.298,22.36612 -91.84,44.43704 -23.58,23.56945 -35.8266,54.67468 -29.7703,84.4561 6.7337,20.32368 26.5095,36.48518 49.0474,47.10106 34.3118,16.80597 74.6543,23.73079 114.3006,27.95171 54.1564,5.32787 108.6947,7.86273 163.208,9.62303 80.2813,1.47143 162.2706,-1.72622 238.7765,-22.3995 31.4057,-8.51946 62.3309,-19.80285 87.3099,-37.25304 13.5541,-9.63003 25.6161,-21.97084 27.6785,-36.62014 2.3105,-14.73302 -1.983,-29.58153 -8.012,-43.47851 -10.5621,-23.01855 -31.618,-42.93036 -58.5524,-55.39695 -41.3821,-19.91557 -89.4388,-29.26332 -137.0975,-34.69677 -45.6753,-5.07892 -91.9163,-5.99315 -137.9878,-5.79508 z"
       id="path5026-3"
       inkscape:connector-curvature="0"
       sodipodi:nodetypes="csssc" />
    <path
       style="color:#000000;display:inline;overflow:visible;visibility:visible;fill:#ffffff;fill-opacity:1;fill-rule:nonzero;stroke:none;stroke-width:0.911215px;marker:none;enable-background:accumulate"
       d="m 1551.2199,908.91728 c -29.6859,0.0609 -60.1868,5.45924 -85.9037,20.96152 -13.0276,7.65903 -23.8089,19.17214 -29.9691,33.02507 -12.6644,27.44384 -8.4084,60.90533 8.1581,85.77703 11.7127,18.1163 30.1475,31.2304 50.4391,38.1314 30.2496,10.2245 62.4475,12.8118 94.1888,13.184 29.0356,-0.026 58.6264,0.2779 86.7903,-7.7905 15.1593,-4.3568 29.9806,-11.275 41.1688,-22.6492 13.7739,-13.4338 22.5391,-31.7331 24.5681,-50.853 3.1717,-25.32706 -4.8769,-52.36124 -23.276,-70.40922 -19.1194,-19.63649 -45.7217,-30.31137 -72.4748,-34.30462 -30.9375,-5.25812 -62.4289,-4.71539 -93.6896,-5.07248 z"
       id="path4040-40"
       inkscape:connector-curvature="0"
       sodipodi:nodetypes="zssssz" />
    <path
       style="color:#000000;display:inline;overflow:visible;visibility:visible;fill:#ffffff;fill-opacity:1;fill-rule:nonzero;stroke:none;stroke-width:0.999998px;marker:none;enable-background:accumulate"
       d="m 496.15677,1011.893 c 34.73321,-33.49717 31.89314,-53.50347 31.44376,-68.11357 -4.7651,-0.9949 -12.85059,-4.2577 -12.85059,-4.2577 0,0 1.90835,-28.8086 -1.17233,-39.94541 -3.08071,-11.13686 -17.53582,-8.20897 -17.53582,-8.20897 0,0 -5.18065,55.93348 -10.00914,67.69208 13.18767,2.2293 19.31591,4.9084 24.41808,3.8748 3.16059,8.1805 -2.4061,36.7502 -14.29396,48.95877 z"
       id="path4456-3"
       inkscape:connector-curvature="0" />
    <path
       style="color:#000000;display:inline;overflow:visible;visibility:visible;fill:#ffffff;fill-opacity:1;fill-rule:nonzero;stroke:none;stroke-width:0.76069307px;marker:none;enable-background:accumulate"
       d="m 1183.5181,2294.5039 c -30.6449,0.619 -62.358,3.1801 -89.987,15.6773 -20.197,9.3105 -36.7688,26.4126 -39.6236,46.5695 -1.8773,22.1238 15.8924,43.3585 39.445,50.841 19.7662,6.7047 41.1327,8.2661 61.4522,13.2588 70.1338,13.5197 142.6232,15.9595 214.1168,11.4556 34.5602,-2.5122 68.9709,-7.8601 101.9872,-17.191 20.0139,-6.1471 40.215,-14.5147 53.9887,-29.0308 13.6661,-15.703 12.5068,-39.6467 -2.8158,-54.1971 -12.3805,-12.7949 -31.1689,-18.7372 -49.2207,-22.8823 -32.3234,-7.5665 -65.9251,-9.1081 -99.1473,-11.3081 -63.321,-3.2897 -126.7881,-3.2005 -190.1955,-3.1929 z"
       id="path4546-6-21"
       inkscape:connector-curvature="0"
       sodipodi:nodetypes="cssssc" />
    <path
       style="color:#000000;display:inline;overflow:visible;visibility:visible;fill:#ffffff;fill-opacity:1;fill-rule:nonzero;stroke:none;stroke-width:0.709511px;marker:none;enable-background:accumulate"
       d="m 660.4671,2264.4761 c -27.46404,0.4961 -55.59723,9.3662 -75.91376,28.3762 -22.04112,21.9967 -34.01798,52.6125 -36.71122,83.3297 -4.6171,37.7827 7.66343,77.1602 32.57258,105.8728 15.45155,15.2221 36.2984,22.7478 56.17199,30.2909 32.63866,11.8813 68.52532,14.0614 102.52252,7.2514 24.74397,-4.2043 49.50975,-14.1162 66.96221,-32.7122 14.29698,-15.5566 20.1952,-36.8488 22.13493,-57.4445 2.21372,-25.3342 0.22348,-50.847 -3.21705,-75.9774 -3.06384,-19.3764 -10.19837,-38.8334 -24.21991,-53.0074 -12.61573,-13.153 -29.86999,-20.4807 -47.17333,-25.1968 -19.78672,-5.3553 -40.22618,-7.7846 -60.59007,-9.6925 -10.82519,-0.8151 -21.68313,-1.1937 -32.53889,-1.0902 z"
       id="path4546-6-21-2"
       inkscape:connector-curvature="0"
       sodipodi:nodetypes="cssssc" />
    <path
       style="color:#000000;display:inline;overflow:visible;visibility:visible;fill:#ffffff;fill-opacity:1;fill-rule:nonzero;stroke:none;stroke-width:1.24776px;marker:none;enable-background:accumulate"
       d="m 459.6053,1891.1682 c -25.78503,-0.1843 -51.98226,-1.2113 -77.35414,8.2206 -14.89066,5.503 -29.5287,16.4906 -39.23287,34.6389 -11.30434,20.7888 -13.8777,49.4611 -9.45774,74.2333 2.0847,11.4957 5.45637,22.5261 10.13464,32.1648 5.10112,10.2673 12.34551,18.2476 20.71394,21.9272 23.99002,13.3419 49.94142,17.2374 75.56787,19.3922 26.83283,1.912 53.77615,1.5576 80.67395,-0.5068 22.72476,-2.2076 45.79131,-6.821 67.10421,-19.9956 12.9036,-8.3042 25.31276,-21.1158 32.03119,-39.8433 9.35157,-25.8894 8.31707,-59.5895 -4.03458,-82.094 -9.94251,-17.2808 -24.8812,-26.0068 -39.56322,-31.5062 -24.26146,-8.935 -49.44455,-11.2556 -74.40874,-14.0389 -14.02766,-1.3934 -28.08049,-2.6936 -42.17451,-2.5922 z"
       id="path4546-6-21-1"
       inkscape:connector-curvature="0"
       sodipodi:nodetypes="cssssc" />
    <path
       style="color:#000000;display:inline;overflow:visible;visibility:visible;fill:#ffffff;fill-opacity:1;fill-rule:nonzero;stroke:none;stroke-width:0.95389003px;marker:none;enable-background:accumulate"
       d="m 509.238,2164.6298 c 3.55244,-79.0368 53.27164,-137.9672 183.70324,-126.1726 69.86626,6.3168 149.17398,9.6749 144.77983,125.4379 -4.39423,115.7632 -118.355,115.4633 -141.85904,118.7187 -23.50411,3.2572 -146.09666,-5.9959 -167.78561,-44.8311 -13.57683,-24.3097 -19.05825,-48.6962 -18.83842,-73.1529 z"
       id="path4546-6-21-1-9"
       inkscape:connector-curvature="0"
       sodipodi:nodetypes="cssssc" />
    <path
       style="color:#000000;display:inline;overflow:visible;visibility:visible;fill:#ffffff;fill-opacity:1;fill-rule:nonzero;stroke:none;stroke-width:1.19710004px;marker:none;enable-background:accumulate"
       d="m 1346.4929,1906.7595 c -27.5618,0.4582 -55.9462,3.1632 -81.2588,17.1764 -12.5256,7.0164 -24.1142,19.5093 -27.0289,36.1571 -2.011,16.5978 7.3755,32.6541 19.5753,39.8816 12.5575,7.4302 26.7271,9.125 40.3274,12.2488 47.3844,8.8731 95.695,12.5507 143.5404,7.2714 16.7633,-2.1389 34.1059,-5.7216 48.5019,-16.7585 9.0671,-7.2007 15.462,-19.0016 16.6354,-31.9393 1.7823,-14.8825 -2.914,-31.5687 -14.0178,-39.759 -14.2163,-11.4438 -31.7223,-14.0896 -48.3325,-16.8855 -29.1521,-4.3915 -58.5332,-6.3032 -87.8924,-7.3341 -3.3497,-0.069 -6.6998,-0.078 -10.05,-0.059 z"
       id="path4546-6-21-1-9-4"
       inkscape:connector-curvature="0"
       sodipodi:nodetypes="cssssc" />
    <path
       style="color:#000000;display:inline;overflow:visible;visibility:visible;fill:#ffffff;fill-opacity:1;fill-rule:nonzero;stroke:none;stroke-width:0.96193px;marker:none;enable-background:accumulate"
       d="m 1217.0653,1985.7656 c -48.72,0.882 -98.2182,2.8713 -145.1541,18.4889 -16.7841,6.8173 -29.3374,22.7322 -35.6945,40.6654 -10.5597,27.1823 -9.0909,60.755 7.3726,84.8351 9.6728,13.9915 24.9653,22.1407 40.5818,24.9674 20.6129,4.8894 41.5345,8.1831 62.4995,10.6435 37.7541,3.8894 75.7096,2.0101 113.5403,1.0065 54.1568,-0.3976 108.4394,2.4619 162.4735,-2.8587 20.189,-1.8225 40.4778,-3.8181 60.2654,-8.678 26.1011,-8.9227 46.4535,-36.1747 47.4467,-66.2485 1.4018,-24.676 -9.4442,-49.1571 -26.8658,-64.6853 -22.3692,-21.3445 -51.9346,-31.1597 -80.9693,-35.023 -38.4737,-4.6848 -77.1542,0.8942 -115.7178,-0.9675 -29.9261,-0.7004 -59.8367,-2.493 -89.7783,-2.1458 z"
       id="path4546-6-21-1-9-4-7"
       inkscape:connector-curvature="0"
       sodipodi:nodetypes="cssssc" />
    <path
       style="color:#000000;display:inline;overflow:visible;visibility:visible;fill:#ffffff;fill-opacity:1;fill-rule:nonzero;stroke:none;stroke-width:1.14709px;marker:none;enable-background:accumulate"
       d="m 1005.12,3066.8417 c 5.7267,-41.6532 61.8615,-70.7879 205.3078,-59.2238 76.8376,6.1939 164.1463,11.2087 156.65,72.2502 -7.4964,61.0415 -133.0578,56.2289 -159.0305,56.9907 -25.9729,0.7627 -160.8399,-9.1373 -183.8475,-30.561 -14.4023,-13.4105 -19.8828,-26.5311 -19.0798,-39.4561 z"
       id="path4546-6-21-1-9-4-7-8"
       inkscape:connector-curvature="0"
       sodipodi:nodetypes="cssssc" />
    <path
       style="color:#000000;display:inline;overflow:visible;visibility:visible;fill:#ffffff;fill-opacity:1;fill-rule:nonzero;stroke:none;stroke-width:0.624175px;marker:none;enable-background:accumulate"
       d="m 2225.7983,3151.2322 c 1.6004,-29.4598 24.0001,-51.4252 82.7628,-47.029 31.4764,2.3544 67.2066,3.6062 65.2269,46.7553 -1.9798,43.1489 -53.3219,43.0372 -63.9111,44.2506 -10.5891,1.2141 -65.82,-2.2349 -75.5915,-16.7102 -6.1167,-9.061 -8.5862,-18.1508 -8.4871,-27.2667 z"
       id="path4546-6-21-1-9-4-7-8-4"
       inkscape:connector-curvature="0"
       sodipodi:nodetypes="cssssc" />
    <path
       style="color:#000000;display:inline;overflow:visible;visibility:visible;fill:#ffffff;fill-opacity:1;fill-rule:nonzero;stroke:none;stroke-width:1px;marker:none;enable-background:accumulate"
       d="m 1284.7327,2502.3184 c -35.7282,-19.4322 -47.354,-28.3515 -44.071,-75.6186 3.2834,-47.2663 -14.2412,-48.0483 -14.2412,-48.0483 l -19.1468,25.8436 c 0,0 -0.01,101.2711 77.459,97.8233 z"
       id="path3072-56-6"
       inkscape:connector-curvature="0" />
    <path
       style="color:#000000;display:inline;overflow:visible;visibility:visible;fill:#ffffff;fill-opacity:1;fill-rule:nonzero;stroke:none;stroke-width:1px;marker:none;enable-background:accumulate"
       d="m 1468.6848,2848.0015 c 26.25,171.1132 -108.5575,232.9592 -156.9646,205.9986 -41.3932,-23.0541 -36.6132,25.372 -36.6132,25.372 0,0 -184.8377,-79.9742 -48.5243,-12.9007 136.3134,67.0735 295.373,-29.4851 242.1021,-218.4699 z"
       id="path3072-56-6-7"
       inkscape:connector-curvature="0"
       sodipodi:nodetypes="csczc" />
    <path
       style="color:#000000;display:inline;overflow:visible;visibility:visible;fill:#ffffff;fill-opacity:1;fill-rule:nonzero;stroke:none;stroke-width:1.32718px;marker:none;enable-background:accumulate"
       d="m 1605.7395,765.40053 c -36.824,0.86526 -73.5849,3.58573 -110.4098,4.48299 -15.9351,0.62196 -32.0407,0.0262 -47.7296,3.51014 -21.2976,4.31918 -42.3506,13.30038 -58.1788,29.02405 -16.9932,17.4464 -25.5378,44.10691 -19.5561,68.40731 6.9361,31.51403 32.7339,57.2258 63.1101,64.15009 31.3574,9.19976 64.009,11.87233 96.3549,14.64772 42.5947,2.71002 85.7515,3.36655 127.8155,-5.1805 25.6267,-5.37305 51.4763,-12.62287 73.8358,-27.1101 18.3377,-12.95287 28.3531,-36.15118 28.2376,-58.81308 1.0385,-21.61 -5.9621,-44.44698 -21.8782,-59.07887 -17.7019,-17.08795 -41.4131,-25.62943 -64.9087,-29.71727 -22.018,-3.81306 -44.4102,-4.52487 -66.6927,-4.32248 z"
       id="path4546-3"
       inkscape:connector-curvature="0"
       sodipodi:nodetypes="cssssc" />
    <path
       style="color:#000000;display:inline;overflow:visible;visibility:visible;fill:#ffffff;fill-opacity:1;fill-rule:nonzero;stroke:none;stroke-width:0.999998px;marker:none;enable-background:accumulate"
       d="m 2200.3678,3236.6589 c 19.412,3.2287 21.8531,2.1451 26.087,-6.1508 4.2336,-8.2965 7.4345,-21.3989 24.2674,-27.0612 16.8328,-5.6629 26.4772,-1.2243 33.0349,1.2943 -1.1679,-11.6566 8.131,-31.9623 0.9277,-37.4845 -7.2032,-5.5223 17.0343,2.8574 17.0343,2.8574 0,0 12.1095,28.3527 3.5098,41.2194 -8.5996,12.8666 -35.9866,3.6351 -48.1953,5.9287 -12.2087,2.2936 -17.7187,20.2054 -26.9698,23.8183 -9.2511,3.6136 -20.9523,-1.0637 -29.696,-4.4216 z"
       id="path4538-7-1"
       inkscape:connector-curvature="0"
       sodipodi:nodetypes="ccscccsscc" />
    <path
       style="fill:#ffffff;fill-rule:evenodd;stroke:none;stroke-width:0.989952px;stroke-linecap:butt;stroke-linejoin:miter;stroke-opacity:1"
       d="m 563.82903,2593.7899 c 63.64415,46.5419 99.6802,37.8628 99.27382,22.0538 -0.73279,-28.5061 -23.68426,-45.5161 -20.14693,-49.7569 56.87331,-68.1838 45.61583,-44.4564 42.02712,-78.3168 -3.58863,-33.8596 -32.82515,9.9982 -43.47048,25.9957 -10.64526,15.9984 -23.23393,28.0821 -24.13067,46.0989 -0.89678,18.0167 30.31994,32.2197 26.20251,52.3883 -4.11738,20.1676 -79.75537,-18.463 -79.75537,-18.463 z"
       id="path4324-2"
       inkscape:connector-curvature="0"
       sodipodi:nodetypes="cssssssc" />
    <path
       style="fill:#ffffff;fill-rule:evenodd;stroke:none;stroke-width:1px;stroke-linecap:butt;stroke-linejoin:miter;stroke-opacity:1"
       d="m 1641.3607,1592.1712 c 22.6649,-9.5896 43.3488,-24.3392 44.2472,-33.5648 0.8985,-9.2259 -11.1673,-38.3407 15.3399,-36.3802 44.753,7.0521 59.1413,-17.435 71.8681,-40.1028 -10.4456,44.0867 -37.326,59.8862 -66.9409,56.1082 -20.4331,0.5043 27.1628,20.802 -14.1238,65.6767 -34.0791,18.4121 -50.3905,-11.7371 -50.3905,-11.7371 z"
       id="path1085"
       inkscape:connector-curvature="0"
       sodipodi:nodetypes="csccccc" />
    <path
       style="display:inline;fill:#ffffff;fill-rule:evenodd;stroke:none;stroke-width:1px;stroke-linecap:butt;stroke-linejoin:miter;stroke-opacity:1"
       d="m 602.38281,413.81836 c -16.46145,0.69234 -32.53906,10.64863 -39.37482,25.82696 -1.5098,2.80001 -5.28273,3.60587 -7.9531,2.02233 -5.98863,-2.1906 -11.2243,-5.98508 -17.1572,-8.31055 -9.42582,-4.50612 -18.97461,-9.76783 -29.57769,-10.58241 -9.00662,0.914 -17.21994,8.38612 -18.31844,17.45517 0.90457,4.28518 5.9133,5.81752 9.78437,5.505 14.04596,1.22391 26.26568,8.99968 37.96354,16.2261 7.48461,4.90408 17.2879,7.91388 25.94154,4.3397 8.81339,-3.63103 14.02032,-12.22106 18.30372,-20.27104 3.62722,-6.5902 7.0618,-13.9609 13.65799,-18.08996 6.18392,-3.01805 13.32935,-0.5356 18.89819,2.69485 6.80555,3.74446 18.82609,7.48219 26.68995,6.1183 5.30212,-0.83429 11.53306,0.83552 40.82961,-10.13109 -31.99063,6.29792 -54.18708,-2.32452 -64.55229,-8.18195 -4.64584,-2.56145 -9.72444,-4.75296 -15.13537,-4.62141 z"
       id="path1090"
       inkscape:connector-curvature="0"
       sodipodi:nodetypes="cscsccsssssscccc" />
    <path
       style="display:inline;fill:#ffffff;fill-rule:evenodd;stroke:none;stroke-width:1px;stroke-linecap:butt;stroke-linejoin:miter;stroke-opacity:1"
       d="m 1617.1958,451.27144 c -12.9658,3.52999 -22.7273,13.2725 -33.0295,21.31481 -10.56,8.22528 -23.222,15.13886 -36.9698,14.8702 -12.354,-0.48323 -23.8452,-5.64876 -34.869,-10.8028 4.8969,5.51905 11.4884,9.07502 17.4852,13.22715 9.8915,6.03376 21.2993,11.19668 33.1646,9.85413 13.7356,-1.82473 25.2428,-10.16894 36.6713,-17.35003 9.2631,-5.89601 19.3995,-11.88555 30.7279,-11.84241 11.2199,0.46193 21.09,7.36067 28.069,15.7517 16.1165,16.07554 40.6983,22.00557 62.7241,17.44391 18.4525,-3.77253 34.5407,-14.70036 48.0397,-27.44861 7.4725,-7.02323 14.7519,-14.32675 21.1143,-22.37986 2.8972,-4.06459 5.7878,-8.70444 5.7898,-13.83941 -1.3294,-7.64777 -9.2775,-12.55259 -16.6906,-12.40095 -15.99,-1.92544 -32.0375,9.08542 -37.0028,24.21972 -6.8813,13.76612 -18.3165,26.13815 -33.3597,30.75119 -13.1078,4.184 -28.2984,-0.43593 -37.2218,-10.81739 -8.1607,-7.6165 -16.4492,-16.15889 -27.6395,-18.99131 -8.68,-2.75282 -18.0697,-3.47368 -27.0032,-1.56004 z"
       id="path1090-9"
       inkscape:connector-curvature="0"
       sodipodi:nodetypes="cscsccsssssscccccc" />
    <path
       style="display:inline;fill:#ffffff;stroke:none;stroke-width:0.99135"
       d="m 1547.4141,1550.2764 c -17.67,0.1166 -35.4329,-0.07 -52.9368,3.292 -19.8455,3.7615 -39.4884,10.8354 -56.9828,22.906 -18.6005,12.8062 -34.0149,33.3542 -40.6004,58.1366 -3.1628,11.5442 -3.6782,24.1008 -1.1535,35.8965 4.3888,21.7063 17.2832,40.5391 34.0359,50.0978 19.5973,12.8338 42.3897,15.7674 64.3587,15.63 42.4852,1.7866 85.0497,2.4618 127.5088,-0.5599 24.7199,-1.5475 50.1179,-5.003 72.5165,-18.5957 15.7195,-9.6892 28.7409,-27.3953 31.8592,-48.7269 5.6837,-34.942 -10.2089,-72.4285 -36.0792,-89.0728 -23.0999,-15.9276 -49.7016,-22.1458 -75.8476,-25.8622 -22.1291,-2.9982 -44.4342,-3.3164 -66.6788,-3.1414 z"
       id="path3280-8-3"
       inkscape:connector-curvature="0"
       sodipodi:nodetypes="csssc" />
    <path
       style="fill:#ffffff;fill-rule:evenodd;stroke:none;stroke-width:1.17390478px;stroke-linecap:butt;stroke-linejoin:miter;stroke-opacity:1"
       d="m 365.38191,761.5608 c -36.45149,1.79515 -73.08717,2.66681 -109.1881,7.95082 -16.1361,3.09291 -32.8183,6.90855 -46.12205,16.1815 -11.47014,10.44655 -19.49075,23.50187 -26.63744,36.60688 -6.12962,14.74002 -4.54048,30.97601 -0.85785,46.04545 2.6375,13.89024 8.69035,28.04855 20.95578,37.26767 12.68899,10.7655 28.35607,20.01048 46.1234,21.18155 17.02099,1.20679 34.09781,-0.23472 51.13708,0.45828 80.31085,0.13516 160.86339,0.71935 240.82012,-7.12753 13.00089,-1.85695 25.28514,-8.77888 31.83676,-19.26913 7.4073,-9.54595 15.75342,-19.57176 16.57334,-31.6715 0.92255,-11.36805 0.0577,-22.77495 0.0965,-34.15923 -0.28473,-7.3192 0.38414,-14.82565 -1.84031,-21.94938 -2.57136,-8.29822 -8.54495,-15.33835 -15.67488,-20.88675 -14.55706,-12.17325 -33.73668,-18.96153 -53.16774,-21.42492 -34.47094,-5.90031 -69.54277,-8.4944 -104.59451,-8.93815 -16.48435,-0.30084 -32.97309,-0.27893 -49.45997,-0.26556 z"
       id="path1299"
       inkscape:connector-curvature="0" />
    <path
       style="fill:#ffffff;fill-opacity:1;fill-rule:evenodd;stroke:none;stroke-width:1px;stroke-linecap:butt;stroke-linejoin:miter;stroke-opacity:1"
       d="m 913.77686,922.38419 c -8.14312,0.86734 -14.26823,7.06793 -18.7201,13.30501 -4.05249,5.15329 -11.25461,6.20817 -17.49514,6.08783 -8.52716,0.22173 -15.64579,6.16177 -20.06036,12.8845 -2.58577,3.55077 -3.35569,8.00224 -3.12063,12.27282 -0.47884,6.67297 -5.74109,11.93324 -6.43922,18.52713 0.1519,6.3875 6.22845,10.535 7.49987,16.59892 1.3255,4.5169 2.0838,9.9862 6.45373,12.7515 6.14651,3.1882 13.77597,-0.2253 19.75563,3.5487 4.3008,2.9316 7.95855,6.6895 12.17422,9.748 4.42989,3.4669 9.57506,6.0294 15.11817,7.2675 12.612,3.3373 25.79466,0.9185 38.25451,-1.867 17.19838,-3.5707 34.75427,-5.4628 52.33411,-5.6211 5.20745,-0.3583 9.72625,-3.1437 13.90665,-5.9562 4.7696,-2.8443 10.5501,-4.4438 16.1029,-3.1727 5.7715,0.7524 12.152,2.4968 17.6004,-0.3939 7.269,-4.7571 10.2417,-13.1958 14.3189,-20.35492 3.2566,-6.1287 6.9087,-12.97344 5.3433,-20.0904 -2.1868,-5.88049 -8.6217,-8.27678 -13.0699,-12.17595 -7.5392,-7.58527 -6.6187,-19.54532 -13.671,-27.42615 -6.7963,-7.78732 -17.7343,-10.83932 -27.9088,-10.57648 -7.8977,0.18336 -15.53343,2.5898 -22.65196,5.78799 -5.32477,1.83563 -11.93741,1.6179 -16.1423,-2.47125 -4.17603,-3.22883 -9.23574,-6.67829 -14.86015,-5.53162 -7.83463,0.94699 -14.71262,6.65075 -22.86995,5.44371 -7.9649,-1.16006 -13.49005,-8.87024 -21.85288,-8.58594 z"
       id="path4367-3"
       inkscape:connector-curvature="0"
       sodipodi:nodetypes="ccccccccccccccccccccccc" />
    <path
       style="color:#000000;display:inline;overflow:visible;visibility:visible;fill:#ffffff;fill-opacity:1;fill-rule:nonzero;stroke:none;stroke-width:1px;marker:none;enable-background:accumulate"
       d="m 925.04404,987.51508 c 0.43093,17.40692 10.57358,33.58462 24.60302,43.46732 4.0486,3.4474 7.8177,7.2049 11.522,11.0151 -9.5441,6.7343 -21.87387,8.4934 -30.69728,16.3868 -3.00333,7.8153 2.07856,16.9291 9.5442,19.9766 7.90108,4.1347 17.55078,5.3387 23.93238,12.0527 5.8472,7.0001 1.9231,19.0861 -6.6504,21.789 -11.2727,5.778 -17.95023,20.1486 -13.54258,32.3069 4.13098,10.8528 14.58748,18.0402 25.44518,21.0937 5.2942,1.6139 10.7387,2.647 16.1286,3.8787 -10.8778,-5.5071 -22.4207,-11.1561 -29.8066,-21.25 -5.866,-8.2804 -2.1755,-21.8742 7.6733,-25.1751 6.0663,-1.8597 13.149,-3.1903 17.0207,-8.7544 8.18221,-11.235 4.0413,-29.3207 -8.5309,-35.4929 -6.8306,-3.5643 -14.777,-5.4022 -20.3877,-10.9819 -1.6954,-3.9526 2.6275,-8.2401 6.5884,-7.513 7.4263,-1.7714 15.8041,-2.1777 21.7723,-7.5012 4.4591,-5.1824 3.2488,-13.2448 -0.7338,-18.3354 -8.0405,-15.3899 -15.424,-31.1229 -23.8906,-46.28912 -6.1584,-1.4328 -12.54059,-0.9451 -18.78997,-1.6404 -3.73928,-0.2117 -7.47855,-0.4233 -11.21782,-0.635 0.006,0.5339 0.0117,1.0677 0.0176,1.6016 z"
       id="path5058"
       inkscape:connector-curvature="0"
       sodipodi:nodetypes="cscsssssccsssccsccccc" />
    <path
       style="display:inline;fill:#ffffff;stroke:none;stroke-width:1"
       d="m 1571.4018,1191.6392 c 13.4807,-8.3202 19.4484,-23.3927 17.65,-33.0755 -8.8182,-22.1676 -14.651,-36.255 -2.7595,-61.9827 4.6158,-9.7523 4.136,-55.5565 4.136,-55.5565 0,0 -27.4173,28.8158 -35.0946,40.6428 -7.678,11.8285 -3.0663,7.9917 -4.8155,13.4555 -1.7483,5.4625 -1.3553,24.9485 0.8987,35.296 4.6362,17.6704 24.7701,36.2388 6.7072,51.624 -38.2054,28.7903 -15.6246,82.4307 39.9278,44.9299 -67.6745,16.2702 -41.7605,-26.0079 -26.6503,-35.3336 z"
       id="path3023-0"
       inkscape:connector-curvature="0"
       sodipodi:nodetypes="scccsscccss" />
    <path
       style="display:inline;fill:#ffffff;fill-rule:evenodd;stroke:none;stroke-width:1px;stroke-linecap:butt;stroke-linejoin:miter;stroke-opacity:1"
       d="m 464.88133,1910.6914 c -28.8926,-2.0653 -70.7911,12.6625 -46.4898,55.1642 -53.0586,-27.852 -127.5213,-37.8514 -145.041,8.545 -2.9485,-56.7468 -38.5111,-41.338 -67.8631,-27.673 27.9346,-23.2981 -23.4398,-34.7771 -50.9437,-35.2783 56.996,-50.2966 26.119,-64.931 2.7943,-82.6311 57.4315,11.9803 42.9826,-15.1235 49.4459,-30.8559 49.812,33.8557 85.2527,24.5077 112.648,-9.0266 15.1349,17.4028 20.6066,54.0871 73.5776,-4.0088 -18.8313,49.4071 7.2124,43.5524 49.0134,18.2945 -6.2541,16.8237 -45.124,43.2233 21.271,38.72 -41.1448,16.9717 -49.3548,38.642 1.5874,68.75 z"
       id="path4584-8"
       inkscape:connector-curvature="0"
       sodipodi:nodetypes="cccccccccccc" />
    <path
       style="fill:#ffffff;fill-rule:evenodd;stroke:none;stroke-width:0.99999303px;stroke-linecap:butt;stroke-linejoin:miter;stroke-opacity:1"
       d="m 1088.4402,1839.1551 c 12.6082,4.62 30.6985,12.1275 32.8912,20.213 2.1928,8.0848 13.7047,23.1004 9.8674,36.3833 -3.8373,13.2822 -14.8011,26.5651 -25.2166,34.0733 -10.4157,7.5075 -30.1504,13.2822 -42.7587,14.4376 -12.6083,1.1553 -44.9513,-6.9301 -54.2706,-4.6201 -9.3192,2.31 -43.30683,3.4647 -60.30065,-2.31 -16.99383,-5.7755 -36.1804,-27.1432 -38.92135,-40.4262 -2.74096,-13.2829 9.31917,-39.848 11.51191,-46.7781 2.1928,-6.9308 11.51198,-9.2409 11.51198,-9.2409 26.0186,-3.9635 117.34611,-7.6933 155.68541,-1.7319 z"
       id="path1099"
       inkscape:connector-curvature="0"
       sodipodi:nodetypes="ccccccccccc" />
    <path
       style="color:#000000;display:inline;overflow:visible;visibility:visible;fill:#ffffff;fill-opacity:1;fill-rule:nonzero;stroke:none;stroke-width:1.05488813px;marker:none;enable-background:accumulate"
       d="m 1453.9366,2087.7856 c -6.8698,8.184 -14.3089,16.2326 -23.7729,22.099 -7.9311,-1.1163 -13.4078,-8.9165 -11.4908,-15.9508 -13.0907,2.4784 -21.5622,12.8652 -32.8118,18.5837 -17.2686,10.4746 -36.6634,19.4958 -57.5936,20.6376 -19.4168,-2.9573 -34.0759,-20.4697 -31.9732,-38.21 -5.7291,-0.5144 -9.3914,4.6022 -11.6248,8.654 -6.4931,7.3999 -13.2121,15.4871 -23.2346,19.1227 -8.9305,-0.4701 -14.7595,-10.5798 -10.0694,-17.5861 -2.6164,-3.2332 -8.2526,-0.7158 -9.4629,2.541 -13.9451,10.8003 -28.3845,22.4055 -46.4917,26.7535 -20.8928,3.3629 -41.7165,-2.4989 -60.0839,-10.5178 -4.4102,-1.6612 -9.0338,-2.8262 -13.5971,-4.1179 -7.5399,8.1966 -9.4748,20.0171 -19.5934,26.3766 -10.942,6.7045 -24.9216,8.3502 -37.4696,5.9304 -6.2662,2.4652 -6.5306,9.3438 -9.6649,14.0021 -8.3886,11.8724 -24.1867,17.8896 -39.1799,18.6319 -5.9952,0.876 -11.9904,1.752 -17.98559,2.628 11.32389,5.1134 23.79579,8.4801 33.89879,15.5169 -3.1615,7.3147 -12.3788,10.2607 -20.2899,11.1579 -15.86395,1.6483 -31.89089,1.3367 -47.65585,4.0232 -2.79528,0.3119 -5.59102,0.6275 -8.37158,1.0544 29.72997,2.3376 59.54943,6.7137 87.10183,16.8463 5.5048,10.2562 -4.1205,23.813 -16.5874,24.9571 -6.7965,3.1243 -13.5927,6.2486 -20.3889,9.3731 16.4845,-0.4069 33.2071,-1.9657 49.4386,0.8714 10.3448,11.9053 7.4127,31.2932 -6.0768,40.9481 0.8516,3.8038 6.6272,3.4691 9.345,1.384 13.0332,-2.8171 27.5643,-4.5873 39.7569,1.0138 18.9531,10.9924 29.3182,29.944 46.4183,42.7659 1.397,1.1009 2.8943,3.1686 4.7932,3.0253 15.0475,-24.3477 49.5553,-36.7839 78.6607,-29.7393 9.8679,1.8519 19.1895,5.3099 28.3633,8.8867 12.9195,-3.8059 21.605,-14.9282 34.9585,-17.8717 14.1075,-5.178 30.6387,-7.2731 44.6294,-1.6084 7.6339,4.6924 11.6855,13.0548 20.224,16.7191 8.3585,-2.0013 10.9184,-10.7676 18.1145,-14.3724 17.1746,-11.6466 41.5744,-11.992 59.5478,-2.8723 6.7736,1.9222 13.51,-2.3093 17.9534,-6.7112 15.1403,-11.0395 34.9785,-14.4727 53.7301,-15.1561 5.7149,-0.2187 11.4262,-0.1103 17.1314,0.013 1.4528,-3.774 -3.1661,-5.9112 -5.5493,-8.1497 -5.7437,-4.481 -11.7524,-10.6747 -10.3534,-18.1559 1.818,-9.7377 11.7953,-16.4517 21.6812,-19.3861 6.3306,-2.1201 12.9315,-3.55 19.0745,-6.1436 -6.0793,-4.9211 -13.7909,-7.7776 -20.4419,-11.996 -6.5043,-3.7714 -13.2553,-7.6549 -18.4959,-12.7134 -0.4947,-10.8992 9.2988,-20.5759 20.4747,-23.8643 5.1777,-2.9265 10.2575,-6.0563 14.7357,-9.8323 -12.1841,-1.3838 -25.019,-2.0907 -35.7832,-7.7195 -6.7685,-10.9967 -4.0693,-25.4188 4.3969,-35.4526 0.7646,-2.5644 -2.8648,-3.358 -4.9693,-2.7567 -13.1134,-0.3029 -27.356,-0.6588 -38.2057,-7.8337 -11.0415,-8.3966 -14.3564,-22.431 -12.8913,-35.113 0.4549,-4.7338 1.4918,-9.5214 0.6788,-14.2409 -0.9823,1.185 -1.9646,2.3698 -2.947,3.5548 z"
       id="path3549-3-7-5"
       inkscape:connector-curvature="0"
       sodipodi:nodetypes="cccccccccccccccccccc" />
    <path
       style="color:#000000;display:inline;overflow:visible;visibility:visible;fill:#ffffff;fill-opacity:1;fill-rule:nonzero;stroke:none;stroke-width:1px;marker:none;enable-background:accumulate"
       d="m 1215.9045,3102.4019 c -35.4901,1.0127 -71.3907,2.3026 -105.9431,13.293 -13.2375,4.504 -26.1502,13.6969 -33.2961,28.54 -10.5249,20.9979 -11.021,48.1413 -3.4047,70.6368 7.0343,21.7902 20.9827,40.9136 39.1726,48.9857 23.9245,10.5885 49.7029,10.9262 74.8256,11.303 14.3208,0.09 28.6368,0.5429 42.9549,0.8295 40.5334,0.5215 81.2461,-3.0065 120.9711,-13.2119 10.1832,-3.132 20.3171,-9.7458 25.7996,-21.1583 7.6002,-14.4665 10.3794,-31.6967 12.655,-48.4189 1.5762,-15.0588 -0.6114,-31.1141 -7.8437,-43.6735 -10.5753,-19.9832 -28.6838,-32.7789 -47.605,-36.7438 -20.525,-4.8818 -41.5328,-4.3959 -62.2691,-6.9623 -18.6423,-1.7278 -37.3041,-3.6794 -56.0171,-3.4193 z"
       id="path3330-06"
       inkscape:connector-curvature="0"
       sodipodi:nodetypes="zsssssz" />
    <path
       style="color:#000000;display:inline;overflow:visible;visibility:visible;fill:#ffffff;fill-opacity:1;fill-rule:nonzero;stroke:none;stroke-width:0.999999px;marker:none;enable-background:accumulate"
       d="m 1291.0012,3245.8924 c -35.7534,0.7733 -71.9204,1.7584 -106.729,10.1515 -13.3359,3.4395 -26.3444,10.4599 -33.5434,21.7952 -10.6028,16.0354 -11.1028,36.7641 -3.4299,53.9432 7.0864,16.6406 21.1384,31.2445 39.4632,37.409 24.1022,8.0861 50.0718,8.344 75.3808,8.6317 14.4271,0.068 28.8494,0.4146 43.2738,0.6335 40.834,0.3982 81.8488,-2.296 121.8686,-10.0896 10.2588,-2.3918 20.4678,-7.4425 25.9909,-16.158 7.6568,-11.0476 10.4565,-24.2057 12.7489,-36.976 1.588,-11.5 -0.6159,-23.761 -7.9017,-33.3522 -10.6539,-15.2605 -28.8967,-25.0322 -47.9584,-28.0602 -20.6772,-3.728 -41.8409,-3.357 -62.7309,-5.3169 -18.7808,-1.3194 -37.5811,-2.8098 -56.4329,-2.6112 z"
       id="path3330-06-3"
       inkscape:connector-curvature="0"
       sodipodi:nodetypes="zsssssz" />
    <path
       style="color:#000000;display:inline;overflow:visible;visibility:visible;fill:#ffffff;fill-opacity:1;fill-rule:nonzero;stroke:none;stroke-width:1.21801186px;marker:none;enable-background:accumulate"
       d="m 961.7669,1903.8172 c 19.21092,3.5313 79.4995,20.5771 18.24055,22.1787 86.77775,34.8788 54.09015,48.5856 43.13105,56.6372 23.9923,-2.9028 64.2034,3.6912 56.2978,25.997 23.1132,-3.3105 55.0603,30.9541 69.6511,47.7121 8.1226,-22.5128 21.902,-26.7531 49.8298,14.6671 -7.4507,-31.6407 -12.6583,-61.1815 52.7796,-24.5631 -1.9873,-11.6529 -55.6406,-38.8648 82.0219,-27.1762 -48.5969,-19.6367 -78.3485,-40.7758 3.8816,-68.3558 -37.8244,-7.917 -65.2848,-20.0077 -23.6175,-44.1161 -36.6592,-4.752 -47.7107,-33.2989 -43.5476,-43.8776 -33.3587,21.5457 -58.0378,21.0346 -70.0343,-7.7103 -57.2594,48.8917 -57.7847,9.3578 -78.0043,1.7385 -13.678,38.1114 -48.9176,21.426 -81.1519,14.9485 11.3618,43.5652 -41.29912,29.7409 -79.4778,31.92 z"
       id="path3549-3-8"
       inkscape:connector-curvature="0"
       sodipodi:nodetypes="ccccccccccccccc" />
  </g>
  <g
     inkscape:groupmode="layer"
     id="layer1"
     inkscape:label="txt"
     style="display:inline">
    <text
       xml:space="preserve"
       style="font-style:normal;font-variant:normal;font-weight:500;font-stretch:normal;font-size:40px;line-height:125%;font-family:'Rounded M+ 1c';-inkscape-font-specification:'Rounded M+ 1c, Medium';text-align:center;letter-spacing:0px;word-spacing:0px;text-anchor:middle;fill:#000000;fill-opacity:1;stroke:none;writing-mode:lr;font-variant-ligatures:normal;font-variant-caps:normal;font-variant-numeric:normal;font-feature-settings:normal;"
       x="352.83478"
       y="308.57437"
       id="text4246-70-2-2-2-7-4-9-6"><tspan
         sodipodi:role="line"
         style="font-size:40px;-inkscape-font-specification:'Rounded M+ 1c, Medium';font-family:'Rounded M+ 1c';font-weight:500;font-style:normal;font-stretch:normal;font-variant:normal;text-anchor:middle;text-align:center;writing-mode:lr;font-variant-ligatures:normal;font-variant-caps:normal;font-variant-numeric:normal;font-feature-settings:normal;"
         x="352.83478"
         y="308.57437"
         id="tspan9933-2-7">うむ...</tspan></text>
    <text
       xml:space="preserve"
       style="font-style:normal;font-variant:normal;font-weight:normal;font-stretch:normal;font-size:45.33330154px;line-height:125%;font-family:'Rounded M+ 1c';-inkscape-font-specification:'Rounded M+ 1c, Medium';text-align:center;letter-spacing:0px;word-spacing:0px;text-anchor:middle;fill:#000000;fill-opacity:1;stroke:none"
       x="415.25522"
       y="407.0365"
       id="text4246-70-2-2-2-7-4-9"><tspan
         sodipodi:role="line"
         style="font-size:45.33330154px"
         x="415.25522"
         y="407.0365"
         id="tspan9933-2">なるほど...</tspan></text>
    <text
       xml:space="preserve"
       style="font-style:normal;font-variant:normal;font-weight:normal;font-stretch:normal;font-size:45.33330154px;line-height:125%;font-family:'Rounded M+ 1c';-inkscape-font-specification:'Rounded M+ 1c, Medium';text-align:center;letter-spacing:0px;word-spacing:0px;text-anchor:middle;fill:#000000;fill-opacity:1;stroke:none"
       x="2003.085"
       y="328.43054"
       id="text4246-70-2-2-2-7-4-9-7"><tspan
         sodipodi:role="line"
         style="font-size:45.33330154px"
         x="2003.085"
         y="328.43054"
         id="tspan1083">...そして治療のための</tspan><tspan
         sodipodi:role="line"
         style="font-size:45.33330154px"
         x="2003.085"
         y="385.09717"
         id="tspan1004">フェニックスの涙のために</tspan><tspan
         sodipodi:role="line"
         style="font-size:45.33330154px"
         x="2003.085"
         y="441.76379"
         id="tspan1006">ここに来たと?</tspan></text>
    <text
       xml:space="preserve"
       style="font-style:normal;font-variant:normal;font-weight:500;font-stretch:normal;font-size:45.33333206px;line-height:125%;font-family:'Rounded M+ 1c';-inkscape-font-specification:'Rounded M+ 1c, Medium';font-variant-ligatures:normal;font-variant-caps:normal;font-variant-numeric:normal;font-feature-settings:normal;text-align:center;letter-spacing:0px;word-spacing:0px;writing-mode:lr-tb;text-anchor:middle;fill:#000000;fill-opacity:1;stroke:none"
       x="388.54419"
       y="830.83826"
       id="text4246-70-2-2-2-7-4-9-9"><tspan
         sodipodi:role="line"
         style="font-style:normal;font-variant:normal;font-weight:500;font-stretch:normal;font-size:45.33333206px;font-family:'Rounded M+ 1c';-inkscape-font-specification:'Rounded M+ 1c, Medium';font-variant-ligatures:normal;font-variant-caps:normal;font-variant-numeric:normal;font-feature-settings:normal;text-align:center;writing-mode:lr-tb;text-anchor:middle"
         x="388.54419"
         y="830.83826"
         id="tspan993">はい それが唯一の</tspan><tspan
         sodipodi:role="line"
         style="font-style:normal;font-variant:normal;font-weight:500;font-stretch:normal;font-size:45.33333206px;font-family:'Rounded M+ 1c';-inkscape-font-specification:'Rounded M+ 1c, Medium';font-variant-ligatures:normal;font-variant-caps:normal;font-variant-numeric:normal;font-feature-settings:normal;text-align:center;writing-mode:lr-tb;text-anchor:middle"
         x="388.54419"
         y="887.50494"
         id="tspan997">希望なんです</tspan></text>
    <text
       xml:space="preserve"
       style="font-style:normal;font-variant:normal;font-weight:normal;font-stretch:normal;font-size:45.33330154px;line-height:125%;font-family:'Rounded M+ 1c';-inkscape-font-specification:'Rounded M+ 1c, Medium';text-align:center;letter-spacing:0px;word-spacing:0px;text-anchor:middle;fill:#000000;fill-opacity:1;stroke:none"
       x="956.3031"
       y="994.32025"
       id="text4246-70-2-2-2-7-4-9-9-3"><tspan
         sodipodi:role="line"
         style="font-style:italic;font-variant:normal;font-weight:normal;font-stretch:normal;font-size:45.33330154px;font-family:Lavi;-inkscape-font-specification:'Lavi Italic'"
         x="956.3031"
         y="994.32025"
         id="tspan12869-7">*ため息*</tspan></text>
    <text
       xml:space="preserve"
       style="font-style:normal;font-variant:normal;font-weight:normal;font-stretch:normal;font-size:45.33330154px;line-height:125%;font-family:'Rounded M+ 1c';-inkscape-font-specification:'Rounded M+ 1c, Medium';text-align:center;letter-spacing:0px;word-spacing:0px;text-anchor:middle;fill:#000000;fill-opacity:1;stroke:none"
       x="1562.6672"
       y="832.2207"
       id="text4246-70-2-2-2-7-4-9-9-6-6"><tspan
         sodipodi:role="line"
         style="font-size:45.33330154px"
         x="1562.6672"
         y="832.2207"
         id="tspan1351">...それなら何を</tspan><tspan
         sodipodi:role="line"
         style="font-size:45.33330154px"
         x="1562.6672"
         y="888.88733"
         id="tspan988">待っている?</tspan></text>
    <text
       xml:space="preserve"
       style="font-style:normal;font-variant:normal;font-weight:normal;font-stretch:normal;font-size:45.33330154px;line-height:125%;font-family:'Rounded M+ 1c';-inkscape-font-specification:'Rounded M+ 1c, Medium';text-align:center;letter-spacing:0px;word-spacing:0px;text-anchor:middle;fill:#000000;fill-opacity:1;stroke:none"
       x="1588.8657"
       y="996.48041"
       id="text4246-70-2-2-2-7-4-9-9-6"><tspan
         sodipodi:role="line"
         style="font-size:45.33330154px"
         x="1588.8657"
         y="996.48041"
         id="tspan1358">私を泣かせて</tspan><tspan
         sodipodi:role="line"
         style="font-size:45.33330154px"
         x="1588.8657"
         y="1053.1471"
         id="tspan984">みろ</tspan></text>
    <text
       xml:space="preserve"
       style="font-style:normal;font-variant:normal;font-weight:500;font-stretch:normal;font-size:45.33333206px;line-height:125%;font-family:'Rounded M+ 1c';-inkscape-font-specification:'Rounded M+ 1c, Medium';font-variant-ligatures:normal;font-variant-caps:normal;font-variant-numeric:normal;font-feature-settings:normal;text-align:center;letter-spacing:0px;word-spacing:0px;writing-mode:lr-tb;text-anchor:middle;fill:#000000;fill-opacity:1;stroke:none"
       x="1564.7095"
       y="1636.3534"
       id="text4246-70-2-2-2-7-4-9-9-6-5"><tspan
         sodipodi:role="line"
         style="font-style:normal;font-variant:normal;font-weight:500;font-stretch:normal;font-size:45.33333206px;font-family:'Rounded M+ 1c';-inkscape-font-specification:'Rounded M+ 1c, Medium';font-variant-ligatures:normal;font-variant-caps:normal;font-variant-numeric:normal;font-feature-settings:normal;text-align:center;writing-mode:lr-tb;text-anchor:middle"
         x="1564.7095"
         y="1636.3534"
         id="tspan976">1分だけ</tspan><tspan
         sodipodi:role="line"
         style="font-style:normal;font-variant:normal;font-weight:500;font-stretch:normal;font-size:45.33333206px;font-family:'Rounded M+ 1c';-inkscape-font-specification:'Rounded M+ 1c, Medium';font-variant-ligatures:normal;font-variant-caps:normal;font-variant-numeric:normal;font-feature-settings:normal;text-align:center;writing-mode:lr-tb;text-anchor:middle"
         x="1564.7095"
         y="1693.02"
         id="tspan980">時間をやろう!</tspan></text>
    <text
       xml:space="preserve"
       style="font-style:normal;font-variant:normal;font-weight:500;font-stretch:normal;font-size:55.95866776px;line-height:125%;font-family:'Rounded M+ 1c';-inkscape-font-specification:'Rounded M+ 1c, Medium';font-variant-ligatures:normal;font-variant-caps:normal;font-variant-numeric:normal;font-feature-settings:normal;text-align:center;letter-spacing:0px;word-spacing:0px;writing-mode:lr-tb;text-anchor:middle;fill:#000000;fill-opacity:1;stroke:none;stroke-width:1"
       x="311.79352"
       y="1889.1261"
       id="text4246-70-2-2-2-7-4-9-9-6-1"><tspan
         sodipodi:role="line"
         style="font-style:normal;font-variant:normal;font-weight:500;font-stretch:normal;font-size:55.95866776px;font-family:'Rounded M+ 1c';-inkscape-font-specification:'Rounded M+ 1c, Medium';font-variant-ligatures:normal;font-variant-caps:normal;font-variant-numeric:normal;font-feature-settings:normal;text-align:center;writing-mode:lr-tb;text-anchor:middle;stroke-width:1"
         x="311.79352"
         y="1889.1261"
         id="tspan40668">えっ?!</tspan></text>
    <text
       xml:space="preserve"
       style="font-style:normal;font-variant:normal;font-weight:500;font-stretch:normal;font-size:49.22133255px;line-height:125%;font-family:'Rounded M+ 1c';-inkscape-font-specification:'Rounded M+ 1c, Medium';font-variant-ligatures:normal;font-variant-caps:normal;font-variant-numeric:normal;font-feature-settings:normal;text-align:center;letter-spacing:0px;word-spacing:0px;writing-mode:lr-tb;text-anchor:middle;fill:#000000;fill-opacity:1;stroke:none;stroke-width:1"
       x="472.64255"
       y="1972.0665"
       id="text4246-70-2-2-2-7-4-9-9-6-1-2-2"><tspan
         sodipodi:role="line"
         style="font-style:normal;font-variant:normal;font-weight:500;font-stretch:normal;font-size:49.22133255px;font-family:'Rounded M+ 1c';-inkscape-font-specification:'Rounded M+ 1c, Medium';font-variant-ligatures:normal;font-variant-caps:normal;font-variant-numeric:normal;font-feature-settings:normal;text-align:center;writing-mode:lr-tb;text-anchor:middle;stroke-width:1"
         x="472.64255"
         y="1972.0665"
         id="tspan1798">あなたを</tspan><tspan
         sodipodi:role="line"
         style="font-style:normal;font-variant:normal;font-weight:500;font-stretch:normal;font-size:49.22133255px;font-family:'Rounded M+ 1c';-inkscape-font-specification:'Rounded M+ 1c, Medium';font-variant-ligatures:normal;font-variant-caps:normal;font-variant-numeric:normal;font-feature-settings:normal;text-align:center;writing-mode:lr-tb;text-anchor:middle;stroke-width:1"
         x="472.64255"
         y="2033.5931"
         id="tspan950">泣かせる?!</tspan></text>
    <text
       xml:space="preserve"
       style="font-style:normal;font-variant:normal;font-weight:normal;font-stretch:normal;font-size:45.33330154px;line-height:125%;font-family:'Rounded M+ 1c';-inkscape-font-specification:'Rounded M+ 1c, Medium';text-align:center;letter-spacing:0px;word-spacing:0px;text-anchor:middle;fill:#000000;fill-opacity:1;stroke:none"
       x="663.1972"
       y="2124.0947"
       id="text4246-70-2-2-2-7-4-9-9-6-1-2"><tspan
         sodipodi:role="line"
         style="font-size:45.33330154px"
         x="663.1972"
         y="2124.0947"
         id="tspan957">そんなこと</tspan><tspan
         sodipodi:role="line"
         style="font-size:45.33330154px"
         x="663.1972"
         y="2180.7615"
         id="tspan963">予想して</tspan><tspan
         sodipodi:role="line"
         style="font-size:45.33330154px"
         x="663.1972"
         y="2237.428"
         id="tspan972">なかった...</tspan></text>
    <text
       xml:space="preserve"
       style="font-style:normal;font-variant:normal;font-weight:500;font-stretch:normal;font-size:49.26800156px;line-height:125%;font-family:'Rounded M+ 1c';-inkscape-font-specification:'Rounded M+ 1c, Medium';font-variant-ligatures:normal;font-variant-caps:normal;font-variant-numeric:normal;font-feature-settings:normal;text-align:center;letter-spacing:0px;word-spacing:0px;writing-mode:lr-tb;text-anchor:middle;fill:#000000;fill-opacity:1;stroke:none;stroke-width:1"
       x="707.3999"
       y="2316.5879"
       id="text4246-70-2-2-2-7-4-9-9-6-1-2-27"
       transform="scale(0.98652379,1.0136603)"><tspan
         sodipodi:role="line"
         style="font-style:normal;font-variant:normal;font-weight:500;font-stretch:normal;font-size:49.26800156px;font-family:'Rounded M+ 1c';-inkscape-font-specification:'Rounded M+ 1c, Medium';font-variant-ligatures:normal;font-variant-caps:normal;font-variant-numeric:normal;font-feature-settings:normal;text-align:center;writing-mode:lr-tb;text-anchor:middle;stroke-width:1"
         x="707.3999"
         y="2316.5879"
         id="tspan1134">ええと...</tspan><tspan
         sodipodi:role="line"
         style="font-style:normal;font-variant:normal;font-weight:500;font-stretch:normal;font-size:49.26800156px;font-family:'Rounded M+ 1c';-inkscape-font-specification:'Rounded M+ 1c, Medium';font-variant-ligatures:normal;font-variant-caps:normal;font-variant-numeric:normal;font-feature-settings:normal;text-align:center;writing-mode:lr-tb;text-anchor:middle;stroke-width:1"
         x="707.3999"
         y="2378.1729"
         id="tspan1825">一分間で</tspan><tspan
         sodipodi:role="line"
         style="font-style:normal;font-variant:normal;font-weight:500;font-stretch:normal;font-size:49.26800156px;font-family:'Rounded M+ 1c';-inkscape-font-specification:'Rounded M+ 1c, Medium';font-variant-ligatures:normal;font-variant-caps:normal;font-variant-numeric:normal;font-feature-settings:normal;text-align:center;writing-mode:lr-tb;text-anchor:middle;stroke-width:1"
         x="707.3999"
         y="2439.7578"
         id="tspan968">泣かせる?!</tspan></text>
    <text
       xml:space="preserve"
       style="font-style:normal;font-variant:normal;font-weight:normal;font-stretch:normal;font-size:48.11569977px;line-height:125%;font-family:'Rounded M+ 1c';-inkscape-font-specification:'Rounded M+ 1c, Medium';text-align:center;letter-spacing:0px;word-spacing:0px;text-anchor:middle;fill:#000000;fill-opacity:1;stroke:none;stroke-width:1"
       x="1017.1918"
       y="1902.8142"
       id="text4246-70-2-2-2-7-4-9-9-6-1-2-3"><tspan
         sodipodi:role="line"
         style="font-size:48.11569977px;stroke-width:1"
         x="1017.1918"
         y="1902.8142"
         id="tspan44044-5">うーん...</tspan></text>
    <text
       xml:space="preserve"
       style="font-style:normal;font-variant:normal;font-weight:500;font-stretch:normal;font-size:48px;line-height:125%;font-family:'Rounded M+ 1c';-inkscape-font-specification:'Rounded M+ 1c, Medium';font-variant-ligatures:normal;font-variant-caps:normal;font-variant-numeric:normal;font-feature-settings:normal;text-align:center;letter-spacing:0px;word-spacing:0px;writing-mode:lr;text-anchor:middle;fill:#000000;fill-opacity:1;stroke:none;stroke-width:1;"
       x="1187.4293"
       y="1953.7235"
       id="text4246-70-2-2-2-7-4-9-9-6-1-2-3-9-6"><tspan
         sodipodi:role="line"
         style="font-style:normal;font-variant:normal;font-weight:500;font-stretch:normal;font-size:48px;font-family:'Rounded M+ 1c';-inkscape-font-specification:'Rounded M+ 1c, Medium';font-variant-ligatures:normal;font-variant-caps:normal;font-variant-numeric:normal;font-feature-settings:normal;text-align:center;writing-mode:lr;text-anchor:middle;stroke-width:1;"
         x="1187.4293"
         y="1953.7235"
         id="tspan62775-6">わかりました!</tspan></text>
    <text
       xml:space="preserve"
       style="font-style:normal;font-variant:normal;font-weight:normal;font-stretch:normal;font-size:40.54169846px;line-height:125%;font-family:'Rounded M+ 1c';-inkscape-font-specification:'Rounded M+ 1c, Medium';text-align:center;letter-spacing:0px;word-spacing:0px;text-anchor:middle;fill:#000000;fill-opacity:1;stroke:none;stroke-width:1"
       x="1397.374"
       y="1969.5564"
       id="text4246-70-2-2-2-7-4-9-9-6-1-2-3-9-6-0"><tspan
         sodipodi:role="line"
         style="font-size:40.54169846px;stroke-width:1"
         x="1397.374"
         y="1969.5564"
         id="tspan62775-6-2">えっと</tspan></text>
    <text
       xml:space="preserve"
       style="font-style:normal;font-variant:normal;font-weight:500;font-stretch:normal;font-size:45.33333206px;line-height:125%;font-family:'Rounded M+ 1c';-inkscape-font-specification:'Rounded M+ 1c, Medium';font-variant-ligatures:normal;font-variant-caps:normal;font-variant-numeric:normal;font-feature-settings:normal;text-align:center;letter-spacing:0px;word-spacing:0px;writing-mode:lr-tb;text-anchor:middle;fill:#000000;fill-opacity:1;stroke:none"
       x="1277.869"
       y="2029.957"
       id="text4246-70-2-2-2-7-4-9-9-6-1-2-3-9"><tspan
         sodipodi:role="line"
         style="font-style:normal;font-variant:normal;font-weight:500;font-stretch:normal;font-size:45.33333206px;font-family:'Rounded M+ 1c';-inkscape-font-specification:'Rounded M+ 1c, Medium';font-variant-ligatures:normal;font-variant-caps:normal;font-variant-numeric:normal;font-feature-settings:normal;text-align:center;writing-mode:lr-tb;text-anchor:middle"
         x="1277.869"
         y="2029.957"
         id="tspan85354">じゃあ... 世界の</tspan><tspan
         sodipodi:role="line"
         style="font-style:normal;font-variant:normal;font-weight:500;font-stretch:normal;font-size:45.33333206px;font-family:'Rounded M+ 1c';-inkscape-font-specification:'Rounded M+ 1c, Medium';font-variant-ligatures:normal;font-variant-caps:normal;font-variant-numeric:normal;font-feature-settings:normal;text-align:center;writing-mode:lr-tb;text-anchor:middle"
         x="1277.869"
         y="2086.6238"
         id="tspan938">飢餓のことを</tspan><tspan
         sodipodi:role="line"
         style="font-style:normal;font-variant:normal;font-weight:500;font-stretch:normal;font-size:45.33333206px;font-family:'Rounded M+ 1c';-inkscape-font-specification:'Rounded M+ 1c, Medium';font-variant-ligatures:normal;font-variant-caps:normal;font-variant-numeric:normal;font-feature-settings:normal;text-align:center;writing-mode:lr-tb;text-anchor:middle"
         x="1277.869"
         y="2143.2903"
         id="tspan2077">考えて...</tspan></text>
    <text
       xml:space="preserve"
       style="font-style:normal;font-variant:normal;font-weight:normal;font-stretch:normal;font-size:45.33330154px;line-height:125%;font-family:'Rounded M+ 1c';-inkscape-font-specification:'Rounded M+ 1c, Medium';text-align:center;letter-spacing:0px;word-spacing:0px;text-anchor:middle;fill:#000000;fill-opacity:1;stroke:none"
       x="1275.8167"
       y="2191.9316"
       id="text4246-70-2-2-2-7-4-9-9-6-1-2-3-9-2"><tspan
         sodipodi:role="line"
         style="font-size:45.33330154px"
         x="1275.8167"
         y="2191.9316"
         id="tspan62775-9">待って待って待って!</tspan></text>
    <text
       xml:space="preserve"
       style="font-style:normal;font-variant:normal;font-weight:normal;font-stretch:normal;font-size:45.33330154px;line-height:125%;font-family:'Rounded M+ 1c';-inkscape-font-specification:'Rounded M+ 1c, Medium';text-align:center;letter-spacing:0px;word-spacing:0px;text-anchor:middle;fill:#000000;fill-opacity:1;stroke:none"
       x="1276.9706"
       y="2252.7942"
       id="text4246-70-2-2-2-7-4-9-9-6-1-2-3-9-2-2"><tspan
         sodipodi:role="line"
         style="font-size:45.33330154px"
         x="1276.9706"
         y="2252.7942"
         id="tspan2208">もっと悲しいことが</tspan><tspan
         sodipodi:role="line"
         style="font-size:45.33330154px"
         x="1276.9706"
         y="2309.4609"
         id="tspan936">あるはず:</tspan></text>
    <text
       xml:space="preserve"
       style="font-style:normal;font-variant:normal;font-weight:500;font-stretch:normal;font-size:45.33333206px;line-height:125%;font-family:'Rounded M+ 1c';-inkscape-font-specification:'Rounded M+ 1c, Medium';font-variant-ligatures:normal;font-variant-caps:normal;font-variant-numeric:normal;font-feature-settings:normal;text-align:center;letter-spacing:0px;word-spacing:0px;writing-mode:lr-tb;text-anchor:middle;fill:#000000;fill-opacity:1;stroke:none"
       x="1293.4883"
       y="2378.7439"
       id="text4246-70-2-2-2-7-4-9-9-6-1-2-3-9-2-7-6"><tspan
         sodipodi:role="line"
         style="font-style:normal;font-variant:normal;font-weight:500;font-stretch:normal;font-size:45.33333206px;font-family:'Rounded M+ 1c';-inkscape-font-specification:'Rounded M+ 1c, Medium';font-variant-ligatures:normal;font-variant-caps:normal;font-variant-numeric:normal;font-feature-settings:normal;text-align:center;writing-mode:lr-tb;text-anchor:middle"
         x="1293.4883"
         y="2378.7439"
         id="tspan944">亡くした人のこととか</tspan></text>
    <text
       xml:space="preserve"
       style="font-style:normal;font-variant:normal;font-weight:normal;font-stretch:normal;font-size:45.33330154px;line-height:125%;font-family:'Rounded M+ 1c';-inkscape-font-specification:'Rounded M+ 1c, Medium';text-align:center;letter-spacing:0px;word-spacing:0px;text-anchor:middle;fill:#000000;fill-opacity:1;stroke:none"
       x="1184.426"
       y="3080.6577"
       id="text4246-70-2-2-2-7-4-9-9-6-1-2-3-9-2-7"><tspan
         sodipodi:role="line"
         style="font-size:45.33330154px"
         x="1184.426"
         y="3080.6577"
         id="tspan70880">まだ泣けない?</tspan></text>
    <text
       xml:space="preserve"
       style="font-style:normal;font-variant:normal;font-weight:500;font-stretch:normal;font-size:45.33333333px;line-height:125%;font-family:'Rounded M+ 1c';-inkscape-font-specification:'Rounded M+ 1c, Medium';text-align:center;letter-spacing:0px;word-spacing:0px;text-anchor:middle;fill:#000000;fill-opacity:1;stroke:none;writing-mode:lr;font-variant-ligatures:normal;font-variant-caps:normal;font-variant-numeric:normal;font-feature-settings:normal;"
       x="1237.2577"
       y="3176.5801"
       id="text4246-70-2-2-2-7-4-9-9-6-1-2-3-9-2-7-9"><tspan
         sodipodi:role="line"
         style="font-style:normal;font-variant:normal;font-weight:500;font-stretch:normal;font-size:45.33333333px;font-family:'Rounded M+ 1c';-inkscape-font-specification:'Rounded M+ 1c, Medium';text-anchor:middle;text-align:center;writing-mode:lr;font-variant-ligatures:normal;font-variant-caps:normal;font-variant-numeric:normal;font-feature-settings:normal;"
         x="1237.2577"
         y="3176.5801"
         id="tspan2463">捨てられた</tspan><tspan
         sodipodi:role="line"
         style="font-style:normal;font-variant:normal;font-weight:500;font-stretch:normal;font-size:45.33333333px;font-family:'Rounded M+ 1c';-inkscape-font-specification:'Rounded M+ 1c, Medium';text-anchor:middle;text-align:center;writing-mode:lr;font-variant-ligatures:normal;font-variant-caps:normal;font-variant-numeric:normal;font-feature-settings:normal;"
         x="1237.2577"
         y="3233.2751"
         id="tspan928">ペットは?!</tspan></text>
    <text
       xml:space="preserve"
       style="font-style:normal;font-variant:normal;font-weight:normal;font-stretch:normal;font-size:31.99909973px;line-height:125%;font-family:'Rounded M+ 1c';-inkscape-font-specification:'Rounded M+ 1c, Medium';text-align:center;letter-spacing:0px;word-spacing:0px;text-anchor:middle;fill:#000000;fill-opacity:1;stroke:none;stroke-width:0.99999899"
       x="1309.0375"
       y="3310.5249"
       id="text4246-70-2-2-2-7-4-9-9-6-1-2-3-9-2-7-9-1"><tspan
         sodipodi:role="line"
         style="font-size:31.99909973px;stroke-width:0.99999899"
         x="1309.0375"
         y="3310.5249"
         id="tspan1820">捨てペットって</tspan><tspan
         sodipodi:role="line"
         style="font-size:31.99909973px;stroke-width:0.99999899"
         x="1309.0375"
         y="3350.5237"
         id="tspan932">とても可哀想...</tspan></text>
    <text
       xml:space="preserve"
       style="font-style:normal;font-variant:normal;font-weight:normal;font-stretch:normal;font-size:45.3333px;line-height:125%;font-family:'Rounded M+ 1c';-inkscape-font-specification:'Rounded M+ 1c, Medium';text-align:center;letter-spacing:0px;word-spacing:0px;text-anchor:middle;fill:#000000;fill-opacity:1;stroke:none"
       x="2305.2185"
       y="3151.553"
       id="text4246-70-2-2-2-7-4-9-9-6-1-2-3-9-2-7-9-5"><tspan
         sodipodi:role="line"
         style="font-size:45.3333px"
         x="2305.2185"
         y="3151.553"
         id="tspan80607-3">...</tspan></text>
  </g>
</svg>
