<?xml version="1.0" encoding="UTF-8" standalone="no"?>
<svg
   id="svg2"
   version="1.1"
   inkscape:version="1.3 (0e150ed6c4, 2023-07-21)"
   width="2481"
   height="3503"
   sodipodi:docname="E35P01.svg"
   xmlns:inkscape="http://www.inkscape.org/namespaces/inkscape"
   xmlns:sodipodi="http://sodipodi.sourceforge.net/DTD/sodipodi-0.dtd"
   xmlns:xlink="http://www.w3.org/1999/xlink"
   xmlns="http://www.w3.org/2000/svg"
   xmlns:svg="http://www.w3.org/2000/svg"
   xmlns:rdf="http://www.w3.org/1999/02/22-rdf-syntax-ns#"
   xmlns:cc="http://creativecommons.org/ns#"
   xmlns:dc="http://purl.org/dc/elements/1.1/">
  <metadata
     id="metadata8">
    <rdf:RDF>
      <cc:Work
         rdf:about="">
        <dc:format>image/svg+xml</dc:format>
        <dc:type
           rdf:resource="http://purl.org/dc/dcmitype/StillImage" />
        <dc:title />
      </cc:Work>
    </rdf:RDF>
  </metadata>
  <defs
     id="defs6" />
  <sodipodi:namedview
     pagecolor="#ffffff"
     bordercolor="#666666"
     borderopacity="1"
     objecttolerance="10"
     gridtolerance="10"
     guidetolerance="10"
     inkscape:pageopacity="0"
     inkscape:pageshadow="2"
     inkscape:window-width="1888"
     inkscape:window-height="1144"
     id="namedview4"
     showgrid="false"
     inkscape:zoom="0.42773946"
     inkscape:cx="1153.7397"
     inkscape:cy="2696.7351"
     inkscape:window-x="32"
     inkscape:window-y="0"
     inkscape:window-maximized="1"
     inkscape:current-layer="layer3"
     inkscape:document-rotation="0"
     inkscape:pagecheckerboard="0"
     inkscape:showpageshadow="0"
     inkscape:deskcolor="#d1d1d1" />
  <g
     inkscape:groupmode="layer"
     id="layer2"
     inkscape:label="artwork"
     sodipodi:insensitive="true">
    <image
       xlink:href="../gfx_Pepper-and-Carrot_by-David-Revoy_E35P01.png"
       y="0"
       x="0"
       id="image10"
       height="3503.4727"
       width="2481" />
  </g>
  <g
     inkscape:groupmode="layer"
     id="layer3"
     inkscape:label="speechbubbles">
    <path
       style="color:#000000;display:inline;overflow:visible;visibility:visible;fill:#ffe4a0;fill-opacity:1;fill-rule:nonzero;stroke:none;stroke-width:0.534627px;marker:none;enable-background:accumulate"
       d="m 897.55941,2620.1629 c -61.34839,0.2941 -152.41391,-5.1761 -173.35935,-24.4254 -20.94535,-19.2493 -22.91981,-50.9543 10.45228,-64.2259 33.372,-13.2717 93.72937,-20.1603 147.05571,-19.5607 53.32625,0.6001 124.67945,10.167 144.38375,28.2358 19.7043,18.0684 11.992,59.5105 -54.38386,71.3946 -66.3761,11.8843 -74.14853,8.5816 -74.14853,8.5816 z"
       id="path3970-3"
       inkscape:connector-curvature="0"
       sodipodi:nodetypes="cccscsc" />
    <path
       style="color:#000000;display:inline;overflow:visible;visibility:visible;fill:#ffe4a0;fill-opacity:1;fill-rule:nonzero;stroke:none;stroke-width:0.641879px;marker:none;enable-background:accumulate"
       d="m 924.8099,2762.7013 c -57.50109,0.4525 -142.85563,-7.9604 -162.48753,-37.5642 -19.63182,-29.6038 -21.48246,-78.3632 9.79678,-98.7739 31.27916,-20.4109 87.85135,-31.0049 137.83342,-30.0828 49.9821,0.9229 116.86053,15.6361 135.32903,43.4243 18.4687,27.7878 11.2401,91.522 -50.9733,109.7991 -62.21343,18.2769 -69.4984,13.1975 -69.4984,13.1975 z"
       id="path3970-3-3"
       inkscape:connector-curvature="0"
       sodipodi:nodetypes="cccscsc" />
    <path
       style="fill:#ffe4a0;fill-rule:evenodd;stroke:none;stroke-width:1.06225px;stroke-linecap:butt;stroke-linejoin:miter;stroke-opacity:1;fill-opacity:1"
       d="m 1039.0596,2718.9992 c 16.785,-19.6056 38.6627,-36.0206 49.0019,-34.6196 10.3392,1.401 38.8276,20.2647 44.0486,-5.9091 5.221,-26.1736 -0.464,-38.1966 10.459,-36.0914 10.9231,2.1053 27.5797,11.864 30.0863,25.9568 -8.4109,-33.022 -32.6982,-39.4387 -40.8556,-33.0423 -8.1574,6.3964 -12.4748,9.1065 -15.8247,34.4602 -6.2288,19.6797 -15.2021,-31.4488 -75.7503,-2.4836 -29.6051,28.4958 -1.1652,51.729 -1.1652,51.729 z"
       id="path1085"
       inkscape:connector-curvature="0"
       sodipodi:nodetypes="cscscsccc" />
    <path
       style="color:#000000;display:inline;overflow:visible;visibility:visible;fill:#ffe4a0;fill-opacity:1;fill-rule:nonzero;stroke:none;stroke-width:0.862189px;marker:none;enable-background:accumulate"
       d="m 1641.1593,2563.8547 c -3.5664,-70.9896 -15.3849,-78.2503 119.3168,-82.0739 72.791,-2.0664 197.1039,2.8691 188.6082,106.9052 -8.496,104.035 -126.3761,95.4673 -150.8016,96.6914 -24.4257,1.2241 -166.3669,-9.8794 -154.55,-46.466 7.397,-22.9024 -1.979,-53.026 -2.5734,-75.0567 z"
       id="path4546-1"
       inkscape:connector-curvature="0"
       sodipodi:nodetypes="cssssc" />
    <path
       style="fill:#ffe4a0;fill-opacity:1;stroke:none;stroke-width:1.62555"
       d="m 1913.0007,3301.9617 c -3.0336,-94.3198 32.7099,-165.4297 209.1444,-158.4052 176.4345,7.0246 265.9514,-2.2801 268.4948,127.5366 0.9085,46.3644 11.1051,101.4008 -16.1076,121.543 -44.8338,33.1851 -146.5929,14.2674 -229.2884,20.4482 -136.994,10.239 -223.2915,-24.3506 -232.2432,-111.1226 z"
       id="path3280-81"
       inkscape:connector-curvature="0"
       sodipodi:nodetypes="cssssc" />
    <path
       style="color:#000000;display:inline;overflow:visible;visibility:visible;fill:#ffe4a0;fill-opacity:1;fill-rule:nonzero;stroke:none;stroke-width:1.06477px;marker:none;enable-background:accumulate"
       d="m 1817.0417,2640.5077 c -17.7418,51.5577 -0.5352,96.2189 44.4232,120.3111 -75.8904,-27.089 -92.8027,-105.8188 -83.4584,-127.2019 9.1494,-20.9367 39.0352,6.8908 39.0352,6.8908 z"
       id="path5010-4"
       inkscape:connector-curvature="0"
       sodipodi:nodetypes="ccsc" />
    <path
       style="color:#000000;display:inline;overflow:visible;visibility:visible;fill:#ffe4a0;fill-opacity:1;fill-rule:nonzero;stroke:none;stroke-width:1px;marker:none;enable-background:accumulate"
       d="m 2180.6376,3048.4253 c 15.5881,37.565 19.0292,51.8083 -13.2212,86.5196 -32.2502,34.7102 -19.1075,46.3288 -19.1075,46.3288 l 31.133,-8.0771 c 0,0 63.6316,-78.7837 1.1957,-124.7713 z"
       id="path3072-56"
       inkscape:connector-curvature="0" />
  </g>
  <g
     inkscape:groupmode="layer"
     id="layer1"
     inkscape:label="txt">
    <text
       xml:space="preserve"
       style="font-style:normal;font-variant:normal;font-weight:normal;font-stretch:normal;font-size:45px;line-height:1.25;font-family:Lavi;-inkscape-font-specification:Lavi;text-align:center;letter-spacing:0px;word-spacing:0px;text-anchor:middle;fill:#000000;fill-opacity:1;stroke:none"
       x="872.36255"
       y="2578.8477"
       id="text4246-3-2-2"><tspan
         style="font-size:45px"
         sodipodi:role="line"
         x="872.36255"
         y="2578.8477"
         id="tspan3200">O, zbudil si se.</tspan></text>
    <text
       xml:space="preserve"
       style="font-style:normal;font-variant:normal;font-weight:normal;font-stretch:normal;font-size:45px;line-height:1.25;font-family:Lavi;-inkscape-font-specification:Lavi;text-align:center;letter-spacing:0px;word-spacing:0px;text-anchor:middle;fill:#000000;fill-opacity:1;stroke:none"
       x="900.4278"
       y="2663.7146"
       id="text4246-3-2-2-3"><tspan
         style="font-size:45px"
         sodipodi:role="line"
         x="900.4278"
         y="2663.7146"
         id="tspan4124">Si dobro?</tspan><tspan
         style="font-size:45px"
         sodipodi:role="line"
         x="900.4278"
         y="2719.9646"
         id="tspan416">Te ne zebe?</tspan></text>
    <text
       xml:space="preserve"
       style="font-style:normal;font-variant:normal;font-weight:normal;font-stretch:normal;font-size:45px;line-height:1.25;font-family:Lavi;-inkscape-font-specification:Lavi;text-align:center;letter-spacing:0px;word-spacing:0px;text-anchor:middle;fill:#000000;fill-opacity:1;stroke:none"
       x="1794.8683"
       y="2542.8938"
       id="text4246-3-2-2-3-3"><tspan
         style="font-size:45px"
         sodipodi:role="line"
         x="1794.8683"
         y="2542.8938"
         id="tspan29070">Žal bo </tspan><tspan
         style="font-size:45px"
         sodipodi:role="line"
         x="1794.8683"
         y="2599.1438"
         id="tspan423">moj rês kmalu</tspan><tspan
         style="font-size:45px"
         sodipodi:role="line"
         x="1794.8683"
         y="2655.3938"
         id="tspan425">pošel.</tspan></text>
    <text
       xml:space="preserve"
       style="font-style:normal;font-variant:normal;font-weight:normal;font-stretch:normal;font-size:45px;line-height:1.25;font-family:Lavi;-inkscape-font-specification:Lavi;text-align:center;letter-spacing:0px;word-spacing:0px;text-anchor:middle;fill:#000000;fill-opacity:1;stroke:none"
       x="2154.7712"
       y="3208.0896"
       id="text4246-3-2-2-3-3-9"><tspan
         style="font-size:45px"
         sodipodi:role="line"
         x="2154.7712"
         y="3208.0896"
         id="tspan905">In moja avra je</tspan><tspan
         style="font-size:45px"
         sodipodi:role="line"
         x="2154.7712"
         y="3264.3396"
         id="tspan24878">prešibka, da bi naju</tspan><tspan
         style="font-size:45px"
         sodipodi:role="line"
         x="2154.7712"
         y="3320.5896"
         id="tspan52772">na tej višina varovala</tspan><tspan
         style="font-size:45px"
         sodipodi:role="line"
         x="2154.7712"
         y="3376.8396"
         id="tspan24884">pred mrazom.</tspan></text>
  </g>
</svg>
