<?xml version="1.0" encoding="UTF-8" standalone="no"?>
<!-- Created with Inkscape (http://www.inkscape.org/) -->

<svg
   xmlns:dc="http://purl.org/dc/elements/1.1/"
   xmlns:cc="http://creativecommons.org/ns#"
   xmlns:rdf="http://www.w3.org/1999/02/22-rdf-syntax-ns#"
   xmlns:svg="http://www.w3.org/2000/svg"
   xmlns="http://www.w3.org/2000/svg"
   xmlns:xlink="http://www.w3.org/1999/xlink"
   xmlns:sodipodi="http://sodipodi.sourceforge.net/DTD/sodipodi-0.dtd"
   xmlns:inkscape="http://www.inkscape.org/namespaces/inkscape"
   id="svg2"
   version="1.1"
   inkscape:version="0.92.4 5da689c313, 2019-01-14"
   width="2481"
   height="3503"
   sodipodi:docname="E24P01.svg">
  <metadata
     id="metadata8">
    <rdf:RDF>
      <cc:Work
         rdf:about="">
        <dc:format>image/svg+xml</dc:format>
        <dc:type
           rdf:resource="http://purl.org/dc/dcmitype/StillImage" />
        <dc:title />
      </cc:Work>
    </rdf:RDF>
  </metadata>
  <defs
     id="defs6">
    <filter
       style="color-interpolation-filters:sRGB"
       id="filter4375-4-1-1-1-9"
       inkscape:label="deevad outline effect">
      <feFlood
         id="feFlood4377-7-9-0-8-1"
         flood-opacity="1"
         flood-color="rgb(0,0,0)"
         result="flood" />
      <feComposite
         id="feComposite4379-3-8-8-2-77"
         in2="SourceGraphic"
         in="flood"
         operator="in"
         result="composite1" />
      <feMorphology
         id="feMorphology4393-1-0-49-8-9"
         operator="dilate"
         radius="4"
         result="result3" />
      <feComposite
         id="feComposite4385-9-5-7-0-8"
         in2="result3"
         in="SourceGraphic"
         operator="over"
         result="composite2" />
    </filter>
  </defs>
  <sodipodi:namedview
     pagecolor="#ffffff"
     bordercolor="#666666"
     borderopacity="1"
     objecttolerance="10"
     gridtolerance="10"
     guidetolerance="10"
     inkscape:pageopacity="0"
     inkscape:pageshadow="2"
     inkscape:window-width="1280"
     inkscape:window-height="756"
     id="namedview4"
     showgrid="false"
     inkscape:zoom="0.34782609"
     inkscape:cx="1461.7484"
     inkscape:cy="639.34067"
     inkscape:window-x="0"
     inkscape:window-y="0"
     inkscape:window-maximized="1"
     inkscape:current-layer="layer3"
     inkscape:snap-global="false" />
  <g
     inkscape:groupmode="layer"
     id="layer2"
     inkscape:label="artwork"
     sodipodi:insensitive="true">
    <image
       sodipodi:absref="/home/wolfy/tmp/pepper/lang/cs/../gfx_Pepper-and-Carrot_by-David-Revoy_E24P01.png"
       xlink:href="../gfx_Pepper-and-Carrot_by-David-Revoy_E24P01.png"
       width="2481"
       height="3503"
       id="image10"
       x="0"
       y="0" />
  </g>
  <g
     inkscape:groupmode="layer"
     id="layer3"
     inkscape:label="speechbubbles">
    <path
       style="fill:#ffffff;fill-rule:evenodd;stroke:none;stroke-width:1.03347743px;stroke-linecap:butt;stroke-linejoin:miter;stroke-opacity:1"
       d="m 559.59226,444.82799 c 32.94134,10.3778 62.71802,16.82994 52.59454,-26.21365 58.30831,58.4381 49.94401,18.41593 59.16888,4.3689 34.6664,41.28048 64.49404,35.39772 90.39686,-8.73782 14.64325,63.66343 45.28566,32.81806 72.31745,23.30101 -0.0667,17.90316 -7.44667,38.4323 72.31755,27.67002 -22.80667,16.16964 -31.31365,30.84858 19.72296,39.32057 -35.45235,13.00092 -54.92214,26.83488 -16.43585,43.68959 -20.44555,24.55329 -6.77076,39.14523 21.36657,49.51474 -65.88121,1.43599 -74.43657,3.82078 -63.86709,16.5467 -56.09078,-26.16442 -39.51738,-4.56586 -34.74767,15.49224 -26.107,-11.5063 -45.40348,-38.70257 -92.0404,-2.91255 -13.87037,-11.87815 -26.65581,-26.88035 -57.52531,10.19418 -2.17763,-32.33917 -24.74707,-31.12261 -57.52532,-13.10682 -8.64544,-30.32815 -41.10935,-14.92955 -75.60466,4.369 28.15604,-29.60091 30.19635,-54.33009 -24.65369,-68.44696 53.15429,-16.93386 43.47535,-30.59285 23.01011,-43.68949 20.21901,-12.31548 33.40203,-25.73102 -19.72294,-49.51483 31.06087,3.69751 64.13345,8.46458 31.22801,-21.84483 z"
       id="path4582"
       inkscape:connector-curvature="0"
       sodipodi:nodetypes="ccccccccccccccccccc" />
    <path
       style="color:#000000;display:inline;overflow:visible;visibility:visible;fill:#ffffff;fill-opacity:1;fill-rule:nonzero;stroke:none;stroke-width:0.99999994px;marker:none;enable-background:accumulate"
       d="m 1120.4405,700.1743 c -32.2265,-17.97546 -75.6905,-29.21797 -94.8601,-55.01638 l -18.7309,38.20697 c -21.19647,-1.31166 -26.2338,-14.07539 -36.75813,-22.95055 l -18.52445,25.72405 C 902.21848,682.47077 878.08971,666.613 844.32571,653.77368 l -19.93547,22.60875 c 41.44339,8.00317 86.22663,23.6167 121.36515,31.70826 l 22.07602,-17.34663 c 14.0695,3.48337 27.30829,7.5971 36.83679,14.52656 l 23.5694,-31.97386 z"
       id="path4032"
       inkscape:connector-curvature="0"
       sodipodi:nodetypes="cccccccccccc" />
    <path
       style="color:#000000;display:inline;overflow:visible;visibility:visible;fill:#ffffff;fill-opacity:1;fill-rule:nonzero;stroke:none;stroke-width:0.99999994px;marker:none;enable-background:accumulate"
       d="m 1373.3502,1868.2437 c 6.6851,-9.6035 35.5763,-37.7572 31.3268,-2.86 46.4175,-40.2666 78.7953,-19.5262 111.971,-2.2535 11.4973,-12.4731 16.0323,-33.3022 45.1957,-24.5731 -1.9873,-14.0664 9.629,-22.0812 33.3836,-24.6967 -29.027,-12.0387 -33.2191,-21.179 24.6468,-23.0767 -42.759,-6.3379 -82.4984,-13.2357 -27.1003,-37.773 -15.6687,-2.7585 -57.3593,18.2946 -27.5245,-55.0444 -31.1129,20.7342 -62.2582,30.3971 -90.297,-24.8989 -14.441,18.5866 -33.3418,29.9721 -60.9951,-1.4146 -10.1201,18.985 -49.1487,15.6954 -62.7522,9.8432 25.1172,25.8757 21.8709,39.5499 -17.5185,36.7247 58.9158,48.3718 6.4035,35.5263 -5.8106,44.3362 49.1464,20.3406 23.3399,34.5624 11.3904,50.4926 58.9887,8.1069 35.1654,33.0527 34.0839,55.1942 z"
       id="path3549-3"
       inkscape:connector-curvature="0"
       sodipodi:nodetypes="ccccccccccccccc" />
    <path
       style="color:#000000;display:inline;overflow:visible;visibility:visible;fill:#ffffff;fill-opacity:1;fill-rule:nonzero;stroke:none;stroke-width:0.99999988px;marker:none;enable-background:accumulate"
       d="m 1312.6889,1948.0036 c 5.1172,-75.8195 108.041,-136.0769 286.8508,-119.3503 95.7804,8.9596 239.8537,14.4326 233.468,125.5183 -6.3854,111.0853 -197.9845,107.1196 -230.223,109.2776 -32.2388,2.1584 -208.0182,-2.3501 -237.6367,-40.5729 -18.5412,-23.9266 -52.8367,-51.3744 -52.4591,-74.8727 z"
       id="path4546-6"
       inkscape:connector-curvature="0"
       sodipodi:nodetypes="cssssc" />
    <path
       style="color:#000000;display:inline;overflow:visible;visibility:visible;fill:#ffffff;fill-opacity:1;fill-rule:nonzero;stroke:none;stroke-width:1px;marker:none;enable-background:accumulate"
       d="m 1725.1844,1861.3342 c 6.612,11.2759 86.9477,-29.2003 85.8796,-32.4046 0,0 27.5174,7.7754 31.5141,6.9248 1.9994,-6.4636 4.2729,-17.2204 4.2729,-17.2204 l 43.1705,1.271 -34.6999,8.0734 0.1804,21.2585 -36.6531,-7.0896 c -19.044,13.242 -51.208,25.1719 -50.7716,40.3619 z"
       id="path4448"
       inkscape:connector-curvature="0"
       sodipodi:nodetypes="cccccccccc" />
    <path
       style="color:#000000;display:inline;overflow:visible;visibility:visible;fill:#ffffff;fill-opacity:1;fill-rule:nonzero;stroke:none;stroke-width:1.05566657px;marker:none;enable-background:accumulate"
       d="m 27.722148,3162.4605 c 52.384913,10.6448 47.973777,49.5389 33.713736,62.9658 58.617166,-47.9642 95.886066,-32.9127 66.043356,15.3121 101.94047,-66.1957 84.29295,-10.7013 76.81515,19.01 48.55606,-63.1018 81.74616,-40.4002 101.62566,-1.5057 0.48689,-40.3596 62.22952,-42.6086 81.94425,-14.5672 25.57884,-69.6517 52.13877,-48.167 101.01126,-30.9312 -37.11865,-26.1838 -65.19483,-49.1598 34.51549,-82.665 -53.44149,9.7026 -75.06607,-14.7499 16.80638,-41.8315 -91.08906,-1.3018 -97.49384,-39.1684 -0.76696,-56.8951 -93.95011,0.1294 -91.73798,-25.3872 -48.86151,-58.0483 -65.94726,9.1174 -82.37224,-20.946 -20.79269,-69.0798 -103.20171,43.3043 -108.30047,16.5647 -101.41122,-39.2134 -58.22536,61.0749 -53.42082,32.619 -65.07513,-25.2492 -12.28009,42.5431 -43.87005,74.3334 -109.11159,24.6685 10.05196,27.649 10.56966,57.8718 -78.55198,26.323 47.69221,33.2455 16.58788,76.8994 -122.357939,76.1574 64.829499,21.9681 142.306329,68.4763 53.383347,75.3338 35.558225,7.2255 44.875886,27.447 42.76073,43.9068 -16.015675,5.2934 -37.290447,10.4175 -64.761199,15.3932 51.797329,14.9505 84.665751,34.1691 3.070859,60.9158 z"
       id="path3549-3-7"
       inkscape:connector-curvature="0"
       sodipodi:nodetypes="ccccccccccccccccccccc" />
    <path
       style="fill:#ffffff;stroke:none;stroke-width:1"
       d="m 1312.0471,2636.6402 c 24.8572,-23.3618 23.0898,-34.098 20.1693,-46.0928 -2.9204,-11.9949 -6.7783,-22.4564 -2.996,-29.6912 3.7822,-7.2345 11.9314,-13.7504 18.5182,-17.7105 6.5867,-3.9602 0.6895,-11.8462 0.1992,-20.4782 -0.4905,-8.632 11.6694,-54.4912 11.6694,-54.4912 0,0 15.4128,29.8223 17.3984,40.7257 1.9857,10.9032 2.7616,14.8752 2.4762,19.5352 -0.2855,4.6599 -2.4809,16.1126 -8.3834,22.0982 -5.9026,5.9855 -13.8607,8.5198 -19.1677,11.9592 -5.307,3.4394 -4.2207,13.2301 -3.7625,22.963 0.4583,9.7331 -0.6146,16.9839 -10.2491,30.0137 -8.2583,11.169 -25.872,21.1689 -25.872,21.1689 z"
       id="path3023-2"
       inkscape:connector-curvature="0"
       sodipodi:nodetypes="csssscssssssc" />
    <path
       style="color:#000000;display:inline;overflow:visible;visibility:visible;fill:#ffffff;fill-opacity:1;fill-rule:nonzero;stroke:none;stroke-width:0.99999994px;marker:none;enable-background:accumulate"
       d="m 1316.0029,3034.7179 c 5.2109,-36.069 14.5234,-83.1655 -40.179,-91.5576 2.7742,1.4246 74.681,-16.1526 71.113,92.3401 -3.568,108.4926 -13.868,120.9339 -13.868,120.9339 z"
       id="path4064"
       inkscape:connector-curvature="0"
       sodipodi:nodetypes="ccscc" />
    <path
       style="color:#000000;display:inline;overflow:visible;visibility:visible;fill:#ffffff;fill-opacity:1;fill-rule:nonzero;stroke:none;stroke-width:1px;marker:none;enable-background:accumulate"
       d="m 1077.2562,3295.7847 c -1.1856,-61.9807 37.6091,-99.5237 45.0474,-104.6787 67.1345,-46.525 276.2566,-29.3302 312.9622,2.7546 30.822,26.1698 37.9349,44.0753 34.3784,67.4904 -3.5564,23.4149 -22.5239,85.3957 -66.386,103.3013 -43.8619,17.9055 -145.8117,26.1697 -199.1577,12.3961 -53.3458,-13.7735 -131.5863,-27.5469 -126.8443,-81.2637 z"
       id="path3517"
       inkscape:connector-curvature="0"
       sodipodi:nodetypes="cscsccc" />
    <path
       style="color:#000000;display:inline;overflow:visible;visibility:visible;fill:#ffffff;fill-opacity:1;fill-rule:nonzero;stroke:none;stroke-width:1px;marker:none;enable-background:accumulate"
       d="m 1146.2027,3115.7233 c -1.1746,-31.62 21.3289,-64.5566 33.0747,-74.6749 11.7461,-10.1185 83.0232,-20.0204 110.0387,-20.0204 27.0155,0 141.3233,5.6137 161.2914,28.3802 19.9679,22.7664 43.087,39.919 30.1666,77.863 -12.9206,37.9439 -93.9671,56.916 -111.586,60.7103 -17.6188,3.7944 -68.1262,6.324 -84.5704,5.0593 -16.4443,-1.2649 -141.9387,-25.4606 -138.415,-77.3175 z"
       id="path3357"
       inkscape:connector-curvature="0"
       inkscape:transform-center-x="-251.35553"
       inkscape:transform-center-y="-147.27939"
       sodipodi:nodetypes="ccsscccc" />
    <path
       style="fill:#ffffff;fill-rule:evenodd;stroke:none;stroke-width:0.96444815px;stroke-linecap:butt;stroke-linejoin:miter;stroke-opacity:1"
       d="m 1154.8898,2478.7083 c 8.2922,-23.8569 30.6222,-41.9579 54.9252,-54.0414 11.5654,-5.8338 24.7851,-10.1089 38.3126,-8.9844 13.439,0.6719 26.5655,4.6835 40.153,3.2901 16.5223,-0.4602 33.3343,-2.4681 49.6668,0.401 14.5189,3.1306 29.4774,4.752 44.46,4.846 10.5696,-1.9871 20.2415,3.3092 29.6811,6.4769 8.474,3.4218 17.1297,7.0119 24.2473,12.3048 6.5577,7.4302 14.4096,13.8943 21.0438,21.2583 4.3409,4.0258 3.9239,9.5866 3.7239,14.7331 -0.5638,10.5387 -1.5185,21.2437 -5.0623,31.3969 -2.1205,6.4459 -9.9588,8.5792 -15.9814,11.5412 -14.2508,6.2528 -29.3829,10.9944 -42.9836,18.3527 -13.4741,3.7677 -27.7934,2.0054 -41.6118,1.436 -11.5789,-1.1215 -23.2266,-2.6855 -34.9051,-1.3813 -14.8637,0.9544 -29.6823,3.4258 -44.5994,3.1093 -18.6869,-2.1722 -36.5837,-7.5207 -54.6931,-11.8111 -16.2471,-3.7817 -31.0552,-10.8926 -45.2638,-18.4995 -7.5896,-4.3197 -15.6243,-9.3407 -18.303,-17.3014 -2.1956,-5.4816 -2.7129,-11.3511 -2.8102,-17.1272 z"
       id="path4365"
       inkscape:connector-curvature="0" />
    <path
       style="color:#000000;display:inline;overflow:visible;visibility:visible;fill:#ffffff;fill-opacity:1;fill-rule:nonzero;stroke:none;stroke-width:0.99999988px;marker:none;enable-background:accumulate"
       d="m 2429.703,2354.135 c -220.1352,5.664 -413.2002,-1.8619 -539.2741,-3.1385 1.0192,29.3316 -26.0808,22.3328 -51.7366,7.7184 20.4254,58.3937 -13.4471,62.9492 -64.7579,35.1452 51.7894,58.2469 -0.1666,49.8371 -63.8949,12.6621 61.4504,58.0333 109.2539,112.238 -11.3243,77.0671 71.4494,38.4263 103.3644,56.9179 37.9144,76.3342 63.6894,22.4893 51.8703,50.5184 -11.7295,54.5251 114.0819,34.8331 33.6148,51.3361 -12.9668,62.847 128.697,19.0258 43.7671,43.9617 -25.9405,91.1423 80.6205,-14.4985 157.8233,-32.293 76.1624,30.3246 146.2793,-36.4889 102.5458,-6.9285 21.562,53.6563 46.251,-18.2784 167.4874,-47.6005 131.8189,0.214 59.0357,-30.2272 34.4732,10.9886 30.1039,35.204 7.7287,-7.9446 33.0062,-55.4847 41.2679,-23.2885 15.0605,-23.2376 27.7659,-18.7159 26.1596,14.1633 12.9899,-19.1042 43.5943,-39.4281 32.5402,0.758 19.2424,-40.21 23.966,-7.3497 14.7559,24.8185 48.107,-62.5107 55.0606,-65.5945 59.4626,4.2952 20.0793,-39.3517 44.13,-79.5171 83.378,-12.348 0.051,-22.3292 6.8899,-60.1712 71.0099,8.4578 -25.8163,-70.6232 37.4288,-56.912 64.2122,10.957 -32.6871,-86.5033 9.4928,-126.4741 62.5885,-36.0341 5.2205,-118.7449 30.1008,-426.102 28.6882,-525.481 z"
       id="path4024"
       inkscape:connector-curvature="0"
       sodipodi:nodetypes="cccccccccccccccccccccccc" />
    <path
       style="fill:#ffffff;fill-rule:evenodd;stroke:none;stroke-width:0.99999994px;stroke-linecap:butt;stroke-linejoin:miter;stroke-opacity:1"
       d="m 2320.0189,2966.9466 -102.8737,31.1414 30.781,-65.8394 -54.3109,13.511 73.467,-174.0894 -83.4186,10.4305 -22.2012,199.1888 46.5569,-15.7553 -28.3923,68.2411 z"
       id="path5002"
       inkscape:connector-curvature="0"
       sodipodi:nodetypes="cccccccccc" />
    <text
       xml:space="preserve"
       style="font-style:normal;font-variant:normal;font-weight:normal;font-stretch:normal;line-height:0%;font-family:Lavi;-inkscape-font-specification:Lavi;letter-spacing:0px;word-spacing:0px;fill:#ffffff;fill-opacity:1;stroke:#000000;stroke-width:0.57625628;stroke-miterlimit:4;stroke-dasharray:none;stroke-opacity:1;filter:url(#filter4375-4-1-1-1-9)"
       x="787.65729"
       y="1584.5073"
       id="text4580"
       transform="matrix(0.47590856,-0.23101257,-0.08785973,0.61214035,2051.4196,1281.2253)"><tspan
         sodipodi:role="line"
         id="tspan4582"
         x="787.65729"
         y="1584.5073"
         style="font-size:70px;line-height:1.25;letter-spacing:5.62810278px;fill:#ffffff;stroke-width:0.57625628;stroke-miterlimit:4;stroke-dasharray:none"><tspan
           style="font-size:61.46733856px"
           id="tspan896">PAF</tspan><tspan
           style="font-size:80.40014648px;letter-spacing:5.62810278px;fill:#ffffff;stroke-width:0.57625628;stroke-miterlimit:4;stroke-dasharray:none"
           id="tspan4617">!</tspan></tspan></text>
    <path
       style="fill:#ffffff;fill-rule:evenodd;stroke:none;stroke-width:1px;stroke-linecap:butt;stroke-linejoin:miter;stroke-opacity:1"
       d="m 606.64438,688.13568 c 53.77935,-14.71022 46.31957,20.21656 41.32639,53.14407 37.80494,-43.59903 55.26716,-29.85149 61.98961,14.17175 33.62525,-62.22579 59.25693,-30.90893 85.83175,-10.62881 1.02337,-30.58118 16.76245,-46.25269 77.88437,-15.94322 -32.19125,-44.20554 -28.66018,-71.76224 39.73691,-69.08729 -61.86013,-15.97494 -61.03687,-42.11142 -22.25267,-74.4017 -45.37354,26.89223 -74.55312,30.92349 -65.16855,-19.48617 -45.60554,49.76939 -52.18919,18.77197 -60.40013,-8.85734 -18.96237,57.85359 -45.06195,40.93556 -73.11593,3.54293 0.75602,36.0549 -10.20221,57.18925 -60.40012,28.34351 8.5968,26.18958 33.74624,62.31265 -25.43163,47.82967 31.70501,15.40054 43.05808,31.90752 0,51.3726 z"
       id="path907"
       inkscape:connector-curvature="0"
       sodipodi:nodetypes="ccccccccccccc" />
  </g>
  <g
     inkscape:groupmode="layer"
     id="layer1"
     inkscape:label="txt"
     style="display:inline">
    <path
       style="color:#000000;display:inline;overflow:visible;visibility:visible;fill:#ffffff;fill-opacity:1;fill-rule:nonzero;stroke:none;stroke-width:1px;marker:none;enable-background:accumulate"
       d="m 643.30092,3062.9957 c -16.45129,42.7371 -57.34368,52.6864 -79.08413,59.0603 -3.49561,-4.6209 -10.29733,-21.207 -10.29733,-21.207 0,0 -73.99284,20.9972 -91.7304,22.9324 -17.73755,1.9353 -27.60488,-25.996 -27.60488,-25.996 -1.49889,4.9963 104.15858,-3.83 127.4154,-18.4787 8.90084,13.0355 10.12822,16.304 14.99068,21.2359 13.47897,-4.7946 53.36319,-19.1261 66.31066,-37.5469 z"
       id="path4456"
       inkscape:connector-curvature="0"
       sodipodi:nodetypes="cccscccc" />
    <text
       xml:space="preserve"
       style="font-style:normal;font-variant:normal;font-weight:normal;font-stretch:normal;line-height:0%;font-family:Lavi;-inkscape-font-specification:Lavi;text-align:center;letter-spacing:0px;word-spacing:0px;text-anchor:middle;fill:#000000;fill-opacity:1;stroke:none"
       x="735.24194"
       y="500.6228"
       id="text4246"><tspan
         sodipodi:role="line"
         style="font-size:45px;line-height:1.25"
         x="742.39404"
         y="500.6228"
         id="tspan837">Ty chceš </tspan><tspan
         sodipodi:role="line"
         style="font-size:45px;line-height:1.25"
         x="735.24194"
         y="556.8728"
         id="tspan3942">stromeček</tspan><tspan
         sodipodi:role="line"
         style="font-size:45px;line-height:1.25"
         x="735.24194"
         y="613.1228"
         id="tspan3940">   svornosti?</tspan></text>
    <text
       xml:space="preserve"
       style="font-style:normal;font-variant:normal;font-weight:normal;font-stretch:normal;line-height:0%;font-family:Lavi;-inkscape-font-specification:Lavi;text-align:center;letter-spacing:0px;word-spacing:0px;text-anchor:middle;fill:#000000;fill-opacity:1;stroke:none"
       x="1575.9264"
       y="1893.9833"
       id="text4246-7"><tspan
         sodipodi:role="line"
         style="font-size:45px;line-height:1.25"
         x="1583.0785"
         y="1893.9833"
         id="tspan4414">My jsme </tspan><tspan
         sodipodi:role="line"
         style="font-size:45px;line-height:1.25"
         x="1575.9264"
         y="1950.2333"
         id="tspan3946">Čarodějnice Chaosu;</tspan><tspan
         sodipodi:role="line"
         style="font-size:45px;line-height:1.25"
         x="1575.9264"
         y="2006.4833"
         id="tspan934">To my NEDĚLÁME.</tspan></text>
    <text
       xml:space="preserve"
       style="font-style:normal;font-variant:normal;font-weight:normal;font-stretch:normal;line-height:0%;font-family:Lavi;-inkscape-font-specification:Lavi;text-align:center;letter-spacing:0px;word-spacing:0px;text-anchor:middle;fill:#000000;fill-opacity:1;stroke:none"
       x="283.52304"
       y="2969"
       id="text4246-7-6"><tspan
         sodipodi:role="line"
         style="font-size:45px;line-height:1.25"
         x="283.52304"
         y="2969"
         id="tspan934-1">Radši by ses</tspan><tspan
         sodipodi:role="line"
         style="font-size:45px;line-height:1.25"
         x="283.52304"
         y="3025.25"
         id="tspan3948">měla soustředit</tspan><tspan
         sodipodi:role="line"
         style="font-size:45px;line-height:1.25"
         x="283.52304"
         y="3081.5"
         id="tspan3950">na studium</tspan><tspan
         sodipodi:role="line"
         style="font-size:45px;line-height:1.25"
         x="290.67514"
         y="3137.75"
         id="tspan1069">&quot;Zaklínadel </tspan><tspan
         sodipodi:role="line"
         style="font-size:45px;line-height:1.25"
         x="283.52304"
         y="3194"
         id="tspan3963">destrukce&quot;!</tspan></text>
    <text
       xml:space="preserve"
       style="font-style:normal;font-variant:normal;font-weight:normal;font-stretch:normal;line-height:0%;font-family:Lavi;-inkscape-font-specification:Lavi;text-align:center;letter-spacing:0px;word-spacing:0px;text-anchor:middle;fill:#000000;fill-opacity:1;stroke:none"
       x="1309.3973"
       y="2493.7979"
       id="text4246-7-6-2"><tspan
         sodipodi:role="line"
         style="font-size:45px;line-height:1.25"
         x="1309.3973"
         y="2493.7979"
         id="tspan1069-6">Destrukce?</tspan></text>
    <text
       xml:space="preserve"
       style="font-style:normal;font-variant:normal;font-weight:normal;font-stretch:normal;line-height:0%;font-family:Lavi;-inkscape-font-specification:Lavi;text-align:center;letter-spacing:0px;word-spacing:0px;text-anchor:middle;fill:#000000;fill-opacity:1;stroke:none"
       x="1313.0408"
       y="3082.3787"
       id="text4246-7-6-2-0"><tspan
         sodipodi:role="line"
         style="font-size:45px;line-height:1.25"
         x="1320.1929"
         y="3082.3787"
         id="tspan4434">Teď, v tomto </tspan><tspan
         sodipodi:role="line"
         style="font-size:45px;line-height:1.25"
         x="1313.0408"
         y="3138.6287"
         id="tspan3967">čase?</tspan></text>
    <text
       xml:space="preserve"
       style="font-style:normal;font-variant:normal;font-weight:normal;font-stretch:normal;line-height:0%;font-family:Lavi;-inkscape-font-specification:Lavi;text-align:center;letter-spacing:0px;word-spacing:0px;text-anchor:middle;fill:#000000;fill-opacity:1;stroke:none"
       x="1268.27"
       y="3233.5964"
       id="text4246-7-6-2-0-5"><tspan
         sodipodi:role="line"
         style="font-size:45px;line-height:1.25"
         x="1268.27"
         y="3233.5964"
         id="tspan4447">Proč radši</tspan><tspan
         sodipodi:role="line"
         style="font-size:45px;line-height:1.25"
         x="1268.27"
         y="3289.8464"
         id="tspan3974">nezkusit magii</tspan><tspan
         sodipodi:role="line"
         style="font-size:45px;line-height:1.25"
         x="1268.27"
         y="3346.0964"
         id="tspan3976">tvoření?</tspan></text>
    <text
       xml:space="preserve"
       style="font-style:normal;font-variant:normal;font-weight:normal;font-stretch:normal;line-height:0%;font-family:Lavi;-inkscape-font-specification:Lavi;text-align:center;letter-spacing:0px;word-spacing:0px;text-anchor:middle;fill:#000000;fill-opacity:1;stroke:none;stroke-width:1.60000002;stroke-miterlimit:4;stroke-dasharray:none"
       x="2089.9304"
       y="2459.3547"
       id="text4246-7-6-2-04"><tspan
         sodipodi:role="line"
         style="font-size:45px;line-height:1.25;stroke-width:1.60000002;stroke-miterlimit:4;stroke-dasharray:none"
         x="2097.0825"
         y="2459.3547"
         id="tspan4980">Příští zasedání rady </tspan><tspan
         sodipodi:role="line"
         style="font-size:45px;line-height:1.25;stroke-width:1.60000002;stroke-miterlimit:4;stroke-dasharray:none"
         x="2089.9304"
         y="2515.6047"
         id="tspan3978">Tří měsíců se blíží,</tspan><tspan
         sodipodi:role="line"
         style="font-size:45px;line-height:1.25;stroke-width:1.60000002;stroke-miterlimit:4;stroke-dasharray:none"
         x="2089.9304"
         y="2571.8547"
         id="tspan3980">stejně tak i tvoje zkoušky.</tspan><tspan
         sodipodi:role="line"
         style="font-size:45px;line-height:1.25;stroke:none;stroke-width:1.60000002;stroke-miterlimit:4;stroke-dasharray:none"
         x="2097.0825"
         y="2628.1047"
         id="tspan4986">Učit se! <tspan
   style="stroke:#000000;stroke-width:1.60000002;stroke-miterlimit:4;stroke-dasharray:none;stroke-opacity:1"
   id="tspan874">Učit se! UČIT SE!!! </tspan></tspan><tspan
         sodipodi:role="line"
         style="font-size:45px;line-height:1.25;stroke:#000000;stroke-width:1.60000002;stroke-miterlimit:4;stroke-dasharray:none;stroke-opacity:1"
         x="2097.0825"
         y="2684.3547"
         id="tspan4456">A PŘESTAŇ SE KONEČNĚ </tspan><tspan
         sodipodi:role="line"
         style="font-size:45px;line-height:1.25;stroke:#000000;stroke-width:1.60000002;stroke-miterlimit:4;stroke-dasharray:none;stroke-opacity:1"
         x="2097.0825"
         y="2740.6047"
         id="tspan3998">ROZPTYLOVAT TAKOVÝMI </tspan><tspan
         sodipodi:role="line"
         style="font-size:45px;line-height:1.25;stroke:#000000;stroke-width:1.60000002;stroke-miterlimit:4;stroke-dasharray:none;stroke-opacity:1"
         x="2089.9304"
         y="2796.8547"
         id="tspan4000">     HLOUPÝMi NÁPADY!!!</tspan></text>
    <flowRoot
       xml:space="preserve"
       id="flowRoot862"
       style="font-style:normal;font-variant:normal;font-weight:normal;font-stretch:normal;font-size:0.66666669px;line-height:318.00000668%;font-family:Neuropolitical;-inkscape-font-specification:Neuropolitical;text-align:center;letter-spacing:0px;word-spacing:0px;writing-mode:lr-tb;text-anchor:middle;fill:#000000;fill-opacity:1;stroke:none;stroke-width:1px;stroke-linecap:butt;stroke-linejoin:miter;stroke-opacity:1"><flowRegion
         id="flowRegion864"><rect
           id="rect866"
           width="103.5"
           height="5.75"
           x="1181.625"
           y="3275.875" /></flowRegion><flowPara
         id="flowPara868" /></flowRoot>    <text
       xml:space="preserve"
       style="font-style:normal;font-variant:normal;font-weight:normal;font-stretch:normal;font-size:14.71681118px;line-height:0%;font-family:Lavi;-inkscape-font-specification:Lavi;text-align:center;letter-spacing:0px;word-spacing:0px;text-anchor:middle;fill:#000000;fill-opacity:1;stroke:none;stroke-width:1"
       x="875.80847"
       y="682.29504"
       id="text4246-36"
       transform="skewX(-9.9961078)"><tspan
         sodipodi:role="line"
         style="font-size:55.18804169px;line-height:1.25;stroke-width:1"
         x="875.80847"
         y="682.29504"
         id="tspan837-3">Tady?!?</tspan></text>
    <text
       xml:space="preserve"
       style="font-style:normal;font-variant:normal;font-weight:normal;font-stretch:normal;font-size:19.04891968px;line-height:0%;font-family:Lavi;-inkscape-font-specification:Lavi;text-align:center;letter-spacing:0px;word-spacing:0px;text-anchor:middle;fill:#000000;fill-opacity:1;stroke:none;stroke-width:1.99999988;stroke-miterlimit:4;stroke-dasharray:none"
       x="1711.0228"
       y="1822.5054"
       id="text4246-3"
       transform="matrix(1.0148714,0,-0.1559129,0.98534652,0,0)"><tspan
         sodipodi:role="line"
         style="font-size:71.43344879px;line-height:1.25;stroke:#000000;stroke-width:1.99999988;stroke-miterlimit:4;stroke-dasharray:none;stroke-opacity:1"
         x="1711.0228"
         y="1822.5054"
         id="tspan4252-6">Ne!</tspan></text>
  </g>
</svg>
