<?xml version="1.0" encoding="UTF-8" standalone="no"?>
<svg
   sodipodi:docname="E35P02.svg"
   height="3503"
   width="2481"
   inkscape:version="1.3 (0e150ed6c4, 2023-07-21)"
   version="1.1"
   id="svg2"
   xmlns:inkscape="http://www.inkscape.org/namespaces/inkscape"
   xmlns:sodipodi="http://sodipodi.sourceforge.net/DTD/sodipodi-0.dtd"
   xmlns:xlink="http://www.w3.org/1999/xlink"
   xmlns="http://www.w3.org/2000/svg"
   xmlns:svg="http://www.w3.org/2000/svg"
   xmlns:rdf="http://www.w3.org/1999/02/22-rdf-syntax-ns#"
   xmlns:cc="http://creativecommons.org/ns#"
   xmlns:dc="http://purl.org/dc/elements/1.1/">
  <metadata
     id="metadata8">
    <rdf:RDF>
      <cc:Work
         rdf:about="">
        <dc:format>image/svg+xml</dc:format>
        <dc:type
           rdf:resource="http://purl.org/dc/dcmitype/StillImage" />
        <dc:title />
      </cc:Work>
    </rdf:RDF>
  </metadata>
  <defs
     id="defs6" />
  <sodipodi:namedview
     inkscape:current-layer="layer1"
     inkscape:cy="2511.5941"
     inkscape:cx="1084.784"
     inkscape:zoom="0.58767457"
     inkscape:pagecheckerboard="0"
     inkscape:snap-global="false"
     inkscape:document-rotation="0"
     inkscape:window-maximized="1"
     inkscape:window-y="-8"
     inkscape:window-x="1912"
     showgrid="false"
     id="namedview4"
     inkscape:window-height="1057"
     inkscape:window-width="1920"
     inkscape:pageshadow="2"
     inkscape:pageopacity="0"
     guidetolerance="10"
     gridtolerance="10"
     objecttolerance="10"
     borderopacity="1"
     bordercolor="#666666"
     pagecolor="#ffffff"
     inkscape:showpageshadow="0"
     inkscape:deskcolor="#d1d1d1" />
  <g
     sodipodi:insensitive="true"
     inkscape:label="artwork"
     id="layer2"
     inkscape:groupmode="layer">
    <image
       xlink:href="../gfx_Pepper-and-Carrot_by-David-Revoy_E35P02.png"
       y="0"
       x="0"
       id="image10"
       height="3503"
       width="2481" />
  </g>
  <g
     inkscape:label="speechbubbles"
     id="layer3"
     inkscape:groupmode="layer">
    <path
       sodipodi:nodetypes="ccccccccccccccccccc"
       inkscape:connector-curvature="0"
       id="path3549-3-7-8"
       d="m 321.35997,1998.0264 c -7.94652,15.7154 -46.25893,14.8886 -60.08853,10.8141 27.04699,19.6284 25.24432,30.7638 -13.38304,30.3069 62.20568,36.1433 9.79969,28.2241 -1.20613,35.8624 49.88319,14.0769 31.84626,30.0759 -1.26166,36.0162 58.23659,3.7965 43.29885,14.4193 20.04145,29.6051 26.58312,-9.2951 66.9454,-14.7684 66.31026,13.4585 39.17073,-22.4581 58.42334,-20.8802 69.91909,7.6942 13.03573,-23.3321 51.82069,-25.7554 64.64219,0.9391 15.2103,-34.2718 60.04217,-26.7701 85.70874,-8.2779 -14.22988,-12.8296 -2.49926,-31.9512 48.69372,-25.0318 -3.34584,-11.2082 4.17811,-24.6851 30.0434,-21.375 -29.46479,-8.3336 -34.48654,-15.4847 21.65296,-19.673 -42.26,-3.122 -81.60991,-6.8284 -30.14421,-29.0885 -15.52953,-1.4945 -54.00249,17.3347 -32.31875,-42.948 -46.92593,15.4657 -95.52694,21.9696 -90.40878,-15.8424 -18.45019,19.5587 -48.60096,28.0391 -59.53202,1.6732 -12.30479,23.3465 -43.65892,11.4901 -59.13684,-5.8053 -12.19247,15.5937 -29.46312,25.611 -59.53185,1.6722 z"
       style="color:#000000;display:inline;overflow:visible;visibility:visible;fill:#ffffff;fill-opacity:1;fill-rule:nonzero;stroke:none;stroke-width:1.09688px;marker:none;enable-background:accumulate" />
    <path
       sodipodi:nodetypes="csssc"
       inkscape:connector-curvature="0"
       id="path3280-8-6"
       d="m 408.35616,2014.2181 c 29.2534,-1.1151 170.62382,-6.3967 168.425,101.0997 -2.75503,134.6965 -4.1431,196.2482 -155.53072,194.1791 -162.5987,-2.2225 -129.87316,-83.4609 -131.14629,-185.257 -1.12717,-90.1215 39.75404,-106.7644 118.25201,-110.0218 z"
       style="fill:#ffffff;stroke:none;stroke-width:1.16361" />
    <path
       inkscape:connector-curvature="0"
       id="path4456-3"
       d="m 599.71965,2340.7789 c -54.36956,-1.3158 -66.37353,-18.0831 -76.5499,-29.227 3.41593,-3.9672 8.07344,-11.8668 8.07344,-11.8668 0,0 -22.49109,-20.0802 -27.87182,-30.4304 -5.38071,-10.3501 9.28192,-17.9731 9.28192,-17.9731 0,0 44.94813,37.9871 57.64264,43.4391 -9.83295,10.5902 -13.21387,16.7305 -18.38931,19.4211 3.1733,8.211 28.66645,25.6349 47.81303,26.6371 z"
       style="color:#000000;display:inline;overflow:visible;visibility:visible;fill:#ffffff;fill-opacity:1;fill-rule:nonzero;stroke:none;stroke-width:1px;marker:none;enable-background:accumulate" />
    <path
       sodipodi:nodetypes="csssc"
       inkscape:connector-curvature="0"
       id="path5026-4"
       d="m 1983.7552,2169.1943 c -5.0482,-56.497 6.9088,-125.335 167.3093,-109.0086 152.931,15.5659 143.3793,36.9633 144.9987,108.6937 1.7062,75.5745 -60.7116,112.1707 -170.2886,104.9253 -64.2142,-4.2457 -128.2025,-8.2642 -142.0194,-104.6104 z"
       style="color:#000000;display:inline;overflow:visible;visibility:visible;fill:#ffffff;fill-opacity:1;fill-rule:nonzero;stroke:none;stroke-width:0.867783px;marker:none;enable-background:accumulate" />
    <path
       sodipodi:nodetypes="cccccccccc"
       inkscape:connector-curvature="0"
       id="path4448"
       d="m 2065.086,2229.8886 c -4.2272,-2.5286 -41.7209,44.7549 -41.7209,44.7549 l -35.4466,3.459 1.2502,26.926 -53.4012,-4.5662 35.1739,-8.2914 -1.9242,-26.5703 33.0101,-11.5413 29.8178,-33.9388 z"
       style="color:#000000;display:inline;overflow:visible;visibility:visible;fill:#ffffff;fill-opacity:1;fill-rule:nonzero;stroke:none;stroke-width:1.63768px;marker:none;enable-background:accumulate" />
    <path
       inkscape:connector-curvature="0"
       id="path3525"
       d="m 148.48197,2684.0009 c -5.46661,-32.9854 9.111,-121.7205 121.17689,-118.765 112.06578,2.9554 130.28795,43.7493 133.02121,56.0926 2.73334,12.3432 26.42205,81.9729 -61.04395,104.0062 -87.46608,22.0331 -165.82099,5.334 -193.15415,-41.3338 z"
       style="color:#000000;display:inline;overflow:visible;visibility:visible;fill:#ffffff;fill-opacity:1;fill-rule:nonzero;stroke:none;stroke-width:1.026px;marker:none;enable-background:accumulate" />
    <path
       inkscape:connector-curvature="0"
       id="path3525-3"
       d="m 1157.156,2492.4237 c -23.794,0.8182 -47.9685,1.788 -70.7541,6.9827 -30.4394,7.5173 -54.5473,26.7389 -59.6868,48.8922 -2.4981,13.8942 7.5635,28.0441 23.6549,36.2747 18.4628,9.8699 40.9752,15.2118 63.4049,19.0219 33.7056,5.4774 68.6665,5.2221 103.0178,3.7345 27.3313,-1.3088 54.8378,-4.9224 79.6206,-13.2573 11.0159,-3.5602 21.9702,-8.4478 27.7637,-16.0968 7.6851,-9.7255 8.2375,-21.3487 5.5583,-32.0561 -3.3162,-13.2028 -13.3213,-25.8753 -29.237,-33.7852 -17.5712,-9.089 -39.2684,-13.2462 -60.638,-15.6624 -19.9488,-2.2129 -40.122,-3.2505 -60.2604,-4.2311 -7.4869,-0.2852 -14.9653,-0.132 -22.4439,0.1829 z"
       style="color:#000000;display:inline;overflow:visible;visibility:visible;fill:#ffffff;fill-opacity:1;fill-rule:nonzero;stroke:none;stroke-width:0.916909px;marker:none;enable-background:accumulate" />
    <path
       sodipodi:nodetypes="csscscsssc"
       inkscape:connector-curvature="0"
       id="path4538-8"
       d="m 378.31396,2800.4734 c -21.81603,-6.0365 -24.7236,-21.3438 -23.81085,-34.7307 0.91307,-13.3879 3.43731,-21.6544 -10.14803,-38.2382 -13.58559,-16.5829 -43.44749,-17.8668 -26.36893,-33.9071 2.07754,-10.3968 3.18888,-19.4098 8.63924,-29.73 6.0118,-11.3839 -30.60834,-11.6128 -30.60834,-11.6128 0,0 -9.2601,36.4069 -8.60393,58.2554 0.65624,21.8486 37.98578,15.4181 49.29264,29.8458 10.55851,13.4728 3.54145,36.8172 10.69223,46.6028 7.15061,9.7866 19.89022,13.3481 30.91597,13.5148 z"
       style="color:#000000;display:inline;overflow:visible;visibility:visible;fill:#ffffff;fill-opacity:1;fill-rule:nonzero;stroke:none;stroke-width:0.850812px;marker:none;enable-background:accumulate" />
    <path
       sodipodi:nodetypes="csssssssc"
       inkscape:connector-curvature="0"
       id="path4272-2"
       d="m 683.3565,2839.4097 c 22.47948,-7.6888 8.18259,-27.2917 13.56572,-36.5201 5.55722,-9.5269 47.07364,3.0903 52.88651,-5.37 5.81286,-8.4604 -12.6074,-31.2018 -3.16551,-44.2198 9.44226,-13.0187 37.29048,-1.0958 25.77916,13.6924 -11.51166,14.7889 6.85876,28.7751 -4.63767,39.1332 -19.17293,17.274 -46.18634,1.6002 -58.07288,2.8253 -7.86988,0.8115 -1.86593,15.6117 -9.63373,23.71 -7.76824,8.099 -16.7216,6.749 -16.7216,6.749 z"
       style="fill:#ffffff;fill-rule:evenodd;stroke:none;stroke-width:1.00018px;stroke-linecap:butt;stroke-linejoin:miter;stroke-opacity:1" />
    <path
       sodipodi:nodetypes="csssc"
       inkscape:connector-curvature="0"
       id="path3280-8-90"
       d="m 1718.7292,2720.6255 c -1.4335,-29.5191 24.2701,-103.4168 149.6505,-97.8588 125.3806,5.5581 164.6225,38.0284 168.2969,90.4983 5.8125,83.0068 -60.1502,105.1896 -154.8664,111.3374 -97.6423,6.3383 -164.5964,-50.6399 -163.081,-103.9769 z"
       style="fill:#ffffff;stroke:none;stroke-width:1.03619" />
    <path
       inkscape:connector-curvature="0"
       id="path4480"
       d="m 1981.8954,2716.5742 c 21.7602,57.3157 81.8906,99.8161 102.9782,111.0989 -62.8332,-18.8149 -116.4083,-51.6111 -129.2847,-90.9766 -12.8765,-39.3656 26.3065,-20.1223 26.3065,-20.1223 z"
       style="color:#000000;display:inline;overflow:visible;visibility:visible;fill:#ffffff;fill-opacity:1;fill-rule:nonzero;stroke:none;stroke-width:1px;marker:none;enable-background:accumulate" />
    <path
       sodipodi:nodetypes="cssscscssccc"
       inkscape:connector-curvature="0"
       id="path1353"
       d="M 1142.7461 1150.3164 C 1116.01 1150.5098 1089.1668 1152.9048 1063.1649 1159.3334 C 1053.4023 1161.8384 1043.7005 1164.7557 1034.4453 1168.7734 C 1022.3299 1174.4897 1013.16 1184.9306 1006.2989 1196.2008 C 998.50844 1209.132 993.55912 1223.6516 991.11843 1238.5201 C 989.16692 1250.1384 988.20494 1261.9082 987.6986 1273.6707 C 987.19366 1289.877 989.00281 1306.2775 994.34058 1321.6455 C 1000.6092 1340.7459 1011.0701 1358.9041 1026.4699 1372.0744 C 1041.2478 1384.1998 1059.4665 1391.102 1077.6913 1396.1648 C 1107.7228 1404.1507 1139.013 1405.3624 1169.9299 1405.3474 C 1193.2176 1405.1005 1216.3375 1401.2756 1238.8614 1395.5149 C 1256.1983 1391.3538 1273.4913 1386.6055 1289.8865 1379.5162 C 1302.1149 1373.8547 1313.4051 1365.234 1320.1417 1353.3642 C 1329.124 1338.4751 1333.0543 1321.2803 1336.3333 1304.3937 C 1339.8891 1285.0314 1341.6623 1264.8979 1337.4531 1245.4877 C 1333.3793 1227.0924 1323.4356 1210.6564 1312.2518 1195.7398 C 1297.9151 1177.8396 1277.4128 1165.6499 1255.6649 1158.963 C 1232.2419 1151.7282 1207.5174 1150.6546 1183.1743 1150.3556 C 1169.6987 1150.2639 1156.2219 1150.2691 1142.7461 1150.3164 z "
       style="fill:#ffffff;fill-rule:evenodd;stroke:none;stroke-width:0.883699px;stroke-linecap:butt;stroke-linejoin:miter;stroke-opacity:1" />
    <path
       sodipodi:nodetypes="ccccccccccccccccccc"
       inkscape:transform-center-y="17.777857"
       inkscape:transform-center-x="43.812193"
       inkscape:connector-curvature="0"
       id="path4496-9"
       d="m 1567.2167,1263.2749 c -23.3951,-13.5874 -47.4345,-27.8488 -80.2438,-37.3029 -9.419,-2.6108 -19.456,-5.052 -29.7275,-6.2777 -10.8699,-0.2589 -18.5833,3.1803 -21.2691,7.3616 -4.9062,5.8321 -4.0751,13.3543 -14.8239,17.5815 -8.0334,2.9766 -20.4058,1.2285 -30.8948,0.151 -55.5613,-5.5966 -116.4529,-16.3815 -168.9125,-7.1839 -10.3316,2.0201 -20.2049,4.8402 -25.0559,9.4641 -13.7945,11.5007 -11.0257,28.0336 10.0671,40.719 14.9737,7.6682 42.5542,10.484 56.687,4.5569 7.5899,-3.0688 8.1735,-8.3583 5.5139,-13.1861 -1.2458,-8.9607 7.6217,0.022 24.0822,-3.6677 37.2334,-5.6014 77.5291,-14.6477 110.5037,-9.7254 10.0809,1.4739 25.6582,0.1256 35.3315,-0.599 12.5832,-2.5592 14.9137,-9.3886 15.3033,-15.3984 0.7726,-6.1637 0.047,-13.4883 11.1891,-17.2514 6.7172,-3.1499 17.8965,0.5337 26.5328,1.8753 27.2211,5.8451 51.5565,15.088 70.9679,25.6439 1.7031,1.0526 3.2274,2.1441 4.749,3.2392 z"
       style="color:#000000;display:inline;overflow:visible;visibility:visible;fill:#ffffff;fill-opacity:1;fill-rule:nonzero;stroke:none;stroke-width:1.32704px;marker:none;enable-background:accumulate" />
    <path
       sodipodi:nodetypes="csssc"
       inkscape:connector-curvature="0"
       id="path3280-8-0"
       d="m 891.47266,492.76258 c 3.56422,-76.98707 20.8397,-105.53299 230.39094,-108.46894 290.0187,-4.0639 310.31,61.40051 304.8003,151.70852 -5.9444,97.43656 -176.9924,97.7099 -316.8144,94.69991 C 868.56306,625.50816 893.64814,571.7636 891.47266,492.76258 Z"
       style="fill:#ffffff;stroke:none;stroke-width:0.801986" />
    <path
       sodipodi:nodetypes="csssc"
       inkscape:connector-curvature="0"
       id="path3280-8-2"
       d="m 836.03187,317.57623 c 3.25894,-62.9498 21.89049,-145.15068 193.93863,-146.44194 172.048,-1.29222 229.9409,38.50078 239.5235,107.2676 18.3557,131.72583 -69.0477,121.41139 -197.9482,135.97035 -132.88252,15.00816 -240.54982,-4.53008 -235.51393,-96.79601 z"
       style="display:inline;fill:#ffffff;stroke:none;stroke-width:0.865869" />
    <path
       sodipodi:nodetypes="zssssz"
       inkscape:connector-curvature="0"
       id="path4040-5"
       d="m 1364.4172,611.99806 c -48.4446,2.50191 -96.9522,3.37462 -145.4485,4.03507 -51.9685,1.88256 -104.5183,5.43859 -154.6077,20.56357 -14.9358,6.0333 -24.6477,20.40013 -30.3048,35.05912 -13.8119,31.19459 -17.933,66.73771 -11.6111,100.3086 5.7472,23.47369 22.3481,43.47074 43.335,54.71749 25.4909,14.84195 54.5584,21.50837 83.1905,26.94879 54.9966,9.39633 111.0076,6.96137 166.4942,5.23101 49.5474,-2.17423 99.3788,-6.41032 147.4973,-19.14674 20.7568,-7.23801 36.9631,-24.46233 46.0514,-44.35423 19.221,-37.93924 19.3659,-86.1035 -2.7528,-122.85341 -15.1915,-24.96464 -40.8578,-41.86102 -68.1527,-50.49008 -23.73,-7.78018 -48.8503,-10.18454 -73.6908,-10.01919 z"
       style="color:#000000;display:inline;overflow:visible;visibility:visible;fill:#ffffff;fill-opacity:1;fill-rule:nonzero;stroke:none;stroke-width:1.15758px;marker:none;enable-background:accumulate" />
    <path
       sodipodi:nodetypes="ccscc"
       inkscape:connector-curvature="0"
       id="path4035-4"
       d="m 870.0925,327.52019 c -13.93862,-43.79995 -75.39205,-33.32608 -131.42892,10.54697 35.43843,-36.41055 76.35778,-76.93843 143.98747,-47.05147 49.32789,21.79901 14.57754,15.53221 14.57754,15.53221 z"
       style="color:#000000;display:inline;overflow:visible;visibility:visible;fill:#ffffff;fill-opacity:1;fill-rule:nonzero;stroke:none;stroke-width:1px;marker:none;enable-background:accumulate" />
    <path
       sodipodi:nodetypes="cccccccccccccccccccccccc"
       inkscape:connector-curvature="0"
       id="path4289-9-2"
       d="m 1548.4515,71.619933 c 24.985,5.793404 24.4053,18.959491 12.7022,17.639048 7.502,22.947809 30.4769,75.029379 10.5214,81.465079 0.3216,63.9758 13.4148,96.99152 -1.5675,133.3805 55.2137,-16.22272 57.3634,11.34478 53.2124,37.36138 20.3681,-34.64111 35.9429,-12.07585 29.8359,19.78535 20.93,-34.83705 45.1859,-50.69323 41.2991,-13.35757 23.6513,-26.97855 24.8612,-39.45512 44.7286,-27.78038 36.1161,-32.36707 51.1793,12.81962 73.0469,32.93992 8.1542,-36.73832 23.3152,-29.5983 49.8625,-10.87598 9.0829,-15.46913 -12.0518,-42.91267 12.7553,-9.1895 -9.9891,-38.67303 40.684,-20.02028 51.0233,-14.32381 -12.6632,-17.39684 9.1057,-22.00167 70.4804,-11.89519 -23.7677,-9.30819 -33.969,-40.04329 13.7163,-61.82426 -62.5354,8.83659 -39.2315,-9.45622 -20.0369,-29.45507 -40.898,-30.71396 -0.2138,-59.34641 20.1138,-88.49783 -41.3041,13.50432 -56.3387,-44.502353 -63.9558,-58.334579 -62.6921,10.543316 -53.3929,4.67716 -47.3762,-0.440896 -38.8414,12.824672 -36.6646,1.446479 -46.7026,-2.724502 -106.7351,15.616521 -102.9554,-0.688504 -125.0299,-9.525581 -8.7451,18.669199 -31.2305,11.414952 -53.7729,4.053771 0.845,15.799861 -12.7693,11.180214 -26.0813,6.987641 -1.7053,6.812619 -14.9264,8.77544 -43.6739,4.198974 20.5299,5.623526 7.8516,6.563777 -55.1011,0.413485 z"
       style="display:inline;fill:#ffffff;fill-rule:evenodd;stroke:none;stroke-width:1.30048px;stroke-linecap:butt;stroke-linejoin:miter;stroke-opacity:1" />
    <path
       sodipodi:nodetypes="ccccccccccccccccccccccsccccccccccccccccccccccccccc"
       inkscape:connector-curvature="0"
       id="path4212-3"
       d="m 2394.6354,842.74049 c -1.4498,6.08207 -62.6775,52.57678 -24.2128,11.41814 l -35.4691,11.09409 c -67.8418,-26.44512 -291.661,-14.62679 -366.6942,-1.87401 l -20.034,-25.45676 3.691,21.15582 -23.1874,-31.62312 12.529,42.28004 -12.2814,-14.48462 4.9728,15.85323 -12.0472,-7.86602 1.8065,13.52952 c -28.5853,12.06886 -45.1719,36.51511 -52.0408,61.90409 l -22.849,-2.68338 21.0769,10.31554 c -0.2999,1.54317 -0.5731,3.08677 -0.8036,4.62652 -0.014,0.10538 -0.032,0.21347 -0.044,0.31889 l -23.9933,-4.03431 22.8478,13.95326 c -0.063,0.72473 -0.1279,1.44763 -0.1856,2.17884 l -45.8768,-9.25442 45.2106,23.85087 c -0.5034,25.9519 2.305,52.6381 3.7993,64.3076 1.0361,8.0905 2.0305,23.0784 8.9169,26.4001 l -43.0624,8.9911 56.92,-4.3596 c 1.2045,0.1378 2.4343,0.2757 3.6695,0.4138 l -14.7416,3.0561 25.5982,-1.878 c 2.6105,0.2747 5.2782,0.5492 7.9976,0.8231 l -26.6039,6.951 39.5936,-5.6868 c 94.873,8.9206 297.8464,19.5727 439.878,4.0584 l 20.8694,4.1851 -7.9419,-5.6771 c 2.7736,-0.3379 6.3322,-0.6718 6.4865,-1.0712 l 0.4939,0.1701 -0.3059,-1.2352 c 0.035,-0.2028 0.07,-0.406 0.1058,-0.6109 l 1.6421,2.7323 -0.999,-14.4498 c 1.1199,-16.7435 1.6868,-35.7536 1.9527,-55.0108 l 1.7555,-11.56087 c -2.7681,5.95127 -1.5698,-7.22322 0.2283,-13.97983 l -1.5172,0.91407 c 0.4409,-15.58634 0.4464,-44.18626 0.027,-59.12009 l 0.2843,-11.31352 c -1.2509,1.06413 -0.2739,-8.65815 0.3094,-17.12836 -1.4955,7.6057 -1.2689,4.40401 -0.4563,-10.41681 -2.3552,4.18867 1.8805,-34.90907 2.6848,-44.70611 z"
       style="fill:#ffffff;fill-opacity:1;fill-rule:evenodd;stroke:none;stroke-width:0.979065px;stroke-linecap:butt;stroke-linejoin:miter;stroke-opacity:1" />
    <path
       sodipodi:nodetypes="cccc"
       inkscape:connector-curvature="0"
       id="path4667-2"
       d="m 2102.6149,751.43806 c 0.6806,41.31231 32.2877,112.94587 26.8593,131.80148 4.1542,65.56524 84.1944,-17.58886 28.1311,-31.33561 -23.7511,-36.29813 -38.7836,-65.39219 -54.9904,-100.46587 z"
       style="display:inline;fill:#ffffff;fill-rule:evenodd;stroke:none;stroke-width:1.44912px;stroke-linecap:butt;stroke-linejoin:miter;stroke-opacity:1" />
    <path
       inkscape:connector-curvature="0"
       id="path3525-3-5"
       d="m 733.40911,2654.7496 c -27.56406,-0.098 -56.09893,5.1296 -78.89518,19.5074 -15.71474,9.8584 -27.22154,26.2721 -26.5013,43.7335 0.5462,14.2429 10.67174,27.0138 23.82523,34.6216 14.99922,8.6903 32.87844,12.1176 50.28903,14.7287 30.09288,4.0973 60.63079,3.3432 90.94509,4.9003 19.15466,0.6389 38.82433,0.9884 57.32549,-4.1125 16.58778,-6.0439 26.85665,-21.5133 28.51318,-36.9608 1.71378,-15.5734 -0.66261,-32.4583 -11.62804,-45.2137 -10.31828,-11.5412 -26.31477,-17.3952 -41.83511,-21.357 -29.86665,-7.3926 -61.09068,-10.2257 -92.03839,-9.8475 z"
       style="color:#000000;display:inline;overflow:visible;visibility:visible;fill:#ffffff;fill-opacity:1;fill-rule:nonzero;stroke:none;stroke-width:0.891997px;marker:none;enable-background:accumulate" />
    <path
       sodipodi:nodetypes="csssssssc"
       inkscape:connector-curvature="0"
       id="path4272-2-3"
       d="m 1223.463,2688.0374 c 17.4992,-16.0693 -3.4666,-28.2803 -2.2428,-38.8936 1.2634,-10.9567 44.3518,-16.0746 46.2777,-26.1572 1.9258,-10.0826 -24.0767,-23.5119 -20.6577,-39.2259 3.4191,-15.7147 33.7111,-15.9794 29.1078,2.1868 -4.6033,18.167 17.8374,23.5982 11.4686,37.7013 -10.6216,23.5196 -41.6554,20.0139 -52.0494,25.9095 -6.8814,3.9037 4.5609,15.0468 0.6993,25.5829 -3.8618,10.5369 -12.6035,12.8962 -12.6035,12.8962 z"
       style="fill:#ffffff;fill-rule:evenodd;stroke:none;stroke-width:1.00018px;stroke-linecap:butt;stroke-linejoin:miter;stroke-opacity:1" />
    <path
       sodipodi:nodetypes="cccccccccccccccccccc"
       inkscape:connector-curvature="0"
       id="path3549-3-7-9-6"
       d="m 1576.3295,2522.3224 c -5.7684,19.7338 -39.7035,21.9845 -52.2549,18.2182 25.4795,21.5056 24.7762,35.1623 -9.4079,37.8903 57.881,38.545 10.9197,33.3934 1.801,43.5918 45.2233,12.8342 25.2862,30.1632 17.4829,47.2005 51.786,-0.3425 35.1891,27.0397 37.6484,48.5677 4.2597,-10.1977 24.7176,-41.3812 26.4129,-7.0964 0.011,-6.488 33.3756,-60.8477 84.6822,-9.4692 -1.5689,-26.8993 15.684,-32.7435 32.6119,4.1555 -6.0146,-40.161 52.4858,-29.5513 83.5547,-17.4684 -15.9307,-24.1109 8.624,-34.3802 34.9484,-29.9904 -3.8539,-13.3079 4.8952,-22.6579 24.8501,-28.4736 -26.7138,-7.6032 -31.7249,-15.8481 17.5691,-25.6962 -37.6086,-0.1964 -72.6912,-1.3483 -28.9741,-32.7151 -13.8479,-0.492 -46.3534,25.6094 -32.0043,-49.338 -23.4891,24.3307 -48.7079,37.9775 -81.1901,-11.5311 -14.7467,25.285 -40.7226,38.132 -52.494,7.0859 -3.9155,13.3936 -20.7963,18.707 -35.1738,19.5706 -5.6308,-5.1921 -11.4603,-12.2772 -17.5686,-21.587 -9.5316,19.9474 -23.9984,33.5613 -52.4939,7.0849 z"
       style="color:#000000;display:inline;overflow:visible;visibility:visible;fill:#ffffff;fill-opacity:1;fill-rule:nonzero;stroke:none;stroke-width:0.899927px;marker:none;enable-background:accumulate" />
    <path
       inkscape:connector-curvature="0"
       id="path5066-8"
       d="m 1834.6942,302.71538 c 13.3969,25.86728 33.5213,54.90113 39.2123,61.39746 7.9957,-8.63868 17.0744,-15.33555 24.0331,-20.64544 9.0197,12.83333 45.9509,74.58787 45.5696,92.05922 3.355,-43.2627 -19.8328,-91.86712 -36.9856,-111.86967 -10.7606,5.90497 -16.2791,10.46235 -22.0396,13.47435 -9.2965,-9.62452 -29.0289,-46.10687 -29.0289,-46.10687 z"
       style="color:#000000;display:inline;overflow:visible;visibility:visible;fill:#ffffff;fill-opacity:1;fill-rule:nonzero;stroke:none;stroke-width:1.22149px;marker:none;enable-background:accumulate" />
  </g>
  <g
     inkscape:label="txt"
     id="layer1"
     inkscape:groupmode="layer">
    <text
       id="text4246-3-2-2"
       y="245.06081"
       x="1051.9446"
       style="font-style:normal;font-variant:normal;font-weight:normal;font-stretch:normal;font-size:45px;line-height:1.25;font-family:Lavi;-inkscape-font-specification:Lavi;text-align:center;letter-spacing:0px;word-spacing:0px;text-anchor:middle;fill:#000000;fill-opacity:1;stroke:none"
       xml:space="preserve"><tspan
         id="tspan912"
         y="245.06081"
         x="1051.9446"
         sodipodi:role="line"
         style="font-size:45px">Je suis sur le </tspan><tspan
         id="tspan916"
         y="301.31082"
         x="1051.9446"
         sodipodi:role="line"
         style="font-size:45px">point de perdre </tspan><tspan
         id="tspan918"
         y="357.56082"
         x="1051.9446"
         sodipodi:role="line"
         style="font-size:45px">mon hypervitesse,</tspan></text>
    <text
       id="text4246-3-2-2-3"
       y="465.32642"
       x="1160.9154"
       style="font-style:normal;font-variant:normal;font-weight:normal;font-stretch:normal;font-size:45px;line-height:1.25;font-family:Lavi;-inkscape-font-specification:Lavi;text-align:center;letter-spacing:0px;word-spacing:0px;text-anchor:middle;fill:#000000;fill-opacity:1;stroke:none"
       xml:space="preserve"><tspan
         id="tspan928"
         y="465.32642"
         x="1160.9154"
         sodipodi:role="line"
         style="font-size:45px">et ce dragon et son </tspan><tspan
         id="tspan925"
         y="521.57635"
         x="1160.9154"
         sodipodi:role="line"
         style="font-size:45px">pilote nous poursuivent </tspan><tspan
         id="tspan927"
         y="577.82635"
         x="1160.9154"
         sodipodi:role="line"
         style="font-size:45px">depuis des heures.</tspan></text>
    <text
       id="text4246-3-2-2-3-6"
       y="690.80408"
       x="1281.6691"
       style="font-style:normal;font-variant:normal;font-weight:normal;font-stretch:normal;font-size:45px;line-height:1.25;font-family:Lavi;-inkscape-font-specification:Lavi;text-align:center;letter-spacing:0px;word-spacing:0px;text-anchor:middle;fill:#000000;fill-opacity:1;stroke:none"
       xml:space="preserve"><tspan
         id="tspan956"
         y="690.80408"
         x="1281.6691"
         sodipodi:role="line"
         style="font-size:45px">Ils n'auront aucun </tspan><tspan
         id="tspan943"
         y="747.05408"
         x="1281.6691"
         sodipodi:role="line"
         style="font-size:45px">mal à nous attraper </tspan><tspan
         id="tspan949"
         y="803.30408"
         x="1281.6691"
         sodipodi:role="line"
         style="font-size:45px">dès qu'on ralentira.</tspan></text>
    <text
       id="text4246-3-2-2-3-6-3"
       y="189.64172"
       x="1790.1418"
       style="font-style:normal;font-variant:normal;font-weight:normal;font-stretch:normal;font-size:59.5686px;line-height:1.25;font-family:Lavi;-inkscape-font-specification:Lavi;text-align:center;letter-spacing:0px;word-spacing:0px;text-anchor:middle;fill:#000000;fill-opacity:1;stroke:none;stroke-width:1.32375"
       xml:space="preserve"><tspan
         id="tspan1079"
         y="189.64172"
         x="1790.1418"
         sodipodi:role="line"
         style="font-size:59.5686px;stroke-width:1.32375">Quelle idiote </tspan><tspan
         id="tspan953"
         y="264.10248"
         x="1790.1418"
         sodipodi:role="line"
         style="font-size:59.5686px;stroke-width:1.32375">j'ai été !</tspan></text>
    <text
       id="text4246-3-2-2-3-6-2"
       y="927.61261"
       x="2146.7854"
       style="font-style:normal;font-variant:normal;font-weight:normal;font-stretch:normal;font-size:45px;line-height:1.25;font-family:Lavi;-inkscape-font-specification:Lavi;text-align:center;letter-spacing:0px;word-spacing:0px;text-anchor:middle;fill:#000000;fill-opacity:1;stroke:none"
       xml:space="preserve"><tspan
         id="tspan966"
         y="927.61261"
         x="2146.7854"
         sodipodi:role="line"
         style="font-size:45px">J'étais tellement sûre </tspan><tspan
         id="tspan960"
         y="983.86261"
         x="2146.7854"
         sodipodi:role="line"
         style="font-size:45px">qu'ils abandonneraient </tspan><tspan
         id="tspan962"
         y="1040.1125"
         x="2146.7854"
         sodipodi:role="line"
         style="font-size:45px">vite la poursuite !</tspan></text>
    <text
       id="text4246-3-2-2-3-6-2-7"
       y="1236.7683"
       x="1166.7565"
       style="font-style:normal;font-variant:normal;font-weight:normal;font-stretch:normal;font-size:45px;line-height:1.25;font-family:Lavi;-inkscape-font-specification:Lavi;text-align:center;letter-spacing:0px;word-spacing:0px;text-anchor:middle;fill:#000000;fill-opacity:1;stroke:none"
       xml:space="preserve"><tspan
         id="tspan979"
         y="1236.7683"
         x="1166.7565"
         sodipodi:role="line"
         style="font-size:45px">Si seulement </tspan><tspan
         id="tspan974"
         y="1293.0183"
         x="1166.7565"
         sodipodi:role="line"
         style="font-size:45px">je pouvais les </tspan><tspan
         id="tspan976"
         y="1349.2683"
         x="1166.7565"
         sodipodi:role="line"
         style="font-size:45px">semer.</tspan></text>
    <text
       id="text4246-3-2-2-3-6-2-7-2"
       y="2094.4697"
       x="434.16843"
       style="font-style:normal;font-variant:normal;font-weight:normal;font-stretch:normal;font-size:45px;line-height:1.25;font-family:Lavi;-inkscape-font-specification:Lavi;text-align:center;letter-spacing:0px;word-spacing:0px;text-anchor:middle;fill:#000000;fill-opacity:1;stroke:none"
       xml:space="preserve"><tspan
         id="tspan885"
         y="2094.4697"
         x="434.16843"
         sodipodi:role="line"
         style="font-size:45px"> <tspan
   id="tspan998"
   style="font-style:normal;font-variant:normal;font-weight:bold;font-stretch:normal;font-family:Lavi;-inkscape-font-specification:'Lavi Bold'">NON. </tspan></tspan><tspan
         id="tspan992"
         y="2150.7197"
         x="434.16843"
         sodipodi:role="line"
         style="font-size:45px">Je <tspan
   id="tspan1000"
   style="font-style:normal;font-variant:normal;font-weight:bold;font-stretch:normal;font-family:Lavi;-inkscape-font-specification:'Lavi Bold'">dois</tspan> me </tspan><tspan
         id="tspan994"
         y="2206.9697"
         x="434.16843"
         sodipodi:role="line"
         style="font-size:45px">débarrasser </tspan><tspan
         id="tspan996"
         y="2263.2197"
         x="434.16843"
         sodipodi:role="line"
         style="font-size:45px">d'eux !</tspan></text>
    <text
       id="text4246-3-2-2-3-6-2-7-2-2"
       y="2119.1331"
       x="2145.5425"
       style="font-style:normal;font-variant:normal;font-weight:normal;font-stretch:normal;font-size:45px;line-height:1.25;font-family:Lavi;-inkscape-font-specification:Lavi;text-align:center;letter-spacing:0px;word-spacing:0px;text-anchor:middle;fill:#000000;fill-opacity:1;stroke:none"
       xml:space="preserve"><tspan
         id="tspan1271"
         y="2119.1331"
         x="2145.5425"
         sodipodi:role="line"
         style="font-size:45px"> Avant </tspan><tspan
         id="tspan1007"
         y="2175.3831"
         x="2145.5425"
         sodipodi:role="line"
         style="font-size:45px">qu'ils nous </tspan><tspan
         id="tspan1009"
         y="2231.6331"
         x="2145.5425"
         sodipodi:role="line"
         style="font-size:45px">attrapent !</tspan></text>
    <text
       id="text4246-3-2-2-3-6-2-7-2-3"
       y="2629.6626"
       x="273.79352"
       style="font-style:normal;font-variant:normal;font-weight:normal;font-stretch:normal;font-size:45px;line-height:1.25;font-family:Lavi;-inkscape-font-specification:Lavi;text-align:center;letter-spacing:0px;word-spacing:0px;text-anchor:middle;fill:#000000;fill-opacity:1;stroke:none"
       xml:space="preserve"><tspan
         id="tspan903"
         y="2629.6626"
         x="273.79352"
         sodipodi:role="line"
         style="font-size:45px">Mais </tspan><tspan
         id="tspan1013"
         y="2685.9126"
         x="273.79352"
         sodipodi:role="line"
         style="font-size:45px">je suis...</tspan></text>
    <text
       id="text4246-3-2-2-3-6-2-7-2-3-3-3"
       y="2728.3162"
       x="758.94037"
       style="font-style:normal;font-variant:normal;font-weight:normal;font-stretch:normal;font-size:45px;line-height:1.25;font-family:Lavi;-inkscape-font-specification:Lavi;text-align:center;letter-spacing:0px;word-spacing:0px;text-anchor:middle;fill:#000000;fill-opacity:1;stroke:none"
       xml:space="preserve"><tspan
         sodipodi:role="line"
         id="tspan1318-9-6"
         y="2728.3162"
         x="758.94037"
         style="font-size:45px">... si...</tspan><tspan
         sodipodi:role="line"
         id="tspan1356-7"
         y="2784.5662"
         x="758.94037"
         style="font-size:45px" /></text>
    <text
       id="text4246-3-2-2-3-6-2-7-2-3-3"
       y="2507.2249"
       x="1192.5862"
       style="font-style:normal;font-variant:normal;font-weight:normal;font-stretch:normal;font-size:45px;line-height:1.25;font-family:Lavi;-inkscape-font-specification:Lavi;text-align:center;letter-spacing:0px;word-spacing:0px;text-anchor:middle;fill:#000000;fill-opacity:1;stroke:none"
       xml:space="preserve"><tspan
         id="tspan1318-9"
         y="2507.2249"
         x="1192.5862"
         sodipodi:role="line"
         style="font-size:45px" /><tspan
         id="tspan1356"
         y="2563.4749"
         x="1199.6174"
         sodipodi:role="line"
         style="font-size:45px">... fatiguée... </tspan></text>
    <text
       id="text4246-3-2-2-3-6-2-7-2-3-3-4"
       y="2630.2302"
       x="1681.7327"
       style="font-style:normal;font-variant:normal;font-weight:normal;font-stretch:normal;font-size:64.434px;line-height:1.25;font-family:Lavi;-inkscape-font-specification:Lavi;text-align:center;letter-spacing:0px;word-spacing:0px;text-anchor:middle;fill:#000000;fill-opacity:1;stroke:none;stroke-width:1.43187"
       xml:space="preserve"><tspan
         id="tspan1356-4"
         y="2630.2302"
         x="1681.7327"
         sodipodi:role="line"
         style="font-style:normal;font-variant:normal;font-weight:bold;font-stretch:normal;font-size:64.434px;font-family:Lavi;-inkscape-font-specification:'Lavi Bold';stroke-width:1.43187">OUPS !</tspan></text>
    <text
       id="text4246-3-2-2-3-6-2-7-2-3-5"
       y="2717.1885"
       x="1895.2314"
       style="font-style:normal;font-variant:normal;font-weight:normal;font-stretch:normal;font-size:45px;line-height:1.25;font-family:Lavi;-inkscape-font-specification:Lavi;text-align:center;letter-spacing:0px;word-spacing:0px;text-anchor:middle;fill:#000000;fill-opacity:1;stroke:none"
       xml:space="preserve"><tspan
         id="tspan1074"
         y="2717.1885"
         x="1895.2314"
         sodipodi:role="line"
         style="font-size:45px">Reprends-toi, </tspan><tspan
         id="tspan1024"
         y="2773.4385"
         x="1895.2314"
         sodipodi:role="line"
         style="font-size:45px">Pepper !</tspan></text>
  </g>
</svg>
