<?xml version="1.0" encoding="UTF-8" standalone="no"?>
<svg
   sodipodi:docname="E35P06.svg"
   height="3503"
   width="2481"
   inkscape:version="1.3 (0e150ed6c4, 2023-07-21)"
   version="1.1"
   id="svg2"
   xmlns:inkscape="http://www.inkscape.org/namespaces/inkscape"
   xmlns:sodipodi="http://sodipodi.sourceforge.net/DTD/sodipodi-0.dtd"
   xmlns:xlink="http://www.w3.org/1999/xlink"
   xmlns="http://www.w3.org/2000/svg"
   xmlns:svg="http://www.w3.org/2000/svg"
   xmlns:rdf="http://www.w3.org/1999/02/22-rdf-syntax-ns#"
   xmlns:cc="http://creativecommons.org/ns#"
   xmlns:dc="http://purl.org/dc/elements/1.1/">
  <metadata
     id="metadata8">
    <rdf:RDF>
      <cc:Work
         rdf:about="">
        <dc:format>image/svg+xml</dc:format>
        <dc:type
           rdf:resource="http://purl.org/dc/dcmitype/StillImage" />
        <dc:title />
      </cc:Work>
    </rdf:RDF>
  </metadata>
  <defs
     id="defs6" />
  <sodipodi:namedview
     inkscape:pagecheckerboard="0"
     inkscape:snap-global="false"
     inkscape:document-rotation="0"
     inkscape:current-layer="layer1"
     inkscape:window-maximized="1"
     inkscape:window-y="-8"
     inkscape:window-x="1912"
     inkscape:cy="2805.0211"
     inkscape:cx="790.18999"
     inkscape:zoom="0.48912287"
     showgrid="false"
     id="namedview4"
     inkscape:window-height="1057"
     inkscape:window-width="1920"
     inkscape:pageshadow="2"
     inkscape:pageopacity="0"
     guidetolerance="10"
     gridtolerance="10"
     objecttolerance="10"
     borderopacity="1"
     bordercolor="#666666"
     pagecolor="#ffffff"
     inkscape:showpageshadow="0"
     inkscape:deskcolor="#d1d1d1" />
  <g
     sodipodi:insensitive="true"
     inkscape:label="artwork"
     id="layer2"
     inkscape:groupmode="layer">
    <image
       xlink:href="../gfx_Pepper-and-Carrot_by-David-Revoy_E35P06.png"
       width="2481"
       height="3503"
       id="image10"
       x="0"
       y="0" />
  </g>
  <g
     style="display:inline"
     inkscape:label="speechbubbles"
     id="layer3"
     inkscape:groupmode="layer">
    <path
       sodipodi:nodetypes="csssssssc"
       inkscape:connector-curvature="0"
       id="path3286-6"
       d="m 599.96832,150.09323 c -14.60964,0.32929 -29.19097,1.45198 -43.71496,2.92517 -22.42845,2.45874 -44.85227,6.52731 -65.88732,14.439 -24.97513,10.23514 -43.61092,32.49125 -49.54375,57.51535 -9.44604,29.87575 -10.22204,62.66715 0.60026,92.36486 7.11117,18.31482 23.00513,32.70481 41.33012,41.12864 29.67246,14.06439 62.83744,21.59403 96.02169,21.21802 20.15016,0.0673 40.31258,-0.65082 60.38137,-2.32749 24.59306,-2.3065 49.33956,-8.10366 70.44644,-20.61265 14.03079,-8.38033 25.39858,-20.95433 31.01598,-35.81167 4.97562,-12.5402 5.90151,-26.13166 5.33051,-39.41702 -0.38354,-22.53869 -1.30687,-45.4967 -8.84102,-67.09887 -5.06424,-13.9567 -16.02486,-25.45218 -28.81784,-33.61104 -8.79327,-5.60766 -18.61152,-9.53342 -28.31772,-13.47005 -23.1184,-8.96285 -47.61331,-14.96585 -72.52407,-16.91331 -2.48932,-0.17863 -4.98408,-0.2853 -7.47969,-0.32894 z"
       style="fill:#ffffff;stroke:none;stroke-width:0.977661" />
    <path
       sodipodi:nodetypes="cccccccccccccccccccccccc"
       id="path961"
       d="m -11.698607,1502.9614 c 47.285128,0.9709 41.020285,18.9206 23.991775,40.2832 13.099827,-1.4369 43.737529,-21.2257 25.570695,10.0555 39.667306,-11.3646 56.420658,15.5887 53.197356,27.1509 19.484341,-3.9803 39.465281,-0.6376 19.136541,40.2724 19.63803,-9.167 36.84145,-36.8642 34.60501,7.2244 15.89818,-5.4725 36.78638,-26.5581 39.43737,9.4172 21.01567,-17.7601 41.89473,-32.9121 60.6718,-7.9194 19.53008,-36.1747 39.245,-23.3546 52.60208,12.4772 6.27564,-43.4296 43.52626,-25.9104 66.90689,19.5777 -7.42371,-37.6335 -38.94668,-89.6447 54.67081,-13.5228 -39.72841,-55.9177 -44.6055,-77.4348 72.48794,-15.7856 -14.94217,-22.6503 -39.19887,-77.1061 56.32185,-18.4508 -64.83065,-67.3048 -26.58017,-74.4012 20.0383,-86.5626 -56.61095,-1.7957 -73.29896,-19.4105 -12.88074,-26.8793 -92.57779,-8.7403 -70.1637,-30.4201 -40.69585,-66.7128 -47.37424,27.6916 -40.57833,11.5769 -29.22077,-3.1512 -84.20036,29.1003 -49.08304,-16.958 -41.30815,-34.9119 -41.35702,19.0141 -54.17414,16.8415 -50.28863,-11.8494 -22.95791,24.5753 -47.24278,23.9494 -45.05674,14.2836 l -57.8602,-8.2257 -275.30273,5.4155 -12.063932,88.2476 c 72.623699,-4.1891 28.465227,14.6958 -14.960675,19.5663 z"
       style="display:inline;fill:#ffffff;fill-rule:evenodd;stroke:none;stroke-width:1.36247px;stroke-linecap:butt;stroke-linejoin:miter;stroke-opacity:1" />
    <path
       inkscape:connector-curvature="0"
       id="path3525-0"
       d="m 624.6913,2285.3556 c -6.40241,-35.9524 10.67099,-131.4529 141.9227,-123.5877 131.25169,7.8642 152.59348,52.8058 155.79469,66.2874 3.2012,13.4827 30.9455,89.8831 -71.49479,110.1061 -102.4405,20.2239 -194.2099,-1.1239 -226.2226,-52.8058 z"
       style="color:#000000;display:inline;overflow:visible;visibility:visible;fill:#ffffff;fill-opacity:1;fill-rule:nonzero;stroke:none;stroke-width:0.906224px;marker:none;enable-background:accumulate" />
    <path
       inkscape:connector-curvature="0"
       id="path3072-56"
       d="m 777.45911,2075.5812 c 24.221,32.672 31.0089,45.658 8.1243,87.146 -22.8847,41.487 -7.3195,49.577 -7.3195,49.577 l 28.2503,-15.376 c 0,0 42.659,-91.848 -29.0551,-121.347 z"
       style="color:#000000;display:inline;overflow:visible;visibility:visible;fill:#ffffff;fill-opacity:1;fill-rule:nonzero;stroke:none;stroke-width:1px;marker:none;enable-background:accumulate" />
    <path
       sodipodi:nodetypes="ccccc"
       inkscape:connector-curvature="0"
       id="path3072-5-5"
       d="m 779.31175,436.85539 c -47.0829,-20.24287 -67.22496,-54.55991 -84.15983,-115.70701 -17.59681,-45.717 -36.07245,-33.52653 -36.07245,-33.52653 l 6.37734,17.91035 c 0,0 -3.04742,117.01808 113.85494,131.32319 z"
       style="color:#000000;display:inline;overflow:visible;visibility:visible;fill:#ffffff;fill-opacity:1;fill-rule:nonzero;stroke:none;stroke-width:1px;marker:none;enable-background:accumulate" />
    <path
       sodipodi:nodetypes="csccssscc"
       inkscape:connector-curvature="0"
       id="path3282-7"
       d="m 393.56677,1606.3671 c 21.51156,33.7205 38.79051,39.1501 50.26035,53.0664 11.46981,13.9172 -2.88402,43.4737 0.19353,53.5399 3.70439,9.4958 0.69509,16.2497 29.83986,39.4536 -46.26,-20.9908 -40.86354,-33.0957 -44.26871,-41.9175 -4.68096,-12.128 3.84885,-26.4644 -8.51834,-37.4754 -11.9791,-10.667 -55.59571,-40.8524 -64.07404,-63.4543 -8.47865,-22.6019 -12.84256,-23.9886 -12.84256,-23.9886 z"
       style="display:inline;fill:#ffffff;fill-opacity:1;stroke:none;stroke-width:1.10947" />
  </g>
  <g
     inkscape:label="txt"
     id="layer1"
     inkscape:groupmode="layer">
    <text
       id="text4246-3-2-2"
       y="228.89919"
       x="593.34772"
       style="font-style:normal;font-variant:normal;font-weight:normal;font-stretch:normal;font-size:45px;line-height:1.25;font-family:Lavi;-inkscape-font-specification:Lavi;text-align:center;letter-spacing:0px;word-spacing:0px;text-anchor:middle;fill:#000000;fill-opacity:1;stroke:none"
       xml:space="preserve"><tspan
         id="tspan868"
         y="228.89919"
         x="593.34772"
         sodipodi:role="line"
         style="font-size:45px">La grotte </tspan><tspan
         id="tspan870"
         y="285.14917"
         x="593.34772"
         sodipodi:role="line"
         style="font-size:45px">du Lac des </tspan><tspan
         id="tspan872"
         y="341.39917"
         x="593.34772"
         sodipodi:role="line"
         style="font-size:45px">Cornes !</tspan><tspan
         id="tspan905"
         y="397.64917"
         x="593.34772"
         sodipodi:role="line"
         style="font-size:45px" /></text>
    <text
       id="text4246-3-2-2-3"
       y="1511.3002"
       x="312.00537"
       style="font-style:normal;font-variant:normal;font-weight:normal;font-stretch:normal;font-size:45px;line-height:1.25;font-family:Lavi;-inkscape-font-specification:Lavi;text-align:center;letter-spacing:0px;word-spacing:0px;text-anchor:middle;fill:#000000;fill-opacity:1;stroke:none"
       xml:space="preserve"><tspan
         id="tspan916"
         y="1511.3002"
         x="312.00537"
         sodipodi:role="line"
         style="font-size:45px">Carrot, c'est </tspan><tspan
         id="tspan880"
         y="1567.5502"
         x="312.00537"
         sodipodi:role="line"
         style="font-size:45px">notre chance !</tspan></text>
    <text
       id="text4246-3-2-2-3-5"
       y="2235.9109"
       x="781.18762"
       style="font-style:normal;font-variant:normal;font-weight:normal;font-stretch:normal;font-size:45px;line-height:1.25;font-family:Lavi;-inkscape-font-specification:Lavi;text-align:center;letter-spacing:0px;word-spacing:0px;text-anchor:middle;fill:#000000;fill-opacity:1;stroke:none"
       xml:space="preserve"><tspan
         id="tspan958"
         y="2235.9109"
         x="781.18762"
         sodipodi:role="line"
         style="font-size:45px"> Je connais </tspan><tspan
         id="tspan884"
         y="2292.1609"
         x="781.18762"
         sodipodi:role="line"
         style="font-size:45px">cette grotte.</tspan></text>
    <text
       id="text4246-3-2-2-3-5-9"
       y="2549.3845"
       x="201.94211"
       style="font-style:normal;font-variant:normal;font-weight:normal;font-stretch:normal;font-size:45px;line-height:1.25;font-family:Lavi;-inkscape-font-specification:Lavi;text-align:center;letter-spacing:0px;word-spacing:0px;text-anchor:middle;fill:#ffffff;fill-opacity:1;stroke:none"
       xml:space="preserve"><tspan
         id="tspan924"
         y="2549.3845"
         x="201.94211"
         sodipodi:role="line"
         style="font-size:45px;text-align:start;text-anchor:start;fill:#ffffff">C'est un long passage sinueux qui donne </tspan><tspan
         id="tspan889"
         y="2605.6345"
         x="201.94211"
         sodipodi:role="line"
         style="font-size:45px;text-align:start;text-anchor:start;fill:#ffffff">sur une cavité qui s'est effondrée.</tspan></text>
    <text
       id="text4246-3-2-2-3-5-9-7"
       y="3059.7258"
       x="1335.3069"
       style="font-style:normal;font-variant:normal;font-weight:normal;font-stretch:normal;font-size:45px;line-height:1.25;font-family:Lavi;-inkscape-font-specification:Lavi;text-align:center;letter-spacing:0px;word-spacing:0px;text-anchor:middle;fill:#ffffff;fill-opacity:1;stroke:none"
       xml:space="preserve"><tspan
         id="tspan879"
         y="3059.7258"
         x="1335.3069"
         sodipodi:role="line"
         style="font-size:45px;text-align:end;text-anchor:end;fill:#ffffff"> Les stalactites de cet effondrement se sont empilées </tspan><tspan
         id="tspan899"
         y="3115.9758"
         x="1335.3069"
         sodipodi:role="line"
         style="font-size:45px;text-align:end;text-anchor:end;fill:#ffffff">en un mur de pics. C'est un piège mortel !</tspan></text>
    <text
       id="text4246-3-2-2-3-5-9-7-3"
       y="2753.425"
       x="1482.9749"
       style="font-style:normal;font-variant:normal;font-weight:normal;font-stretch:normal;font-size:45px;line-height:1.25;font-family:Lavi;-inkscape-font-specification:Lavi;text-align:center;letter-spacing:0px;word-spacing:0px;text-anchor:middle;fill:#000000;fill-opacity:1;stroke:none"
       xml:space="preserve"><tspan
         id="tspan888"
         y="2753.425"
         x="1482.9749"
         sodipodi:role="line"
         style="font-size:45px;text-align:start;text-anchor:start;fill:#ffffff">Il y a une petite ouverture juste </tspan><tspan
         id="tspan906"
         y="2809.675"
         x="1482.9749"
         sodipodi:role="line"
         style="font-size:45px;text-align:start;text-anchor:start;fill:#ffffff">assez large pour qu'on </tspan><tspan
         id="tspan908"
         y="2865.925"
         x="1482.9749"
         sodipodi:role="line"
         style="font-size:45px;text-align:start;text-anchor:start;fill:#ffffff">puisse s'y faufiler ...</tspan></text>
    <text
       id="text4246-3-2-2-3-5-9-7-3-3"
       y="3144.7742"
       x="2363.408"
       style="font-style:normal;font-variant:normal;font-weight:normal;font-stretch:normal;font-size:43.9294px;line-height:1.25;font-family:Lavi;-inkscape-font-specification:Lavi;text-align:center;letter-spacing:0px;word-spacing:0px;text-anchor:middle;fill:#000000;fill-opacity:1;stroke:none;stroke-width:1.25015"
       xml:space="preserve"
       transform="scale(0.97620919,1.0243706)"><tspan
         id="tspan895"
         y="3144.7742"
         x="2363.408"
         sodipodi:role="line"
         style="font-size:43.9294px;text-align:end;text-anchor:end;fill:#ffffff;stroke-width:1.25015">... mais ce dragon ne pourra pas s'arrêter</tspan><tspan
         id="tspan898"
         y="3199.686"
         x="2363.408"
         sodipodi:role="line"
         style="font-size:43.9294px;text-align:end;text-anchor:end;fill:#ffffff;stroke-width:1.25015">à temps et va se prendre le mur à </tspan><tspan
         id="tspan927"
         y="3254.5977"
         x="2363.408"
         sodipodi:role="line"
         style="font-size:43.9294px;text-align:end;text-anchor:end;fill:#ffffff;stroke-width:1.25015">pleine vitesse ! Mouhahaha !</tspan></text>
  </g>
</svg>
