<?xml version="1.0" encoding="UTF-8" standalone="no"?>
<!-- Created with Inkscape (http://www.inkscape.org/) -->

<svg
   xmlns:dc="http://purl.org/dc/elements/1.1/"
   xmlns:cc="http://creativecommons.org/ns#"
   xmlns:rdf="http://www.w3.org/1999/02/22-rdf-syntax-ns#"
   xmlns:svg="http://www.w3.org/2000/svg"
   xmlns="http://www.w3.org/2000/svg"
   xmlns:xlink="http://www.w3.org/1999/xlink"
   xmlns:sodipodi="http://sodipodi.sourceforge.net/DTD/sodipodi-0.dtd"
   xmlns:inkscape="http://www.inkscape.org/namespaces/inkscape"
   id="svg2"
   version="1.1"
   inkscape:version="0.92.3 (2405546, 2018-03-11)"
   width="2481"
   height="3503"
   sodipodi:docname="E21P02.svg">
  <sodipodi:namedview
     pagecolor="#ffffff"
     bordercolor="#666666"
     inkscape:pageopacity="0"
     inkscape:pageshadow="2"
     inkscape:window-width="1920"
     inkscape:window-height="1022"
     id="namedview70"
     showgrid="false"
     inkscape:zoom="0.56568542"
     inkscape:cx="1120.4097"
     inkscape:cy="2051.3032"
     inkscape:current-layer="layer1"
     inkscape:window-x="0"
     inkscape:window-y="0"
     inkscape:window-maximized="1" />
  <metadata
     id="metadata8">
    <rdf:RDF>
      <cc:Work
         rdf:about="">
        <dc:format>image/svg+xml</dc:format>
        <dc:type
           rdf:resource="http://purl.org/dc/dcmitype/StillImage" />
        <dc:title />
      </cc:Work>
    </rdf:RDF>
  </metadata>
  <defs
     id="defs6">
    <filter
       style="color-interpolation-filters:sRGB"
       id="filter4375-4-1-1-1-9"
       inkscape:label="deevad outline effect">
      <feFlood
         id="feFlood4377-7-9-0-8-1"
         flood-opacity="1"
         flood-color="rgb(0,0,0)"
         result="flood" />
      <feComposite
         id="feComposite4379-3-8-8-2-77"
         in2="SourceGraphic"
         in="flood"
         operator="in"
         result="composite1" />
      <feMorphology
         id="feMorphology4393-1-0-49-8-9"
         operator="dilate"
         radius="4"
         result="result3" />
      <feComposite
         id="feComposite4385-9-5-7-0-8"
         in2="result3"
         in="SourceGraphic"
         operator="over"
         result="composite2" />
    </filter>
    <filter
       inkscape:collect="always"
       style="color-interpolation-filters:sRGB"
       id="filter4210"
       x="-0.0015578248"
       width="1.0031157"
       y="-0.0045528179"
       height="1.0091056">
      <feGaussianBlur
         inkscape:collect="always"
         stdDeviation="0.2079876"
         id="feGaussianBlur4212" />
    </filter>
    <filter
       inkscape:collect="always"
       style="color-interpolation-filters:sRGB"
       id="filter4218"
       x="-0.0015404148"
       width="1.0030808"
       y="-0.0047074384"
       height="1.0094149">
      <feGaussianBlur
         inkscape:collect="always"
         stdDeviation="0.19873465"
         id="feGaussianBlur4220" />
    </filter>
    <filter
       inkscape:collect="always"
       style="color-interpolation-filters:sRGB"
       id="filter4202"
       x="-0.0016505915"
       width="1.0033011"
       y="-0.0039833132"
       height="1.0079666">
      <feGaussianBlur
         inkscape:collect="always"
         stdDeviation="0.11736083"
         id="feGaussianBlur4204" />
    </filter>
    <filter
       inkscape:collect="always"
       style="color-interpolation-filters:sRGB"
       id="filter4202-2"
       x="-0.0016505915"
       width="1.0033011"
       y="-0.0039833132"
       height="1.0079666">
      <feGaussianBlur
         inkscape:collect="always"
         stdDeviation="0.11736083"
         id="feGaussianBlur4204-9" />
    </filter>
    <filter
       inkscape:collect="always"
       style="color-interpolation-filters:sRGB"
       id="filter4325"
       x="-0.003899595"
       width="1.0077991"
       y="-0.012803033"
       height="1.0256062">
      <feGaussianBlur
         inkscape:collect="always"
         stdDeviation="0.3730953"
         id="feGaussianBlur4327" />
    </filter>
    <filter
       inkscape:collect="always"
       style="color-interpolation-filters:sRGB"
       id="filter4369"
       x="-0.0062486199"
       width="1.0124972"
       y="-0.023161722"
       height="1.0463234">
      <feGaussianBlur
         inkscape:collect="always"
         stdDeviation="0.69985892"
         id="feGaussianBlur4371" />
    </filter>
    <filter
       inkscape:collect="always"
       style="color-interpolation-filters:sRGB"
       id="filter4369-7"
       x="-0.0062486199"
       width="1.0124972"
       y="-0.023161722"
       height="1.0463234">
      <feGaussianBlur
         inkscape:collect="always"
         stdDeviation="0.69985892"
         id="feGaussianBlur4371-9" />
    </filter>
  </defs>
  <sodipodi:namedview
     pagecolor="#ffffff"
     bordercolor="#666666"
     borderopacity="1"
     objecttolerance="10"
     gridtolerance="10"
     guidetolerance="10"
     inkscape:pageopacity="0"
     inkscape:pageshadow="2"
     inkscape:window-width="1920"
     inkscape:window-height="1025"
     id="namedview4"
     showgrid="false"
     inkscape:zoom="1.1172693"
     inkscape:cx="1252.2428"
     inkscape:cy="2693.0536"
     inkscape:window-x="0"
     inkscape:window-y="26"
     inkscape:window-maximized="1"
     inkscape:current-layer="layer1" />
  <g
     inkscape:groupmode="layer"
     id="layer2"
     inkscape:label="artwork"
     sodipodi:insensitive="true">
    <image
       xlink:href="../gfx_Pepper-and-Carrot_by-David-Revoy_E21P02.png"
       width="2481"
       height="3503"
       id="image10"
       x="0"
       y="0" />
  </g>
  <g
     inkscape:groupmode="layer"
     id="layer3"
     inkscape:label="speechbubbles"
     style="display:inline">
    <path
       style="color:#000000;display:inline;overflow:visible;visibility:visible;fill:#ffffff;fill-opacity:1;fill-rule:nonzero;stroke:none;stroke-width:1.12658453px;marker:none;enable-background:accumulate"
       d="m 111.86285,540.73446 c 12.10806,-61.06596 68.65215,-96.47634 324.284,-85.94581 136.93021,5.64069 337.6247,-0.51559 321.48067,88.93582 -16.14417,89.4513 -261.32607,81.5779 -307.74047,83.84075 -46.41439,2.26293 -265.61869,0.18922 -305.73585,-30.06958 -25.1124,-18.94119 -34.30634,-37.85516 -32.28835,-56.76118 z"
       id="path4546-6"
       inkscape:connector-curvature="0"
       sodipodi:nodetypes="cssssc" />
    <path
       style="color:#000000;display:inline;overflow:visible;visibility:visible;fill:#ffffff;fill-opacity:1;fill-rule:nonzero;stroke:none;stroke-width:1.26096284px;marker:none;enable-background:accumulate"
       d="m 132.68525,899.63999 c 7.39943,-51.69056 41.37195,-95.92185 97.99874,-105.62143 56.62672,-9.69967 542.52716,-5.68138 578.64593,6.11492 36.11866,11.7965 101.08274,18.11247 87.36658,106.54903 -15.43905,99.54509 -69.71261,111.09429 -154.38738,114.73389 -67.62631,2.9069 -504.83858,13.6115 -551.45999,-21.63197 -26.08161,-19.71626 -58.18544,-42.31265 -58.16388,-100.14444 z"
       id="path4010"
       inkscape:connector-curvature="0"
       sodipodi:nodetypes="csssssc" />
    <path
       style="color:#000000;display:inline;overflow:visible;visibility:visible;fill:#ffffff;fill-opacity:1;fill-rule:nonzero;stroke:none;stroke-width:1px;marker:none;enable-background:accumulate"
       d="m 708.28728,324.66682 c -17.80302,-2.67292 -29.44884,-2.78409 -47.16698,2.02614 -5.00825,1.47381 -10.08814,3.34728 -14.32577,6.39934 -3.69997,4.15642 -3.59037,10.33514 -1.29957,15.14622 2.82169,7.17956 8.76937,13.55058 8.49474,21.65616 -0.3429,5.89548 -5.65216,9.33006 -9.84801,12.60191 -10.85858,8.12974 -22.88187,14.83631 -32.3875,24.65688 -11.42122,10.36094 -22.68704,22.09158 -27.50316,37.10006 -1.80609,5.97046 -2.86049,12.46873 -0.93358,18.54832 4.23596,15.82051 17.61171,29.44221 33.99141,32.24046 10.61786,0.79327 21.63745,-7.82582 21.71957,-18.81268 0.13014,-5.79897 -3.67523,-10.74961 -8.17826,-13.98082 -7.16767,-7.4865 -9.54283,-18.69535 -7.02055,-28.6264 1.9475,-8.22998 6.45887,-15.76324 12.48174,-21.66268 6.07198,-10.1853 17.74223,-14.32617 27.37733,-20.2179 4.36179,-2.75728 8.81469,-5.98576 11.38712,-10.53486 2.12502,-7.35941 -2.27973,-14.38799 -6.69225,-19.90395 -4.40425,-5.80612 -10.16904,-12.0434 -9.41757,-19.89494 -0.21215,-5.51878 6.17387,-6.74567 9.97179,-9.0346 10.38423,-5.22283 20.05102,-6.98163 39.3495,-7.70666 z"
       id="path4496"
       inkscape:connector-curvature="0"
       sodipodi:nodetypes="cccccccccccccccccccc" />
    <path
       style="color:#000000;display:inline;overflow:visible;visibility:visible;fill:#ffffff;fill-opacity:1;fill-rule:nonzero;stroke:none;stroke-width:1px;marker:none;enable-background:accumulate"
       d="m 1119.5437,840.64097 c -113.8785,125.0678 -279.41233,101.54529 -356.99074,52.03846 -77.57834,-49.50677 -21.03459,-49.26335 -21.03459,-49.26335 l 31.24176,8.1154 c -28.183,-7.45936 130.87131,147.10952 346.78357,-10.89051 z"
       id="path3541"
       inkscape:connector-curvature="0"
       sodipodi:nodetypes="csccc" />
    <path
       style="color:#000000;display:inline;overflow:visible;visibility:visible;fill:#ffffff;fill-opacity:1;fill-rule:nonzero;stroke:none;stroke-width:1.0843389px;marker:none;enable-background:accumulate"
       d="m 906.22845,1975.027 c 10.16791,-51.3235 95.45165,-87.1131 310.12185,-72.5608 114.9889,7.7949 245.7248,14.1582 232.1677,89.3737 -13.5574,75.2156 -219.0856,77.124 -258.0626,78.0089 -38.9772,0.885 -230.88991,-3.4963 -264.57874,-29.9478 -21.08859,-16.5581 -21.34287,-48.9459 -19.64821,-64.874 z"
       id="path4546-6-6"
       inkscape:connector-curvature="0"
       sodipodi:nodetypes="cssssc" />
    <path
       style="color:#000000;display:inline;overflow:visible;visibility:visible;fill:#ffffff;fill-opacity:1;fill-rule:nonzero;stroke:none;stroke-width:1px;marker:none;enable-background:accumulate"
       d="m 1208.9581,1827.3548 c -51.8093,6.6291 -63.1327,26.4049 -72.7535,39.757 3.2832,4.0843 7.7777,12.4211 7.7777,12.4211 0,0 -21.2954,24.4542 -26.3512,36.4684 -5.0561,12.014 13.5408,18.2582 13.5408,18.2582 0,0 28.706,-45.6159 40.7672,-52.8813 -9.4456,-10.8353 -10.9712,-13.8404 -15.9223,-16.3387 2.967,-9.4271 34.7001,-34.7514 52.9413,-37.6847 z"
       id="path4456"
       inkscape:connector-curvature="0"
       sodipodi:nodetypes="cccscccc" />
    <path
       style="fill:#ffffff;fill-rule:evenodd;stroke:none;stroke-width:1.19246292"
       d="m 1023.8186,2039.2351 c 36.7428,16.8002 37.5473,27.0815 0.8783,30.5655 36.8312,8.5327 29.0269,13.8009 10.8118,18.3075 47.9143,43.2361 35.1328,69.9222 20.9237,96.2189 50.3718,-11.3182 52.7843,12.2633 65.6998,28.2018 10.866,-31.1032 16.6408,-10.9152 20.9954,23.5848 11.0398,-40.2374 18.9559,-43.2964 24.0234,-12.4523 10.6176,-25.3858 24.5902,-34.94 42.419,-26.2963 33.3166,-23.2 46.2201,9.7363 65.7213,24.5285 8.0197,-26.6079 23.3322,-27.1137 40.9698,-19.2975 8.5025,-11.1561 15.061,-27.5003 36.9992,-2.8062 5.4533,-21.9903 16.4378,-6.1385 25.7228,-1.916 -11.1959,-12.7374 8.634,-15.8995 64.15,-8.0474 -21.4077,-6.9579 -19.5831,-15.5653 9.6622,-26.1197 -32.1679,-12.2257 -31.6075,-25.8511 -13.8536,-40.2116 -36.5889,-22.6439 0.809,-43.0935 19.7458,-64.0906 -37.7047,9.4605 -67.6689,8.6448 -73.8268,-23.7739 -57.4564,24.1373 -48.6998,10.4938 -42.9619,-1.4274 -35.9405,29.6732 -33.3458,3.0771 -42.2263,-6.7632 -97.6949,35.6354 -93.3776,-2.4711 -112.9252,-23.3263 -8.9514,43.5947 -28.9579,26.4391 -49.0108,9.0323 -0.093,36.9635 -12.1946,26.0441 -24.0446,16.1257 -1.9184,15.9211 -14.0211,20.4016 -39.8556,9.4568 18.3213,13.3257 6.7665,15.4187 -50.0177,0.5066 z"
       id="path4289"
       inkscape:connector-curvature="0"
       sodipodi:nodetypes="cccccccccccccccccccccccc" />
    <path
       style="color:#000000;display:inline;overflow:visible;visibility:visible;fill:#ffffff;fill-opacity:1;fill-rule:nonzero;stroke:none;stroke-width:1.06492949px;marker:none;enable-background:accumulate"
       d="m 1243.6307,2219.8779 c 6.4292,-38.7518 60.355,-65.7747 196.0934,-54.7871 72.7086,5.8856 155.3743,10.6903 146.802,67.4816 -8.5724,56.7914 -138.5301,58.2324 -163.1758,58.9005 -24.6455,0.6683 -145.9941,-2.6398 -167.296,-22.612 -13.3345,-12.5021 -13.4952,-36.9565 -12.4236,-48.983 z"
       id="path4546-6-6-7"
       inkscape:connector-curvature="0"
       sodipodi:nodetypes="cssssc" />
    <path
       style="display:inline;fill:#ffffff;fill-opacity:1;stroke:none"
       d="m 1935.6939,2123.6849 c -2.2769,-23.3922 12.8251,-35.0287 26.5755,-40.541 17.4266,-6.9861 143.1405,-14.7723 158.3105,4.8085 13.9712,18.0333 23.8975,51.1875 -17.8203,67.5649 -41.718,16.3773 -111.3422,7.4067 -123.194,4.429 -11.8516,-2.9777 -41.5014,-10.951 -43.8717,-36.2614 z"
       id="path3659-8"
       inkscape:connector-curvature="0"
       sodipodi:nodetypes="cssssc" />
    <path
       style="color:#000000;display:inline;overflow:visible;visibility:visible;fill:#ffffff;fill-opacity:1;fill-rule:nonzero;stroke:none;stroke-width:1px;marker:none;enable-background:accumulate"
       d="m 1982.1675,2095.4596 c 0.3856,-31.752 -21.3304,-64.1917 -32.5323,-69.3608 -11.2018,-5.1692 49.8903,6.7173 65.5334,65.5673 15.6432,58.8498 -25.2443,31.1505 -25.2443,31.1505 z"
       id="path4035"
       inkscape:connector-curvature="0" />
  </g>
  <g
     inkscape:groupmode="layer"
     id="layer1"
     inkscape:label="txt"
     style="display:inline">
    <text
       xml:space="preserve"
       style="font-style:normal;font-variant:normal;font-weight:normal;font-stretch:normal;line-height:0%;font-family:Lavi;-inkscape-font-specification:Lavi;text-align:center;letter-spacing:0px;word-spacing:0px;text-anchor:middle;fill:#000000;fill-opacity:1;stroke:none"
       x="436.55872"
       y="532.13129"
       id="text4246-2"><tspan
         sodipodi:role="line"
         style="font-size:45px;line-height:1.25"
         x="443.58997"
         y="532.13129"
         id="tspan4035">A bheil sibh fhathast cinnteach </tspan><tspan
         sodipodi:role="line"
         style="font-size:45px;line-height:1.25"
         x="436.55872"
         y="588.38129"
         id="tspan86">nach dig sibh còmhla rinn?</tspan></text>
    <text
       xml:space="preserve"
       style="font-style:normal;font-variant:normal;font-weight:normal;font-stretch:normal;line-height:0%;font-family:Lavi;-inkscape-font-specification:Lavi;text-align:center;letter-spacing:0px;word-spacing:0px;text-anchor:middle;fill:#000000;fill-opacity:1;stroke:none"
       x="518.17505"
       y="863.32983"
       id="text4246-2-3"><tspan
         sodipodi:role="line"
         style="font-size:45px;line-height:1.25"
         x="525.2063"
         y="863.32983"
         id="tspan97">Tha. ’S e draoidheachd a bhios sinn </tspan><tspan
         sodipodi:role="line"
         style="font-size:45px;line-height:1.25"
         x="525.2063"
         y="919.57983"
         id="tspan93">ris san Dubh-choimeasgachd seach </tspan><tspan
         sodipodi:role="line"
         style="font-size:45px;line-height:1.25"
         x="518.17505"
         y="975.82983"
         id="tspan95">faoin-chleasan dhan mhòr-shluagh.</tspan></text>
    <text
       xml:space="preserve"
       style="font-style:normal;font-variant:normal;font-weight:normal;font-stretch:normal;line-height:0%;font-family:Lavi;-inkscape-font-specification:Lavi;text-align:center;letter-spacing:0px;word-spacing:0px;text-anchor:middle;display:inline;opacity:0.6;fill:#000000;fill-opacity:1;stroke:none;filter:url(#filter4210)"
       x="1174.0292"
       y="1085.962"
       id="text4246-5"
       transform="matrix(0.79018686,-0.23116915,0.17282783,0.90259008,261.56407,98.697385)"><tspan
         sodipodi:role="line"
         style="font-style:normal;font-variant:normal;font-weight:normal;font-stretch:normal;font-size:41.43936157px;line-height:1.25;font-family:Fondamento;-inkscape-font-specification:Fondamento;stroke:#000000;stroke-width:3.39352751;stroke-miterlimit:4;stroke-dasharray:none;stroke-opacity:1"
         x="1174.0292"
         y="1085.962"
         id="tspan4209">A<tspan
   style="font-size:33.79992168px"
   id="tspan89">M</tspan> P<tspan
   style="font-size:33.79992168px"
   id="tspan91">ÀIPEAR</tspan> M<tspan
   style="font-size:33.79992168px"
   id="tspan94">ÒR</tspan></tspan></text>
    <text
       xml:space="preserve"
       style="font-style:normal;font-variant:normal;font-weight:normal;font-stretch:normal;line-height:0%;font-family:Lavi;-inkscape-font-specification:Lavi;text-align:center;letter-spacing:0px;word-spacing:0px;text-anchor:middle;display:inline;opacity:0.6;fill:#000000;fill-opacity:1;stroke:#000000;stroke-width:0.70955449;stroke-miterlimit:4;stroke-dasharray:none;stroke-opacity:1;filter:url(#filter4218)"
       x="1294.5164"
       y="1174.9954"
       id="text4246-5-1"
       transform="matrix(0.90128293,-0.29766095,0.18223745,1.0493431,2.2077183e-5,6.5627487e-5)"><tspan
         sodipodi:role="line"
         style="font-style:normal;font-variant:normal;font-weight:normal;font-stretch:normal;font-size:15.4427948px;line-height:1.25;font-family:Fondamento;-inkscape-font-specification:Fondamento;stroke:#000000;stroke-width:0.70955449;stroke-miterlimit:4;stroke-dasharray:none;stroke-opacity:1"
         x="1296.4015"
         y="1174.9954"
         id="tspan4222">THA DEAS-GHNÀTH FOSGLAIDH AIR </tspan><tspan
         sodipodi:role="line"
         style="font-style:normal;font-variant:normal;font-weight:normal;font-stretch:normal;font-size:15.4427948px;line-height:1.25;font-family:Fondamento;-inkscape-font-specification:Fondamento;stroke:#000000;stroke-width:0.70955449;stroke-miterlimit:4;stroke-dasharray:none;stroke-opacity:1"
         x="1294.5164"
         y="1194.2988"
         id="tspan107">RAON-SPÒRS ÙR CHOMONA AN-DIUGH</tspan></text>
    <text
       xml:space="preserve"
       style="font-style:normal;font-variant:normal;font-weight:normal;font-stretch:normal;line-height:0%;font-family:Lavi;-inkscape-font-specification:Lavi;text-align:start;letter-spacing:0px;word-spacing:0px;text-anchor:start;display:inline;opacity:0.6;fill:#000000;fill-opacity:1;stroke:#000000;stroke-width:0.49537376;stroke-miterlimit:4;stroke-dasharray:none;stroke-opacity:1;filter:url(#filter4202)"
       x="1131.04"
       y="1300.7131"
       id="text4246-5-1-3"
       transform="matrix(0.90128293,-0.29766095,0.18223745,1.0493431,-9.0738366,-34.818915)"><tspan
         sodipodi:role="line"
         style="font-style:normal;font-variant:normal;font-weight:normal;font-stretch:normal;font-size:10.78135014px;line-height:1.25;font-family:Fondamento;-inkscape-font-specification:Fondamento;text-align:start;text-anchor:start;stroke:#000000;stroke-width:0.49537376;stroke-miterlimit:4;stroke-dasharray:none;stroke-opacity:1"
         x="1131.04"
         y="1300.7131"
         id="tspan4048">THA DRAGH AIR LUCHD-</tspan><tspan
         sodipodi:role="line"
         style="font-style:normal;font-variant:normal;font-weight:normal;font-stretch:normal;font-size:10.78135014px;line-height:1.25;font-family:Fondamento;-inkscape-font-specification:Fondamento;text-align:start;text-anchor:start;stroke:#000000;stroke-width:0.49537376;stroke-miterlimit:4;stroke-dasharray:none;stroke-opacity:1"
         x="1131.04"
         y="1314.1898"
         id="tspan115">CÒMHNAIDH MU CHÌSEAN</tspan></text>
    <text
       xml:space="preserve"
       style="font-style:normal;font-variant:normal;font-weight:normal;font-stretch:normal;line-height:0%;font-family:Fondamento;-inkscape-font-specification:'Fondamento, Normal';text-align:start;letter-spacing:0px;word-spacing:0px;writing-mode:lr-tb;text-anchor:start;display:inline;opacity:0.6;fill:#000000;fill-opacity:1;stroke:#000000;stroke-width:0.49537376;stroke-miterlimit:4;stroke-dasharray:none;stroke-opacity:1;filter:url(#filter4202-2)"
       x="1131.04"
       y="1300.7131"
       id="text4246-5-1-3-1"
       transform="matrix(0.81172816,-0.30643117,0.16412967,0.92516231,127.86236,215.40246)"><tspan
         sodipodi:role="line"
         x="1131.04"
         y="1300.7131"
         style="font-size:10.78128147px;line-height:1.25"
         id="tspan119">CHAN EIL TICEAD AIR FHÀGAIL: ’S </tspan><tspan
         sodipodi:role="line"
         x="1131.04"
         y="1314.1897"
         style="font-size:10.78128147px;line-height:1.25"
         id="tspan123">CINNTEACH GUN SOIRBHICH LEIS! </tspan></text>
    <text
       xml:space="preserve"
       style="font-style:normal;font-variant:normal;font-weight:normal;font-stretch:normal;line-height:0%;font-family:Lavi;-inkscape-font-specification:Lavi;text-align:start;letter-spacing:0px;word-spacing:0px;text-anchor:start;display:inline;opacity:0.6;fill:#000000;fill-opacity:1;stroke:#000000;stroke-width:0.49537376;stroke-miterlimit:4;stroke-dasharray:none;stroke-opacity:1;filter:url(#filter4325)"
       x="1131.04"
       y="1300.7131"
       id="text4246-5-1-3-6"
       transform="matrix(0.7407423,0.32265096,0.201955,1.3268708,-207.87775,-1379.971)"><tspan
         sodipodi:role="line"
         style="font-style:normal;font-variant:normal;font-weight:normal;font-stretch:normal;font-size:10.78135014px;line-height:1.25;font-family:Fondamento;-inkscape-font-specification:Fondamento;text-align:start;text-anchor:start;stroke:#000000;stroke-width:0.49537376;stroke-miterlimit:4;stroke-dasharray:none;stroke-opacity:1"
         x="1131.04"
         y="1300.7131"
         id="tspan4196-6">AN-SHOCAIR PHOILITIGEACH ANN AN TÌR AN ACHD</tspan></text>
    <text
       xml:space="preserve"
       style="font-style:normal;font-variant:normal;font-weight:normal;font-stretch:normal;line-height:0%;font-family:Lavi;-inkscape-font-specification:Lavi;text-align:start;letter-spacing:0px;word-spacing:0px;text-anchor:start;display:inline;opacity:0.6;fill:#000000;fill-opacity:1;stroke:#000000;stroke-width:0.49537376;stroke-miterlimit:4;stroke-dasharray:none;stroke-opacity:1;filter:url(#filter4369)"
       x="1131.04"
       y="1300.7131"
       id="text4246-5-1-3-6-1"
       transform="matrix(0.7407423,0.2965061,0.201955,1.3197427,-165.60175,-1090.8437)"><tspan
         sodipodi:role="line"
         style="font-style:normal;font-variant:normal;font-weight:normal;font-stretch:normal;font-size:10.78135014px;line-height:1.25;font-family:Fondamento;-inkscape-font-specification:Fondamento;text-align:start;text-anchor:start;stroke:#000000;stroke-width:0.49537376;stroke-miterlimit:4;stroke-dasharray:none;stroke-opacity:1"
         x="1131.04"
         y="1300.7131"
         id="tspan4196-6-8">THA 80% DHE NA SGÌREAN FO BHUAIDH AIRGEADRA ACHD</tspan></text>
    <text
       xml:space="preserve"
       style="font-style:normal;font-variant:normal;font-weight:normal;font-stretch:normal;line-height:0%;font-family:Lavi;-inkscape-font-specification:Lavi;text-align:start;letter-spacing:0px;word-spacing:0px;text-anchor:start;display:inline;opacity:0.6;fill:#000000;fill-opacity:1;stroke:#000000;stroke-width:0.49537376;stroke-miterlimit:4;stroke-dasharray:none;stroke-opacity:1;filter:url(#filter4369-7)"
       x="1131.04"
       y="1300.7131"
       id="text4246-5-1-3-6-1-2"
       transform="matrix(0.45709154,0.19808295,0.12462083,0.91251868,299.48835,-366.52798)"><tspan
         sodipodi:role="line"
         style="font-style:normal;font-variant:normal;font-weight:normal;font-stretch:normal;font-size:10.78135014px;line-height:1.25;font-family:Fondamento;-inkscape-font-specification:Fondamento;text-align:start;text-anchor:start;stroke:#000000;stroke-width:0.49537376;stroke-miterlimit:4;stroke-dasharray:none;stroke-opacity:1"
         x="1131.04"
         y="1300.7131"
         id="tspan4196-6-8-0">THA DEAGH LÈIRSINN AGAD </tspan></text>
    <text
       xml:space="preserve"
       style="font-style:normal;font-variant:normal;font-weight:normal;font-stretch:normal;line-height:0%;font-family:Lavi;-inkscape-font-specification:Lavi;text-align:center;letter-spacing:0px;word-spacing:0px;text-anchor:middle;fill:#000000;fill-opacity:1;stroke:none"
       x="1165.7324"
       y="1971.7659"
       id="text4246-2-3-1"><tspan
         sodipodi:role="line"
         style="font-size:45px;line-height:1.25"
         x="1172.7637"
         y="1971.7659"
         id="tspan4064">Mòran taing gum faod </tspan><tspan
         sodipodi:role="line"
         style="font-size:45px;line-height:1.25"
         x="1165.7324"
         y="2028.0159"
         id="tspan127">mi pàirt a ghabhail ann!</tspan></text>
    <text
       xml:space="preserve"
       style="font-style:normal;font-variant:normal;font-weight:normal;font-stretch:normal;line-height:0%;font-family:Lavi;-inkscape-font-specification:Lavi;text-align:center;letter-spacing:0px;word-spacing:0px;text-anchor:middle;fill:#000000;fill-opacity:1;stroke:none"
       x="1241.5112"
       y="2094.4216"
       id="text4246-2-3-1-0"><tspan
         sodipodi:role="line"
         style="font-size:45px;line-height:1.25;stroke:#000000;stroke-width:1.20000005;stroke-miterlimit:4;stroke-dasharray:none;stroke-opacity:1"
         x="1248.5425"
         y="2094.4216"
         id="tspan4452">Guidheam gum </tspan><tspan
         sodipodi:role="line"
         style="font-size:45px;line-height:1.25;stroke:#000000;stroke-width:1.20000005;stroke-miterlimit:4;stroke-dasharray:none;stroke-opacity:1"
         x="1241.5112"
         y="2150.6716"
         id="tspan131">buannaich mi e!</tspan></text>
    <text
       xml:space="preserve"
       style="font-style:normal;font-variant:normal;font-weight:normal;font-stretch:normal;line-height:0%;font-family:Lavi;-inkscape-font-specification:'Lavi, Normal';text-align:center;letter-spacing:0px;word-spacing:0px;writing-mode:lr-tb;text-anchor:middle;fill:#000000;fill-opacity:1;stroke:none"
       x="1411.5112"
       y="2209.4883"
       id="text4246-2-3-1-5"><tspan
         sodipodi:role="line"
         x="1418.5425"
         y="2209.4883"
         id="tspan4066"
         style="font-size:45px;line-height:1.25">Chì mi air an </tspan><tspan
         sodipodi:role="line"
         x="1411.5112"
         y="2265.7383"
         style="font-size:45px;line-height:1.25"
         id="tspan135">fheasgar sibh!</tspan></text>
    <text
       xml:space="preserve"
       style="font-style:normal;font-variant:normal;font-weight:normal;font-stretch:normal;line-height:0%;font-family:Lavi;-inkscape-font-specification:Lavi;text-align:center;letter-spacing:0px;word-spacing:0px;text-anchor:middle;fill:#000000;fill-opacity:1;stroke:none"
       x="2038.8628"
       y="2122.2102"
       id="text4246-2-3-6"><tspan
         sodipodi:role="line"
         style="font-size:45px;line-height:1.25"
         x="2038.8628"
         y="2122.2102"
         id="tspan4187-2">...</tspan></text>
    <text
       xml:space="preserve"
       style="font-style:normal;font-variant:normal;font-weight:normal;font-stretch:normal;line-height:0%;font-family:Lavi;-inkscape-font-specification:Lavi;letter-spacing:0px;word-spacing:0px;fill:#000000;fill-opacity:1;stroke:#000000;stroke-width:0.99236238;stroke-miterlimit:4;stroke-dasharray:none;stroke-opacity:1;filter:url(#filter4375-4-1-1-1-9)"
       x="787.65729"
       y="1584.5073"
       id="text4580"
       transform="matrix(0.66983444,-0.42899526,0.00573176,0.82056131,1671.7153,441.03315)"><tspan
         sodipodi:role="line"
         id="tspan4582"
         x="787.65729"
         y="1584.5073"
         style="font-size:70px;line-height:1.25;fill:#ffffff"><tspan
           style="font-size:80.40014648px"
           id="tspan4617">splad!</tspan></tspan></text>
    <flowRoot
       xml:space="preserve"
       id="flowRoot4050"
       style="font-style:normal;font-variant:normal;font-weight:normal;font-stretch:normal;line-height:0.01%;font-family:sans-serif;-inkscape-font-specification:Clean;letter-spacing:0px;word-spacing:0px;fill:#000000;fill-opacity:1;stroke:none;stroke-width:1px;stroke-linecap:butt;stroke-linejoin:miter;stroke-opacity:1"><flowRegion
         id="flowRegion4052"
         style="font-family:sans-serif"><rect
           id="rect4054"
           width="1.5832587"
           height="22.165623"
           x="1378.2268"
           y="1077.4476"
           style="font-family:sans-serif" /></flowRegion><flowPara
         id="flowPara4056"
         style="font-size:6px;line-height:1.25;font-family:sans-serif"> </flowPara></flowRoot>  </g>
</svg>
