<?xml version="1.0" encoding="UTF-8" standalone="no"?>
<svg
   xmlns:dc="http://purl.org/dc/elements/1.1/"
   xmlns:cc="http://creativecommons.org/ns#"
   xmlns:rdf="http://www.w3.org/1999/02/22-rdf-syntax-ns#"
   xmlns:svg="http://www.w3.org/2000/svg"
   xmlns="http://www.w3.org/2000/svg"
   xmlns:xlink="http://www.w3.org/1999/xlink"
   xmlns:sodipodi="http://sodipodi.sourceforge.net/DTD/sodipodi-0.dtd"
   xmlns:inkscape="http://www.inkscape.org/namespaces/inkscape"
   id="svg2"
   version="1.1"
   inkscape:version="0.92.5 (2060ec1f9f, 2020-04-08)"
   width="2481"
   height="3503"
   sodipodi:docname="E34P09.svg">
  <metadata
     id="metadata8">
    <rdf:RDF>
      <cc:Work
         rdf:about="">
        <dc:format>image/svg+xml</dc:format>
        <dc:type
           rdf:resource="http://purl.org/dc/dcmitype/StillImage" />
        <dc:title />
      </cc:Work>
    </rdf:RDF>
  </metadata>
  <defs
     id="defs6">
    <filter
       style="color-interpolation-filters:sRGB"
       id="filter4375-4-1-1-1-9-5-8-8-5-5-3-3-3-0"
       inkscape:label="soundFX1">
      <feFlood
         id="feFlood4377-7-9-0-8-1-7-3-1-2-7-6-6-5-96"
         flood-opacity="1"
         flood-color="rgb(52,52,52)"
         result="flood" />
      <feComposite
         id="feComposite4379-3-8-8-2-77-4-1-0-6-4-7-7-6-3"
         in2="SourceGraphic"
         in="flood"
         operator="in"
         result="composite1"
         baseFrequency="0.053999999999999999 0.053999999999999999" />
      <feMorphology
         id="feMorphology4393-1-0-49-8-9-3-0-1-9-9-5-5-2-8"
         operator="dilate"
         radius="2.5856550817276021"
         result="result3" />
      <feComposite
         id="feComposite4385-9-5-7-0-8-8-7-5-4-9-3-3-9-5"
         in2="result3"
         in="SourceGraphic"
         operator="over"
         result="fbSourceGraphic" />
      <feColorMatrix
         result="fbSourceGraphicAlpha"
         in="fbSourceGraphic"
         values="0 0 0 -1 0 0 0 0 -1 0 0 0 0 -1 0 0 0 0 1 0"
         id="feColorMatrix4544-9-4-4-5-5-1-6" />
      <feTurbulence
         id="feTurbulence4546-3-6-5-6-6-2-1"
         type="fractalNoise"
         numOctaves="4"
         seed="147"
         baseFrequency="0.046080819231719368"
         result="turbulence" />
      <feDisplacementMap
         id="feDisplacementMap4548-8-0-9-2-2-7-1"
         in2="turbulence"
         in="fbSourceGraphic"
         scale="13.20326"
         yChannelSelector="G"
         xChannelSelector="R"
         result="fbSourceGraphic" />
      <feColorMatrix
         result="fbSourceGraphicAlpha"
         in="fbSourceGraphic"
         values="0 0 0 -1 0 0 0 0 -1 0 0 0 0 -1 0 0 0 0 1 0"
         id="feColorMatrix4670-7-7-3-9-9-0-5" />
      <feFlood
         id="feFlood4672-4-4-5-1-1-9-9"
         flood-opacity="1"
         flood-color="rgb(28,28,28)"
         result="flood"
         in="fbSourceGraphic" />
      <feComposite
         id="feComposite4674-8-3-7-2-2-3-8"
         in2="fbSourceGraphic"
         in="flood"
         operator="in"
         result="composite1" />
      <feGaussianBlur
         id="feGaussianBlur4676-3-7-08-7-7-6-4"
         in="composite1"
         stdDeviation="0"
         result="blur" />
      <feOffset
         id="feOffset4678-6-9-1-0-0-0-8"
         dx="-8.3919392296330813"
         dy="1.5526614972014983"
         result="offset" />
      <feComposite
         id="feComposite4680-4-0-9-9-9-6-1"
         in2="offset"
         in="fbSourceGraphic"
         operator="over"
         result="composite2" />
    </filter>
    <filter
       style="color-interpolation-filters:sRGB"
       id="filter4375-4-1-1-1-9-5-8-8-5-5-3-3-3-0-6"
       inkscape:label="soundFX1">
      <feFlood
         id="feFlood4377-7-9-0-8-1-7-3-1-2-7-6-6-5-96-3"
         flood-opacity="1"
         flood-color="rgb(52,52,52)"
         result="flood" />
      <feComposite
         id="feComposite4379-3-8-8-2-77-4-1-0-6-4-7-7-6-3-2"
         in2="SourceGraphic"
         in="flood"
         operator="in"
         result="composite1"
         baseFrequency="0.053999999999999999 0.053999999999999999" />
      <feMorphology
         id="feMorphology4393-1-0-49-8-9-3-0-1-9-9-5-5-2-8-0"
         operator="dilate"
         radius="2.5856550817276021"
         result="result3" />
      <feComposite
         id="feComposite4385-9-5-7-0-8-8-7-5-4-9-3-3-9-5-6"
         in2="result3"
         in="SourceGraphic"
         operator="over"
         result="fbSourceGraphic" />
      <feColorMatrix
         result="fbSourceGraphicAlpha"
         in="fbSourceGraphic"
         values="0 0 0 -1 0 0 0 0 -1 0 0 0 0 -1 0 0 0 0 1 0"
         id="feColorMatrix4544-9-4-4-5-5-1-6-1" />
      <feTurbulence
         id="feTurbulence4546-3-6-5-6-6-2-1-5"
         type="fractalNoise"
         numOctaves="4"
         seed="147"
         baseFrequency="0.046080819231719368"
         result="turbulence" />
      <feDisplacementMap
         id="feDisplacementMap4548-8-0-9-2-2-7-1-5"
         in2="turbulence"
         in="fbSourceGraphic"
         scale="13.20326"
         yChannelSelector="G"
         xChannelSelector="R"
         result="fbSourceGraphic" />
      <feColorMatrix
         result="fbSourceGraphicAlpha"
         in="fbSourceGraphic"
         values="0 0 0 -1 0 0 0 0 -1 0 0 0 0 -1 0 0 0 0 1 0"
         id="feColorMatrix4670-7-7-3-9-9-0-5-4" />
      <feFlood
         id="feFlood4672-4-4-5-1-1-9-9-7"
         flood-opacity="1"
         flood-color="rgb(28,28,28)"
         result="flood"
         in="fbSourceGraphic" />
      <feComposite
         id="feComposite4674-8-3-7-2-2-3-8-6"
         in2="fbSourceGraphic"
         in="flood"
         operator="in"
         result="composite1" />
      <feGaussianBlur
         id="feGaussianBlur4676-3-7-08-7-7-6-4-5"
         in="composite1"
         stdDeviation="0"
         result="blur" />
      <feOffset
         id="feOffset4678-6-9-1-0-0-0-8-6"
         dx="-8.3919392296330813"
         dy="1.5526614972014983"
         result="offset" />
      <feComposite
         id="feComposite4680-4-0-9-9-9-6-1-9"
         in2="offset"
         in="fbSourceGraphic"
         operator="over"
         result="composite2" />
    </filter>
  </defs>
  <sodipodi:namedview
     pagecolor="#ffffff"
     bordercolor="#666666"
     borderopacity="1"
     objecttolerance="10"
     gridtolerance="10"
     guidetolerance="10"
     inkscape:pageopacity="0"
     inkscape:pageshadow="2"
     inkscape:window-width="1366"
     inkscape:window-height="704"
     id="namedview4"
     showgrid="false"
     inkscape:zoom="0.21508421"
     inkscape:cx="1420.0122"
     inkscape:cy="1635.7828"
     inkscape:window-x="0"
     inkscape:window-y="27"
     inkscape:window-maximized="1"
     inkscape:current-layer="layer1"
     inkscape:document-rotation="0"
     inkscape:snap-global="false"
     borderlayer="true" />
  <g
     inkscape:groupmode="layer"
     id="layer2"
     inkscape:label="artwork"
     sodipodi:insensitive="true">
    <image
       sodipodi:absref="/home/juanjo/Comics/lang-ep-34-final/es/../gfx_Pepper-and-Carrot_by-David-Revoy_E34P09.png"
       xlink:href="../gfx_Pepper-and-Carrot_by-David-Revoy_E34P09.png"
       y="0"
       x="0"
       id="image10"
       height="3503"
       width="2481" />
  </g>
  <g
     inkscape:groupmode="layer"
     id="layer3"
     inkscape:label="speechbubbles"
     style="display:inline">
    <path
       style="color:#000000;display:inline;overflow:visible;visibility:visible;fill:#ffffff;fill-opacity:1;fill-rule:nonzero;stroke:none;stroke-width:1.06937px;marker:none;enable-background:accumulate"
       d="m 1413.9252,2288.6897 c -21.0035,-5.3737 -81.566,-47.9371 -7.2888,-45.7139 -54.6661,-17.9093 -47.3991,-53.5519 -2.4758,-74.369 -58.9238,4.2548 -100.5769,0.6207 -70.2151,-36.1664 -79.2184,3.5955 -122.8044,10.2673 -109.8003,-28.5578 -40.1503,42.6369 -78.6617,34.6793 -88.5825,-15.1981 -6.9274,35.2294 -81.7002,33.1271 -167.99998,12.6992 8.30388,14.5849 88.47908,54.7735 -30.55105,45.7152 47.04927,26.0011 49.14048,39.3386 -30.92339,50.3382 40.80347,11.6971 66.82446,27.5422 3.23088,52.7159 41.20562,7.9508 106.39464,5.6199 27.23252,53.7673 52.19075,-22.7557 139.25082,-6.3139 101.72672,30.3911 102.2721,-41.2428 121.9423,-30.2458 137.385,-0.6941 38.0267,-43.2711 92.9821,-38.37 124.9467,-13.2168 -15.5391,-38.3461 66.3526,-31.727 113.3151,-31.7108 z"
       id="path3549-3-78-5"
       inkscape:connector-curvature="0"
       sodipodi:nodetypes="ccccccccccccccc" />
    <path
       style="color:#000000;display:inline;overflow:visible;visibility:visible;fill:#ffffff;fill-opacity:1;fill-rule:nonzero;stroke:none;stroke-width:1.53798px;marker:none;enable-background:accumulate"
       d="M 1165.125 2415.5957 C 1130.4961 2415.3971 1095.0603 2423.1298 1065.7591 2442.1634 C 1034.0314 2463.018 1012.4338 2496.9293 1002.3955 2533.1554 C 992.59617 2568.5592 994.46263 2607.4336 1009.3327 2641.1701 C 1016.1701 2656.2876 1027.4362 2668.8862 1039.3142 2680.254 C 1046.8855 2687.8765 1055.8402 2694.0208 1065.5476 2698.6 C 1080.001 2705.4324 1095.4478 2709.892 1110.918 2713.7598 C 1137.2367 2719.946 1164.6219 2721.6842 1191.4772 2718.4018 C 1210.0229 2716.3248 1228.6862 2712.8862 1245.8592 2705.3477 C 1267.2776 2695.5069 1285.9394 2680.4166 1301.9961 2663.3125 C 1312.5213 2651.8799 1320.8033 2638.3469 1325.6024 2623.5344 C 1336.6453 2590.7606 1334.1192 2554.4228 1322.3121 2522.2219 C 1312.2354 2494.3965 1294.7895 2469.0929 1271.4314 2450.7849 C 1248.3998 2432.4135 1220.2152 2420.7112 1190.9864 2417.1249 C 1182.4155 2416.0108 1173.7662 2415.5389 1165.125 2415.5957 z "
       id="path3365-3"
       inkscape:connector-curvature="0"
       sodipodi:nodetypes="cssccsc" />
    <path
       style="display:inline;fill:#ffffff;fill-rule:evenodd;stroke:none;stroke-width:1.17316px;stroke-linecap:butt;stroke-linejoin:miter;stroke-opacity:1"
       d="m 110.47937,2161.9777 c 27.00627,30.5566 28.99279,50.587 4.47805,37.845 23.21642,20.2958 17.7594,24.163 -1.09209,31.4045 45.00831,48.4469 29.82444,82.3498 13.22486,115.9106 52.03608,-18.6238 52.52287,10.0397 64.29871,28.3481 13.60837,-39.1345 17.78769,-14.9455 19.33622,26.9124 14.54455,-50.3409 22.82779,-54.8363 25.40414,-17.5261 12.88044,-32.1048 27.84821,-45.1294 45.21465,-36.2236 35.72406,-31.571 46.07455,7.5635 64.62603,23.8453 1.08945,-38.2468 16.00624,-49.3869 47.28538,-14.1128 0.97111,-23.1453 24.84543,-24.4555 47.956,6.6692 -30.8302,-62.3313 18.50508,-7.9801 26.25177,-4.7769 -14.8352,-32.1576 0.89979,-55.9178 65.74098,-15.9188 -21.13709,-6.5023 -32.88529,-44.2221 -2.34238,-59.9155 -31.61396,-11.9409 -29.91266,-28.6874 -10.70949,-47.9591 -35.23206,-24.2871 4.40354,-52.8742 25.3581,-80.3881 -39.03304,15.1516 -69.35953,16.982 -72.91076,-22.1549 -60.28877,34.9993 -50.27198,17.4563 -43.46053,2.3085 -38.92399,39.7495 -42.57911,6.2301 -42.27078,-4.298 -53.05088,44.1106 -94.51354,5.7912 -112.60806,-17.9142 -12.70445,54.2582 -31.57226,35.128 -50.46575,15.6952 12.16377,38.1297 -6.20677,36.5435 -25.73118,22.0288 6.62197,25.7578 -8.57577,49.7265 -41.21419,15.3504 11.342,17.4269 -7.45968,27.8555 -46.36968,-5.13 z"
       id="path4289-9"
       inkscape:connector-curvature="0"
       sodipodi:nodetypes="cccccccccccccccccccccccc" />
    <path
       style="fill:#ffffff;fill-rule:evenodd;stroke:none;stroke-width:1.67196453px;stroke-linecap:butt;stroke-linejoin:miter;stroke-opacity:1"
       d="m 948.57051,1281.9721 c 41.56335,91.7805 57.32919,84.7087 63.79039,41.9832 11.3569,15.4323 13.7745,60.6932 46.2709,5.5858 20.0652,40.023 36.2466,34.914 49.2459,-7.1739 34.8562,75.8538 56.11,32.0394 74.8141,15.1094 47.1988,42.4272 177.0117,48.8759 233.8355,-5.8369 12.0355,19.5051 24.8604,34.8489 48.9899,-1.9364 -2.3607,44.5449 29.1258,7.5009 55.8618,-49.2058 -3.4245,33.3537 -21.0062,90.2026 15.5058,57.2753 4.2274,23.8344 0.8875,55.3699 78.9846,4.0248 -22.7147,67.9175 43.0064,-1.2141 106.6898,-67.1871 -40.1341,57.5257 -94.967,128.2944 -26.4257,105.1684 -38.5343,48.1932 -35.0822,65.8771 74.3139,63.4999 -103.5417,24.8181 -128.9556,57.3228 -67.0629,123.2148 -44.7829,-31.0307 -109.0885,-35.2418 -53.8096,7.5461 -55.7037,-34.2663 -63.7287,-17.672 -43.9048,10.4041 -60.8171,-49.3277 -32.2172,-9.7825 -28.8447,29.1527 -43.7811,-24.5276 -73.0911,-52.6972 -66.6459,10.0835 -45.5642,-48.1752 -53.3345,-30.9006 -58.691,-9.4462 -80.8996,-72.8026 -70.434,-29.2975 -85.9807,-18.9061 -23.3917,-26.9338 -22.7996,-4.8298 -18.4874,24.8798 -22.387,-31.4777 -42.6687,-43.6108 -57.5544,-6.1606 -14.0252,-17.3167 -27.7887,-41.8525 -43.7633,-5.4578 -19.3183,-19.8523 -39.6941,-27.744 -64.6415,16.0725 -10.6106,-26.4714 -26.2671,-45.5282 -78.7506,-10.4684 -9.8936,-56.7978 -54.8286,-47.6201 -111.17228,-16.9621 1.72959,-33.3735 -2.72076,-55.2983 -61.11427,22.7077 12.13164,-34.0901 25.94889,-70.0258 -9.41264,-52.1235 22.18921,-65.2228 -8.86983,-47.7521 -74.64593,-34.4229 67.19349,-37.9606 102.07529,-76.2312 37.19019,-75.6147 44.59173,-37.8995 41.09447,-57.7575 20.9946,-56.1043 3.04545,-11.7108 39.35709,-32.981 -11.51035,-32.175 26.8635,-15.9508 66.49123,-11.3665 55.93059,-87.5263 z"
       id="path4656"
       inkscape:connector-curvature="0"
       sodipodi:nodetypes="ccccccccccccccccccccccccccccccccc" />
    <path
       style="fill:#ffffff;fill-rule:evenodd;stroke:none;stroke-width:0.952181px;stroke-linecap:butt;stroke-linejoin:miter;stroke-opacity:1"
       d="m 690.1345,1241.283 c 27.41589,13.5269 97.73364,21.0234 2.79374,61.3674 50.25636,0.9671 78.05895,1.7537 30.73102,19.124 64.31417,0.3154 1.3642,9.9013 -30.42836,19.2955 35.00208,-0.2589 86.8674,-7.2784 7.97909,24.6341 65.2518,-9.2869 47.84116,2.0347 -17.90886,24.1629 63.72945,-18.0895 90.0562,-15.5403 63.0337,-1.2529 26.73296,-4.4671 30.05212,9.3935 -22.80424,23.1786 71.92756,-18.6636 70.40175,-11.588 74.26744,34.6472 17.09674,-81.4311 20.00543,-18.0057 24.10106,21.1079 27.25378,-121.4005 64.09961,-31.7441 72.17808,-18.6724 -6.77983,-94.3594 42.88914,-55.4681 55.87468,-19.5954 -3.34763,-23.0122 12.57725,-69.487 60.10795,-13.1188 -11.33293,-20.7496 -3.6201,-42.2962 39.0696,9.0732 -12.9463,-34.3451 11.0362,-44.1683 85.7556,-11.8006 -0.5765,-17.0771 -7.8637,-35.014 70.6938,-4.833 -1.4739,-15.6767 -17.4912,-37.2075 89.3993,-9.2545 0.6974,-27.3754 17.9156,-29.1099 47.9138,-16.5125 -5.1247,-23.4934 27.6368,-12.9018 69.1606,2.7953 -26.4467,-32.042 9.6132,-28.6243 61.7248,-18.8217 -5.0602,-15.5655 -12.2946,-31.5384 18.1592,-40.4365 -58.8814,-45.8169 -6.7958,-49.5374 11.1749,-54.4273 -29.4938,-1.4095 -51.5414,-17.4541 -13.5592,-30.1681 -44.2238,7.4451 -27.9846,-15.1614 -25.553,-27.4943 l -71.2402,-18.905 -69.8435,-8.3897 -83.812,-8.3137 -78.2247,-1.3291 -79.6215,0.4324 -69.8433,3.8873 -60.06531,-8.4427 -61.46216,9.1027 -86.60577,-1.2836 -41.90601,30.0425 c 14.11156,28.7919 -30.48286,28.5474 -71.24025,30.2008 z"
       id="path4323"
       inkscape:connector-curvature="0"
       sodipodi:nodetypes="ccccccccccccccccccccccccccccccccccc" />
    <path
       style="color:#000000;display:inline;overflow:visible;visibility:visible;fill:#ffffff;fill-opacity:1;fill-rule:nonzero;stroke:none;stroke-width:1.29506px;marker:none;enable-background:accumulate"
       d="m 1926.575,2196.9193 c -39.1755,1.6625 -78.4763,1.7932 -117.4866,6.2878 -20.1258,2.6696 -40.2637,9.0988 -56.6433,21.9885 -22.4768,16.8362 -37.2517,43.9344 -40.6367,72.5415 -4.9376,30.1077 -8.1894,61.3223 -1.9679,91.5017 6.2612,24.0415 26.3622,42.3572 48.9773,48.7845 47.3776,15.7157 97.3106,20.5974 146.7884,21.6138 31.4418,0.6629 62.894,0.2292 94.3371,-0.023 44.2046,-1.1053 88.2559,-5.5872 132.1886,-10.5872 18.7295,-2.5703 37.7415,-5.7442 55.0874,-13.9192 18.2826,-8.9603 33.6929,-24.6461 41.6187,-44.1947 12.2838,-28.3165 12.1121,-61.2633 3.597,-90.6872 -8.6459,-29.0892 -27.6601,-54.751 -52.8268,-70.1975 -25.7934,-16.6745 -56.1784,-23.9269 -86.212,-25.4174 -53.9612,-4.6915 -108.0894,-7.6161 -162.2405,-7.8805 -1.5269,0.063 -3.0538,0.1256 -4.5807,0.1885 z"
       id="path4546-6-5-5"
       inkscape:connector-curvature="0"
       sodipodi:nodetypes="cssssc" />
    <path
       style="color:#000000;display:inline;overflow:visible;visibility:visible;fill:#ffffff;fill-opacity:1;fill-rule:nonzero;stroke:none;stroke-width:0.710908px;marker:none;enable-background:accumulate"
       d="m 427.36079,1539.322 c -18.49435,2.3317 -20.41009,4.4325 -21.96654,15.8617 -1.55611,11.4299 -0.85275,28.3587 -14.56075,40.6485 -13.70771,12.2903 -23.6764,10.0093 -30.31719,9.0645 4.26773,13.7681 1.4232,41.4005 9.47615,45.7822 8.05295,4.3816 -16.23573,2.0167 -16.23573,2.0167 0,0 -18.78665,-30.5045 -14.52874,-48.8854 4.25786,-18.3808 31.63742,-15.9961 42.0788,-22.7096 10.44133,-6.7135 10.50842,-30.2213 17.90427,-37.5835 7.39563,-7.363 19.29539,-5.4547 28.14973,-4.1951 z"
       id="path4538-7"
       inkscape:connector-curvature="0"
       sodipodi:nodetypes="ccscccsscc" />
    <path
       style="color:#000000;display:inline;overflow:visible;visibility:visible;fill:#ffffff;fill-opacity:1;fill-rule:nonzero;stroke:none;stroke-width:0.576009px;marker:none;enable-background:accumulate"
       d="m 269.38616,1653.529 c 23.98622,-18.7388 72.99975,-31.6297 113.83578,1.6461 32.33893,26.3516 21.53309,64.4595 4.25504,76.2832 -17.27802,11.8238 -72.26174,14.2552 -97.55286,8.4261 -19.52455,-4.5006 -40.92884,-15.7046 -42.10867,-45.5966 -0.48149,-12.2006 -2.41553,-22.02 21.57071,-40.7588 z"
       id="path4040-2-9"
       inkscape:connector-curvature="0"
       sodipodi:nodetypes="zssssz" />
    <path
       style="color:#000000;display:inline;overflow:visible;visibility:visible;fill:#ffffff;fill-opacity:1;fill-rule:nonzero;stroke:none;stroke-width:0.590855px;marker:none;enable-background:accumulate"
       d="m 248.38875,1580.4882 c 25.2386,-18.1575 76.81125,-29.8607 119.77943,4.4047 34.02742,27.1353 22.65738,64.9814 4.47719,76.3864 -18.18014,11.405 -76.0347,12.504 -102.64632,6.062 -20.54397,-4.9737 -43.06584,-16.6964 -44.30727,-46.617 -0.50663,-12.2123 -2.54165,-22.0785 22.69697,-40.2361 z"
       id="path4040-2"
       inkscape:connector-curvature="0"
       sodipodi:nodetypes="zssssz" />
    <path
       style="display:inline;fill:#ffffff;stroke:none;stroke-width:0.86787927"
       d="m 2022.557,1062.6294 c -1.4209,-25.9962 24.0536,-91.07497 148.3167,-86.1798 124.2629,4.89516 163.1554,33.4892 166.7969,79.6976 5.7604,73.1 -59.6142,92.6343 -153.4863,98.0493 -96.7719,5.5813 -163.1291,-44.5966 -161.6273,-91.5671 z"
       id="path3280-8-3-6"
       inkscape:connector-curvature="0"
       sodipodi:nodetypes="csssc" />
    <path
       style="display:inline;fill:#ffffff;stroke:none;stroke-width:1.69475985"
       d="m 2047.305,157.73688 c -56.7235,1.36134 -114.0022,0.72511 -169.8342,12.91311 -37.1865,8.06178 -74.1934,20.2337 -106.499,41.75727 -24.6053,17.32168 -42.1752,44.77692 -49.5616,74.89181 -9.5792,37.91862 -3.7254,80.50551 17.9955,112.68843 13.5019,20.2789 33.1467,35.43363 54.7824,44.72309 26.8201,12.33273 55.3595,19.62952 83.6316,27.16901 81.527,20.22852 166.6843,26.13012 249.6687,12.93286 33.4482,-5.17197 66.7197,-12.60145 98.6531,-24.45401 30.1587,-11.97672 59.17,-29.13557 81.3418,-54.18664 19.1002,-23.61231 27.481,-55.27862 26.9707,-85.97122 -0.01,-26.67477 -6.2233,-54.29091 -22.0272,-75.59533 -15.7179,-20.43436 -37.6833,-33.92979 -59.5225,-45.8516 -32.8788,-16.93099 -69.0382,-24.55194 -104.7366,-31.61623 -33.2186,-6.58366 -67.0587,-9.87758 -100.8627,-9.40055 z"
       id="path3280-8-3"
       inkscape:connector-curvature="0"
       sodipodi:nodetypes="csssc" />
    <path
       style="color:#000000;display:inline;overflow:visible;visibility:visible;fill:#ffffff;fill-opacity:1;fill-rule:nonzero;stroke:none;stroke-width:0.608783px;marker:none;enable-background:accumulate"
       d="m 1751.2966,118.06982 c -18.0333,0.18933 -36.0674,0.22455 -54.1008,0.0344 -11.8069,-0.14349 -23.6739,0.0747 -35.3256,1.9339 -21.7025,3.33547 -42.8876,10.36344 -60.9783,21.58126 -5.0414,3.15184 -9.8752,6.71023 -13.2123,11.37103 -12.5007,16.257 -12.9164,39.54684 0.49,55.49229 8.9508,10.35064 22.6898,16.12839 36.063,20.81189 33.1778,11.68115 69.2079,15.30029 104.6925,15.4305 30.6511,0.016 61.6457,3.38414 92.0083,-1.81956 26.5951,-4.66092 52.6534,-14.43113 72.6572,-30.91977 12.1858,-10.71873 18.2326,-27.36074 13.0367,-42.12219 -4.9328,-15.01303 -18.236,-26.96879 -33.7278,-33.98225 -24.2465,-11.69586 -52.0403,-16.28689 -79.4047,-17.27415 -14.0556,-0.58807 -28.1303,-0.61588 -42.1982,-0.53739 z"
       id="path3525-8"
       inkscape:connector-curvature="0"
       sodipodi:nodetypes="cscsc" />
    <path
       style="fill:#ffffff;fill-rule:evenodd;stroke:none;stroke-width:1.06468px;stroke-linecap:butt;stroke-linejoin:miter;stroke-opacity:1"
       d="m 784.45325,422.60021 c 0,0 22.37691,25.375 30.38987,41.353 9.55841,41.6769 -15.08254,52.26548 -11.80509,72.946 4.69971,21.617 12.77263,34.196 42.40829,52.053 -36.46109,-14.098 -60.72938,-25.376 -65.42892,-46.992 -4.6996,-21.617 12.02504,-48.872 9.37974,-58.27 -2.64548,-9.399 -11.01511,-33.835 -33.19349,-51.692 -22.17826,-17.857 28.2496,-9.398 28.2496,-9.398 z"
       id="path1303"
       inkscape:connector-curvature="0"
       sodipodi:nodetypes="cccccccc" />
    <path
       style="color:#000000;display:inline;overflow:visible;visibility:visible;fill:#ffffff;fill-opacity:1;fill-rule:nonzero;stroke:none;stroke-width:1.02862px;marker:none;enable-background:accumulate"
       d="m 1299.1639,933.87003 c -53.7539,0.60259 -108.0725,6.18237 -157.8254,20.55394 -25.0489,6.8158 -45.6236,20.20051 -58.473,36.26591 -18.1662,20.72842 -25.1768,45.23962 -24.61,69.18952 -0.3504,21.7572 2.047,44.0819 14.328,64.4005 10.2812,16.3502 24.218,32.3696 45.5371,43.0868 16.2373,7.9151 36.3066,10.8229 55.8433,12.0262 47.5428,3.2038 95.6196,-3.3074 142.9207,2.4567 34.8345,3.7138 69.7749,9.2669 105.2613,7.7134 21.3721,-1.3133 41.788,-6.2024 62.8833,-8.6256 13.8625,-1.6374 28.4724,-2.7177 40.6995,-7.8656 3.4856,-1.1629 5.5556,-3.4509 6.6744,-5.9122 2.8424,-6.2805 1.3866,-12.9579 0.8002,-19.3896 -1.7843,-12.7405 -4.3346,-25.749 -0.2318,-38.4116 4.5637,-27.0264 13.4224,-54.101 9.4977,-81.4382 -3.3739,-19.522 -12.553,-39.13286 -30.8536,-54.58743 -16.5279,-12.5725 -39.762,-19.71581 -62.8307,-24.9568 -35.3576,-7.67817 -72.3962,-10.66881 -109.1552,-13.30256 -13.4555,-0.78675 -26.9584,-1.25367 -40.4658,-1.20338 z"
       id="path4040-40"
       inkscape:connector-curvature="0"
       sodipodi:nodetypes="zsssszccccccccz" />
    <path
       style="display:inline;fill:#ffffff;stroke:none;stroke-width:0.973412"
       d="m 765.26611,81.412961 c -66.86527,2.600242 -141.33564,-2.466213 -177.26657,0.966656 -5.11208,85.524513 -24.06685,151.585093 -17.62007,192.206803 5.61002,33.64126 11.90906,67.27391 21.5683,100.45506 6.37868,18.77118 18.42748,37.20772 38.9167,50.17049 22.80177,14.88849 52.31469,22.91333 81.57319,28.80487 70.64193,14.26468 147.1454,15.46871 217.59837,-0.045 19.05684,-4.06897 37.16729,-10.27562 53.62142,-18.27709 30.98795,-14.86292 57.09985,-34.96688 75.56695,-58.19082 18.2362,-24.45166 23.719,-52.37569 27.5974,-79.59941 4.6377,-33.19844 2.8131,-67.56158 -13.2728,-99.17136 -12.3787,-23.86919 -31.2822,-46.32378 -57.2429,-63.85253 C 984.22555,114.14468 943.25272,102.21371 902.07553,94.145888 857.56197,85.46574 811.3995,81.121864 765.26611,81.412961 Z"
       id="path3280-5"
       inkscape:connector-curvature="0"
       sodipodi:nodetypes="ccsscccccccccc" />
    <path
       style="fill:#ffffff;fill-rule:evenodd;stroke:none;stroke-width:1.36569px;stroke-linecap:butt;stroke-linejoin:miter;stroke-opacity:1"
       d="m 1309.5687,939.23352 c 8.7674,-29.78389 -2.55,-70.85724 -21.3421,-92.51878 19.294,12.00335 47.6581,40.90723 49.4868,77.53639 2.8542,57.16677 -26.6522,18.09019 -26.6522,18.09019 z"
       id="path4248"
       inkscape:connector-curvature="0"
       sodipodi:nodetypes="ccscc" />
    <path
       style="color:#000000;display:inline;overflow:visible;visibility:visible;fill:#ffffff;fill-opacity:1;fill-rule:nonzero;stroke:none;stroke-width:1.27845px;marker:none;enable-background:accumulate"
       d="m 2159.8838,536.71889 c 47.5494,-40.109 11.4958,-121.92186 -22.0631,-138.04748 -43.9644,-41.61081 21.7355,-52.5057 21.7355,-52.5057 l 27.3389,46.67174 c -4.9414,6.99806 59.5251,106.49368 -27.0113,143.88144 z"
       id="path3072-56"
       inkscape:connector-curvature="0"
       sodipodi:nodetypes="ccccc" />
    <path
       style="fill:#ffffff;fill-rule:evenodd;stroke:none;stroke-width:1px;stroke-linecap:butt;stroke-linejoin:miter;stroke-opacity:1"
       d="m 2145.9447,911.76156 c 17.8164,6.86787 32.8659,22.27667 36.9127,41.22902 2.4357,13.03639 -1.9004,26.29118 -8.401,37.50329 -6.139,11.51773 -13.902,22.87523 -15.1546,36.21623 -0.038,3.7486 4.352,7.1591 7.7995,4.9374 5.4591,-2.2621 9.1063,-7.2123 13.9986,-10.3572 13.619,-10.9723 25.9848,-24.85172 30.732,-42.05359 4.3293,-16.93725 -3.8025,-35.55082 -17.8163,-45.50969 -14.6218,-11.8782 -32.4276,-19.47815 -50.851,-23.07104 0.9267,0.36853 1.8534,0.73706 2.7801,1.10558 z"
       id="path914"
       inkscape:connector-curvature="0"
       sodipodi:nodetypes="cscc" />
    <path
       style="fill:#ffffff;fill-rule:evenodd;stroke:none;stroke-width:1px;stroke-linecap:butt;stroke-linejoin:miter;stroke-opacity:1"
       d="m 1843.1104,1611.6362 -101.7503,-92.9388 -6.0669,33.3207 -71.4256,-61.6811 -11.1854,27.4382 91.4542,66.5103 8.19,-37.7549 z"
       id="path4667"
       inkscape:connector-curvature="0" />
    <path
       style="color:#000000;display:inline;overflow:visible;visibility:visible;fill:#ffffff;fill-opacity:1;fill-rule:nonzero;stroke:none;stroke-width:1.14715px;marker:none;enable-background:accumulate"
       d="m 285.67734,2318.4867 c -40.4116,58.36 -53.3089,167.707 24.2468,263.215 -108.4132,-99.32 -82.2954,-214.062 -72.6196,-244.978 2.0322,-33.697 48.3728,-18.237 48.3728,-18.237 z"
       id="path4008-0"
       inkscape:connector-curvature="0"
       sodipodi:nodetypes="cccc" />
    <path
       style="color:#000000;display:inline;overflow:visible;visibility:visible;fill:#ffffff;fill-opacity:1;fill-rule:nonzero;stroke:none;stroke-width:1px;marker:none;enable-background:accumulate"
       d="m 2007.8186,2508.6854 c -16.2035,68.7147 -23.8042,123.8365 19.1198,161.3448 -35.9827,-18.9303 -60.1167,-37.3437 -55.228,-133.0047 3.2811,-29.3033 15.4575,-25.6682 36.1082,-28.3401 z"
       id="path4064-5"
       inkscape:connector-curvature="0"
       sodipodi:nodetypes="cccc" />
    <path
       style="fill:#ffffff;fill-rule:evenodd;stroke:none;stroke-width:1.0599px;stroke-linecap:butt;stroke-linejoin:miter;stroke-opacity:1"
       d="m 1312.6704,2517.7831 c 23.7195,-14.0861 43.1327,-10.969 67.1439,-1.3968 -21.0663,-24.318 -50.0172,-29.1023 -87.4659,-14.9118 -44.493,16.8599 17.6099,16.5876 17.6099,16.5876 z"
       id="path4248-5"
       inkscape:connector-curvature="0"
       sodipodi:nodetypes="ccscc" />
    <path
       style="fill:#ffffff;fill-opacity:1;stroke:none;stroke-width:0.67811751"
       d="m 2202.9089,2529.7013 c -21.6262,-4.5023 -29.9439,-8.6829 -26.0622,-11.2559 -36.215,-21.5129 -5.4101,-41.3861 -1.1092,-43.737 -0.011,-1.592 -11.6448,0.6431 -13.3082,-0.643 -1.6636,-1.2869 11.4174,-12.0255 9.1995,-12.6686 -2.2183,-0.6437 -49.6793,3.9856 -56.8879,1.0911 -7.2089,-2.8945 -3.3273,-10.2913 -5.5453,-10.6129 -2.218,-0.3215 -22.7352,1.6078 -25.5078,1.2862 -2.7724,-0.3215 -7.7631,-9.9691 -10.5356,-10.2907 -2.7728,-0.3215 -15.5266,4.1808 -17.7447,3.8592 -2.2181,-0.3216 -1.109,-8.3614 -3.8815,-8.6829 -2.7728,-0.3216 -14.972,6.753 -16.6357,6.4315 -1.6635,-0.3216 -7.7632,-16.4013 -10.5358,-17.3659 -2.7727,-0.9647 -20.517,17.6874 -22.1807,18.0089 -1.6635,0.3222 -12.1993,-21.8681 -14.4174,-22.1897 -2.2181,-0.3215 -13.3084,15.1152 -14.9719,14.7936 -1.6636,-0.3216 -12.1994,-9.3267 -14.4173,-9.9698 -2.2181,-0.643 -16.6357,19.9389 -18.8537,19.9389 -2.2182,0 -21.0717,-8.6829 -22.7352,-10.2907 -1.6637,-1.6083 -3.3272,8.3615 -5.5452,8.3615 -2.2181,0 -27.7258,-5.7891 -28.2805,-5.4676 -0.5545,0.3216 3.8818,6.4322 2.2182,6.4322 -1.6635,0 -27.7257,-8.0398 -28.835,-6.4322 -1.1089,1.6084 -56.5605,-8.0398 -60.4423,-6.7536 -3.8816,1.2868 24.9534,26.371 22.1808,28.3009 -2.7726,1.9292 -12.754,-0.3215 -13.3086,0.6431 -0.5544,0.9646 6.0998,5.1453 4.4364,6.4315 -1.6637,1.2868 -20.5172,6.4321 -22.1808,8.0399 -1.6636,1.6083 8.3178,5.789 6.0998,6.7536 -2.2182,0.9653 -34.9349,7.0753 -35.4892,8.6836 -0.5546,1.6078 16.6355,9.326 14.4174,11.5768 -2.2181,2.2515 -8.3178,3.2161 -7.7632,4.8245 0.5545,1.6077 11.0904,3.5376 10.5358,5.1453 -0.5545,1.6077 -6.0996,9.6483 -7.7631,10.9344 -1.6637,1.2862 11.6447,0.6431 11.6447,1.9293 0,1.2868 -0.9794,20.6031 -20.6799,32.291 34.4576,-7.7421 48.9603,-3.9901 67.2594,-1.4178 18.299,2.573 11.0903,18.6528 13.8628,19.6174 2.7725,0.9652 23.2898,-5.4669 26.0624,-3.2161 2.7726,2.2515 3.8816,6.4321 6.0998,6.4321 2.2179,0 14.9719,-9.0045 17.7443,-8.6829 2.7726,0.3215 28.835,14.472 32.7167,14.7935 3.8817,0.3216 18.8535,-5.4675 22.1807,-5.789 3.3272,-0.3216 6.0995,7.7183 8.8722,7.0752 2.7726,-0.6431 20.5172,-6.4321 23.2895,-5.789 2.7727,0.6437 4.9908,3.216 7.2089,2.573 2.218,-0.6432 12.1994,-3.2161 12.1994,-3.2161 0,0 7.2087,1.9299 10.5358,1.9299 3.3271,0 26.0622,-10.6129 28.8348,-11.256 2.7726,-0.6431 31.237,10.9614 29.5735,12.8907 3.5329,-8.4443 20.6044,-13.7539 24.2148,-14.1768 3.8815,-0.9653 15.5264,1.9292 16.6354,0.9646 1.109,-0.9646 4.4361,-6.1106 7.7632,-6.4322 3.3272,-0.3215 11.0904,-1.6077 11.0904,-1.6077 l -1.109,-1.9298 c 0,0 23.2896,5.1459 26.0624,7.0751 2.7724,1.93 -1.6636,-8.3614 -3.3273,-10.9343 9.9813,2.5729 39.3707,8.0398 41.5887,9.6482 2.2182,1.6077 -3.8814,-5.789 -7.2086,-8.0399 4.4361,0.9646 8.3178,1.2862 8.3178,1.2862 l -12.7541,-7.7183 3.8819,-0.6431 c 0,0 -8.3178,-3.5376 -8.3178,-5.1453 0,-1.6084 21.626,-3.5376 21.626,-3.5376 0,0 -8.8722,-2.8945 -6.6541,-4.5023 2.2181,-1.6083 7.7633,-2.573 7.7633,-2.573 l 1.1089,-4.1807 z"
       id="path5888-3"
       inkscape:connector-curvature="0"
       sodipodi:nodetypes="cccccsscccccccsccscscsccsccccccsccscscssccsccscscccccccsccccccsccccc" />
  </g>
  <g
     inkscape:groupmode="layer"
     id="layer1"
     inkscape:label="txt">
    <text
       xml:space="preserve"
       style="font-style:normal;font-variant:normal;font-weight:normal;font-stretch:normal;font-size:80px;line-height:1.25;font-family:Lavi;-inkscape-font-specification:Lavi;letter-spacing:0px;word-spacing:0px;fill:#ffffff;fill-opacity:1;stroke:#ffffff;stroke-width:0.66877401;stroke-miterlimit:4;stroke-dasharray:none;stroke-opacity:1;filter:url(#filter4375-4-1-1-1-9-5-8-8-5-5-3-3-3-0)"
       id="text4580-6-0-0-0-9-3-3-2-0"
       transform="matrix(1.1484433,-0.31259721,-0.62973044,2.2133476,1615.3614,-1809.1372)"
       x="-607.91235"
       y="1245.0809"><tspan
         id="tspan1534-6"
         style="font-size:61.33710098px"><tspan
   id="tspan882"
   style="font-size:71.81150055px">¡¡DR</tspan><tspan
   style="font-size:66.57430267px"
   id="tspan1814">Z</tspan>OO!!</tspan></text>
    <text
       xml:space="preserve"
       style="font-style:normal;font-variant:normal;font-weight:normal;font-stretch:normal;font-size:45px;line-height:1.25;font-family:Lavi;-inkscape-font-specification:Lavi;text-align:center;letter-spacing:0px;word-spacing:0px;text-anchor:middle;fill:#000000;fill-opacity:1;stroke:none"
       x="833.04907"
       y="172.81442"
       id="text4246-3-2-2-6-3-7-9-3-3-56-9-3-20"><tspan
         style="font-size:45px"
         sodipodi:role="line"
         x="840.08032"
         y="172.81442"
         id="tspan970">Ya veo. Has </tspan><tspan
         style="font-size:45px"
         sodipodi:role="line"
         x="840.08032"
         y="229.06442"
         id="tspan204">alcanzado el nivel de </tspan><tspan
         style="font-size:45px"
         sodipodi:role="line"
         x="840.08032"
         y="285.31442"
         id="tspan206">tus predecesores </tspan><tspan
         style="font-size:45px"
         sodipodi:role="line"
         x="840.08032"
         y="341.56442"
         id="tspan214">bastante antes de lo </tspan><tspan
         style="font-size:45px"
         sodipodi:role="line"
         x="840.08032"
         y="397.81442"
         id="tspan218">que había previsto... </tspan></text>
    <text
       xml:space="preserve"
       style="font-style:normal;font-variant:normal;font-weight:normal;font-stretch:normal;font-size:45px;line-height:1.25;font-family:Lavi;-inkscape-font-specification:Lavi;text-align:center;letter-spacing:0px;word-spacing:0px;text-anchor:middle;fill:#000000;fill-opacity:1;stroke:none"
       x="1312.303"
       y="1014.1287"
       id="text4246-3-2-2-6-3-7-9-3-3-56-9-3-20-3"><tspan
         style="font-size:45px"
         sodipodi:role="line"
         x="1319.3342"
         y="1014.1287"
         id="tspan985">Esto adelanta </tspan><tspan
         style="font-size:45px"
         sodipodi:role="line"
         x="1312.303"
         y="1070.3787"
         id="tspan129">mis planes pero son</tspan><tspan
         style="font-size:45px"
         sodipodi:role="line"
         x="1312.303"
         y="1126.6287"
         id="tspan133">buenas noticias.</tspan></text>
    <text
       xml:space="preserve"
       style="font-style:normal;font-variant:normal;font-weight:normal;font-stretch:normal;font-size:45px;line-height:1.25;font-family:Lavi;-inkscape-font-specification:Lavi;text-align:center;letter-spacing:0px;word-spacing:0px;text-anchor:middle;fill:#000000;fill-opacity:1;stroke:none"
       x="1729.1007"
       y="191.33838"
       id="text4246-3-2-2-6-3-7-9-3-3-56-9-3-20-3-2"><tspan
         style="font-size:45px"
         sodipodi:role="line"
         x="1729.1007"
         y="191.33838"
         id="tspan994-7">¿Tus planes?</tspan></text>
    <text
       xml:space="preserve"
       style="font-style:normal;font-variant:normal;font-weight:normal;font-stretch:normal;font-size:45px;line-height:1.25;font-family:Lavi;-inkscape-font-specification:Lavi;text-align:center;letter-spacing:0px;word-spacing:0px;text-anchor:middle;fill:#000000;fill-opacity:1;stroke:none"
       x="2028.2909"
       y="242.40437"
       id="text4246-3-2-2-6-3-7-9-3-3-56-9-3-20-3-2-0"><tspan
         style="font-size:45px"
         sodipodi:role="line"
         x="2028.2909"
         y="242.40437"
         id="tspan229">¿Entonces me estabas</tspan><tspan
         style="font-size:45px"
         sodipodi:role="line"
         x="2028.2909"
         y="298.65436"
         id="tspan131">poniendo a prueba?</tspan><tspan
         style="font-size:45px"
         sodipodi:role="line"
         x="2035.3221"
         y="354.90436"
         id="tspan231">¿Esto no tiene nada que ver </tspan><tspan
         style="font-size:45px"
         sodipodi:role="line"
         x="2028.2909"
         y="411.15436"
         id="tspan233">con haber llegado tarde?</tspan></text>
    <text
       xml:space="preserve"
       style="font-style:normal;font-variant:normal;font-weight:normal;font-stretch:normal;font-size:45px;line-height:1.25;font-family:Lavi;-inkscape-font-specification:Lavi;text-align:center;letter-spacing:0px;word-spacing:0px;text-anchor:middle;fill:#000000;fill-opacity:1;stroke:none"
       x="2179.271"
       y="1053.5718"
       id="text4246-3-2-2-6-3-7-9-3-3-56-9-3-20-3-2-0-3"><tspan
         style="font-size:45px"
         sodipodi:role="line"
         x="2186.3022"
         y="1053.5718"
         id="tspan1147">¡Tú estás </tspan><tspan
         style="font-size:45px"
         sodipodi:role="line"
         x="2179.271"
         y="1109.8218"
         id="tspan137">majareta!</tspan></text>
    <text
       xml:space="preserve"
       style="font-style:normal;font-variant:normal;font-weight:normal;font-stretch:normal;font-size:45px;line-height:1.25;font-family:Lavi;-inkscape-font-specification:Lavi;text-align:center;letter-spacing:0px;word-spacing:0px;text-anchor:middle;fill:#000000;fill-opacity:1;stroke:none"
       x="314.83337"
       y="1631.6757"
       id="text4246-3-2-2-6-3-7-9-3-3-56-9-3-20-3-2-0-3-1"><tspan
         style="font-size:45px"
         sodipodi:role="line"
         x="314.83337"
         y="1631.6757"
         id="tspan1224">Ja...</tspan></text>
    <text
       xml:space="preserve"
       style="font-style:normal;font-variant:normal;font-weight:normal;font-stretch:normal;font-size:45px;line-height:1.25;font-family:Lavi;-inkscape-font-specification:Lavi;text-align:center;letter-spacing:0px;word-spacing:0px;text-anchor:middle;fill:#000000;fill-opacity:1;stroke:none"
       x="327.27063"
       y="1708.0287"
       id="text4246-3-2-2-6-3-7-9-3-3-56-9-3-20-3-2-0-3-1-2"><tspan
         style="font-size:45px"
         sodipodi:role="line"
         x="327.27063"
         y="1708.0287"
         id="tspan1224-2">ja.</tspan></text>
    <text
       xml:space="preserve"
       style="font-style:normal;font-variant:normal;font-weight:normal;font-stretch:normal;font-size:51.75510025px;line-height:1.25;font-family:Lavi;-inkscape-font-specification:Lavi;text-align:center;letter-spacing:0px;word-spacing:0px;text-anchor:middle;fill:#000000;fill-opacity:1;stroke:none;stroke-width:1.15011001"
       x="1276.6477"
       y="1284.0323"
       id="text4246-3-2-2-6-3-7-9-3-3-56-9-3-20-3-3"
       transform="skewX(-7.1285627)"><tspan
         style="font-style:normal;font-variant:normal;font-weight:bold;font-stretch:normal;font-size:51.75510025px;font-family:Lavi;-inkscape-font-specification:'Lavi Bold';stroke-width:1.15011001"
         sodipodi:role="line"
         x="1284.7344"
         y="1284.0323"
         id="tspan1341">¿QUÉ ESTÁIS MIRANDO </tspan><tspan
         style="font-style:normal;font-variant:normal;font-weight:bold;font-stretch:normal;font-size:51.75510025px;font-family:Lavi;-inkscape-font-specification:'Lavi Bold';stroke-width:1.15011001"
         sodipodi:role="line"
         x="1276.6477"
         y="1348.7262"
         id="tspan237">AHÍ TODAS PARADAS?</tspan></text>
    <text
       xml:space="preserve"
       style="font-style:normal;font-variant:normal;font-weight:normal;font-stretch:normal;font-size:47.46429825px;line-height:1.25;font-family:Lavi;-inkscape-font-specification:Lavi;text-align:center;letter-spacing:0px;word-spacing:0px;text-anchor:middle;fill:#000000;fill-opacity:1;stroke:none;stroke-width:1.05475998"
       x="1452.0516"
       y="1431.9385"
       id="text4246-3-2-2-6-3-7-9-3-3-56-9-3-20-3-3-2"
       transform="skewX(-7.1285625)"><tspan
         style="font-style:normal;font-variant:normal;font-weight:bold;font-stretch:normal;font-size:47.46429825px;font-family:Lavi;-inkscape-font-specification:'Lavi Bold';stroke-width:1.05475998"
         sodipodi:role="line"
         x="1452.0516"
         y="1431.9385"
         id="tspan1016">¡¿ME ACABAN DE ATACAR Y</tspan><tspan
         style="font-style:normal;font-variant:normal;font-weight:bold;font-stretch:normal;font-size:47.46429825px;font-family:Lavi;-inkscape-font-specification:'Lavi Bold';stroke-width:1.05475998"
         sodipodi:role="line"
         x="1459.4679"
         y="1491.2688"
         id="tspan144">NO HACÉIS NADA?! </tspan><tspan
         style="font-style:normal;font-variant:normal;font-weight:bold;font-stretch:normal;font-size:47.46429825px;font-family:Lavi;-inkscape-font-specification:'Lavi Bold';stroke-width:1.05475998"
         sodipodi:role="line"
         x="1452.0516"
         y="1550.5992"
         id="tspan146">¡¡¡ATRAPADLA!!!</tspan></text>
    <text
       xml:space="preserve"
       style="font-style:normal;font-variant:normal;font-weight:normal;font-stretch:normal;font-size:55.07120132px;line-height:1.25;font-family:Lavi;-inkscape-font-specification:Lavi;text-align:center;letter-spacing:0px;word-spacing:0px;text-anchor:middle;fill:#000000;fill-opacity:1;stroke:none;stroke-width:1.22379005"
       x="615.60278"
       y="2231.3035"
       id="text4246-3-2-2-6-3-7-9-3-3-56-9-3-20-3-3-2-7"
       transform="matrix(0.99725425,0,-0.12471947,1.0027533,0,0)"><tspan
         style="font-style:normal;font-variant:normal;font-weight:bold;font-stretch:normal;font-size:55.07120132px;font-family:Lavi;-inkscape-font-specification:'Lavi Bold';stroke-width:1.22379005"
         sodipodi:role="line"
         x="624.20764"
         y="2231.3035"
         id="tspan1414">¡LA QUIERO </tspan><tspan
         style="font-style:normal;font-variant:normal;font-weight:bold;font-stretch:normal;font-size:55.07120132px;font-family:Lavi;-inkscape-font-specification:'Lavi Bold';stroke-width:1.22379005"
         sodipodi:role="line"
         x="615.60278"
         y="2300.1426"
         id="tspan150">VIVA!</tspan></text>
    <text
       xml:space="preserve"
       style="font-style:normal;font-variant:normal;font-weight:normal;font-stretch:normal;font-size:56px;line-height:1.25;font-family:Lavi;-inkscape-font-specification:Lavi;text-align:center;letter-spacing:0px;word-spacing:0px;text-anchor:middle;fill:#000000;fill-opacity:1;stroke:none;stroke-width:1.57727003"
       x="1546.9048"
       y="2006.6577"
       id="text4246-3-2-2-6-3-7-9-3-3-56-9-3-20-3-3-2-7-2"
       transform="matrix(0.89307378,0,-0.11169036,1.1197283,0,0)"><tspan
         style="font-style:normal;font-variant:normal;font-weight:bold;font-stretch:normal;font-size:56px;font-family:Lavi;-inkscape-font-specification:'Lavi Bold';stroke-width:1.57727003"
         sodipodi:role="line"
         x="1546.9048"
         y="2006.6577"
         id="tspan1414-3">¡¡¡ATRAPADLA!!!</tspan></text>
    <text
       xml:space="preserve"
       style="font-style:normal;font-variant:normal;font-weight:normal;font-stretch:normal;font-size:45px;line-height:1.25;font-family:Lavi;-inkscape-font-specification:Lavi;text-align:center;letter-spacing:0px;word-spacing:0px;text-anchor:middle;fill:#000000;fill-opacity:1;stroke:none"
       x="1165.3292"
       y="2498.3032"
       id="text4246-3-2-2-6-3-7-9-3-3-56-9-3-20-3-2-0-3-19"><tspan
         style="font-size:45px"
         sodipodi:role="line"
         x="1172.3605"
         y="2498.3032"
         id="tspan1031">Shichimi, </tspan><tspan
         style="font-size:45px"
         sodipodi:role="line"
         x="1165.3292"
         y="2554.5532"
         id="tspan161">¡más tarde</tspan><tspan
         style="font-size:45px"
         sodipodi:role="line"
         x="1165.3292"
         y="2610.8032"
         id="tspan140">hablaremos</tspan><tspan
         style="font-size:45px"
         sodipodi:role="line"
         x="1165.3292"
         y="2667.0532"
         id="tspan171">tú y yo!</tspan></text>
    <text
       xml:space="preserve"
       style="font-style:normal;font-variant:normal;font-weight:normal;font-stretch:normal;font-size:45px;line-height:1.25;font-family:Lavi;-inkscape-font-specification:Lavi;text-align:center;letter-spacing:0px;word-spacing:0px;text-anchor:middle;fill:#000000;fill-opacity:1;stroke:none"
       x="1978.2208"
       y="2267.5603"
       id="text4246-3-2-2-6-3-7-9-3-3-56-9-3-20-3-2-0-3-19-8-3"><tspan
         style="font-size:45px"
         sodipodi:role="line"
         x="1985.2521"
         y="2267.5603"
         id="tspan8507">Lo siento, Zanahoria, </tspan><tspan
         style="font-size:45px"
         sodipodi:role="line"
         x="1978.2208"
         y="2323.8103"
         id="tspan184">pero debo salir de</tspan><tspan
         style="font-size:45px"
         sodipodi:role="line"
         x="1978.2208"
         y="2380.0603"
         id="tspan149">aquí en hipervelocidad</tspan><tspan
         style="font-size:45px"
         sodipodi:role="line"
         x="1978.2208"
         y="2436.3103"
         id="tspan188">una vez más.</tspan></text>
    <text
       xml:space="preserve"
       style="font-style:normal;font-variant:normal;font-weight:normal;font-stretch:normal;font-size:45px;line-height:1.25;font-family:Lavi;-inkscape-font-specification:Lavi;text-align:center;letter-spacing:0px;word-spacing:0px;text-anchor:middle;fill:#000000;fill-opacity:1;stroke:none"
       x="1974.8418"
       y="2527.3699"
       id="text4246-3-2-2-6-3-7-9-3-3-56-9-3-20-3-2-0-3-19-8"><tspan
         style="font-size:45px"
         sodipodi:role="line"
         x="1974.8418"
         y="2527.3699"
         id="tspan1046">¡Agárrate fuerte!</tspan></text>
    <text
       xml:space="preserve"
       style="font-style:normal;font-variant:normal;font-weight:normal;font-stretch:normal;font-size:6.99764013px;line-height:0%;font-family:Lavi;-inkscape-font-specification:Lavi;letter-spacing:0px;word-spacing:0px;fill:#000000;fill-opacity:1;stroke:#000000;stroke-width:6.65340996;stroke-miterlimit:4;stroke-dasharray:none;stroke-opacity:1;paint-order:stroke fill markers"
       x="1234.3364"
       y="2988.7241"
       id="text4580-25"
       transform="matrix(0.70061135,-0.52267462,0.27429036,1.222697,0,0)"><tspan
         sodipodi:role="line"
         id="tspan4582-4"
         x="1234.3364"
         y="2988.7241"
         style="font-size:40.81949997px;line-height:100%;letter-spacing:2.84771991px;fill:#ffffff;stroke:#000000;stroke-width:6.65340996;stroke-miterlimit:4;stroke-dasharray:none;stroke-opacity:1;paint-order:stroke fill markers"><tspan
           style="font-size:46.88420105px;line-height:100%;letter-spacing:2.84771991px;stroke:#000000;stroke-width:6.65340996;stroke-miterlimit:4;stroke-dasharray:none;stroke-opacity:1;paint-order:stroke fill markers"
           id="tspan4617-9">¡Tap!</tspan></tspan></text>
    <text
       xml:space="preserve"
       style="font-style:normal;font-variant:normal;font-weight:normal;font-stretch:normal;font-size:6.12727022px;line-height:0%;font-family:Lavi;-inkscape-font-specification:Lavi;letter-spacing:0px;word-spacing:0px;fill:#000000;fill-opacity:1;stroke:#000000;stroke-width:5.82585001;stroke-miterlimit:4;stroke-dasharray:none;stroke-opacity:1;paint-order:stroke fill markers"
       x="1244.6915"
       y="2939.7729"
       id="text4580-25-6"
       transform="matrix(0.70061135,-0.52267462,0.27429036,1.222697,0,0)"><tspan
         sodipodi:role="line"
         id="tspan4582-4-1"
         x="1244.6915"
         y="2939.7729"
         style="font-size:35.74229813px;line-height:100%;letter-spacing:2.49352002px;fill:#ffffff;stroke:#000000;stroke-width:5.82585001;stroke-miterlimit:4;stroke-dasharray:none;stroke-opacity:1;paint-order:stroke fill markers"><tspan
           style="font-size:41.05270004px;line-height:100%;letter-spacing:2.49352002px;stroke:#000000;stroke-width:5.82585001;stroke-miterlimit:4;stroke-dasharray:none;stroke-opacity:1;paint-order:stroke fill markers"
           id="tspan4617-9-0">¡Tap!</tspan></tspan></text>
    <text
       xml:space="preserve"
       style="font-style:normal;font-variant:normal;font-weight:normal;font-stretch:normal;font-size:80px;line-height:1.25;font-family:Lavi;-inkscape-font-specification:Lavi;letter-spacing:0px;word-spacing:0px;fill:#ffffff;fill-opacity:1;stroke:#ffffff;stroke-width:0.66877401;stroke-miterlimit:4;stroke-dasharray:none;stroke-opacity:1;filter:url(#filter4375-4-1-1-1-9-5-8-8-5-5-3-3-3-0-6)"
       id="text4580-6-0-0-0-9-3-3-2-0-3"
       transform="matrix(1.2199315,-0.31719701,-0.66892978,2.2459164,3443.4589,177.24169)"
       x="-607.91235"
       y="1245.0809"><tspan
         id="tspan1534-6-7"
         style="font-size:61.33710098px"><tspan
   style="font-size:66.57430267px"
   id="tspan1814-4">¡¡Ziioo</tspan>OO!!</tspan></text>
  </g>
</svg>
