<?xml version="1.0" encoding="UTF-8" standalone="no"?>
<svg
   sodipodi:docname="E34P07.svg"
   height="3503"
   width="2481"
   inkscape:version="1.3 (0e150ed6c4, 2023-07-21)"
   version="1.1"
   id="svg2"
   xmlns:inkscape="http://www.inkscape.org/namespaces/inkscape"
   xmlns:sodipodi="http://sodipodi.sourceforge.net/DTD/sodipodi-0.dtd"
   xmlns:xlink="http://www.w3.org/1999/xlink"
   xmlns="http://www.w3.org/2000/svg"
   xmlns:svg="http://www.w3.org/2000/svg"
   xmlns:rdf="http://www.w3.org/1999/02/22-rdf-syntax-ns#"
   xmlns:cc="http://creativecommons.org/ns#"
   xmlns:dc="http://purl.org/dc/elements/1.1/">
  <metadata
     id="metadata8">
    <rdf:RDF>
      <cc:Work
         rdf:about="">
        <dc:format>image/svg+xml</dc:format>
        <dc:type
           rdf:resource="http://purl.org/dc/dcmitype/StillImage" />
        <dc:title />
      </cc:Work>
    </rdf:RDF>
  </metadata>
  <defs
     id="defs6">
    <filter
       x="-0.013714931"
       width="1.0274299"
       y="-0.019608807"
       height="1.0392176"
       inkscape:menu-tooltip="Something like a water noise"
       inkscape:menu="Distort"
       inkscape:label="Lapping"
       id="filter3018-9-9"
       style="color-interpolation-filters:sRGB">
      <feTurbulence
         result="result1"
         baseFrequency="0.045999999999999999"
         type="fractalNoise"
         seed="0"
         numOctaves="5"
         id="feTurbulence3020-3-0" />
      <feGaussianBlur
         result="result2"
         stdDeviation="2"
         id="feGaussianBlur3022-77-9" />
      <feDisplacementMap
         in="SourceGraphic"
         xChannelSelector="R"
         yChannelSelector="B"
         scale="50"
         in2="result2"
         id="feDisplacementMap3024-6-9" />
    </filter>
    <filter
       inkscape:label="soundFX1"
       id="filter4375-4-1-1-1-9-5-8-8-5-5-3-3"
       style="color-interpolation-filters:sRGB"
       x="-0.01198874"
       y="-0.019598957"
       width="1.0318347"
       height="1.0710075">
      <feFlood
         result="flood"
         flood-color="rgb(255,255,255)"
         flood-opacity="1"
         id="feFlood4377-7-9-0-8-1-7-3-1-2-7-6-6" />
      <feComposite
         baseFrequency="0.053999999999999999 0.053999999999999999"
         result="composite1"
         operator="in"
         in="flood"
         in2="SourceGraphic"
         id="feComposite4379-3-8-8-2-77-4-1-0-6-4-7-7" />
      <feMorphology
         result="result3"
         radius="7.5999999999999996"
         operator="dilate"
         id="feMorphology4393-1-0-49-8-9-3-0-1-9-9-5-5" />
      <feComposite
         result="fbSourceGraphic"
         operator="over"
         in="SourceGraphic"
         in2="result3"
         id="feComposite4385-9-5-7-0-8-8-7-5-4-9-3-3" />
      <feColorMatrix
         id="feColorMatrix4544-9-4-4-5-5"
         values="0 0 0 -1 0 0 0 0 -1 0 0 0 0 -1 0 0 0 0 1 0"
         in="fbSourceGraphic"
         result="fbSourceGraphicAlpha" />
      <feTurbulence
         result="turbulence"
         baseFrequency="0.063613027137887024"
         seed="143"
         numOctaves="2"
         type="fractalNoise"
         id="feTurbulence4546-3-6-5-6-6" />
      <feDisplacementMap
         result="fbSourceGraphic"
         xChannelSelector="R"
         yChannelSelector="G"
         scale="13.690758453556365"
         in="fbSourceGraphic"
         in2="turbulence"
         id="feDisplacementMap4548-8-0-9-2-2" />
      <feColorMatrix
         id="feColorMatrix4670-7-7-3-9-9"
         values="0 0 0 -1 0 0 0 0 -1 0 0 0 0 -1 0 0 0 0 1 0"
         in="fbSourceGraphic"
         result="fbSourceGraphicAlpha" />
      <feFlood
         in="fbSourceGraphic"
         result="flood"
         flood-color="rgb(28,28,28)"
         flood-opacity="1"
         id="feFlood4672-4-4-5-1-1" />
      <feComposite
         result="composite1"
         operator="in"
         in="flood"
         in2="fbSourceGraphic"
         id="feComposite4674-8-3-7-2-2" />
      <feGaussianBlur
         result="blur"
         stdDeviation="0"
         in="composite1"
         id="feGaussianBlur4676-3-7-08-7-7" />
      <feOffset
         result="offset"
         dy="12.957991414995334"
         dx="5.2324892869636273"
         id="feOffset4678-6-9-1-0-0" />
      <feComposite
         result="composite2"
         operator="over"
         in="fbSourceGraphic"
         in2="offset"
         id="feComposite4680-4-0-9-9-9" />
    </filter>
    <filter
       inkscape:label="soundFX1"
       id="filter4375-4-1-1-1-9-5-8-8-5-5-3-3-3-0"
       style="color-interpolation-filters:sRGB"
       x="-0.03241268"
       y="-0.1572071"
       width="1.0708213"
       height="1.2522425">
      <feFlood
         result="flood"
         flood-color="rgb(52,52,52)"
         flood-opacity="1"
         id="feFlood4377-7-9-0-8-1-7-3-1-2-7-6-6-5-96" />
      <feComposite
         baseFrequency="0.053999999999999999 0.053999999999999999"
         result="composite1"
         operator="in"
         in="flood"
         in2="SourceGraphic"
         id="feComposite4379-3-8-8-2-77-4-1-0-6-4-7-7-6-3" />
      <feMorphology
         result="result3"
         radius="5.1135076992753623"
         operator="dilate"
         id="feMorphology4393-1-0-49-8-9-3-0-1-9-9-5-5-2-8" />
      <feComposite
         result="fbSourceGraphic"
         operator="over"
         in="SourceGraphic"
         in2="result3"
         id="feComposite4385-9-5-7-0-8-8-7-5-4-9-3-3-9-5" />
      <feColorMatrix
         id="feColorMatrix4544-9-4-4-5-5-1-6"
         values="0 0 0 -1 0 0 0 0 -1 0 0 0 0 -1 0 0 0 0 1 0"
         in="fbSourceGraphic"
         result="fbSourceGraphicAlpha" />
      <feTurbulence
         result="turbulence"
         baseFrequency="0.046080819231719368"
         seed="147"
         numOctaves="4"
         type="fractalNoise"
         id="feTurbulence4546-3-6-5-6-6-2-1" />
      <feDisplacementMap
         result="fbSourceGraphic"
         xChannelSelector="R"
         yChannelSelector="G"
         scale="13.20326"
         in="fbSourceGraphic"
         in2="turbulence"
         id="feDisplacementMap4548-8-0-9-2-2-7-1" />
      <feColorMatrix
         id="feColorMatrix4670-7-7-3-9-9-0-5"
         values="0 0 0 -1 0 0 0 0 -1 0 0 0 0 -1 0 0 0 0 1 0"
         in="fbSourceGraphic"
         result="fbSourceGraphicAlpha" />
      <feFlood
         in="fbSourceGraphic"
         result="flood"
         flood-color="rgb(28,28,28)"
         flood-opacity="1"
         id="feFlood4672-4-4-5-1-1-9-9" />
      <feComposite
         result="composite1"
         operator="in"
         in="flood"
         in2="fbSourceGraphic"
         id="feComposite4674-8-3-7-2-2-3-8" />
      <feGaussianBlur
         result="blur"
         stdDeviation="0"
         in="composite1"
         id="feGaussianBlur4676-3-7-08-7-7-6-4" />
      <feOffset
         result="offset"
         dy="-3.6141922224813356"
         dx="1.0219896610696537"
         id="feOffset4678-6-9-1-0-0-0-8" />
      <feComposite
         result="composite2"
         operator="over"
         in="fbSourceGraphic"
         in2="offset"
         id="feComposite4680-4-0-9-9-9-6-1" />
    </filter>
    <filter
       inkscape:label="soundFX1"
       id="filter4375-4-1-1-1-9-5-8-8-5-5-3-3-3-4"
       style="color-interpolation-filters:sRGB"
       x="-0.020691768"
       y="-0.021975237"
       width="1.026665"
       height="1.0477034">
      <feFlood
         result="flood"
         flood-color="rgb(52,52,52)"
         flood-opacity="1"
         id="feFlood4377-7-9-0-8-1-7-3-1-2-7-6-6-5-5" />
      <feComposite
         baseFrequency="0.053999999999999999 0.053999999999999999"
         result="composite1"
         operator="in"
         in="flood"
         in2="SourceGraphic"
         id="feComposite4379-3-8-8-2-77-4-1-0-6-4-7-7-6-0" />
      <feMorphology
         result="result3"
         radius="1.8999624943387681"
         operator="dilate"
         id="feMorphology4393-1-0-49-8-9-3-0-1-9-9-5-5-2-3" />
      <feComposite
         result="fbSourceGraphic"
         operator="over"
         in="SourceGraphic"
         in2="result3"
         id="feComposite4385-9-5-7-0-8-8-7-5-4-9-3-3-9-6" />
      <feColorMatrix
         id="feColorMatrix4544-9-4-4-5-5-1-1"
         values="0 0 0 -1 0 0 0 0 -1 0 0 0 0 -1 0 0 0 0 1 0"
         in="fbSourceGraphic"
         result="fbSourceGraphicAlpha" />
      <feTurbulence
         result="turbulence"
         baseFrequency="0.03818384303719944"
         seed="88"
         numOctaves="3"
         type="fractalNoise"
         id="feTurbulence4546-3-6-5-6-6-2-0" />
      <feDisplacementMap
         result="fbSourceGraphic"
         xChannelSelector="R"
         yChannelSelector="G"
         scale="9.6365525"
         in="fbSourceGraphic"
         in2="turbulence"
         id="feDisplacementMap4548-8-0-9-2-2-7-6" />
      <feColorMatrix
         id="feColorMatrix4670-7-7-3-9-9-0-3"
         values="0 0 0 -1 0 0 0 0 -1 0 0 0 0 -1 0 0 0 0 1 0"
         in="fbSourceGraphic"
         result="fbSourceGraphicAlpha" />
      <feFlood
         in="fbSourceGraphic"
         result="flood"
         flood-color="rgb(28,28,28)"
         flood-opacity="1"
         id="feFlood4672-4-4-5-1-1-9-20" />
      <feComposite
         result="composite1"
         operator="in"
         in="flood"
         in2="fbSourceGraphic"
         id="feComposite4674-8-3-7-2-2-3-6" />
      <feGaussianBlur
         result="blur"
         stdDeviation="0"
         in="composite1"
         id="feGaussianBlur4676-3-7-08-7-7-6-1" />
      <feOffset
         result="offset"
         dy="0.39217365321829334"
         dx="-5.6583689219916096"
         id="feOffset4678-6-9-1-0-0-0-5" />
      <feComposite
         result="composite2"
         operator="over"
         in="fbSourceGraphic"
         in2="offset"
         id="feComposite4680-4-0-9-9-9-6-5" />
    </filter>
    <filter
       inkscape:label="soundFX1"
       id="filter4375-4-1-1-1-9-5-8-8-5-5-3-3-3-4-2"
       style="color-interpolation-filters:sRGB">
      <feFlood
         result="flood"
         flood-color="rgb(52,52,52)"
         flood-opacity="1"
         id="feFlood4377-7-9-0-8-1-7-3-1-2-7-6-6-5-5-6" />
      <feComposite
         baseFrequency="0.053999999999999999 0.053999999999999999"
         result="composite1"
         operator="in"
         in="flood"
         in2="SourceGraphic"
         id="feComposite4379-3-8-8-2-77-4-1-0-6-4-7-7-6-0-1" />
      <feMorphology
         result="result3"
         radius="1.8999624943387681"
         operator="dilate"
         id="feMorphology4393-1-0-49-8-9-3-0-1-9-9-5-5-2-3-8" />
      <feComposite
         result="fbSourceGraphic"
         operator="over"
         in="SourceGraphic"
         in2="result3"
         id="feComposite4385-9-5-7-0-8-8-7-5-4-9-3-3-9-6-7" />
      <feColorMatrix
         id="feColorMatrix4544-9-4-4-5-5-1-1-9"
         values="0 0 0 -1 0 0 0 0 -1 0 0 0 0 -1 0 0 0 0 1 0"
         in="fbSourceGraphic"
         result="fbSourceGraphicAlpha" />
      <feTurbulence
         result="turbulence"
         baseFrequency="0.03818384303719944"
         seed="88"
         numOctaves="3"
         type="fractalNoise"
         id="feTurbulence4546-3-6-5-6-6-2-0-2" />
      <feDisplacementMap
         result="fbSourceGraphic"
         xChannelSelector="R"
         yChannelSelector="G"
         scale="9.6365525"
         in="fbSourceGraphic"
         in2="turbulence"
         id="feDisplacementMap4548-8-0-9-2-2-7-6-0" />
      <feColorMatrix
         id="feColorMatrix4670-7-7-3-9-9-0-3-2"
         values="0 0 0 -1 0 0 0 0 -1 0 0 0 0 -1 0 0 0 0 1 0"
         in="fbSourceGraphic"
         result="fbSourceGraphicAlpha" />
      <feFlood
         in="fbSourceGraphic"
         result="flood"
         flood-color="rgb(28,28,28)"
         flood-opacity="1"
         id="feFlood4672-4-4-5-1-1-9-20-3" />
      <feComposite
         result="composite1"
         operator="in"
         in="flood"
         in2="fbSourceGraphic"
         id="feComposite4674-8-3-7-2-2-3-6-7" />
      <feGaussianBlur
         result="blur"
         stdDeviation="0"
         in="composite1"
         id="feGaussianBlur4676-3-7-08-7-7-6-1-5" />
      <feOffset
         result="offset"
         dy="0.39217365321829334"
         dx="-5.6583689219916096"
         id="feOffset4678-6-9-1-0-0-0-5-9" />
      <feComposite
         result="composite2"
         operator="over"
         in="fbSourceGraphic"
         in2="offset"
         id="feComposite4680-4-0-9-9-9-6-5-2" />
    </filter>
    <filter
       inkscape:label="soundFX1"
       id="filter4375-4-1-1-1-9-5-8-8-5-5-3-3-3-4-3"
       style="color-interpolation-filters:sRGB"
       x="-0.020691768"
       y="-0.021975237"
       width="1.026665"
       height="1.0477034">
      <feFlood
         result="flood"
         flood-color="rgb(52,52,52)"
         flood-opacity="1"
         id="feFlood4377-7-9-0-8-1-7-3-1-2-7-6-6-5-5-67" />
      <feComposite
         baseFrequency="0.053999999999999999 0.053999999999999999"
         result="composite1"
         operator="in"
         in="flood"
         in2="SourceGraphic"
         id="feComposite4379-3-8-8-2-77-4-1-0-6-4-7-7-6-0-5" />
      <feMorphology
         result="result3"
         radius="1.8999624943387681"
         operator="dilate"
         id="feMorphology4393-1-0-49-8-9-3-0-1-9-9-5-5-2-3-3" />
      <feComposite
         result="fbSourceGraphic"
         operator="over"
         in="SourceGraphic"
         in2="result3"
         id="feComposite4385-9-5-7-0-8-8-7-5-4-9-3-3-9-6-5" />
      <feColorMatrix
         id="feColorMatrix4544-9-4-4-5-5-1-1-6"
         values="0 0 0 -1 0 0 0 0 -1 0 0 0 0 -1 0 0 0 0 1 0"
         in="fbSourceGraphic"
         result="fbSourceGraphicAlpha" />
      <feTurbulence
         result="turbulence"
         baseFrequency="0.03818384303719944"
         seed="88"
         numOctaves="3"
         type="fractalNoise"
         id="feTurbulence4546-3-6-5-6-6-2-0-29" />
      <feDisplacementMap
         result="fbSourceGraphic"
         xChannelSelector="R"
         yChannelSelector="G"
         scale="9.6365525"
         in="fbSourceGraphic"
         in2="turbulence"
         id="feDisplacementMap4548-8-0-9-2-2-7-6-1" />
      <feColorMatrix
         id="feColorMatrix4670-7-7-3-9-9-0-3-27"
         values="0 0 0 -1 0 0 0 0 -1 0 0 0 0 -1 0 0 0 0 1 0"
         in="fbSourceGraphic"
         result="fbSourceGraphicAlpha" />
      <feFlood
         in="fbSourceGraphic"
         result="flood"
         flood-color="rgb(28,28,28)"
         flood-opacity="1"
         id="feFlood4672-4-4-5-1-1-9-20-0" />
      <feComposite
         result="composite1"
         operator="in"
         in="flood"
         in2="fbSourceGraphic"
         id="feComposite4674-8-3-7-2-2-3-6-9" />
      <feGaussianBlur
         result="blur"
         stdDeviation="0"
         in="composite1"
         id="feGaussianBlur4676-3-7-08-7-7-6-1-3" />
      <feOffset
         result="offset"
         dy="0.39217365321829334"
         dx="-5.6583689219916096"
         id="feOffset4678-6-9-1-0-0-0-5-6" />
      <feComposite
         result="composite2"
         operator="over"
         in="fbSourceGraphic"
         in2="offset"
         id="feComposite4680-4-0-9-9-9-6-5-0" />
    </filter>
    <path
       inkscape:connector-curvature="0"
       sodipodi:nodetypes="cc"
       id="path974-3"
       d="M -782.19308,325.4414 C -589.01028,245.86428 -187.91734,67.856922 -31.335687,8.6587174"
       style="fill:none;fill-rule:evenodd;stroke:none;stroke-width:1.13654006px;stroke-linecap:butt;stroke-linejoin:miter;stroke-opacity:1" />
    <filter
       inkscape:label="soundFX1"
       id="filter4375-4-1-1-1-9-5-8-8-5-5-3-3-6"
       style="color-interpolation-filters:sRGB"
       x="-0.084506338"
       y="-0.051031324"
       width="1.2243968"
       height="1.1848878">
      <feFlood
         result="flood"
         flood-color="rgb(255,255,255)"
         flood-opacity="1"
         id="feFlood4377-7-9-0-8-1-7-3-1-2-7-6-6-7" />
      <feComposite
         baseFrequency="0.053999999999999999 0.053999999999999999"
         result="composite1"
         operator="in"
         in="flood"
         in2="SourceGraphic"
         id="feComposite4379-3-8-8-2-77-4-1-0-6-4-7-7-5" />
      <feMorphology
         result="result3"
         radius="7.5999999999999996"
         operator="dilate"
         id="feMorphology4393-1-0-49-8-9-3-0-1-9-9-5-5-3" />
      <feComposite
         result="fbSourceGraphic"
         operator="over"
         in="SourceGraphic"
         in2="result3"
         id="feComposite4385-9-5-7-0-8-8-7-5-4-9-3-3-5" />
      <feColorMatrix
         id="feColorMatrix4544-9-4-4-5-5-6"
         values="0 0 0 -1 0 0 0 0 -1 0 0 0 0 -1 0 0 0 0 1 0"
         in="fbSourceGraphic"
         result="fbSourceGraphicAlpha" />
      <feTurbulence
         result="turbulence"
         baseFrequency="0.063613027137887024"
         seed="143"
         numOctaves="2"
         type="fractalNoise"
         id="feTurbulence4546-3-6-5-6-6-2" />
      <feDisplacementMap
         result="fbSourceGraphic"
         xChannelSelector="R"
         yChannelSelector="G"
         scale="13.690758"
         in="fbSourceGraphic"
         in2="turbulence"
         id="feDisplacementMap4548-8-0-9-2-2-9" />
      <feColorMatrix
         id="feColorMatrix4670-7-7-3-9-9-1"
         values="0 0 0 -1 0 0 0 0 -1 0 0 0 0 -1 0 0 0 0 1 0"
         in="fbSourceGraphic"
         result="fbSourceGraphicAlpha" />
      <feFlood
         in="fbSourceGraphic"
         result="flood"
         flood-color="rgb(28,28,28)"
         flood-opacity="1"
         id="feFlood4672-4-4-5-1-1-2" />
      <feComposite
         result="composite1"
         operator="in"
         in="flood"
         in2="fbSourceGraphic"
         id="feComposite4674-8-3-7-2-2-7" />
      <feGaussianBlur
         result="blur"
         stdDeviation="0"
         in="composite1"
         id="feGaussianBlur4676-3-7-08-7-7-0" />
      <feOffset
         result="offset"
         dy="12.957991414995334"
         dx="5.2324892869636273"
         id="feOffset4678-6-9-1-0-0-9" />
      <feComposite
         result="composite2"
         operator="over"
         in="fbSourceGraphic"
         in2="offset"
         id="feComposite4680-4-0-9-9-9-3" />
    </filter>
  </defs>
  <sodipodi:namedview
     inkscape:snap-global="false"
     inkscape:document-rotation="0"
     inkscape:current-layer="layer1"
     inkscape:window-maximized="1"
     inkscape:window-y="0"
     inkscape:window-x="32"
     inkscape:cy="817.93749"
     inkscape:cx="1421.6875"
     inkscape:zoom="0.34782609"
     showgrid="false"
     id="namedview4"
     inkscape:window-height="1144"
     inkscape:window-width="1888"
     inkscape:pageshadow="2"
     inkscape:pageopacity="0"
     guidetolerance="10"
     gridtolerance="10"
     objecttolerance="10"
     borderopacity="1"
     bordercolor="#666666"
     pagecolor="#ffffff"
     inkscape:showpageshadow="0"
     inkscape:pagecheckerboard="0"
     inkscape:deskcolor="#d1d1d1" />
  <g
     sodipodi:insensitive="true"
     inkscape:label="artwork"
     id="layer2"
     inkscape:groupmode="layer">
    <image
       xlink:href="../gfx_Pepper-and-Carrot_by-David-Revoy_E34P07.png"
       width="2481"
       height="3503"
       id="image10"
       x="0"
       y="0" />
  </g>
  <g
     style="display:inline"
     inkscape:label="speechbubbles"
     id="layer3"
     inkscape:groupmode="layer">
    <path
       sodipodi:nodetypes="cccccccccccccccccccccccccccccccccc"
       id="path1421"
       d="m 1641.4472,2533.1783 c 17.5456,-16.5174 64.6439,-28.8956 6.7232,-55.9838 30.927,-1.5426 63.1217,-18.1329 34.3056,-51.8469 7.644,-17.2464 22.6919,-14.8848 -18.154,-60.06 31.3647,9.2322 76.3887,19.6248 37.9655,-37.8144 31.5407,12.493 74.4061,-0.1359 76.0706,-21.5442 44.6858,35.1086 71.0139,22.322 72.5423,-7.6864 50.6092,44.7676 82.8017,31.2533 98.6639,7.6299 28.6565,21.3803 54.7958,24.5933 95.166,-4.386 -12.7921,30.8326 16.6639,23.862 53.4908,3.8978 -8.607,30.0642 19.2945,23.1626 50.9279,-8.4175 -44.0759,45.9156 8.9306,37.5686 75.2898,19.46 -7.3524,14.7453 -12.3986,28.1412 45.2678,4.8405 -6.0519,5.4813 -56.9224,46.5129 34.8062,26.2384 -26.6643,18.2787 -6.4808,31.1176 37.7509,32.717 -25.3,16.5949 -18.0447,35.7406 17.8739,44.5017 -38.8396,28.7681 4.6192,32.8414 22.4317,44.6103 -28.4274,11.2591 -84.6484,30.7265 -6.9234,56.7867 -83.4594,1.2348 -53.8993,35.4763 -21.5317,61.9758 -101.232,-21.5306 -91.35,18.3579 -51.3024,44.3494 -53.5967,-7.8349 -74.8253,-2.2343 -66.2115,15.7537 -50.0605,-18.9813 -54.6829,-11.2409 -55.2594,-1.1215 -54.6259,-22.7493 -48.9747,-5.1603 -56.3343,3.7219 -28.705,-21.4369 -48.7948,-22.754 -59.7282,-2.6861 -21.7188,-8.3624 -48.0436,-21.3191 -65.2108,12.9669 -15.9088,-34.0727 -39.0148,-35.4435 -53.0299,-4.7601 -4.2699,-42.9631 -61.2901,-19.6722 -62.1514,1.5958 -4.1405,-22.2496 -13.87,-49.3975 -57.5667,-16.7139 -11.0907,-10.0274 0.8752,-40.2608 -69.9575,15.0264 40.4948,-55.674 -7.3506,-26.472 -26.9561,-16.326 6.6028,-18.4813 19.6521,-43.2491 -39.2012,-29.7369 32.3828,-28.1234 -23.3341,-9.9093 -42.9056,-7.142 54.4983,-25.9974 33.434,-32.0228 15.0642,-38.7611 28.8293,-11.1342 -1.4547,-21.0048 -21.9162,-31.0854 z"
       style="fill:#ffffff;fill-rule:evenodd;stroke:none;stroke-width:1.10839045px;stroke-linecap:butt;stroke-linejoin:miter;stroke-opacity:1"
       inkscape:connector-curvature="0" />
    <path
       sodipodi:nodetypes="cccc"
       id="path1397-8"
       d="m 1334.1166,2234.6868 c 25.4015,54.7414 43.2457,117.8561 85.6932,153.7108 l -76.0086,-3.8011 c 22.6984,-22.0351 0.7056,-92.223 -9.6846,-149.9097 z"
       style="fill:#ffffff;fill-rule:evenodd;stroke:none;stroke-width:1px;stroke-linecap:butt;stroke-linejoin:miter;stroke-opacity:1" />
    <path
       sodipodi:nodetypes="cccccccccccccccccccccccccc"
       id="path1399"
       d="m 1175.3521,2374.6177 c 66.4648,34.5237 48.8411,-9.2676 50.0646,-35.5058 26.3043,32.6485 52.5131,64.777 60.6847,-1.3314 16.5294,45.8971 35.2211,73.6393 64.6981,10.8193 12.8332,37.3316 20.6108,48.1193 99.7499,-33.0888 -7.0728,30.9602 -29.446,90.9098 77.9286,21.0612 4.3017,8.4037 -101.3465,114.2412 63.7604,-7.2517 -33.215,40.6476 -94.9819,99.5965 10.0664,51.6188 -49.9222,44.9289 -66.6105,79.7529 28.08,80.7114 -37.672,29.1497 -74.342,58.1137 4.4891,65.6677 -31.2474,14.8709 -76.0731,30.6041 -7.7743,39.1532 -61.6788,12.5072 -56.8223,25.6177 -23.7467,38.9841 -72.8826,-6.6937 -68.6725,10.31 -31.0192,37.5937 -110.7728,-40.9603 -111.6905,-16.5195 -114.668,6.6949 -90.3844,-43.6017 -58.4814,-1.0345 -65.329,14.2271 -32.8383,-38.0722 -70.7753,-45.1514 -116.6846,-3.7724 -27.0891,-14.1256 -39.8247,-46.868 -106.0168,-12.0856 15.7035,-29.0306 -10.446,-48.1695 -63.1017,-27.5235 39.0753,-36.9133 4.2573,-44.9044 -48.0693,-27.2799 35.4878,-33.3306 34.2961,-46.9434 0.5228,-50.9039 57.069,-29.4856 17.5828,-48.0624 -42.2523,-64.3403 42.4243,-7.6194 97.0801,-12.204 27.2347,-47.6789 55.7717,6.676 83.9298,4.1159 30.2432,-25.8195 36.945,11.2828 64.6785,12.703 51.1967,-30.0055 68.5102,31.7294 52.527,11.7964 49.9427,0.056 z"
       style="fill:#ffffff;fill-rule:evenodd;stroke:none;stroke-width:1.1007px;stroke-linecap:butt;stroke-linejoin:miter;stroke-opacity:1" />
    <path
       sodipodi:nodetypes="cccc"
       id="path1397"
       d="m 654.8869,2268.5731 c 14.8329,72.713 20.49189,156.5482 56.01714,204.174 l -75.27475,-5.049 c 26.95263,-29.2692 18.51062,-122.4998 19.25761,-199.125 z"
       style="fill:#ffffff;fill-rule:evenodd;stroke:none;stroke-width:0.999996px;stroke-linecap:butt;stroke-linejoin:miter;stroke-opacity:1" />
    <path
       sodipodi:nodetypes="cccccccccccccc"
       id="path1395"
       d="m 581.7087,2439.6961 c 29.95466,29.3267 47.10442,45.1425 50.33957,-3.63 15.00656,17.7476 31.47607,6.0272 24.28588,-52.9866 20.09128,55.913 35.35421,56.6475 41.42955,19.4487 20.78862,51.8771 28.50363,31.6162 37.23621,16.9702 12.1674,32.9894 22.53963,22.7204 31.8349,-13.5011 13.34186,70.0508 21.4933,42.9747 31.75205,11.4699 7.44052,76.9124 20.08464,27.642 32.77071,16.1548 -5.72905,68.2827 14.14339,38.5022 24.94256,43.4757 l 0.3716,185.0051 -283.53731,-2.3772 c 15.47544,-20.9349 28.86906,-43.0178 6.95998,-84.5686 8.9847,-7.9203 20.33293,-13.7791 -10.57801,-56.4972 22.61672,-1.9895 35.70535,-16.4752 12.19231,-78.9637 z"
       style="fill:#ffffff;fill-rule:evenodd;stroke:none;stroke-width:0.885514px;stroke-linecap:butt;stroke-linejoin:miter;stroke-opacity:1" />
    <path
       sodipodi:nodetypes="cccc"
       inkscape:connector-curvature="0"
       id="path1111-7"
       d="m 499.11056,1834.7339 -139.22494,-175.3756 -41.36363,4.3518 c 67.65771,69.4613 71.1147,77.1365 180.58857,171.0238 z"
       style="fill:#ffffff;fill-rule:evenodd;stroke:none;stroke-width:1px;stroke-linecap:butt;stroke-linejoin:miter;stroke-opacity:1" />
    <path
       sodipodi:nodetypes="ccccccccccccccccccc"
       id="path1384"
       d="m 73.780574,1716.8697 c 36.870786,-21.9713 70.751176,-38.1389 42.769256,65.7537 34.05724,-34.6954 67.80952,-68.602 65.44269,-9.0892 18.56162,-11.268 32.70199,-10.1403 41.79311,5.1442 9.00875,-18.391 19.09261,-28.3908 33.39292,-5.4805 26.11437,-56.0304 40.15258,-20.4588 53.16038,22.9287 3.60313,-20.2317 7.33291,-39.9355 19.88213,-22.876 13.11678,-31.668 34.67436,-29.2538 49.72537,-5.535 l 13.15564,35.7464 c -7.41982,-45.7503 -12.64328,-74.9157 46.93789,-46.2233 -10.38408,-25.0985 18.02544,-34.8006 59.20499,-22.2037 -11.39192,-28.5413 -22.87328,-57.111 48.50814,-59.1593 -36.79133,-42.6333 0.77783,-53.5985 78.59287,-47.424 -64.30998,-33.4124 -38.75489,-57.7651 -23.78503,-83.1847 -38.43641,-23.3592 -4.26558,-48.1615 38.88196,-73.1422 -72.9732,-9.2385 -21.67875,-24.7451 -16.69735,-37.9157 l -572.124638,-10.6156 5.304769,280.6771 z"
       style="fill:#ffffff;fill-rule:evenodd;stroke:none;stroke-width:0.99047011px;stroke-linecap:butt;stroke-linejoin:miter;stroke-opacity:1"
       inkscape:connector-curvature="0" />
    <path
       sodipodi:nodetypes="cccccccccccccccccccccccccc"
       id="path1373"
       d="m 384.27217,922.69956 c 21.53575,6.49155 35.46157,4.81198 36.513,-10.69129 10.02795,-1.18503 23.06298,15.92161 25.83873,-29.37752 11.94117,10.62975 22.50689,14.96474 30.58788,7.92835 8.40151,7.47577 12.08305,-0.81548 15.71349,-9.27737 6.79315,8.37603 13.58628,13.51234 20.37941,2.34182 2.69853,23.30423 12.2313,27.26525 18.85386,29.84951 10.30127,-0.86923 32.92748,-1.90176 42.47459,-21.69449 -7.12829,26.89996 10.52436,11.38146 24.2423,0.29127 -16.0159,32.78954 -4.84724,37.2347 38.43846,28.78931 -19.44306,7.68079 -52.06655,18.36993 -16.06603,13.39607 -35.74034,19.5955 -4.87911,20.39351 12.40223,17.60984 0.41364,5.99794 -23.91345,13.10451 11.25719,27.66631 -7.34748,4.26475 -32.857,-5.95478 -11.85367,20.91983 -40.76749,-14.83362 -47.0999,-8.58029 -26.90995,15.8762 -48.42235,-30.5077 -37.58934,2.1972 -38.6229,22.2431 -10.051,-21.7373 -20.09102,-42.75834 -29.45136,-19.4057 -5.11002,-13.4432 -13.6596,7.1759 -21.68712,22.625 1.57506,-26.0869 -2.85941,-40.2343 -21.30295,-26.5489 -5.75219,-5.0165 -3.77431,-19.27263 -37.10976,8.6812 3.02342,-16.5667 -2.82728,-14.7846 -9.73297,-10.821 -7.10082,-2.2653 -5.72545,-12.6407 -31.44685,2.9106 9.84562,-16.81363 7.41488,-25.29079 -0.12521,-30.29835 -14.50977,-10.5268 -31.00995,-14.31827 -49.17586,-12.47297 11.08413,-4.29786 24.62332,-5.4901 25.3894,-22.84055 6.54522,-4.42169 5.30967,-12.8204 -8.60591,-27.70027 z"
       style="fill:#ffffff;fill-rule:evenodd;stroke:none;stroke-width:1.05426px;stroke-linecap:butt;stroke-linejoin:miter;stroke-opacity:1" />
    <path
       transform="matrix(1.2353531,-0.09540406,0,1.2562259,-87.04811,189.50525)"
       sodipodi:nodetypes="csssssc"
       inkscape:connector-curvature="0"
       id="path3986-45"
       d="m 181.47423,238.56133 c 0,-59.7361 13.09665,-137.30912 101.52845,-142.909522 88.4319,-5.6002 170.85502,11.959242 209.60612,31.560142 38.751,19.601 47.37342,84.70884 30.92692,121.28253 -14.89463,33.12265 5.84895,86.38003 -82.58285,83.57993 -88.4319,-2.8002 -142.20375,16.08508 -189.89735,2.08438 -47.6936,-14.0007 -65.60679,-47.99526 -69.58129,-95.59746 z"
       style="color:#000000;display:inline;overflow:visible;visibility:visible;fill:#0f0f0f;fill-opacity:1;fill-rule:nonzero;stroke:none;stroke-width:0.73643px;marker:none;filter:url(#filter3018-9-9);enable-background:accumulate" />
    <path
       sodipodi:nodetypes="cccscccc"
       inkscape:connector-curvature="0"
       id="path4456-10"
       d="m 599.80325,583.95304 c -58.57262,16.45031 -71.19089,3.0084 -90.27717,-5.94076 0.66082,-5.50351 28.21165,-20.15792 28.21165,-20.15792 0,0 -70.59135,-2.22142 -84.00623,-11.8735 -13.41411,-9.65269 3.85672,-34.87348 3.85672,-34.87348 0,0 89.58291,33.39635 107.09398,35.23393 -2.52266,14.92714 -19.90063,20.9447 -23.37713,25.61838 9.48121,8.01825 37.46946,17.19211 58.49818,11.99335 z"
       style="color:#000000;display:inline;overflow:visible;visibility:visible;fill:#000000;fill-opacity:1;fill-rule:nonzero;stroke:none;stroke-width:1px;marker:none;enable-background:accumulate" />
    <path
       sodipodi:nodetypes="cccccccc"
       inkscape:connector-curvature="0"
       id="path5066-9"
       d="m 588.58428,985.1883 c 13.46613,13.42935 32.4998,36.5734 34.47564,41.4721 -5.75056,-0.7967 -8.85791,2.3627 -12.80297,2.624 4.35005,8.8618 38.46116,40.8692 47.5395,45.1566 -22.47583,-9.3947 -66.25773,-37.7705 -72.41706,-52.7204 4.994,-1.3996 8.98317,-2.4672 11.58492,-3.2811 -2.75433,-7.5763 -26.75978,-25.87314 -26.75978,-25.87314 z"
       style="color:#000000;display:inline;overflow:visible;visibility:visible;fill:#ffffff;fill-opacity:1;fill-rule:nonzero;stroke:none;stroke-width:0.770015px;marker:none;enable-background:accumulate" />
    <path
       sodipodi:nodetypes="ccccsccccc"
       id="path1423"
       d="m 2105.6219,2180.3967 c 19.7952,7.2511 39.7188,16.9216 58.4942,32.5036 0.659,1.7153 -0.1184,13.4045 -13.9816,24.4813 9.7805,8.8999 26.9757,29.0069 28.9063,45.8339 -16.6424,26.5415 -70.6514,82.155 -100.4085,101.6665 -0.9778,0.6412 -10.8485,3.4463 -2.9062,1.7643 l -69.1777,-2.7281 c 42.2436,-18.4462 118.0005,-73.0054 143.0167,-106.7279 -6.354,-10.1375 -18.5646,-37.9872 -35.5242,-41.5593 48.805,-19.7239 7.6056,-42.2189 -8.419,-55.2343 z"
       style="fill:#ffffff;fill-rule:evenodd;stroke:none;stroke-width:0.999998px;stroke-linecap:butt;stroke-linejoin:miter;stroke-opacity:1" />
    <path
       inkscape:connector-curvature="0"
       id="path3525-0"
       d="m 1772.9159,2771.3502 c -41.7532,0.4604 -84.128,7.1149 -122.1443,25.0345 -16.1422,7.81 -31.111,19.9498 -38.3344,36.7614 -8.5633,18.7007 -9.8959,39.7067 -9.4373,59.9854 1.1483,15.8494 8.897,31.0541 21.0792,41.2668 17.008,15.5871 39.3909,23.2639 61.3494,28.8696 41.5455,10.4264 84.8299,11.5623 127.4004,8.9857 37.6378,-2.4065 75.6304,-8.2732 110.4955,-23.2287 20.4178,-10.16 36.2779,-30.211 39.1598,-53.1068 4.481,-26.605 -3.6677,-55.8409 -23.6735,-74.442 -15.9068,-14.4209 -36.1478,-22.5007 -55.6489,-30.7632 -35.0051,-13.6417 -72.7471,-19.7144 -110.2459,-19.3627 z"
       style="color:#000000;display:inline;overflow:visible;visibility:visible;fill:#ffffff;fill-opacity:1;fill-rule:nonzero;stroke:none;stroke-width:0.976411px;marker:none;enable-background:accumulate" />
    <path
       sodipodi:nodetypes="cscscsccc"
       inkscape:connector-curvature="0"
       id="path1085"
       d="m 1696.1492,2922.6747 c -4.9424,15.7994 -8.5741,32.3607 -17.5078,46.5371 -5.7283,8.1716 -15.2584,12.5651 -24.6347,15.0798 -5.6543,1.5241 -11.7641,3.905 -14.8497,9.2288 -2.7865,6.0841 -0.4659,13.2551 3.5433,18.2155 5.0949,7.3005 11.4587,13.6871 15.902,21.4447 -1.1158,4.5821 -5.7661,6.9174 -9.8551,8.3524 -9.2915,3.1977 -19.3098,2.3975 -28.9183,1.8976 1.7343,1.225 3.9299,1.9165 5.9242,2.7369 10.3208,3.8115 22.2678,4.033 32.2472,-0.9403 7.5898,-2.9189 12.1516,-11.4958 10.9704,-19.4422 -0.4723,-4.1648 -2.5775,-7.8778 -4.8639,-11.2964 -1.8832,-3.3454 -3.6942,-6.7307 -5.5357,-10.0991 1.4457,-3.516 5.4974,-4.9482 8.9822,-5.444 3.951,-0.4545 8.0141,-0.6502 11.6917,-2.3226 12.9323,-4.6802 23.7976,-13.8407 32.4428,-24.3579 5.2226,-6.772 8.8363,-15.5171 7.1723,-24.1743 -1.9937,-11.8066 -11.0027,-22.2669 -22.5879,-25.5371 z m -80.1426,118.8203 v -0.1758 z"
       style="fill:#ffffff;fill-rule:evenodd;stroke:none;stroke-width:1px;stroke-linecap:butt;stroke-linejoin:miter;stroke-opacity:1" />
    <path
       sodipodi:nodetypes="ccccccccccccccc"
       inkscape:connector-curvature="0"
       id="path3549-3-8"
       d="m 1541.6457,2879.3599 c 3.2656,-8.1499 20.708,-33.3934 25.8126,-6.6884 37.5848,-35.7584 83.9675,-23.1582 94.2487,-17.9476 -4.7443,-10.586 4.8211,-29.614 32.1407,-24.9355 -5.1907,-10.2267 2.6466,-17.9058 22.1083,-23.3107 -27.5805,-4.7844 -33.4099,-11.0078 15.1145,-20.8321 -37.7865,1.4728 -73.156,2.0884 -32.3673,-24.3013 -13.9552,0.2138 -44.0061,22.0077 -37.0338,-37.152 -21.1736,20.0194 -45.1359,31.7672 -82.6678,-5.4978 -7.5925,15.9924 -20.7573,27.2492 -51.9999,7.8015 -3.8346,15.6625 -37.7023,18.8726 -50.6806,16.4738 27.7211,15.695 28.3827,26.389 -5.6747,29.9985 61.95,27.6041 14.2821,25.6281 6.137,33.9881 46.6872,8.0678 28.3825,22.4483 22.2369,36.0923 51.9703,-2.5073 38.0193,19.6018 42.6254,36.3112 z"
       style="color:#000000;display:inline;overflow:visible;visibility:visible;fill:#ffffff;fill-opacity:1;fill-rule:nonzero;stroke:none;stroke-width:0.850124px;marker:none;enable-background:accumulate" />
  </g>
  <g
     inkscape:label="txt"
     id="layer1"
     inkscape:groupmode="layer">
    <text
       transform="scale(0.97214513,1.028653)"
       id="text4180"
       y="361.98544"
       x="360.53488"
       style="font-style:normal;font-variant:normal;font-weight:normal;font-stretch:normal;font-size:13.97340012px;line-height:0%;font-family:Lavi;-inkscape-font-specification:Lavi;text-align:center;letter-spacing:0px;word-spacing:0px;text-anchor:middle;fill:#ffffff;fill-opacity:1;stroke:none;stroke-width:1.16445005"
       xml:space="preserve"><tspan
         style="font-style:normal;font-variant:normal;font-weight:normal;font-stretch:normal;font-size:58.74259949px;line-height:1.25;font-family:'Drukaatie burti';-inkscape-font-specification:'Drukaatie burti';stroke-width:1.16445005"
         y="361.98544"
         x="360.53488"
         id="tspan4182"
         sodipodi:role="line">¡¡¡CURSUS</tspan><tspan
         id="tspan845"
         style="font-style:normal;font-variant:normal;font-weight:normal;font-stretch:normal;font-size:58.74259949px;line-height:1.25;font-family:'Drukaatie burti';-inkscape-font-specification:'Drukaatie burti';stroke-width:1.16445005"
         y="435.4137"
         x="360.53488"
         sodipodi:role="line">CANCELLARE</tspan><tspan
         id="tspan847"
         style="font-style:normal;font-variant:normal;font-weight:normal;font-stretch:normal;font-size:58.74259949px;line-height:1.25;font-family:'Drukaatie burti';-inkscape-font-specification:'Drukaatie burti';stroke-width:1.16445005"
         y="508.84195"
         x="360.53488"
         sodipodi:role="line">MAXIMUS!!!</tspan></text>
    <text
       y="979.88452"
       x="313.77448"
       transform="matrix(0.78930062,-0.13614632,0.09898673,1.1655785,2447.1548,256.46494)"
       id="text4580-6-0-0-0-9-3-3"
       style="font-style:normal;font-variant:normal;font-weight:normal;font-stretch:normal;font-size:140px;line-height:1.25;font-family:Lavi;-inkscape-font-specification:Lavi;letter-spacing:0px;word-spacing:0px;fill:#000000;fill-opacity:1;stroke:#000000;stroke-width:0.767697;stroke-miterlimit:4;stroke-dasharray:none;stroke-opacity:1;filter:url(#filter4375-4-1-1-1-9-5-8-8-5-5-3-3)"
       xml:space="preserve"><textPath
         rotate="30 30 30 30 30 30 30 30 0"
         style="font-size:140px;fill:#000000;stroke:#000000;stroke-width:0.767697;stroke-opacity:1"
         id="textPath2837"
         xlink:href="#path974"><tspan
   id="tspan182"
   style="font-size:199.522px;fill:#000000;stroke:#000000;stroke-width:0.767697;stroke-opacity:1"
   dy="0 5"><tspan
   style="letter-spacing:7.24516px"
   id="tspan2"
   dy="-5">¡</tspan>S</tspan><tspan
   id="tspan184"
   style="font-size:176.18px;fill:#000000;stroke:#000000;stroke-width:0.767697;stroke-opacity:1">H</tspan><tspan
   id="tspan186"
   style="font-size:164.509px;fill:#000000;stroke:#000000;stroke-width:0.767697;stroke-opacity:1">K</tspan><tspan
   id="tspan921"
   style="font-size:152.838px;fill:#000000;stroke:#000000;stroke-width:0.767697;stroke-opacity:1">L</tspan>AK!</textPath></text>
    <path
       sodipodi:nodetypes="cc"
       id="path974"
       d="M -782.19308,325.4414 C -589.01028,245.86428 -187.91734,67.856922 -31.335687,8.6587174"
       style="fill:none;fill-rule:evenodd;stroke:none;stroke-width:1.13654px;stroke-linecap:butt;stroke-linejoin:miter;stroke-opacity:1" />
    <text
       transform="matrix(0.93489145,0,-0.16751518,1.0696429,0,0)"
       id="text4246-3-2-2-6-3-7-9-3-3-56-9-3-20"
       y="914.20453"
       x="702.73871"
       style="font-style:normal;font-variant:normal;font-weight:normal;font-stretch:normal;font-size:55.74150085px;line-height:1.25;font-family:Lavi;-inkscape-font-specification:Lavi;text-align:center;letter-spacing:0px;word-spacing:0px;text-anchor:middle;fill:#000000;fill-opacity:1;stroke:none;stroke-width:1.15534997"
       xml:space="preserve"><tspan
         id="tspan334"
         y="914.20453"
         x="702.73871"
         sodipodi:role="line"
         style="font-style:normal;font-variant:normal;font-weight:bold;font-stretch:normal;font-size:55.74150085px;font-family:Lavi;-inkscape-font-specification:'Lavi Bold';stroke-width:1.15534997">¡Ay!</tspan></text>
    <text
       y="1245.0809"
       x="-607.91235"
       transform="matrix(1.296644,-0.59261719,-0.5584343,2.1151802,2801.1166,-1940.1494)"
       id="text4580-6-0-0-0-9-3-3-2-0"
       style="font-style:normal;font-variant:normal;font-weight:normal;font-stretch:normal;font-size:80px;line-height:1.25;font-family:Lavi;-inkscape-font-specification:Lavi;letter-spacing:0px;word-spacing:0px;fill:#ffffff;fill-opacity:1;stroke:#ffffff;stroke-width:0.822276;stroke-miterlimit:4;stroke-dasharray:none;stroke-opacity:1;filter:url(#filter4375-4-1-1-1-9-5-8-8-5-5-3-3-3-0)"
       xml:space="preserve"><tspan
         style="font-size:61.33710098px;stroke-width:0.822276"
         id="tspan1534-6">¡¡P<tspan
   id="tspan1009"
   style="font-size:52.43379974px;stroke-width:0.822276">AF</tspan>!!</tspan></text>
    <text
       id="text4246-3-2-2-6-3-7-9-3-3-56-9-3-20-3"
       y="1510.0261"
       x="326.93707"
       style="font-style:normal;font-variant:normal;font-weight:normal;font-stretch:normal;font-size:49.6795px;line-height:1.25;font-family:Lavi;-inkscape-font-specification:Lavi;text-align:center;letter-spacing:0px;word-spacing:0px;text-anchor:middle;fill:#000000;fill-opacity:1;stroke:none;stroke-width:1.10399"
       xml:space="preserve"><tspan
         id="tspan962"
         y="1510.0261"
         x="326.93707"
         sodipodi:role="line"
         style="font-size:49.6795px;stroke-width:1.10399">  ¡Ni siquiera tu mejor </tspan><tspan
         id="tspan147"
         y="1572.1255"
         x="326.93707"
         sodipodi:role="line"
         style="font-size:49.6795px;stroke-width:1.10399">  hechizo de anulación </tspan><tspan
         id="tspan153"
         y="1634.2249"
         x="326.93707"
         sodipodi:role="line"
         style="font-size:49.6795px;stroke-width:1.10399">tiene efecto</tspan><tspan
         id="tspan155"
         y="1696.3242"
         x="326.93707"
         sodipodi:role="line"
         style="font-size:49.6795px;stroke-width:1.10399">sobre mí!</tspan></text>
    <text
       id="text4246-3-2-2-6-3-7-9-3-3-56-9-3-20-3-7"
       y="2511.3972"
       x="724.83136"
       style="font-style:normal;font-variant:normal;font-weight:normal;font-stretch:normal;font-size:45px;line-height:1.25;font-family:Lavi;-inkscape-font-specification:Lavi;text-align:center;letter-spacing:0px;word-spacing:0px;text-anchor:middle;fill:#000000;fill-opacity:1;stroke:none"
       xml:space="preserve"><tspan
         id="tspan173"
         y="2511.3972"
         x="724.83136"
         sodipodi:role="line"
         style="font-size:45px">¡Ríndete,</tspan><tspan
         y="2567.6472"
         x="724.83136"
         sodipodi:role="line"
         style="font-size:45px"
         id="tspan1">Pimienta,</tspan><tspan
         id="tspan179"
         y="2623.8972"
         x="724.83136"
         sodipodi:role="line"
         style="font-size:45px">y vete!</tspan></text>
    <text
       transform="matrix(1.004667,0,-0.09777912,0.99535468,0,0)"
       id="text4246-3-2-2-6-3-7-9-3-3-56-9-3-20-3-7-9"
       y="2476.3179"
       x="1574.8947"
       style="font-style:normal;font-variant:normal;font-weight:normal;font-stretch:normal;font-size:58.66009903px;line-height:1.25;font-family:Lavi;-inkscape-font-specification:Lavi;text-align:center;letter-spacing:0px;word-spacing:0px;text-anchor:middle;fill:#000000;fill-opacity:1;stroke:#000000;stroke-width:0.64709598;stroke-miterlimit:4;stroke-dasharray:none;stroke-opacity:1"
       xml:space="preserve"><tspan
         id="tspan975"
         y="2476.3179"
         x="1584.0603"
         sodipodi:role="line"
         style="font-size:58.66009903px;stroke:#000000;stroke-width:0.64709598;stroke-miterlimit:4;stroke-dasharray:none;stroke-opacity:1">¡No me obligues </tspan><tspan
         id="tspan183"
         y="2549.6431"
         x="1584.0603"
         sodipodi:role="line"
         style="font-size:58.66009903px;stroke:#000000;stroke-width:0.64709598;stroke-miterlimit:4;stroke-dasharray:none;stroke-opacity:1">a hacerte más </tspan><tspan
         id="tspan189"
         y="2622.968"
         x="1574.8947"
         sodipodi:role="line"
         style="font-size:58.66009903px;stroke:#000000;stroke-width:0.64709598;stroke-miterlimit:4;stroke-dasharray:none;stroke-opacity:1">daño!</tspan></text>
    <text
       id="text4246-3-2-2-6-3-7-9-3-3-56-9-3-20-3-7-7"
       y="2413.4648"
       x="2011.9685"
       style="font-style:normal;font-variant:normal;font-weight:normal;font-stretch:normal;font-size:50px;line-height:1.25;font-family:Lavi;-inkscape-font-specification:Lavi;text-align:center;letter-spacing:0px;word-spacing:0px;text-anchor:middle;fill:#000000;fill-opacity:1;stroke:none"
       xml:space="preserve"><tspan
         id="tspan8463"
         style="font-size:50px"
         y="2413.4648"
         x="2011.9685"
         sodipodi:role="line">Oh, mi hechizo de anulación </tspan><tspan
         id="tspan204"
         style="font-size:50px"
         y="2475.9648"
         x="2011.9685"
         sodipodi:role="line">funcionó perfectamente, </tspan><tspan
         id="tspan206"
         style="font-size:50px"
         y="2538.4648"
         x="2011.9685"
         sodipodi:role="line">solo que no eras tú </tspan><tspan
         id="tspan208"
         style="font-size:50px"
         y="2600.9648"
         x="2019.781"
         sodipodi:role="line">el objetivo. </tspan></text>
    <text
       id="text4246-3-2-2-6-3-7-9-3-3-56-9-3-20-3-7-7-3-3"
       y="2808.7163"
       x="1586.5446"
       style="font-style:normal;font-variant:normal;font-weight:normal;font-stretch:normal;font-size:50px;line-height:1.25;font-family:Lavi;-inkscape-font-specification:Lavi;text-align:center;letter-spacing:0px;word-spacing:0px;text-anchor:middle;fill:#000000;fill-opacity:1;stroke:none"
       xml:space="preserve"><tspan
         id="tspan1234-7"
         style="font-size:50px"
         y="2808.7163"
         x="1586.5446"
         sodipodi:role="line">¿Qué?</tspan></text>
    <text
       id="text4246-3-2-2-6-3-7-9-3-3-56-9-3-20-3-7-7-3"
       y="2863.2175"
       x="1790.558"
       style="font-style:normal;font-variant:normal;font-weight:normal;font-stretch:normal;font-size:50px;line-height:1.25;font-family:Lavi;-inkscape-font-specification:Lavi;text-align:center;letter-spacing:0px;word-spacing:0px;text-anchor:middle;fill:#000000;fill-opacity:1;stroke:none"
       xml:space="preserve"><tspan
         id="tspan1234"
         style="font-size:50px"
         y="2863.2175"
         x="1798.3705"
         sodipodi:role="line">¡¿Qué quieres </tspan><tspan
         id="tspan193"
         style="font-size:50px"
         y="2925.7175"
         x="1790.558"
         sodipodi:role="line">decir?!</tspan></text>
    <text
       y="1245.0809"
       x="-607.91235"
       transform="matrix(0.40673393,-0.14739048,-0.13453696,0.59699085,2175.9236,2308.7188)"
       id="text4580-6-0-0-0-9-3-3-2-4"
       style="font-style:normal;font-variant:normal;font-weight:normal;font-stretch:normal;font-size:131.375px;line-height:1.25;font-family:Lavi;-inkscape-font-specification:Lavi;letter-spacing:0px;word-spacing:0px;fill:#ffffff;fill-opacity:1;stroke:#ffffff;stroke-width:0.792768;stroke-miterlimit:4;stroke-dasharray:none;stroke-opacity:1;filter:url(#filter4375-4-1-1-1-9-5-8-8-5-5-3-3-3-4)"
       xml:space="preserve">Pshh...</text>
    <text
       y="1245.0809"
       x="-607.91235"
       transform="matrix(0.40673393,-0.14739048,-0.13453696,0.59699085,1023.5679,2296.8448)"
       id="text4580-6-0-0-0-9-3-3-2-4-6"
       style="font-style:normal;font-variant:normal;font-weight:normal;font-stretch:normal;font-size:131.375px;line-height:1.25;font-family:Lavi;-inkscape-font-specification:Lavi;letter-spacing:0px;word-spacing:0px;fill:#ffffff;fill-opacity:1;stroke:#ffffff;stroke-width:0.792768;stroke-miterlimit:4;stroke-dasharray:none;stroke-opacity:1;filter:url(#filter4375-4-1-1-1-9-5-8-8-5-5-3-3-3-4-3)"
       xml:space="preserve">Pshh...</text>
  </g>
</svg>
