<?xml version="1.0" encoding="UTF-8" standalone="no"?>
<!-- Created with Inkscape (http://www.inkscape.org/) -->

<svg
   id="svg2"
   version="1.1"
   inkscape:version="1.3 (0e150ed6c4, 2023-07-21)"
   width="2481"
   height="3503"
   sodipodi:docname="E37P03.svg"
   xmlns:inkscape="http://www.inkscape.org/namespaces/inkscape"
   xmlns:sodipodi="http://sodipodi.sourceforge.net/DTD/sodipodi-0.dtd"
   xmlns:xlink="http://www.w3.org/1999/xlink"
   xmlns="http://www.w3.org/2000/svg"
   xmlns:svg="http://www.w3.org/2000/svg"
   xmlns:rdf="http://www.w3.org/1999/02/22-rdf-syntax-ns#"
   xmlns:cc="http://creativecommons.org/ns#"
   xmlns:dc="http://purl.org/dc/elements/1.1/">
  <metadata
     id="metadata8">
    <rdf:RDF>
      <cc:Work
         rdf:about="">
        <dc:format>image/svg+xml</dc:format>
        <dc:type
           rdf:resource="http://purl.org/dc/dcmitype/StillImage" />
        <dc:title />
      </cc:Work>
    </rdf:RDF>
  </metadata>
  <defs
     id="defs6" />
  <sodipodi:namedview
     pagecolor="#ffffff"
     bordercolor="#666666"
     borderopacity="1"
     objecttolerance="10"
     gridtolerance="10"
     guidetolerance="10"
     inkscape:pageopacity="0"
     inkscape:pageshadow="2"
     inkscape:window-width="1920"
     inkscape:window-height="1056"
     id="namedview4"
     showgrid="false"
     inkscape:zoom="0.40000002"
     inkscape:cx="1166.2499"
     inkscape:cy="2869.9999"
     inkscape:window-x="1920"
     inkscape:window-y="0"
     inkscape:window-maximized="1"
     inkscape:current-layer="layer1"
     inkscape:pagecheckerboard="0"
     inkscape:showpageshadow="0"
     inkscape:deskcolor="#d1d1d1" />
  <g
     inkscape:groupmode="layer"
     id="layer2"
     inkscape:label="artwork"
     sodipodi:insensitive="true">
    <image
       xlink:href="../gfx_Pepper-and-Carrot_by-David-Revoy_E37P03.png"
       y="0"
       x="0"
       id="image10"
       height="3503"
       width="2481" />
  </g>
  <g
     inkscape:groupmode="layer"
     id="layer3"
     inkscape:label="speechbubbles">
    <path
       style="fill:#ffffff;stroke:none"
       d="m 390.58797,510.1391 c -28.0754,-14.3263 -28.0705,-24.1088 -27.1393,-35.2675 0.931,-11.1588 3.0258,-21.2089 -1.8373,-26.595 -4.8629,-5.386 -13.8837,-9.0868 -20.965,-10.9398 -7.0813,-1.8531 -2.5775,-10.1539 -3.484,-17.7934 -0.9066,-7.6396 -20.1711,-44.6458 -20.1711,-44.6458 0,0 -10.2917,29.7203 -10.4833,39.7014 -0.1918,9.981 -0.313,13.6298 0.7147,17.6205 1.0279,3.9908 5.0156,13.4366 11.7527,17.2202 6.7371,3.7836 14.9313,4.0618 20.6767,5.7715 5.7455,1.7096 6.255,10.5032 7.37,19.0942 1.1149,8.591 3.3294,14.6482 14.8496,23.6641 9.8749,7.7284 28.7163,12.1696 28.7163,12.1696 z"
       id="path3023-2"
       inkscape:connector-curvature="0"
       sodipodi:nodetypes="csssscssssssc" />
    <path
       style="color:#000000;display:inline;overflow:visible;visibility:visible;fill:#ffffff;fill-opacity:1;fill-rule:nonzero;stroke:none;stroke-width:0.999998px;marker:none;enable-background:accumulate"
       d="m 403.42298,834.07226 c -16.6818,-24.82678 6.70933,-94.25013 56.4409,-100.94979 -22.32483,1.35916 -74.47842,-5.24564 -96.28686,102.62894 -9.86485,48.79671 26.31789,-1.15111 26.31789,-1.15111 z"
       id="path4035-4"
       inkscape:connector-curvature="0"
       sodipodi:nodetypes="ccscc" />
    <path
       style="color:#000000;display:inline;overflow:visible;visibility:visible;fill:#ffffff;fill-opacity:1;fill-rule:nonzero;stroke:none;stroke-width:1px;marker:none;enable-background:accumulate"
       d="m 282.78926,755.14964 c -31.85761,0.37867 -64.22618,4.38426 -93.75237,16.81484 -27.24971,12.52438 -50.30527,34.52654 -62.60911,61.80052 -7.04304,18.17606 -7.48931,37.9179 -8.13182,57.12963 -0.22528,17.82824 1.49099,36.35789 10.00446,52.38415 10.54474,19.21865 29.11354,32.90192 49.01937,41.58739 16.81134,7.483 35.36609,9.56546 53.52245,11.32283 30.70634,2.51572 61.55265,1.62099 92.31828,1.04334 28.30766,-0.54579 56.93509,-4.55435 83.18066,-15.48938 14.73673,-6.16052 29.44697,-13.75087 40.2194,-25.75122 9.28163,-10.53292 14.62837,-23.97628 16.79627,-37.68558 3.21105,-18.46023 2.2858,-37.38338 -0.27822,-55.86022 -4.0458,-25.16471 -13.82619,-50.04731 -31.25962,-69.11401 -15.93206,-16.99869 -38.07921,-27.33625 -60.89773,-31.54592 -28.94331,-6.00433 -58.66658,-6.7174 -88.13202,-6.63637 z"
       id="path4040-4-5-3"
       inkscape:connector-curvature="0"
       sodipodi:nodetypes="zssssz" />
    <path
       style="color:#000000;display:inline;overflow:visible;visibility:visible;fill:#ffffff;fill-opacity:1;fill-rule:nonzero;stroke:none;stroke-width:1px;marker:none;enable-background:accumulate"
       d="m 249.18903,118.83583 c -26.66068,0.48982 -53.74897,5.67114 -78.45856,21.75038 -22.80447,16.20056 -42.09897,44.66085 -52.39569,79.94035 -5.89411,23.51114 -6.26758,49.04766 -6.80528,73.89846 -0.18853,23.06123 1.24777,47.02974 8.37243,67.76007 8.82458,24.85975 24.36426,42.55937 41.02285,53.79422 14.06891,9.67943 29.59682,12.37314 44.79134,14.64634 25.69722,3.25414 51.51157,2.09678 77.25841,1.34958 23.68984,-0.70599 47.64728,-5.89115 69.6114,-20.03586 12.33274,-7.96877 24.64329,-17.78706 33.65842,-33.30978 7.76751,-13.62457 12.24205,-31.01386 14.05629,-48.74714 2.68724,-23.87872 1.91292,-48.35624 -0.23283,-72.25645 -3.38581,-32.55111 -11.57072,-64.73732 -26.16024,-89.40052 -13.33306,-21.98819 -31.86735,-35.36005 -50.96349,-40.80535 -24.22179,-7.76674 -49.09631,-8.68911 -73.75505,-8.5843 z"
       id="path4040-4-5-3-5"
       inkscape:connector-curvature="0"
       sodipodi:nodetypes="zssssz" />
    <path
       style="display:inline;fill:#ffffff;stroke:none;stroke-width:1.01856"
       d="m 1414.4051,115.72191 c -45.7726,0.81164 -92.0128,3.54757 -136.3349,15.6543 -20.6539,5.73357 -40.3154,16.99807 -53.1891,34.24726 -10.6754,14.1516 -15.5089,31.85884 -16.6104,49.27414 -0.5115,11.04715 0.2359,22.29426 3.3066,32.96214 6.0871,18.51349 22.3131,32.56118 40.6738,38.79568 22.6523,8.66122 46.8686,12.12197 70.9047,14.55242 37.8943,4.18573 75.8893,7.72268 113.9904,9.39769 18.6907,0.81933 37.4038,0.56232 56.0953,-0.054 43.3259,-1.02096 86.682,-0.93038 129.9852,-2.76681 28.4646,-1.46267 57.5623,-4.78156 83.6728,-16.79717 19.4303,-9.43159 34.7825,-27.13368 40.1404,-47.96227 6.3205,-22.17089 3.2683,-47.72564 -11.4303,-66.11537 -13.012,-16.23926 -32.3515,-25.92621 -51.7601,-32.70503 -30.5097,-10.74888 -62.7004,-15.63795 -94.683,-19.88729 -56.5385,-7.03438 -113.6059,-8.90908 -170.5474,-8.65651 -1.4046,0.0203 -2.8093,0.0406 -4.214,0.0608 z"
       id="path3280-8-2"
       inkscape:connector-curvature="0"
       sodipodi:nodetypes="csssc" />
    <path
       style="color:#000000;display:inline;overflow:visible;visibility:visible;fill:#ffffff;fill-opacity:1;fill-rule:nonzero;stroke:none;stroke-width:1.176px;marker:none;enable-background:accumulate"
       d="m 1460.1024,256.34726 c -45.7623,0.6639 -92.0632,12.78622 -130.2725,38.82348 -35.0123,25.44914 -58.183,67.83473 -58.4277,111.73636 -0.1009,36.35239 17.9056,71.75387 45.9852,94.1194 23.9557,19.45172 53.5054,30.1982 83.1639,36.93697 46.5189,10.95968 94.5459,15.41073 142.2486,12.75982 30.3673,-1.56015 60.4825,-6.1685 90.4022,-11.47476 21.8095,-4.05675 43.6552,-9.85656 63.0237,-21.11067 18.7437,-10.55334 34.9514,-26.0437 45.2363,-45.20172 15.5239,-28.49324 19.1635,-62.70679 13.0031,-94.40233 -7.3423,-36.78144 -30.5422,-70.50195 -63.3493,-88.4313 -27.6821,-15.86861 -59.2877,-22.68375 -90.4918,-27.11236 -43.1516,-5.72199 -86.7535,-5.76734 -130.1892,-6.64688 -3.4442,-0.0102 -6.8884,-0.001 -10.3325,0.004 z"
       id="path3365-7"
       inkscape:connector-curvature="0"
       sodipodi:nodetypes="cscsccc" />
    <path
       style="fill:#ffffff;fill-rule:evenodd;stroke:none;stroke-width:0.999999px;stroke-linecap:butt;stroke-linejoin:miter;stroke-opacity:1"
       d="m 1622.9482,478.17881 c -6.3324,4.61753 23.1312,48.65505 53.6406,67.52901 38.9988,24.12578 110.398,24.68767 129.6304,16.32406 -39.7827,19.67647 -149.3792,28.19479 -213.5351,-59.72898 -15.2092,-20.84384 30.2641,-24.12409 30.2641,-24.12409 z"
       id="path1357"
       inkscape:connector-curvature="0"
       inkscape:transform-center-x="-30.354172"
       inkscape:transform-center-y="-147.57618"
       sodipodi:nodetypes="cscsc" />
    <path
       style="color:#000000;display:inline;overflow:visible;visibility:visible;fill:#ffffff;fill-opacity:1;fill-rule:nonzero;stroke:none;stroke-width:1.44436px;marker:none;enable-background:accumulate"
       d="m 140.95246,2766.3322 c 3.65177,-53.6613 46.26579,-92.8284 156.70777,-82.4741 59.15858,5.5461 126.34267,9.2503 121.67942,87.8614 -4.6633,78.6117 -101.23983,76.3655 -121.18533,78.1575 -19.94559,1.7926 -123.76463,-6.6942 -141.83043,-33.4805 -11.3087,-16.7675 -15.75624,-33.4438 -15.37143,-50.0643 z"
       id="path4546-6-5"
       inkscape:connector-curvature="0"
       sodipodi:nodetypes="cssssc" />
    <path
       style="color:#000000;display:inline;overflow:visible;visibility:visible;fill:#ffffff;fill-opacity:1;fill-rule:nonzero;stroke:none;stroke-width:1.44436px;marker:none;enable-background:accumulate"
       d="m 870.04126,3234.7124 c 4.27123,-75.2624 54.11395,-130.196 183.29034,-115.6736 69.1938,7.7786 147.7744,12.9739 142.3202,123.2295 -5.4543,110.2564 -118.4134,107.106 -141.7423,109.6194 -23.329,2.5142 -144.75898,-9.389 -165.88932,-46.9579 -13.22702,-23.5172 -18.429,-46.9064 -17.97892,-70.2174 z"
       id="path4546-6-5-2"
       inkscape:connector-curvature="0"
       sodipodi:nodetypes="cssssc" />
    <path
       style="fill:#ffffff;fill-rule:evenodd;stroke:none;stroke-width:1px;stroke-linecap:butt;stroke-linejoin:miter;stroke-opacity:1"
       d="m 1373.2637,3271.7707 c 22.5866,-17.8161 34.5507,-17.0035 58.8747,-18.7273 24.3239,-1.7244 84.3852,-5.6068 108.13,-1.0095 23.745,4.5978 46.3316,9.7705 52.123,16.0922 5.7914,6.3217 19.6908,24.7127 19.6908,32.7588 0,8.0461 8.108,34.4827 -6.9497,51.7245 -15.0577,17.2414 -30.1154,29.8854 -57.3351,29.3105 -27.2198,-0.5748 -64.8641,0 -82.8176,0.5749 -17.9534,0.5741 -72.972,-6.8972 -82.8174,-21.8393 -9.8454,-14.9426 -23.7449,-37.3566 -21.4283,-50.0006 2.3166,-12.6435 12.5296,-38.8842 12.5296,-38.8842 z"
       id="path1289"
       inkscape:connector-curvature="0"
       sodipodi:nodetypes="csssssssscc" />
    <path
       style="fill:#ffffff;fill-rule:evenodd;stroke:none;stroke-width:1px;stroke-linecap:butt;stroke-linejoin:miter;stroke-opacity:1"
       d="m 1520.7213,3290.478 c 0,0 0.2613,-30.8716 9.7849,-41.8248 9.5236,-10.953 35.9725,-32.826 61.189,-35.0384 -49.4537,-3.6057 -69.9603,11.1043 -78.3427,19.1018 -8.3839,7.9982 -32.4023,48.2786 -32.4023,48.2786 z"
       id="path1367-3"
       inkscape:connector-curvature="0" />
    <path
       style="color:#000000;display:inline;overflow:visible;visibility:visible;fill:#ffffff;fill-opacity:1;fill-rule:nonzero;stroke:none;stroke-width:1px;marker:none;enable-background:accumulate"
       d="m 381.92761,2765.8837 c -13.44223,35.2759 -28.63005,94.9961 57.30853,115.005 -17.80709,4.5085 -119.29491,-9.1273 -91.99905,-114.8163 7.92058,-30.6682 15.69642,-16.5134 23.06049,-15.8694 7.36416,0.6441 11.63003,15.6807 11.63003,15.6807 z"
       id="path4064-5"
       inkscape:connector-curvature="0"
       sodipodi:nodetypes="ccszc" />
    <path
       style="color:#000000;display:inline;overflow:visible;visibility:visible;fill:#ffffff;fill-opacity:1;fill-rule:nonzero;stroke:none;stroke-width:1px;marker:none;enable-background:accumulate"
       d="m 985.81867,3194.6677 c 41.23993,-57.572 33.73823,-151.8082 -50.60213,-153.341 81.57176,24.5899 42.90889,109.9963 14.4588,139.3816 -19.62934,16.6806 36.14333,13.9594 36.14333,13.9594 z"
       id="path3978-4"
       inkscape:connector-curvature="0"
       sodipodi:nodetypes="cccc" />
  </g>
  <g
     inkscape:groupmode="layer"
     id="layer1"
     inkscape:label="txt">
    <text
       xml:space="preserve"
       style="font-style:normal;font-variant:normal;font-weight:normal;font-stretch:normal;font-size:45.3333px;line-height:125%;font-family:Lavi;-inkscape-font-specification:Lavi;text-align:center;letter-spacing:0px;word-spacing:0px;text-anchor:middle;fill:#000000;fill-opacity:1;stroke:none"
       x="261.67654"
       y="208.19542"
       id="text4246-70-2-2-2-7-4-9-9-6-1-2-3-9-2-7-9-3"><tspan
         sodipodi:role="line"
         style="font-size:45.3333px"
         x="261.67654"
         y="208.19542"
         id="tspan4329">Ils ont </tspan><tspan
         sodipodi:role="line"
         style="font-size:45.3333px"
         x="261.67654"
         y="264.86206"
         id="tspan596">vraiment </tspan><tspan
         sodipodi:role="line"
         style="font-size:45.3333px"
         x="261.67654"
         y="321.52869"
         id="tspan598">mis ça </tspan><tspan
         sodipodi:role="line"
         style="font-size:45.3333px"
         x="261.67654"
         y="378.19531"
         id="tspan600">partout...</tspan></text>
    <text
       xml:space="preserve"
       style="font-style:normal;font-variant:normal;font-weight:normal;font-stretch:normal;font-size:45.3333px;line-height:125%;font-family:Lavi;-inkscape-font-specification:Lavi;text-align:center;letter-spacing:0px;word-spacing:0px;text-anchor:middle;fill:#000000;fill-opacity:1;stroke:none"
       x="296.38135"
       y="835.11224"
       id="text4246-70-2-2-2-7-4-9-9-6-1-2-3-9-2-7-9-3-3"><tspan
         sodipodi:role="line"
         style="font-size:45.3333px"
         x="296.38135"
         y="835.11224"
         id="tspan11909">Même dans</tspan><tspan
         sodipodi:role="line"
         style="font-size:45.3333px"
         x="296.38135"
         y="891.77887"
         id="tspan15037">les coins les</tspan><tspan
         sodipodi:role="line"
         style="font-size:45.3333px"
         x="296.38135"
         y="948.4455"
         id="tspan15033">plus reculés.</tspan></text>
    <text
       xml:space="preserve"
       style="font-style:normal;font-variant:normal;font-weight:normal;font-stretch:normal;font-size:45.3333px;line-height:125%;font-family:Lavi;-inkscape-font-specification:Lavi;text-align:center;letter-spacing:0px;word-spacing:0px;text-anchor:middle;fill:#000000;fill-opacity:1;stroke:none"
       x="1475.8671"
       y="197.33542"
       id="text4246-70-2-2-2-7-4-9-9-6-1-2-3-9-2-7-9-3-6"><tspan
         sodipodi:role="line"
         style="font-size:45.3333px"
         x="1475.8671"
         y="197.33542"
         id="tspan4329-2">Allez, filons avant</tspan><tspan
         sodipodi:role="line"
         style="font-size:45.3333px"
         x="1475.8671"
         y="254.00204"
         id="tspan20012">d'éveiller des soupçons.</tspan></text>
    <text
       xml:space="preserve"
       style="font-style:normal;font-variant:normal;font-weight:normal;font-stretch:normal;font-size:45.3333px;line-height:125%;font-family:Lavi;-inkscape-font-specification:Lavi;text-align:center;letter-spacing:0px;word-spacing:0px;text-anchor:middle;fill:#000000;fill-opacity:1;stroke:none"
       x="1517.7148"
       y="336.90094"
       id="text4246-70-2-2-2-7-4-9-9-6-1-2-3-9-2-7-9-3-6-7"><tspan
         sodipodi:role="line"
         style="font-size:45.3333px"
         x="1517.7148"
         y="336.90094"
         id="tspan50694">On a des </tspan><tspan
         sodipodi:role="line"
         style="font-size:45.3333px"
         x="1517.7148"
         y="393.56757"
         id="tspan613">problèmes bien plus</tspan><tspan
         sodipodi:role="line"
         style="font-size:45.3333px"
         x="1517.7148"
         y="450.23419"
         id="tspan615"> importants pour </tspan><tspan
         sodipodi:role="line"
         style="font-size:45.3333px"
         x="1517.7148"
         y="506.90082"
         id="tspan617">le moment...</tspan></text>
    <text
       xml:space="preserve"
       style="font-style:normal;font-variant:normal;font-weight:normal;font-stretch:normal;font-size:45.3333px;line-height:125%;font-family:Lavi;-inkscape-font-specification:Lavi;text-align:center;letter-spacing:0px;word-spacing:0px;text-anchor:middle;fill:#000000;fill-opacity:1;stroke:none"
       x="283.36295"
       y="2745.0156"
       id="text4246-70-2-2-2-7-4-9-9-6-1-2-3-9-2-7-9-3-6-7-3"><tspan
         sodipodi:role="line"
         style="font-size:45.3333px"
         x="283.36295"
         y="2745.0156"
         id="tspan50694-2">Cette </tspan><tspan
         sodipodi:role="line"
         style="font-size:45.3333px"
         x="283.36295"
         y="2801.6824"
         id="tspan62644">lumière...</tspan></text>
    <text
       xml:space="preserve"
       style="font-style:normal;font-variant:normal;font-weight:normal;font-stretch:normal;font-size:45.3333px;line-height:125%;font-family:Lavi;-inkscape-font-specification:Lavi;text-align:center;letter-spacing:0px;word-spacing:0px;text-anchor:middle;fill:#000000;fill-opacity:1;stroke:none"
       x="1041.7209"
       y="3189.4321"
       id="text4246-70-2-2-2-7-4-9-9-6-1-2-3-9-2-7-9-3-6-7-3-6"><tspan
         sodipodi:role="line"
         style="font-size:45.3333px"
         x="1041.7209"
         y="3189.4321"
         id="tspan68663">On doit </tspan><tspan
         sodipodi:role="line"
         style="font-size:45.3333px"
         x="1041.7209"
         y="3246.0989"
         id="tspan68665">être proches</tspan><tspan
         sodipodi:role="line"
         style="font-size:45.3333px"
         x="1041.7209"
         y="3302.7654"
         id="tspan121879">de son nid.</tspan></text>
    <text
       xml:space="preserve"
       style="font-style:normal;font-variant:normal;font-weight:normal;font-stretch:normal;font-size:48.525px;line-height:125%;font-family:Lavi;-inkscape-font-specification:Lavi;text-align:center;letter-spacing:0px;word-spacing:0px;text-anchor:middle;fill:#000000;fill-opacity:1;stroke:none;stroke-width:1"
       x="1490.6833"
       y="3328.5591"
       id="text4246-70-2-2-2-7-4-9-9-6-1-2-3-9-2-7-9-3-6-7-3-6-7"><tspan
         sodipodi:role="line"
         style="font-style:normal;font-variant:normal;font-weight:bold;font-stretch:normal;font-size:48.525px;font-family:Lavi;-inkscape-font-specification:'Lavi Bold';stroke-width:1"
         x="1490.6833"
         y="3328.5591"
         id="tspan121879-0">Bingo !</tspan></text>
  </g>
</svg>
