<?xml version="1.0" encoding="UTF-8" standalone="no"?>
<svg
   id="svg2"
   version="1.1"
   inkscape:version="1.2.2 (732a01da63, 2022-12-09)"
   width="2481"
   height="663"
   sodipodi:docname="E34P00.svg"
   xml:space="preserve"
   xmlns:inkscape="http://www.inkscape.org/namespaces/inkscape"
   xmlns:sodipodi="http://sodipodi.sourceforge.net/DTD/sodipodi-0.dtd"
   xmlns:xlink="http://www.w3.org/1999/xlink"
   xmlns="http://www.w3.org/2000/svg"
   xmlns:svg="http://www.w3.org/2000/svg"
   xmlns:rdf="http://www.w3.org/1999/02/22-rdf-syntax-ns#"
   xmlns:cc="http://creativecommons.org/ns#"
   xmlns:dc="http://purl.org/dc/elements/1.1/"><metadata
     id="metadata8"><rdf:RDF><cc:Work
         rdf:about=""><dc:format>image/svg+xml</dc:format><dc:type
           rdf:resource="http://purl.org/dc/dcmitype/StillImage" /><dc:title /></cc:Work></rdf:RDF></metadata><defs
     id="defs6" /><sodipodi:namedview
     pagecolor="#ffffff"
     bordercolor="#666666"
     borderopacity="1"
     objecttolerance="10"
     gridtolerance="10"
     guidetolerance="10"
     inkscape:pageopacity="0"
     inkscape:pageshadow="2"
     inkscape:window-width="1920"
     inkscape:window-height="1017"
     id="namedview4"
     showgrid="false"
     inkscape:zoom="0.6969016"
     inkscape:cx="1201.7479"
     inkscape:cy="354.42593"
     inkscape:window-x="-8"
     inkscape:window-y="-8"
     inkscape:window-maximized="1"
     inkscape:current-layer="layer1"
     inkscape:document-rotation="0"
     inkscape:showpageshadow="2"
     inkscape:pagecheckerboard="0"
     inkscape:deskcolor="#d1d1d1" /><g
     inkscape:groupmode="layer"
     id="layer2"
     inkscape:label="artwork"
     sodipodi:insensitive="true"><image
       xlink:href="../gfx_Pepper-and-Carrot_by-David-Revoy_E34P00.png"
       width="2481"
       height="663"
       id="image10"
       x="0"
       y="0" /></g><g
     inkscape:groupmode="layer"
     id="layer1"
     inkscape:label="txt"
     style="display:inline"><text
       xml:space="preserve"
       style="font-style:normal;font-variant:normal;font-weight:normal;font-stretch:normal;font-size:72.5px;line-height:1.25;font-family:Lavi;-inkscape-font-specification:'Lavi, Normal';font-variant-ligatures:normal;font-variant-caps:normal;font-variant-numeric:normal;font-feature-settings:normal;text-align:center;letter-spacing:0px;word-spacing:0px;writing-mode:lr-tb;text-anchor:middle;display:inline;fill:#2b1100;fill-opacity:1;stroke:none"
       x="1239.4911"
       y="582.47577"
       id="episode-title"><tspan
         sodipodi:role="line"
         id="tspan4180"
         x="1239.4911"
         y="582.47577">Epizodas 34: Šičimi <tspan
   style="font-style:normal;font-variant:normal;font-weight:normal;font-stretch:normal;font-family:PepperCarrot;-inkscape-font-specification:PepperCarrot"
   id="tspan2552">į</tspan>šventinimas</tspan></text><path
       style="fill:#2b1100;fill-opacity:1;stroke-width:1.00142"
       d="m 557.84051,514.37445 c -6.16967,-2.80571 -7.18974,-5.89831 -6.17077,-18.70913 0.44523,-5.59821 0.9174,-21.38613 1.04919,-35.08424 l 0.23964,-24.90565 -6.9193,-0.55273 c -11.29465,-0.90227 -24.42683,-9.17985 -24.42683,-15.39692 0,-2.19316 0.24037,-2.24954 7.75336,-1.81756 10.21261,0.58715 14.95606,-0.8118 20.4849,-6.04158 l 4.50211,-4.25858 0.64875,-46.61196 c 0.35681,-25.63652 0.9351,-53.41076 1.28511,-61.72049 l 0.63633,-15.10858 -9.4017,-2.43354 c -9.1343,-2.3643 -9.41021,-2.52058 -9.70049,-5.49413 -0.19251,-1.97171 0.46877,-4.03837 1.85883,-5.80898 1.94376,-2.47601 2.58439,-2.68431 6.46275,-2.10155 3.86595,0.58083 4.47603,0.38542 5.98074,-1.91558 0.92161,-1.40932 1.3794,-3.04279 1.01725,-3.62991 -0.83996,-1.36171 4.1943,-3.47927 12.22023,-5.1403 5.4784,-1.13378 6.64966,-1.08881 9.70813,0.3725 3.91399,1.87019 6.20081,5.58825 7.16925,11.65638 0.7181,4.49962 1.4831,4.81601 6.53303,2.70182 9.41524,-3.94167 28.34066,-2.55942 39.36409,2.87506 11.99017,5.91112 22.30714,18.82811 27.54152,34.48254 5.50147,16.45315 5.27527,43.25488 -0.50887,60.29444 -4.68905,13.81363 -15.00051,31.06663 -18.56733,31.06663 -2.22734,0 -4.94015,3.65776 -4.94015,6.66092 0,2.77733 -8.3163,10.21042 -15.94522,14.25185 -3.06027,1.62117 -11.1916,4.61072 -18.0696,6.64338 -18.96884,5.6059 -17.00738,1.61366 -17.00738,34.61616 V 491.309 h 7.9685 c 5.08424,0 13.13724,-1.10424 22.24822,-3.05075 15.0609,-3.21762 19.12407,-3.41695 19.54551,-0.95888 0.30106,1.75618 -12.50136,10.69676 -20.74963,14.49055 -5.16006,2.37336 -5.57807,2.4223 -6.71879,0.78639 -2.40699,-3.45181 -3.3943,-4.25046 -5.25442,-4.25046 -2.66323,0 -5.03417,2.69252 -5.03417,5.71707 0,3.65816 -5.97979,8.93689 -12.23077,10.7969 -7.23101,2.1516 -17.2726,1.94457 -22.57202,-0.46537 z m 35.22484,-116.30497 c 4.90918,-1.08739 10.85906,-2.91485 13.22201,-4.06098 9.02759,-4.3788 19.01746,-18.50447 24.69665,-34.92106 6.33737,-18.31932 2.93293,-41.92344 -7.48802,-51.91639 -7.06401,-6.77391 -21.42172,-10.94654 -29.02026,-8.43384 -1.90172,0.62885 -5.06776,2.82789 -7.03561,4.88676 l -3.57793,3.74341 -1.125,33.58063 c -1.49953,44.76013 -1.46257,59.14828 0.15186,59.12026 0.68781,-0.0119 5.26715,-0.91136 10.1763,-1.99879 z m 524.05595,90.6188 c -2.8891,-2.51714 -5.2524,-5.05639 -5.2524,-5.64277 0,-0.58637 1.848,-2.77555 4.1064,-4.86481 l 4.107,-3.79868 0.4146,-10.33162 c 0.2278,-5.6824 0.8423,-22.7893 1.3658,-38.01528 0.8002,-23.27847 1.2282,-28.1668 2.6907,-30.71989 2.4417,-4.26319 0.6592,-6.25172 -5.6037,-6.25172 -2.5737,0 -5.22,-0.54129 -5.88,-1.2029 -2.0996,-2.10385 -1.3166,-5.53808 1.8775,-8.23084 2.4731,-2.08529 4.131,-2.59513 8.4381,-2.59513 6.7427,0 9.2409,0.95632 13.8315,5.29393 2.9291,2.76828 3.6649,4.2035 3.6649,7.15208 v 3.68881 l 4.5358,-3.12714 c 3.1451,-2.16794 6.5583,-3.44248 11.1275,-4.15532 6.0317,-0.94083 6.8329,-0.84951 9.4294,1.07416 1.561,1.15628 4.206,2.10235 5.8775,2.10235 3.8624,0 10.018,5.4037 12.5404,11.00861 1.6036,3.56289 1.6578,4.38141 0.4419,6.65858 -1.264,2.36586 -1.1894,2.75667 0.8403,4.40351 5.2472,4.25715 0.6231,14.60679 -8.8904,19.89939 l -4.6144,2.56735 -2.3884,-2.77022 c -2.4889,-2.88682 -4.8627,-3.5198 -8.5937,-2.29141 -1.8654,0.61414 -2.5188,0.10777 -4.2519,-3.29664 -5.0707,-9.9591 0.096,-17.47415 6.9556,-10.11658 2.3108,2.47807 3.5944,3.0072 7.2974,3.0072 2.6747,0 4.6868,-0.50731 4.9698,-1.25301 1.4888,-3.9204 -5.8777,-11.00446 -13.2977,-12.78804 -6.5337,-1.57039 -11.6666,-0.0144 -17.4436,5.28783 l -4.622,4.2424 -0.2067,30.76272 c -0.1435,21.35025 0.1309,31.10461 0.8968,31.88019 0.6074,0.61462 6.2351,2.03167 12.5056,3.14901 6.2704,1.11733 11.6958,2.33362 12.056,2.70284 0.3606,0.36922 -1.5455,2.61901 -4.2359,4.99953 -4.6623,4.12635 -4.9953,4.25493 -7.1303,2.75662 -2.9949,-2.10221 -3.8849,-2.00085 -8.2015,0.93439 -3.3437,2.27353 -4.6332,2.50377 -13.8959,2.48158 l -10.2096,-0.0244 z m -36.9075,0.18162 c -5.1849,-2.28035 -5.7638,-5.82174 -4.997,-30.55467 0.611,-19.68494 0.837,-21.67525 2.6533,-23.37069 2.5192,-2.35195 2.4927,-3.22788 -0.1732,-5.71663 -2.1083,-1.96762 -2.1445,-2.45546 -1.5478,-20.83897 0.3357,-10.35334 1.1303,-20.30395 1.7667,-22.11249 2.237,-6.36353 11.9937,-8.14455 15.4728,-2.82446 2.2877,3.49859 2.68,14.82171 1.747,50.45511 -0.6023,23.0123 -1.196,32.66382 -2.0606,33.5305 -1.5214,1.52424 -1.5838,5.48123 -0.101,6.39938 1.821,1.12761 0.5363,11.26403 -1.7011,13.42402 -2.6618,2.56917 -7.3311,3.24851 -11.0591,1.6089 z m 768.4756,-42.54808 c -7.6404,-3.51231 -16.7791,-15.28723 -32.7437,-42.18883 -4.2521,-7.165 -6.574,-12.0732 -6.1637,-13.03132 1.6506,-3.85815 -1.0605,-9.05499 -4.7242,-9.05499 -2.0095,0 -4.344,-2.79388 -12.1051,-14.48603 -2.9093,-4.38371 -5.7706,-8.11522 -6.3575,-8.29223 -0.5869,-0.17704 -4.301,3.68645 -8.2537,8.58557 -6.7115,8.31935 -7.1865,9.23082 -7.1969,13.80548 -0.02,9.00527 -1.0431,12.54138 -4.1375,14.30471 -3.5884,2.04493 -3.7023,5.23668 -0.3798,10.64144 4.6598,7.58007 2.9309,18.52838 -3.9785,25.19643 -6.1718,5.95644 -12.3866,7.8204 -26.1882,7.85498 -11.0264,0.0275 -11.2279,-0.0136 -14.2562,-2.91614 -1.6894,-1.61928 -3.0718,-3.67344 -3.0718,-4.56478 0,-1.89733 4.2418,-6.06251 12.1668,-11.94809 7.9197,-5.88166 8.8407,-8.3458 9.894,-26.48152 0.4864,-8.36452 0.8987,-17.06239 0.9167,-19.32859 0.022,-2.70044 0.8943,-5.39293 2.5336,-7.81316 3.1119,-4.59436 3.1075,-5.14149 -0.065,-8.08773 l -2.5665,-2.38337 1.567,-61.9734 c 0.8615,-34.08539 1.5663,-62.94423 1.5659,-64.13075 -4e-4,-1.48054 0.9115,-2.47587 2.9064,-3.17272 5.2653,-1.83903 4.8884,-8.46423 -0.5594,-9.83423 -4.7279,-1.18892 -18.9626,0.44787 -26.7889,3.08026 -4.1879,1.40866 -7.9528,2.56118 -8.3662,2.56118 -0.4138,0 -1.6153,-1.6062 -2.6707,-3.56934 l -1.9184,-3.56934 2.9417,-2.36575 c 6.2434,-5.02162 27.6656,-17.86953 34.6404,-20.77564 13.5854,-5.66052 24.1621,-3.91285 26.0771,4.30894 0.4375,1.87936 0.5042,33.30123 0.1483,69.82642 -0.3561,36.52518 -0.3898,66.40948 -0.075,66.40948 1.0751,0 38.4852,-53.82298 45.0235,-64.77816 4.1868,-7.0147 22.3561,-25.06691 26.2033,-26.03438 4.2274,-1.06302 5.4825,0.99797 5.4759,8.98849 0,4.72437 -0.975,10.71033 -2.8675,17.66998 -3.3628,12.3665 -5.1372,16.81847 -9.2839,23.29366 -2.7739,4.33053 -3.4126,4.77375 -6.8835,4.77375 -3.8925,0 -6.9704,2.0025 -6.9704,4.53527 0,0.76167 0.5335,2.55754 1.1853,3.99077 1.3895,3.05532 0.8831,4.07859 -8.8733,17.94759 l -6.2829,8.9315 1.8697,3.09736 c 6.7589,11.19824 27.3887,47.2917 30.0109,52.50778 2.5943,5.16111 3.0216,6.89117 2.3485,9.52286 -0.4518,1.76877 -0.6635,4.21551 -0.4704,5.43715 0.4579,2.89628 5.7272,7.30165 8.7336,7.30165 1.8017,0 3.7615,1.94631 8.3274,8.26988 7.2438,10.03162 9.4753,12.17915 17.4693,16.81012 5.6991,3.30175 6.2083,3.87785 6.2083,7.02155 0,5.08236 -2.586,5.96177 -17.5073,5.95313 -10,-0.006 -13.3078,-0.37585 -16.5071,-1.84689 z m -541.0328,-3.57171 c -15.0487,-5.37868 -31.7163,-27.58921 -31.7163,-42.26407 0,-4.23365 0.1522,-4.49671 2.2508,-3.88944 3.8077,1.10187 7.126,4.00462 9.8425,8.60987 l 2.5987,4.40638 6.5911,-0.26714 c 3.6884,-0.14953 6.8671,0.18155 7.2191,0.7518 0.8794,1.42565 3.4893,1.2727 3.9941,-0.23405 0.2306,-0.68916 0.9039,-3.15144 1.4964,-5.47169 0.772,-3.02324 1.8491,-4.58754 3.8013,-5.52021 3.4237,-1.63618 4.2859,-6.97073 1.6051,-9.93838 -1.6833,-1.86411 -1.6242,-2.60153 1.377,-17.19774 7.1657,-34.84703 21.2398,-102.62188 21.745,-104.71492 0.3176,-1.31635 1.3052,-2.25542 2.371,-2.25542 1.0049,0 2.6825,-0.9471 3.7276,-2.1047 2.0006,-2.21495 2.1214,-4.68749 0.8777,-17.94345 -0.4417,-4.70345 -0.028,-9.38142 1.4863,-16.81915 4.489,-22.04873 10.9966,-32.27872 17.0446,-26.79463 4.3825,3.97419 7.3338,14.61564 24.0485,86.71726 5.0484,21.77731 9.3287,39.75337 9.5118,39.94686 0.511,0.54005 1.5963,-3.93406 12.9689,-53.47933 12.0518,-52.50323 15.5715,-65.57449 19.1142,-70.97978 2.1525,-3.28335 2.9514,-3.77512 5.701,-3.50848 2.8601,0.2774 3.5675,1.04997 6.6994,7.3138 3.1047,6.20944 3.5016,7.88969 3.5016,14.81731 0,5.32111 0.414,8.07164 1.2987,8.6225 2.2207,1.38337 2.3076,1.79213 25.0942,117.9859 0.747,3.80667 0.609,4.19328 -2.0415,5.71717 -2.1243,1.22171 -2.8418,2.39077 -2.8418,4.62916 0,3.29919 0.8799,4.13895 5.2848,5.0416 l 2.9582,0.60624 4.2116,21.03611 c 2.317,11.56991 4.7547,22.05107 5.4176,23.29156 1.125,2.10354 1.8667,2.25541 11.02,2.25541 8.6051,0 10.0419,0.25175 11.66,2.04312 1.7999,1.99275 1.7817,2.17315 -0.7371,7.31801 -3.5505,7.25349 -11.8273,16.0347 -18.0364,19.13486 -4.0946,2.04433 -6.6265,2.57557 -12.221,2.56384 -8.1213,-0.017 -11.1346,-1.23545 -14.1523,-5.72187 -2.8175,-4.18967 -4.8639,-17.22754 -3.2583,-20.75935 0.9222,-2.02709 0.7497,-3.38102 -0.9293,-7.29293 -2.3663,-5.51372 -5.3005,-22.78503 -15.2045,-89.50708 -3.8875,-26.18788 -7.2204,-48.06542 -7.4065,-48.61675 -0.5983,-1.76951 -2.4365,6.16747 -11.2594,48.61675 -8.7592,42.14159 -8.9325,42.71182 -13.8786,45.6397 -2.2166,1.31226 -2.2922,6.42877 -0.1186,8.0214 0.8939,0.65509 1.6258,2.18889 1.6258,3.40846 0,3.73227 -6.1196,30.46184 -7.656,33.44109 -1.8839,3.65281 -5.3967,5.29973 -8.1528,3.82202 -2.7865,-1.49446 -4.3652,-7.11754 -24.2199,-86.27487 -6.6656,-26.57522 -12.4965,-49.29648 -12.957,-50.49175 -1.2225,-3.17122 -1.4852,-2.04782 -5.5859,23.8894 -2.0049,12.68048 -4.531,27.11513 -5.614,32.077 -1.083,4.96194 -2.5883,14.43467 -3.3462,21.05059 -1.7263,15.07549 -7.976,56.70385 -10.6102,70.66963 -2.8392,15.055 -3.4556,16.60425 -7.344,18.45285 -4.0885,1.94393 -13.6248,2.01955 -18.857,0.14953 z m 731.6153,0.0905 c -6.1697,-1.67166 -12.9118,-5.59844 -15.4009,-8.97049 -1.5435,-2.09049 -2.169,-4.71447 -2.4494,-10.27467 -0.2069,-4.10694 -0.6143,-7.46719 -0.9052,-7.46719 -0.2908,0 -2.5264,1.84454 -4.9673,4.09895 -7.1225,6.57812 -12.1418,8.35571 -23.2976,8.2504 -12.8344,-0.12115 -19.1096,-2.51756 -27.0963,-10.34831 -6.3918,-6.26636 -10.6664,-14.08156 -13.4311,-24.55518 -3.0427,-11.52614 -4.3431,-54.95918 -2.641,-88.22049 0.5976,-11.68 0.9014,-13.27436 2.9099,-15.2867 2.6941,-2.69983 2.8036,-4.49306 0.5115,-8.38111 -2.0475,-3.4732 -1.2921,-5.22925 3.7231,-8.65114 5.0841,-3.46889 12.9583,-3.17262 17.2259,0.64817 l 3.2434,2.90358 0.6825,13.38554 c 0.3757,7.36205 0.7528,26.69251 0.8384,42.95656 0.2116,40.16398 1.0198,51.28752 4.19,57.66656 4.8252,9.70809 12.8959,12.03369 22.5362,6.49371 11.3246,-6.50757 15.9046,-17.22691 16.9872,-39.75672 l 0.6334,-13.18662 2.7967,-0.5605 c 5.7295,-1.14809 6.182,-7.96109 0.6572,-9.89084 l -3.0606,-1.06899 0.6254,-24.65786 c 0.3442,-13.56188 1.1015,-26.32045 1.6833,-28.3525 2.8897,-10.08974 18.2089,-12.90581 24.4146,-4.48795 2.0303,2.75439 2.0882,3.7646 1.8405,32.07705 -0.4146,47.30672 -1.9336,81.73481 -3.7283,84.47926 -1.9126,2.92473 -1.9284,5.47526 -0.049,7.96444 0.9345,1.23827 1.4801,4.33471 1.5003,8.5158 0.034,7.0135 1.8894,10.99979 9.5359,20.4875 6.6115,8.20413 7.0121,12.46707 1.3574,14.44219 -4.1003,1.43228 -15.1405,1.29872 -20.8657,-0.25245 z M 754.0211,434.4224 c -9.71572,-10.37373 -10.12637,-13.33355 -2.62719,-18.93669 4.99661,-3.73333 5.14752,-3.99202 5.75925,-9.87383 0.41898,-4.02823 3.62885,-106.63904 3.57711,-114.35037 -0.0117,-1.7472 -1.17316,-2.3459 -7.40719,-3.81848 -4.0663,-0.96057 -8.23059,-2.39661 -9.25403,-3.1912 -1.79052,-1.39022 -1.76636,-1.52613 0.64036,-3.60117 3.84074,-3.31141 16.3733,-8.81896 22.77312,-10.00793 7.20502,-1.33849 15.85975,-0.67762 17.90017,1.36679 0.91772,0.91952 2.02417,5.05645 2.70042,10.09647 l 1.14562,8.53859 3.00131,-2.50674 c 1.65071,-1.37869 5.47738,-3.6907 8.50371,-5.13773 4.67783,-2.23673 6.87985,-2.63605 14.69444,-2.66437 8.26616,-0.0299 9.40378,0.19381 11.29387,2.22203 1.156,1.24049 3.22421,2.25542 4.59602,2.25542 6.00526,0 13.87146,5.47834 18.60512,12.95724 3.57443,5.64741 3.94382,13.91103 0.83227,18.61858 -1.09323,1.654 -1.99066,4.04459 -1.99428,5.31245 -0.0155,5.41438 -6.67677,14.72655 -12.39587,17.3288 -6.18736,2.81532 -15.19353,2.57499 -19.74962,-0.52708 -3.97997,-2.70979 -7.23575,-8.48607 -6.24349,-11.07699 0.71398,-1.86427 1.51679,-1.72646 8.9859,1.54232 7.17776,3.14128 9.5792,2.30848 12.88888,-4.4696 2.51734,-5.15539 2.56972,-5.57128 1.06811,-8.48078 -2.47628,-4.7981 -9.48075,-8.33902 -17.65486,-8.92504 -6.29783,-0.45151 -7.5241,-0.20564 -13.37834,2.68206 -3.82284,1.88571 -8.03019,4.98349 -10.34117,7.61414 l -3.89616,4.43497 -0.65514,15.82693 c -0.36032,8.70479 -0.65662,29.2144 -0.65845,45.5769 -0.004,32.34688 0.0906,32.9004 5.60266,32.9004 1.35396,0 4.09286,0.68288 6.08648,1.5175 2.47439,1.03589 5.13581,1.31664 8.3862,0.8846 4.56179,-0.60633 14.08006,0.55975 22.31538,2.73384 l 3.87731,1.02358 -3.67041,2.49907 c -3.95626,2.69362 -5.42856,2.96923 -10.1242,1.8952 -3.93372,-0.8998 -7.36812,1.76298 -8.3259,6.45521 -0.55403,2.71424 -1.31873,3.58313 -3.6715,4.17187 -3.92718,0.9827 -30.31216,2.87688 -40.07348,2.87688 h -7.71416 z m 862.6977,-0.50118 c -8.2118,-12.91411 -8.2838,-15.0261 -0.6548,-19.18641 l 5.0262,-2.74105 v -6.50288 c 0,-3.87706 0.6185,-7.70068 1.5311,-9.46933 1.2232,-2.36971 1.2932,-3.41211 0.3479,-5.18129 -1.2824,-2.40152 -1.2926,-17.32628 -0.047,-68.43679 0.3897,-15.98841 0.5485,-31.61481 0.3521,-34.7254 l -0.3563,-5.65562 -6.8982,-0.39056 c -8.852,-0.50116 -9.7608,-1.38233 -7.5113,-7.28477 2.9024,-7.61407 9.1004,-10.58445 22.0866,-10.58445 6.8577,0 8.7566,0.3713 11.5523,2.25883 5.2576,3.55031 7.7009,8.9672 9.4878,21.03617 l 0.5547,3.74803 5.0057,-3.96444 c 6.3579,-5.03575 10.04,-6.02518 22.4479,-6.03207 9.3848,-0.005 10.4978,0.21769 17.2329,3.4519 13.6693,6.56363 20.3082,15.77121 21.044,29.18409 0.5412,9.87516 -0.974,13.42216 -9.7096,22.73046 l -5.8899,6.27598 h -7.3512 c -6.0421,0 -8.3759,-0.50444 -13.1092,-2.83315 -6.4128,-3.15536 -8.3813,-5.63453 -6.8102,-8.57661 1.2915,-2.41808 2.3154,-2.77785 10.3586,-3.64092 6.6271,-0.71108 6.6478,-0.72309 8.7542,-5.08328 2.278,-4.71517 2.079,-6.7041 -1.2174,-12.16082 -1.5853,-2.62417 -2.5487,-3.20237 -5.1728,-3.10355 -1.7735,0.0666 -5.0508,-0.93193 -7.2838,-2.21939 l -4.0593,-2.34083 -4.682,2.93831 c -10.2001,6.40088 -15.0876,10.11176 -17.8442,13.54806 l -2.8822,3.59285 -0.9613,45.36751 c -0.5285,24.9521 -0.7454,45.71746 -0.4814,46.14522 0.2637,0.42777 2.1796,1.05015 4.2575,1.38305 2.0779,0.33292 4.5951,1.56155 5.5938,2.73022 1.671,1.9554 1.9563,1.99757 3.5761,0.52875 3.4582,-3.13573 17.8946,-1.40293 24.0769,2.89 5.077,3.52521 4.8511,3.83758 -8.4197,11.63794 l -10.0528,5.90907 -24.2728,0.01 -24.2728,0.01 -3.3465,-5.26264 z m 489.582,0.56475 c -5.234,-0.86894 -15.7372,-4.61708 -21.4311,-7.6479 -4.3221,-2.30035 -7.1344,-4.78614 -10.3951,-9.18702 -7.5394,-10.17596 -9.1904,-14.85055 -10.3565,-29.32589 -1.2296,-15.26445 -0.1552,-20.60137 4.2522,-21.11469 3.2929,-0.38352 4.4234,1.07274 5.7564,7.41439 1.4894,7.08506 4.7872,15.60953 7.7075,19.92119 1.3516,1.99548 2.4571,4.70359 2.4571,6.01806 0,3.70006 2.7435,5.85051 6.4143,5.02799 3.3211,-0.74415 4.5552,-0.75953 23.5991,-0.29436 13.8999,0.33956 16.4905,-0.41645 21.3813,-6.24082 3.7667,-4.48535 6.087,-13.08811 4.681,-17.35677 -2.2854,-6.93856 -8.7506,-10.82372 -26.0623,-15.66207 -10.0793,-2.81691 -11.885,-3.65745 -14.5681,-6.7817 -2.7623,-3.21585 -3.4123,-3.5006 -6.6186,-2.89792 -3.2563,0.61207 -3.8692,0.32005 -7.2887,-3.47216 -5.555,-6.16086 -6.7497,-9.92519 -7.3066,-23.01512 -0.3862,-9.08896 -0.1227,-12.86016 1.2266,-17.54212 2.7333,-9.48671 7.5026,-17.44005 15.1324,-25.23603 9.607,-9.81623 17.4136,-13.54707 29.5629,-14.12911 7.6627,-0.36707 9.3158,-0.12119 14.1775,2.10884 3.0265,1.38837 6.6987,3.8691 8.1601,5.51268 1.7516,1.9697 4.0062,3.20445 6.6144,3.62232 2.7808,0.44555 5.0668,1.78127 7.6932,4.49593 6.5545,6.77407 17.1986,27.25007 15.9126,30.60929 -0.5753,1.50059 -0.9684,1.47295 -4.403,-0.31 -2.0741,-1.07678 -6.4721,-4.28458 -9.7737,-7.12843 -6.8108,-5.86663 -16.9806,-11.38663 -24.1533,-13.10948 -2.6728,-0.64201 -6.3483,-2.01392 -8.168,-3.04871 -4.1341,-2.35081 -4.3607,-2.34391 -7.293,0.22265 -1.3221,1.15732 -4.5467,3.19691 -7.1653,4.5325 -5.6209,2.86659 -10.1667,8.7127 -12.256,15.76229 -2.5029,8.44548 -2.0781,10.48242 3.2614,15.63331 4.1306,3.98488 6.1497,5.01066 15.4424,7.84532 8.1094,2.47364 10.8432,3.74259 11.3223,5.25552 0.3867,1.22037 1.5145,1.99449 2.906,1.99449 4.1939,0 14.809,6.24872 21.734,12.79426 8.2637,7.81118 9.8719,12.01352 9.8719,25.7984 0,15.64679 -4.0464,24.90778 -15.3692,35.17454 -12.6032,11.42773 -29.9242,16.53443 -46.6581,13.75633 z M 494.79058,432.14131 c -4.38815,-2.68068 -6.28668,-7.60741 -6.50942,-16.89264 -0.29303,-12.21473 1.43926,-98.58244 2.26634,-112.99457 0.6612,-11.52087 1.01754,-13.39684 2.90364,-15.28669 2.43694,-2.44173 2.53698,-3.00865 1.16749,-6.61773 -0.79011,-2.08222 -0.60453,-2.96801 0.9477,-4.52321 2.66003,-2.66535 8.94412,-4.22824 12.5954,-3.13258 9.63431,2.89097 9.66278,2.98898 10.22231,35.17469 l 0.46183,26.56378 -2.61845,2.43015 c -3.13374,2.90839 -3.32267,5.38468 -0.61762,8.09509 1.89444,1.89814 1.9977,3.29829 1.94117,26.31318 -0.0884,35.99659 -1.20391,53.402 -3.63531,56.72676 -4.33426,5.92667 -13.09815,7.82552 -19.12508,4.14377 z m 202.73975,0.50278 c -4.42866,-2.41018 -7.15535,-7.84213 -6.41998,-12.78955 0.34559,-2.32498 0.54386,-5.35497 0.44063,-6.73329 -0.10323,-1.37829 -0.0995,-21.67701 0.008,-45.10827 0.23445,-50.96985 1.42588,-83.98846 3.15141,-87.33486 3.78581,-7.34206 10.46223,-10.13305 17.65543,-7.38052 7.24229,2.77133 7.77808,4.64487 8.16636,28.55653 0.32098,19.76965 0.24785,20.70738 -1.9281,24.71435 -2.15295,3.96471 -2.18104,4.28845 -0.58377,6.731 1.47179,2.25067 1.67208,5.98826 1.63011,30.41801 -0.0697,40.56946 -1.23546,60.98076 -3.67309,64.31485 -4.03262,5.51555 -12.77192,7.70034 -18.44725,4.61175 z m 840.80977,0.1275 c -12.6052,-4.10882 -26.6923,-18.20675 -34.2879,-34.31461 -5.8612,-12.42998 -7.4427,-21.03366 -7.4385,-40.46808 0,-20.61584 1.3611,-26.978 9.3089,-43.64817 6.3571,-13.33506 11.4173,-20.68169 19.3927,-28.15727 8.6146,-8.07425 14.044,-10.62505 23.822,-11.19224 26.222,-1.52092 45.7004,14.01921 52.8935,42.19926 4.6393,18.17618 5.1188,45.59009 1.1302,64.67677 -2.0568,9.84212 -3.2287,12.20828 -6.0487,12.20828 -2.1331,0 -5.0346,3.0863 -5.0346,5.35519 0,0.92887 0.5363,2.54914 1.1914,3.60056 1.0001,1.60402 0.7182,2.6026 -1.7508,6.20521 -7.8918,11.51661 -19.3003,20.02525 -30.4539,22.71304 -8.0314,1.93531 -18.182,2.30252 -22.7243,0.82206 z m 22.352,-29.48226 c 9.3479,-4.78264 17.2105,-18.47016 19.2984,-33.59469 0.5952,-4.31267 1.0668,-13.33429 1.0476,-20.04812 -0.085,-29.87434 -7.8612,-45.89629 -23.0298,-47.45379 -11.7499,-1.20643 -19.9022,4.01634 -25.6467,16.43151 -1.8444,3.98596 -3.6346,8.65594 -3.9781,10.37768 -0.4559,2.28506 -1.4155,3.40655 -3.5521,4.15286 -4.1463,1.44834 -5.3308,5.14089 -2.9353,9.15295 1.5314,2.56492 2.075,6.60087 2.9199,21.6956 1.177,21.01787 2.6703,26.70968 8.9332,34.04059 5.9014,6.90825 8.7305,8.25638 16.3104,7.77309 3.9176,-0.24979 8.1443,-1.25461 10.6325,-2.52768 z m 323.8775,28.9588 c -2.0322,-1.24167 -3.7587,-3.54934 -4.9046,-6.55549 -1.6128,-4.23235 -1.7189,-7.812 -1.2071,-40.81277 0.5372,-34.66672 0.6477,-36.29161 2.6532,-39.00969 2.6431,-3.58133 2.6478,-6.25669 0.017,-9.82117 -2.0363,-2.75967 -2.0563,-3.27788 -1.0588,-27.35819 1.142,-27.58857 2.0482,-31.76153 7.5107,-34.60327 4.0683,-2.1166 10.2757,-2.07152 14.4611,0.10509 6.4111,3.33465 6.4904,4.03291 5.9323,52.22046 -0.4552,39.2949 -0.6634,43.44263 -2.3529,46.94175 -1.7638,3.65277 -1.77,3.98371 -0.1299,6.84746 1.3431,2.34509 1.716,5.36955 1.6897,13.70387 -0.051,16.13593 -1.6057,30.82325 -3.6265,34.2507 -3.2637,5.53669 -13.1365,7.66421 -18.9844,4.09125 z m -960.37722,-1.22189 c -2.49235,-2.80273 -7.82106,-5.02323 -10.10348,-4.21014 -0.99367,0.35397 -2.59349,1.32063 -3.55513,2.14812 -1.55968,1.34206 -2.16291,1.31728 -5.58632,-0.22953 -5.02242,-2.26925 -17.64054,-13.29584 -25.32305,-22.12907 -3.7042,-4.259 -7.85367,-10.61131 -10.55769,-16.16242 l -4.4549,-9.14556 0.0357,-19.92422 c 0.0334,-18.63055 0.22485,-20.67272 2.9483,-31.45189 5.00216,-19.79812 11.02134,-30.71193 24.95799,-45.25304 10.35859,-10.80788 15.33569,-13.33765 26.24119,-13.3377 6.5509,-3e-5 8.48173,0.46083 15.07521,3.59824 10.05746,4.78573 19.82881,13.91149 24.01223,22.42602 4.59269,9.34748 6.27202,22.06212 5.54511,41.98473 -0.31974,8.76362 -0.79645,16.14942 -1.05937,16.41285 -0.45269,0.45366 -13.26736,3.60359 -53.8376,13.23373 l -17.75771,4.21511 v 3.74286 c 0,10.38126 9.27409,23.01503 19.43659,26.47777 5.7549,1.96092 17.71446,2.18065 28.08406,0.51603 3.85168,-0.61831 9.31515,-1.06829 12.14118,-0.99996 4.92344,0.11909 5.18736,-0.011 6.31755,-3.11616 0.64868,-1.78227 1.72905,-4.36818 2.40084,-5.74648 1.51096,-3.09997 16.41824,-15.30212 17.71411,-14.49964 0.51891,0.32136 0.94351,3.8687 0.94351,7.88306 0,10.36133 -3.6792,17.42383 -14.95631,28.70952 -9.77644,9.78393 -16.0921,13.32985 -27.70844,15.5568 -9.396,1.8013 -8.69008,1.84632 -10.95358,-0.69903 z m -3.40646,-90.67207 c 11.2799,-1.43283 20.9443,-3.02085 21.47653,-3.52888 1.1649,-1.11213 -1.94145,-20.71108 -4.11288,-25.94948 -1.93495,-4.66781 -7.62312,-10.3892 -12.53542,-12.60871 -3.52586,-1.59304 -4.45706,-1.645 -8.15589,-0.45482 -2.29659,0.73893 -6.48392,1.29016 -9.3052,1.22492 -6.57011,-0.15196 -9.38265,2.31236 -7.70919,6.75456 0.89508,2.37604 0.60441,3.92348 -1.79604,9.5615 -3.67068,8.62144 -5.87408,17.17979 -5.87408,22.81575 0,5.38241 0.47916,5.95567 4.43041,5.30011 1.69007,-0.28043 12.30185,-1.68216 23.58176,-3.11495 z m -579.02291,84.04419 c -10.07918,-12.88434 -8.45999,-21.96852 4.41027,-24.74364 l 3.13853,-0.67673 0.72697,-17.9572 c 0.66254,-16.36429 0.8945,-18.01043 2.61512,-18.55762 4.22815,-1.3446 4.74933,-7.41431 0.81773,-9.52265 -1.77305,-0.95075 -1.9313,-2.21668 -1.91145,-15.28562 l 0.0216,-14.24901 3.164,-1.5036 c 5.38132,-2.55735 5.53973,-3.91195 1.46324,-12.51282 l -3.67008,-7.7434 v -31.27515 -31.27516 l -3.33626,-3.24 c -2.19981,-2.13632 -4.67047,-3.42051 -7.25313,-3.76998 -2.15431,-0.29151 -4.92984,-0.73488 -6.1679,-0.98535 -3.71471,-0.75148 -2.7573,-4.30639 2.53689,-9.41933 8.43317,-8.14452 28.05829,-13.05619 52.11788,-13.0438 33.29376,0.0171 57.61347,12.33198 67.62513,34.24353 5.43184,11.88797 6.8628,19.92855 6.92763,38.92513 0.0509,14.93592 -0.2698,18.84887 -2.15875,26.33758 -5.51421,21.86084 -16.96065,40.33458 -30.97967,49.99892 -9.86503,6.80073 -28.63072,12.95534 -44.29659,14.52806 -3.57656,0.35905 -6.83358,1.14954 -7.23782,1.75669 -1.18241,1.77566 -0.87435,18.57083 0.38455,20.96725 1.55221,2.95483 2.79188,3.65964 6.46825,3.67779 1.71406,0.008 4.32293,0.96619 5.79749,2.12838 2.03545,1.60425 3.33264,1.92464 5.38718,1.33053 3.34711,-0.96786 17.65293,-0.70969 21.70142,0.39162 2.93158,0.79747 2.82701,0.90094 -5.51151,5.45522 -12.46914,6.81037 -17.84695,8.99115 -22.0293,8.93331 -2.7117,-0.0374 -4.36226,0.62078 -6.03807,2.40813 -3.02164,3.22274 -9.716,5.13053 -24.39025,6.95079 -16.93533,2.10079 -16.89934,2.10482 -20.3231,-2.27187 z m 67.57811,-79.9988 c 1.22294,-0.85823 2.22347,-2.16152 2.22347,-2.89613 0,-2.85359 3.60948,-5.81551 7.45994,-6.12163 4.71211,-0.37464 5.76636,-1.79558 5.151,-6.94301 -0.35262,-2.95011 0.26621,-5.69079 2.3766,-10.52525 5.29845,-12.13741 6.44157,-18.23872 6.48341,-34.60396 0.0436,-17.06756 -1.87428,-25.68872 -7.42164,-33.36172 -3.3569,-4.64322 -11.68962,-9.92086 -17.05059,-10.79926 -5.32417,-0.87238 -7.76521,-2.12439 -8.4681,-4.34335 -1.35426,-4.27537 -8.76198,-3.29509 -10.54159,1.39503 -0.62304,1.64182 -1.98408,2.74977 -3.83327,3.1203 l -2.86729,0.57463 -0.65073,13.59581 c -0.35792,7.47775 -0.65079,30.85159 -0.65079,51.94188 v 38.34607 l 4.09481,0.69317 c 2.2521,0.38127 6.43413,0.40034 9.29349,0.0422 2.85927,-0.35795 6.30646,-0.20779 7.66033,0.3338 3.44101,1.37639 4.21359,1.32492 6.74095,-0.44877 z m 671.55628,9.73495 c -4.4288,-4.22165 -5.0081,-6.92767 -2.6793,-12.51265 1.8159,-4.35464 5.6179,-6.6917 10.856,-6.67299 5.6093,0.02 7.1629,1.13196 7.2317,5.17566 0.046,2.66848 0.5034,3.39305 2.3075,3.64979 1.8489,0.26311 2.2508,0.95242 2.2508,3.85928 0,2.68813 -0.8174,4.35829 -3.4016,6.9471 -2.8729,2.87898 -4.1093,3.4082 -7.9611,3.4082 -3.9211,0 -5.1265,-0.53987 -8.604,-3.85439 z M 912.23958,249.86636 c -10.36932,-6.33584 -12.3385,-19.81789 -4.12416,-28.23629 3.96361,-4.0621 6.4391,-4.98053 13.42405,-4.98053 7.05703,0 11.15923,2.59002 14.84633,9.37376 6.52673,12.00833 -2.05599,25.71131 -16.1001,25.70517 -3.10828,-10e-4 -6.15465,-0.70633 -8.04612,-1.86211 z M 500.72365,238.99269 c -4.15295,-2.04991 -8.6766,-8.11028 -9.55477,-12.80055 -1.57111,-8.39103 5.29939,-19.08584 13.18603,-20.52589 7.95205,-1.45203 17.6206,1.99885 14.46347,5.16216 -1.54941,1.55246 -1.55321,5.07397 -0.007,6.62309 0.66024,0.66157 2.68612,1.2029 4.50192,1.2029 3.17559,0 3.30144,0.15028 3.30144,3.94434 0,5.0865 -1.46369,8.87602 -4.8157,12.46819 -5.22472,5.59899 -14.27144,7.28419 -21.07525,3.92576 z m 202.17612,0.0427 c -4.90764,-2.42346 -7.21167,-5.91681 -7.21167,-10.93429 0,-2.37403 -0.4502,-4.59524 -1.00044,-4.93602 -3.17256,-1.9646 1.593,-12.25047 7.4605,-16.10259 3.19863,-2.09996 13.21738,-2.18096 17.15884,-0.13876 8.54343,4.42667 11.97076,16.38929 7.15523,24.97423 -4.38458,7.81667 -15.4187,11.15909 -23.56246,7.13747 z m 1186.23503,-1.12708 c -2.6461,-1.70357 -5.2817,-4.43943 -6.2531,-6.48964 -3.4037,-7.18682 -1.3976,-16.98576 4.632,-22.62303 4.8666,-4.55069 14.9439,-4.86713 21.3364,-0.67007 2.1212,1.39246 2.5083,2.28195 2.1146,4.86338 -0.6363,4.17698 -0.026,5.60916 2.8576,6.70764 4.901,1.86693 1.8553,13.39284 -4.7921,18.13533 -2.2919,1.6353 -4.9884,2.4096 -9.2767,2.66354 -5.3168,0.31492 -6.5956,0.003 -10.6187,-2.58715 z"
       id="path916" /></g></svg>
