<?xml version="1.0" encoding="UTF-8" standalone="no"?>
<svg
   xmlns:dc="http://purl.org/dc/elements/1.1/"
   xmlns:cc="http://creativecommons.org/ns#"
   xmlns:rdf="http://www.w3.org/1999/02/22-rdf-syntax-ns#"
   xmlns:svg="http://www.w3.org/2000/svg"
   xmlns="http://www.w3.org/2000/svg"
   xmlns:xlink="http://www.w3.org/1999/xlink"
   xmlns:sodipodi="http://sodipodi.sourceforge.net/DTD/sodipodi-0.dtd"
   xmlns:inkscape="http://www.inkscape.org/namespaces/inkscape"
   id="svg2"
   version="1.1"
   inkscape:version="1.0 (4035a4fb49, 2020-05-01)"
   width="2481"
   height="3503"
   sodipodi:docname="E35P10.svg">
  <metadata
     id="metadata8">
    <rdf:RDF>
      <cc:Work
         rdf:about="">
        <dc:format>image/svg+xml</dc:format>
        <dc:type
           rdf:resource="http://purl.org/dc/dcmitype/StillImage" />
        <dc:title />
      </cc:Work>
    </rdf:RDF>
  </metadata>
  <defs
     id="defs6" />
  <sodipodi:namedview
     pagecolor="#ffffff"
     bordercolor="#666666"
     borderopacity="1"
     objecttolerance="10"
     gridtolerance="10"
     guidetolerance="10"
     inkscape:pageopacity="0"
     inkscape:pageshadow="2"
     inkscape:window-width="1366"
     inkscape:window-height="715"
     id="namedview4"
     showgrid="false"
     inkscape:zoom="0.45"
     inkscape:cx="1177.7878"
     inkscape:cy="1831.1291"
     inkscape:window-x="-8"
     inkscape:window-y="-8"
     inkscape:window-maximized="1"
     inkscape:current-layer="layer3"
     inkscape:document-rotation="0"
     inkscape:snap-global="false"
     inkscape:pagecheckerboard="0" />
  <g
     inkscape:groupmode="layer"
     id="layer2"
     inkscape:label="artwork"
     sodipodi:insensitive="true">
    <image
       sodipodi:absref="D:\Pepper&amp;Carrot translation\ep35_The-Reflection_lang-pack\lang\gfx_Pepper-and-Carrot_by-David-Revoy_E35P10.png"
       xlink:href="../gfx_Pepper-and-Carrot_by-David-Revoy_E35P10.png"
       y="0"
       x="0"
       id="image10"
       height="3503"
       width="2481" />
  </g>
  <g
     inkscape:groupmode="layer"
     id="layer3"
     inkscape:label="speechbubbles">
    <path
       style="fill:#ffffff;stroke:none;stroke-width:0.781336"
       d="m 1267.9577,166.13924 c -53.5553,0.19538 -107.697,-0.31872 -160.3476,7.2628 -21.8919,3.06661 -44.1731,6.70445 -63.4024,14.67512 -22.7749,9.55394 -41.6776,24.04632 -49.70919,41.43805 -6.56122,15.14299 -2.43941,31.59354 7.47489,45.64928 11.6952,17.43125 32.9601,32.04871 59.2689,39.54903 26.9866,8.51281 55.6663,14.30876 84.5259,19.16927 41.9189,6.44799 85.0998,7.51563 127.9346,8.0414 51.7505,1.007 103.7778,2.95696 155.3393,-1.26893 31.8733,-2.49746 63.6317,-5.8431 94.9504,-10.56412 31.3422,-4.86037 62.5772,-11.99314 88.9276,-24.69227 12.0919,-5.61381 21.1731,-13.73266 27.3713,-22.60913 4.2741,-6.1081 7.3502,-12.55473 10.348,-18.98358 5.487,-12.58405 7.12,-26.23647 1.5844,-38.94958 -7.0186,-16.94149 -25.8065,-31.3735 -49.651,-38.57795 -24.1965,-7.99051 -50.9686,-11.33153 -77.3121,-14.44791 -38.3332,-4.08478 -77.2279,-4.62176 -115.9504,-5.30785 -46.6012,-0.47603 -93.21,-0.36565 -139.8148,-0.3909 -0.5126,0.003 -1.0252,0.005 -1.5378,0.007 z"
       id="path3100-98"
       inkscape:connector-curvature="0"
       sodipodi:nodetypes="zsssssz" />
    <path
       style="color:#000000;display:inline;overflow:visible;visibility:visible;fill:#ffffff;fill-opacity:1;fill-rule:nonzero;stroke:none;stroke-width:0.83737px;marker:none;enable-background:accumulate"
       d="m 1588.7795,446.51944 c 2.403,-24.32977 -9.2766,-33.6163 -20.6628,-38.28253 -11.3869,-4.66626 -19.0826,-5.58729 -28.1978,-26.0826 -9.1142,-20.49521 -0.7357,-41.29642 -4.8853,-52.46499 -11.4569,-16.24953 -34.9307,-26.06627 -44.5289,-30.51513 -21.6856,-10.05119 11.3091,-23.29909 11.3091,-23.29909 8.77,-0.30545 47.7455,23.68713 57.7575,33.72157 14.4084,14.44054 -4.0636,48.20741 4.0399,65.52593 7.5675,16.17219 18.2749,17.40774 23.9472,28.63593 5.6729,11.22843 4.8219,31.66667 1.2211,42.76091 z"
       id="path4538-8"
       inkscape:connector-curvature="0"
       sodipodi:nodetypes="csscscsssc" />
    <path
       style="color:#000000;display:inline;overflow:visible;visibility:visible;fill:#ffffff;fill-opacity:1;fill-rule:nonzero;stroke:none;stroke-width:1.20524px;marker:none;enable-background:accumulate"
       d="m 118.45522,1517.6193 c 4.11077,-51.438 4.70086,-101.1291 59.07414,-130.8314 54.37316,-29.7011 150.16407,-37.1638 270.48394,-28.5241 64.44973,4.6274 145.63975,10.812 197.03337,32.1904 51.39363,21.3784 72.99099,57.9506 67.71701,133.2959 -5.27398,75.3452 -33.73478,108.017 -93.1034,126.8224 -59.36853,18.8069 -149.6451,23.7478 -171.38357,25.6947 -21.73844,1.9468 -89.16153,-0.5439 -156.05505,-9.8815 -66.89339,-9.3376 -112.64824,-15.8581 -132.26834,-41.3038 -30.75772,-32.28 -43.36855,-70.0132 -41.4981,-107.4626 z"
       id="path4546-6-2-0"
       inkscape:connector-curvature="0"
       sodipodi:nodetypes="cssssssscc" />
    <path
       style="fill:#ffffff;fill-rule:evenodd;stroke:none;stroke-width:1.12465px;stroke-linecap:butt;stroke-linejoin:miter;stroke-opacity:1"
       d="m 566.83527,1651.6586 c 4.43847,-15.3188 61.8645,41.4938 43.56991,104.2767 2.42387,27.4208 22.18027,42.2423 21.12076,57.0045 -1.05963,24.2524 -9.53608,35.8508 -36.02508,55.8848 33.90594,-15.8168 54.23301,-33.7608 55.29264,-58.0121 1.05951,-24.2524 -17.71625,-25.1329 -17.14842,-60.0829 1.05952,-10.5449 25.79381,-65.3353 -26.69151,-120.7385 19.07205,-20.0341 -40.1183,21.6675 -40.1183,21.6675 z"
       id="path1303"
       inkscape:connector-curvature="0"
       sodipodi:nodetypes="cccccccc" />
    <path
       style="color:#000000;display:inline;overflow:visible;visibility:visible;fill:#ffffff;fill-opacity:1;fill-rule:nonzero;stroke:none;stroke-width:0.691996px;marker:none;enable-background:accumulate"
       d="m 1281.8209,1512.5477 c 2.4753,-28.1602 2.8306,-55.364 35.5721,-71.625 32.7413,-16.26 90.4228,-20.3456 162.8745,-15.6157 38.8092,2.5333 87.6985,5.9192 118.6458,17.6229 30.9472,11.7039 43.9521,31.7256 40.7764,72.9741 -3.1756,41.2485 -20.3136,59.1349 -56.063,69.4302 -35.7495,10.296 -90.1104,13.0009 -103.2004,14.0668 -13.09,1.0657 -53.6897,-0.2978 -93.9703,-5.4098 -40.2806,-5.1119 -67.8322,-8.6816 -79.6466,-22.6121 -18.521,-17.672 -26.1149,-38.3294 -24.9885,-58.8314 z"
       id="path4546-6-2-0-3"
       inkscape:connector-curvature="0"
       sodipodi:nodetypes="cssssssscc" />
    <path
       style="color:#000000;display:inline;overflow:visible;visibility:visible;fill:#ffffff;fill-opacity:1;fill-rule:nonzero;stroke:none;stroke-width:0.735063px;marker:none;enable-background:accumulate"
       d="m 1295.7665,1638.9217 c 2.8434,-27.6611 3.2515,-54.3826 40.8618,-70.3553 37.6101,-15.9719 103.8691,-19.985 187.0944,-15.339 44.5802,2.4884 100.7395,5.8142 136.2888,17.3106 35.5491,11.4963 50.4881,31.1633 46.8401,71.6806 -3.648,40.5172 -23.3346,58.0865 -64.3999,68.1994 -41.0653,10.1135 -103.5101,12.7705 -118.5467,13.8173 -15.0365,1.047 -61.6734,-0.2923 -107.9437,-5.3138 -46.2704,-5.0213 -77.919,-8.5276 -91.4904,-22.2112 -21.2753,-17.3588 -29.9981,-37.65 -28.7044,-57.7886 z"
       id="path4546-6-2-0-3-6"
       inkscape:connector-curvature="0"
       sodipodi:nodetypes="cssssssscc" />
    <path
       style="color:#000000;display:inline;overflow:visible;visibility:visible;fill:#ffffff;fill-opacity:1;fill-rule:nonzero;stroke:none;stroke-width:1.47843px;marker:none;enable-background:accumulate"
       d="m 1428.1578,1693.7181 c 6.1533,73.3287 -47.1663,130.4434 -118.01,146.3855 114.7363,-9.2052 166.2605,-106.0374 160.9588,-137.1332 -5.191,-30.4467 -42.9488,-9.2523 -42.9488,-9.2523 z"
       id="path5010-4"
       inkscape:connector-curvature="0"
       sodipodi:nodetypes="ccsc" />
  </g>
  <g
     inkscape:groupmode="layer"
     id="layer1"
     inkscape:label="txt">
    <text
       xml:space="preserve"
       style="font-style:normal;font-variant:normal;font-weight:normal;font-stretch:normal;font-size:45px;line-height:1.25;font-family:'Xiaolai SC';-inkscape-font-specification:'Xiaolai SC';text-align:center;letter-spacing:0px;word-spacing:0px;text-anchor:middle;fill:#000000;fill-opacity:1;stroke:none"
       x="1325.0667"
       y="244.98175"
       id="text4246-3-2-2"><tspan
         style="font-style:normal;font-variant:normal;font-weight:normal;font-stretch:normal;font-size:45px;font-family:'Xiaolai SC';-inkscape-font-specification:'Xiaolai SC'"
         sodipodi:role="line"
         x="1325.0667"
         y="244.98175"
         id="tspan876">你可知道在绿芥末导师手下</tspan><tspan
         id="tspan38"
         style="font-style:normal;font-variant:normal;font-weight:normal;font-stretch:normal;font-size:45px;font-family:'Xiaolai SC';-inkscape-font-specification:'Xiaolai SC'"
         sodipodi:role="line"
         x="1325.0667"
         y="301.23175">可没有什么好果子吃。</tspan></text>
    <text
       xml:space="preserve"
       style="font-style:normal;font-variant:normal;font-weight:normal;font-stretch:normal;font-size:45px;line-height:1.25;font-family:'Xiaolai SC';-inkscape-font-specification:'Xiaolai SC';text-align:center;letter-spacing:0px;word-spacing:0px;text-anchor:middle;fill:#000000;fill-opacity:1;stroke:none"
       x="427.03455"
       y="1453.9784"
       id="text4246-3-2-2-3"><tspan
         id="tspan7423"
         style="font-style:normal;font-variant:normal;font-weight:normal;font-stretch:normal;font-size:45px;font-family:'Xiaolai SC';-inkscape-font-specification:'Xiaolai SC'"
         sodipodi:role="line"
         x="427.03455"
         y="1453.9784">我知道，</tspan><tspan
         id="tspan46"
         style="font-style:normal;font-variant:normal;font-weight:normal;font-stretch:normal;font-size:45px;font-family:'Xiaolai SC';-inkscape-font-specification:'Xiaolai SC'"
         sodipodi:role="line"
         x="427.03455"
         y="1510.2284">但我感觉的到</tspan><tspan
         id="tspan48"
         style="font-style:normal;font-variant:normal;font-weight:normal;font-stretch:normal;font-size:45px;font-family:'Xiaolai SC';-inkscape-font-specification:'Xiaolai SC'"
         sodipodi:role="line"
         x="427.03455"
         y="1566.4784">还是有希望和她进行沟通，</tspan><tspan
         id="tspan50"
         style="font-style:normal;font-variant:normal;font-weight:normal;font-stretch:normal;font-size:45px;font-family:'Xiaolai SC';-inkscape-font-specification:'Xiaolai SC'"
         sodipodi:role="line"
         x="427.03455"
         y="1622.7284">让她理解的。</tspan></text>
    <text
       xml:space="preserve"
       style="font-style:normal;font-variant:normal;font-weight:normal;font-stretch:normal;font-size:45px;line-height:1.25;font-family:'Xiaolai SC';-inkscape-font-specification:'Xiaolai SC';text-align:center;letter-spacing:0px;word-spacing:0px;text-anchor:middle;fill:#000000;fill-opacity:1;stroke:none"
       x="1460.6498"
       y="1490.1573"
       id="text4246-3-2-2-3-3"><tspan
         style="font-style:normal;font-variant:normal;font-weight:normal;font-stretch:normal;font-size:45px;font-family:'Xiaolai SC';-inkscape-font-specification:'Xiaolai SC'"
         sodipodi:role="line"
         x="1460.6498"
         y="1490.1573"
         id="tspan912">没有什么</tspan><tspan
         id="tspan56"
         style="font-style:normal;font-variant:normal;font-weight:normal;font-stretch:normal;font-size:45px;font-family:'Xiaolai SC';-inkscape-font-specification:'Xiaolai SC'"
         sodipodi:role="line"
         x="1460.6498"
         y="1546.4073">是不可挽回的。</tspan></text>
    <text
       xml:space="preserve"
       style="font-style:normal;font-variant:normal;font-weight:normal;font-stretch:normal;font-size:45px;line-height:1.25;font-family:'Xiaolai SC';-inkscape-font-specification:'Xiaolai SC';text-align:center;letter-spacing:0px;word-spacing:0px;text-anchor:middle;fill:#000000;fill-opacity:1;stroke:none"
       x="1500.877"
       y="1622.4132"
       id="text4246-3-2-2-3-3-1"><tspan
         style="font-style:normal;font-variant:normal;font-weight:normal;font-stretch:normal;font-size:45px;font-family:'Xiaolai SC';-inkscape-font-specification:'Xiaolai SC'"
         sodipodi:role="line"
         x="1500.877"
         y="1622.4132"
         id="tspan913">这是我的</tspan><tspan
         style="font-style:normal;font-variant:normal;font-weight:normal;font-stretch:normal;font-size:45px;font-family:'Xiaolai SC';-inkscape-font-specification:'Xiaolai SC'"
         sodipodi:role="line"
         x="1500.877"
         y="1678.6632"
         id="tspan921">一个好朋友说的。</tspan></text>
  </g>
</svg>
