<?xml version="1.0" encoding="UTF-8" standalone="no"?>
<!-- Created with Inkscape (http://www.inkscape.org/) -->

<svg
   id="svg2"
   version="1.1"
   inkscape:version="1.3 (1:1.3+202307231459+0e150ed6c4)"
   width="2481"
   height="3503"
   sodipodi:docname="E13P03.svg"
   xmlns:inkscape="http://www.inkscape.org/namespaces/inkscape"
   xmlns:sodipodi="http://sodipodi.sourceforge.net/DTD/sodipodi-0.dtd"
   xmlns:xlink="http://www.w3.org/1999/xlink"
   xmlns="http://www.w3.org/2000/svg"
   xmlns:svg="http://www.w3.org/2000/svg"
   xmlns:rdf="http://www.w3.org/1999/02/22-rdf-syntax-ns#"
   xmlns:cc="http://creativecommons.org/ns#"
   xmlns:dc="http://purl.org/dc/elements/1.1/">
  <sodipodi:namedview
     pagecolor="#ffffff"
     bordercolor="#666666"
     inkscape:pageopacity="0"
     inkscape:pageshadow="2"
     inkscape:window-width="1920"
     inkscape:window-height="997"
     id="namedview70"
     showgrid="false"
     inkscape:zoom="0.36440298"
     inkscape:cx="1289.7809"
     inkscape:cy="2184.3949"
     inkscape:current-layer="layer1"
     inkscape:window-x="0"
     inkscape:window-y="0"
     inkscape:window-maximized="1"
     borderopacity="1"
     inkscape:showpageshadow="0"
     inkscape:pagecheckerboard="0"
     inkscape:deskcolor="#d1d1d1" />
  <metadata
     id="metadata8">
    <rdf:RDF>
      <cc:Work
         rdf:about="">
        <dc:format>image/svg+xml</dc:format>
        <dc:type
           rdf:resource="http://purl.org/dc/dcmitype/StillImage" />
        <dc:title />
      </cc:Work>
    </rdf:RDF>
  </metadata>
  <defs
     id="defs6">
    <filter
       style="color-interpolation-filters:sRGB"
       id="filter5561-7-8-9"
       inkscape:label="Roughen"
       x="-0.01727709"
       y="-0.053490162"
       width="1.0345542"
       height="1.1069803">
      <feFlood
         id="feFlood5563-4-9-0"
         flood-opacity="1"
         flood-color="rgb(88,149,175)"
         result="flood" />
      <feComposite
         id="feComposite5565-6-3-0"
         in2="SourceGraphic"
         in="flood"
         operator="in"
         result="composite1" />
      <feMorphology
         id="feMorphology5567-3-48-3"
         operator="dilate"
         radius="5.5"
         result="result3" />
      <feComposite
         id="feComposite5569-6-6-5"
         in2="result3"
         in="SourceGraphic"
         operator="over"
         result="fbSourceGraphic" />
      <feColorMatrix
         result="fbSourceGraphicAlpha"
         in="fbSourceGraphic"
         values="0 0 0 -1 0 0 0 0 -1 0 0 0 0 -1 0 0 0 0 1 0"
         id="feColorMatrix4681-5-3" />
      <feTurbulence
         id="feTurbulence4683-3-9"
         type="fractalNoise"
         numOctaves="1"
         seed="33"
         baseFrequency="0.001 0.0199"
         result="turbulence" />
      <feDisplacementMap
         id="feDisplacementMap4685-0-6"
         in2="turbulence"
         in="fbSourceGraphic"
         scale="37.8"
         yChannelSelector="G"
         xChannelSelector="R" />
    </filter>
    <filter
       style="color-interpolation-filters:sRGB"
       id="filter5561-7-8-9-5"
       inkscape:label="Roughen">
      <feFlood
         id="feFlood5563-4-9-0-1"
         flood-opacity="1"
         flood-color="rgb(88,149,175)"
         result="flood" />
      <feComposite
         id="feComposite5565-6-3-0-8"
         in2="SourceGraphic"
         in="flood"
         operator="in"
         result="composite1" />
      <feMorphology
         id="feMorphology5567-3-48-3-8"
         operator="dilate"
         radius="5.5"
         result="result3" />
      <feComposite
         id="feComposite5569-6-6-5-6"
         in2="result3"
         in="SourceGraphic"
         operator="over"
         result="fbSourceGraphic" />
      <feColorMatrix
         result="fbSourceGraphicAlpha"
         in="fbSourceGraphic"
         values="0 0 0 -1 0 0 0 0 -1 0 0 0 0 -1 0 0 0 0 1 0"
         id="feColorMatrix4681-5-3-1" />
      <feTurbulence
         id="feTurbulence4683-3-9-7"
         type="fractalNoise"
         numOctaves="1"
         seed="33"
         baseFrequency="0.001 0.0199"
         result="turbulence" />
      <feDisplacementMap
         id="feDisplacementMap4685-0-6-9"
         in2="turbulence"
         in="fbSourceGraphic"
         scale="37.8"
         yChannelSelector="G"
         xChannelSelector="R" />
    </filter>
    <filter
       style="color-interpolation-filters:sRGB"
       id="filter5561-1"
       inkscape:label="deevad outline effect"
       x="-0.02046208"
       y="-0.17818179"
       width="1.0409242"
       height="1.3563636">
      <feFlood
         id="feFlood5563-9"
         flood-opacity="1"
         flood-color="rgb(0,0,0)"
         result="flood" />
      <feComposite
         id="feComposite5565-0"
         in2="SourceGraphic"
         in="flood"
         operator="in"
         result="composite1" />
      <feMorphology
         id="feMorphology5567-7"
         operator="dilate"
         radius="1.8999999999999999 6.0999999999999996"
         result="result3" />
      <feComposite
         id="feComposite5569-2"
         in2="result3"
         in="SourceGraphic"
         operator="over"
         result="composite2" />
    </filter>
  </defs>
  <sodipodi:namedview
     pagecolor="#ffffff"
     bordercolor="#666666"
     borderopacity="1"
     objecttolerance="10"
     gridtolerance="10"
     guidetolerance="10"
     inkscape:pageopacity="0"
     inkscape:pageshadow="2"
     inkscape:window-width="1920"
     inkscape:window-height="1025"
     id="namedview4"
     showgrid="false"
     inkscape:zoom="0.40000001"
     inkscape:cx="1960.4468"
     inkscape:cy="856.70679"
     inkscape:window-x="0"
     inkscape:window-y="26"
     inkscape:window-maximized="1"
     inkscape:current-layer="layer1" />
  <g
     inkscape:groupmode="layer"
     id="layer2"
     inkscape:label="artwork"
     sodipodi:insensitive="true">
    <image
       xlink:href="../gfx_Pepper-and-Carrot_by-David-Revoy_E13P03.png"
       y="0"
       x="0"
       id="image10"
       height="3503"
       width="2481" />
  </g>
  <g
     inkscape:groupmode="layer"
     id="layer3"
     inkscape:label="speechbubbles" />
  <g
     inkscape:groupmode="layer"
     id="layer1"
     inkscape:label="txt">
    <path
       style="fill:#d5faff;stroke:none;stroke-width:1.02802;fill-opacity:1"
       d="m 628.44169,1905.8661 c 2.16721,-31.3913 13.36351,-58.2325 108.18882,-58.2573 99.58502,-0.026 118.08516,16.7345 119.11776,59.0831 1.45733,59.7622 -54.67075,56.9808 -113.50102,57.1324 -82.40846,0.2124 -113.31899,0.2626 -113.80556,-57.9582 z"
       id="path3280-1"
       inkscape:connector-curvature="0"
       sodipodi:nodetypes="csssc" />
    <path
       style="color:#000000;display:inline;overflow:visible;visibility:visible;fill:#fff49d;fill-opacity:1;fill-rule:nonzero;stroke:none;stroke-width:0.90247px;marker:none;enable-background:accumulate"
       d="m 1410.8053,430.88552 c 3.7613,46.76972 -31.0306,52.69122 -86.6924,58.87023 -29.8842,0.37219 -95.7309,3.22908 -147.9589,-4.09059 -40.9263,-5.73577 -73.4899,-17.72047 -73.8333,-42.04635 -0.9414,-66.68778 96.8493,-63.04334 162.7935,-62.70958 94.2729,0.47714 143.7756,12.55435 145.6911,49.97629 z"
       id="path3145-9-0"
       inkscape:connector-curvature="0"
       sodipodi:nodetypes="ccsssc" />
    <path
       style="color:#000000;display:inline;overflow:visible;visibility:visible;fill:#fff49d;fill-opacity:1;fill-rule:nonzero;stroke:none;stroke-width:0.850888px;marker:none;enable-background:accumulate"
       d="m 1231.885,323.71122 c 4.0056,76.84254 -33.0445,86.57159 -92.3187,96.72366 -56.7612,1.09071 -235.35443,15.16842 -236.18668,-75.80288 -1.00267,-109.56787 103.13488,-103.58011 173.35888,-103.03172 100.3913,0.78396 153.1068,20.62676 155.1465,82.11094 z"
       id="path3145-9"
       inkscape:connector-curvature="0"
       sodipodi:nodetypes="ccssc" />
    <path
       style="fill:#ffe4a0;stroke:none;fill-opacity:1"
       d="m 1751.3188,2818.5833 c -123.5801,-298.9244 23.6707,-1016.9455 23.6707,-1016.9455 l -33.5926,-0.458 c 0,0 -149.3925,713.6723 9.9219,1017.4035 z"
       id="path3067"
       inkscape:connector-curvature="0"
       sodipodi:nodetypes="cccc" />
    <path
       style="fill:#ffe4a0;fill-opacity:1;stroke:none;stroke-width:0.816699"
       d="m 1670.784,1841.6049 c 0.5399,-49.7428 64.2497,-72.2377 183.8998,-67.0976 89.6055,3.8494 197.5611,3.7873 193.9827,74.7649 -1.7893,35.4888 -80.7776,45.3098 -189.9976,45.2837 -145.558,-0.035 -188.2105,-22.9491 -187.8849,-52.951 z"
       id="path3238"
       inkscape:connector-curvature="0"
       sodipodi:nodetypes="sssss" />
    <path
       style="color:#000000;display:inline;overflow:visible;visibility:visible;fill:#d5faff;fill-opacity:1;fill-rule:nonzero;stroke:none;stroke-width:0.939012px;marker:none;enable-background:accumulate"
       d="m 1038.9355,3149.0266 c 6.0657,-5.4243 17.1675,-1.4799 25.0586,-4.1873 7.8912,-2.7074 12.5716,-12.0667 20.535,-14.0672 27.565,-5.7355 57.42,4.0959 85.5914,2.0613 28.1715,-2.0347 54.6598,-15.9356 82.8614,-15.7468 26.8512,0.5565 51.1363,14.2548 77.8968,17.1855 26.7607,2.9306 55.9968,-4.9068 81.6962,2.6305 12.2284,3.608 11.4677,15.9256 22.2782,22.3807 10.8104,6.455 33.1922,7.0477 40.1164,17.2373 11.6487,16.62 4.9122,36.3446 6.8733,55.7431 1.9613,19.3983 12.6204,38.4704 7.4708,57.1217 -3.9146,13.2216 -25.0882,20.8374 -32.9491,32.8433 -7.8609,12.0058 -2.4094,28.4016 -15.7177,35.8258 -12.6135,6.0552 -34.4273,-1.7297 -48.2866,1.0926 -13.8593,2.8221 -19.7641,16.2513 -33.7244,18.019 -34.1359,3.5732 -70.3016,-8.8307 -104.6559,-8.4402 -34.3544,0.3903 -66.8974,13.5751 -101.1577,11.599 -16.4447,-1.3168 -28.557,-15.6452 -45.0084,-17.7875 -16.4515,-2.1421 -37.2418,7.9018 -52.6182,1.9401 -10.7383,-4.0336 -12.9463,-18.5682 -20.7616,-26.2424 -7.8155,-7.674 -21.2383,-8.4872 -24.9273,-18.4461 -4.6885,-12.2403 8.1418,-27.4168 6.3464,-40.2431 -1.7953,-12.8263 -18.21607,-23.3024 -18.76233,-36.1522 -0.01,-17.4685 21.77463,-26.9974 29.14603,-42.9446 7.3713,-15.9471 0.3324,-38.3126 12.6987,-51.4225 z"
       id="path4040-4"
       inkscape:connector-curvature="0"
       sodipodi:nodetypes="cscscscscscscscscscscscsc" />
    <path
       style="color:#000000;display:inline;overflow:visible;visibility:visible;fill:#d5faff;fill-opacity:1;fill-rule:nonzero;stroke:none;stroke-width:1px;marker:none;enable-background:accumulate"
       d="m 583.49554,2049.8234 c 29.2314,-0.8578 38.11069,-16.0709 41.57447,-30.2351 3.46369,-14.1642 3.162,-23.3991 25.7719,-37.2845 22.6099,-13.8855 36.62854,-6.3564 49.09724,-12.9569 17.16101,-16.0085 2.99727,-37.4201 -0.24118,-49.5203 -3.57198,-13.3465 37.17368,-3.8411 37.17368,-3.8411 0,0 -0.98288,40.2063 -9.30735,62.789 -8.32443,22.5827 -52.58355,6.6035 -71.61632,18.8115 -17.77293,11.3999 -17.05952,37.4485 -29.32355,45.8579 -12.26411,8.4095 -29.34649,8.9491 -43.12889,6.3795 z"
       id="path4538"
       inkscape:connector-curvature="0"
       sodipodi:nodetypes="csscscsssc" />
    <path
       style="color:#000000;display:inline;overflow:visible;visibility:visible;fill:#fff49d;fill-opacity:1;fill-rule:nonzero;stroke:none;stroke-width:1px;marker:none;enable-background:accumulate"
       d="m 1243.1287,466.0029 c 20.0758,25.65981 40.3522,57.37851 42.1731,63.98868 1.821,6.61024 -12.4558,35.1273 -6.5551,43.98189 5.901,8.85457 26.9955,16.88948 29.5982,22.91015 2.6025,6.02046 -3.8012,30.37054 1.232,37.2182 5.0333,6.84775 39.5213,32.27779 41.285,37.15703 1.7637,4.87916 18.0233,150.15707 34.8293,173.84821 -16.9167,-51.11286 -18.94,-177.85435 -24.8408,-186.7088 -5.9009,-8.8547 -28.7876,-22.6343 -32.2866,-31.52725 -3.4987,-8.89277 2.1235,-32.65316 -4.5876,-41.78343 -6.7109,-9.13029 -22.1913,-16.96619 -22.1913,-16.96619 5.4424,-4.9942 28.4027,-37.40221 0.3184,-87.18236 -28.0841,-49.78016 -58.9746,-14.93613 -58.9746,-14.93613 z"
       id="path5050"
       inkscape:connector-curvature="0"
       sodipodi:nodetypes="ccccsccscccsc" />
    <path
       style="color:#000000;display:inline;overflow:visible;visibility:visible;fill:#fff49d;fill-opacity:1;fill-rule:nonzero;stroke:none;stroke-width:0.893237px;marker:none;enable-background:accumulate"
       d="m 658.4521,224.59585 c -2.96386,-70.6265 34.72673,-79.23939 94.94843,-88.04611 57.5453,-0.50453 238.758,-11.87186 238.30418,71.70623 -0.54638,100.6633 -106.00896,94.24998 -177.17612,93.13078 -101.73966,-1.59999 -154.88602,-20.2906 -156.07649,-76.7909 z"
       id="path3145"
       inkscape:connector-curvature="0"
       sodipodi:nodetypes="ccssc" />
    <text
       xml:space="preserve"
       style="font-style:normal;font-variant:normal;font-weight:normal;font-stretch:normal;line-height:0%;font-family:Lavi;-inkscape-font-specification:Lavi;text-align:center;letter-spacing:0px;word-spacing:0px;text-anchor:middle;fill:#000000;fill-opacity:1;stroke:none"
       x="1072.9515"
       y="311.20078"
       id="text4246"><tspan
         sodipodi:role="line"
         style="font-size:45px;line-height:1.25"
         x="1072.9515"
         y="311.20078"
         id="tspan3668">Včasih se</tspan><tspan
         sodipodi:role="line"
         style="font-size:45px;line-height:1.25"
         x="1072.9515"
         y="367.45078"
         id="tspan100">mi zdi tako …</tspan></text>
    <path
       style="fill:#d5faff;stroke:none;stroke-width:0.971403;fill-opacity:1"
       d="m 506.94348,1767.6252 c 3.68218,-59.1019 22.70513,-109.637 183.81721,-109.6837 169.19895,-0.049 200.63142,31.5069 202.38594,111.2385 2.47598,112.517 -92.88786,107.2804 -192.84289,107.5659 -140.01533,0.3998 -192.53355,0.4943 -193.36026,-109.1207 z"
       id="path3280"
       inkscape:connector-curvature="0"
       sodipodi:nodetypes="csssc" />
    <text
       xml:space="preserve"
       style="font-style:normal;font-variant:normal;font-weight:normal;font-stretch:normal;line-height:0%;font-family:Lavi;-inkscape-font-specification:Lavi;text-align:center;letter-spacing:0px;word-spacing:0px;text-anchor:middle;fill:#000000;fill-opacity:1;stroke:none"
       x="702.03009"
       y="1715.0911"
       id="text4246-4"><tspan
         sodipodi:role="line"
         style="font-size:45px;line-height:1.25"
         x="702.03009"
         y="1715.0911"
         id="tspan109">Jaz bi z</tspan><tspan
         sodipodi:role="line"
         style="font-size:45px;line-height:1.25"
         x="702.03009"
         y="1771.3411"
         id="tspan479">veseljem živela v</tspan><tspan
         sodipodi:role="line"
         style="font-size:45px;line-height:1.25"
         x="702.03009"
         y="1827.5911"
         id="tspan485">takem udobju,</tspan></text>
    <path
       style="color:#000000;display:inline;overflow:visible;visibility:visible;fill:#d5faff;fill-opacity:1;fill-rule:nonzero;stroke:none;stroke-width:1px;marker:none;enable-background:accumulate"
       d="m 1184.1682,3144.0423 c -118.9029,-136.8804 -39.7363,-595.7748 29.2046,-695.0521 -81.4335,63.833 -170.8097,612.0513 -75.86,707.9585 32.6444,32.9738 165.5583,123.9739 46.6554,-12.9064 z"
       id="path4480"
       inkscape:connector-curvature="0"
       sodipodi:nodetypes="zcsz" />
    <text
       xml:space="preserve"
       style="color:#000000;font-style:normal;font-variant:normal;font-weight:normal;font-stretch:normal;line-height:0%;font-family:Arial;-inkscape-font-specification:Arial;letter-spacing:0.0273496px;word-spacing:0px;clip-rule:nonzero;display:inline;overflow:visible;visibility:visible;opacity:1;isolation:auto;mix-blend-mode:normal;color-interpolation:sRGB;color-interpolation-filters:linearRGB;solid-color:#000000;solid-opacity:1;fill:#d7e3f4;fill-opacity:1;fill-rule:nonzero;stroke:#ffffff;stroke-width:1.1156;stroke-linecap:butt;stroke-linejoin:miter;stroke-miterlimit:4;stroke-dasharray:none;stroke-dashoffset:0;stroke-opacity:1;marker:none;filter:url(#filter5561-7-8-9);color-rendering:auto;image-rendering:auto;shape-rendering:auto;text-rendering:auto;enable-background:accumulate"
       x="1705.2566"
       y="1742.2045"
       id="text4251-9-3"
       transform="matrix(0.56659406,-0.01857156,-0.37112281,1.2121883,340.70925,530.03107)"><tspan
         sodipodi:role="line"
         id="tspan4253-3-7"
         x="1705.2566"
         y="1742.2045"
         style="font-style:normal;font-variant:normal;font-weight:normal;font-stretch:normal;font-size:160.12px;line-height:1.25;font-family:Lavi;-inkscape-font-specification:Lavi;fill:#d7e3f4;fill-opacity:1"><tspan
           style="font-size:90px;fill:#d7e3f4;fill-opacity:1"
           id="tspan4349-9-9">Šiingz </tspan><tspan
           id="tspan4365-0-3"
           style="font-size:45.5771px;fill:#d7e3f4;fill-opacity:1">! </tspan><tspan
           id="tspan4311-9-7"
           style="font-size:55.844px;fill:#d7e3f4;fill-opacity:1">! </tspan><tspan
           id="tspan4369-2-8"
           style="font-size:72.5136px;fill:#d7e3f4;fill-opacity:1">!</tspan></tspan></text>
    <text
       xml:space="preserve"
       style="color:#000000;font-style:normal;font-variant:normal;font-weight:normal;font-stretch:normal;line-height:0%;font-family:Arial;-inkscape-font-specification:Arial;letter-spacing:0.0273496px;word-spacing:0px;display:inline;overflow:visible;visibility:visible;fill:#ffffff;fill-opacity:1;fill-rule:nonzero;stroke:#ffffff;stroke-width:1.1156;stroke-linecap:butt;stroke-linejoin:miter;stroke-miterlimit:4;stroke-dasharray:none;stroke-dashoffset:0;stroke-opacity:1;marker:none;filter:url(#filter5561-1);enable-background:accumulate"
       id="text4251-1-3"
       inkscape:transform-center-x="-223.72753"
       inkscape:transform-center-y="137.11092"
       y="1742.2045"
       x="1705.2566"
       transform="matrix(0.5605584,-0.46242654,0.37517214,1.5026606,-52.257301,-434.9215)"><tspan
         sodipodi:role="line"
         id="tspan4253-5-1"
         x="1705.2566"
         y="1742.2045"
         style="font-style:normal;font-variant:normal;font-weight:normal;font-stretch:normal;font-size:45.5771px;line-height:1.25;font-family:Lavi;-inkscape-font-specification:Lavi;letter-spacing:6.3599px">bam!</tspan></text>
    <text
       xml:space="preserve"
       style="font-style:normal;font-variant:normal;font-weight:normal;font-stretch:normal;line-height:0%;font-family:Lavi;-inkscape-font-specification:Lavi;text-align:center;letter-spacing:0px;word-spacing:0px;text-anchor:middle;white-space:pre;inline-size:433.017;fill:#000000;fill-opacity:1;stroke:none"
       x="1252.3922"
       y="3222.8008"
       id="text4246-4-8"
       transform="translate(-3.1784821,-22.70073)"><tspan
         x="1252.3922"
         y="3222.8008"
         id="tspan2"><tspan
           style="font-size:45px;line-height:1.25"
           id="tspan1">„Prava-aška-</tspan></tspan><tspan
         x="1252.3922"
         y="3279.0507"
         id="tspan4"><tspan
           style="font-size:45px;line-height:1.25"
           id="tspan3">čarovnica-ne-sme-</tspan></tspan><tspan
         x="1252.3922"
         y="3335.3007"
         id="tspan6"><tspan
           style="font-size:45px;line-height:1.25"
           id="tspan5">živeti-na-tak-način.“</tspan></tspan></text>
    <path
       style="color:#000000;display:inline;overflow:visible;visibility:visible;fill:#ffe4a0;fill-opacity:1;fill-rule:nonzero;stroke:none;stroke-width:0.900109px;marker:none;enable-background:accumulate"
       d="m 1751.1859,1698.7725 c 20.5964,-33.1688 132.6216,-30.3372 169.8947,-15.9669 37.2727,14.3701 51.1417,39.1187 52.8752,47.9005 1.7335,8.7818 -2.6004,49.4974 -21.6702,57.4809 -19.0699,7.9834 -73.6788,11.9751 -92.7486,11.9751 -19.0697,0 -79.9447,-5.0814 -95.3491,-16.7653 -14.7358,-11.1768 -33.5984,-51.4559 -13.002,-84.6243 z"
       id="path3330"
       inkscape:connector-curvature="0"
       sodipodi:nodetypes="zsssssz" />
    <text
       xml:space="preserve"
       style="font-style:normal;font-variant:normal;font-weight:normal;font-stretch:normal;line-height:0%;font-family:Lavi;-inkscape-font-specification:Lavi;text-align:center;letter-spacing:0px;word-spacing:0px;text-anchor:middle;fill:#000000;fill-opacity:1;stroke:none"
       x="1898.8909"
       y="1710.8889"
       id="text4246-4-3"
       transform="scale(0.97654552,1.0240178)"><tspan
         sodipodi:role="line"
         style="font-size:53.1356px;line-height:1.25"
         x="1898.8909"
         y="1710.8889"
         id="tspan4315-1">Ha ha!</tspan></text>
    <text
       xml:space="preserve"
       style="font-style:normal;font-variant:normal;font-weight:normal;font-stretch:normal;line-height:0%;font-family:Lavi;-inkscape-font-specification:Lavi;text-align:center;letter-spacing:0px;word-spacing:0px;text-anchor:middle;fill:#000000;fill-opacity:1;stroke:none"
       x="1865.6072"
       y="1846.9388"
       id="text4246-4-5"><tspan
         sodipodi:role="line"
         style="font-size:45px;line-height:1.25"
         x="1865.6072"
         y="1846.9388"
         id="tspan4315-4">Moč tradicije …</tspan></text>
    <path
       style="fill:#ffe4a0;fill-opacity:1;stroke:none;stroke-width:0.911309"
       d="m 1625.7439,1979.5833 c -0.7737,-120.5173 95.7165,-118.5998 186.9124,-114.163 91.118,4.4328 200.7976,-12.9994 197.1606,129.5631 -1.8185,71.2813 -82.1009,91.0074 -193.1102,90.9549 -147.9427,-0.072 -190.5761,-46.0962 -190.9628,-106.355 z"
       id="path3238-4"
       inkscape:connector-curvature="0"
       sodipodi:nodetypes="sssss" />
    <text
       xml:space="preserve"
       style="font-style:normal;font-variant:normal;font-weight:normal;font-stretch:normal;line-height:0%;font-family:Lavi;-inkscape-font-specification:Lavi;text-align:center;letter-spacing:0px;word-spacing:0px;text-anchor:middle;fill:#000000;fill-opacity:1;stroke:none"
       x="1817.3602"
       y="1933.1589"
       id="text4246-4-5-6"><tspan
         sodipodi:role="line"
         style="font-size:45px;line-height:1.25"
         x="1817.3602"
         y="1933.1589"
         id="tspan118">Nekaj takega</tspan><tspan
         sodipodi:role="line"
         style="font-size:45px;line-height:1.25"
         x="1817.3602"
         y="1989.4089"
         id="tspan502">bi rekle tudi moje</tspan><tspan
         sodipodi:role="line"
         style="font-size:45px;line-height:1.25"
         x="1817.3602"
         y="2045.6589"
         id="tspan504">botre!</tspan></text>
    <path
       style="color:#000000;display:inline;overflow:visible;visibility:visible;fill:#d5faff;fill-opacity:1;fill-rule:nonzero;stroke:none;stroke-width:0.632719px;marker:none;enable-background:accumulate"
       d="m 2055.6829,2642.1598 c -3.0148,-20.3957 5.0247,-74.5715 66.8287,-70.11 61.8038,4.4616 71.8534,29.9561 73.3608,37.6044 1.5074,7.6484 14.5716,50.9891 -33.6656,62.4617 -48.2373,11.4725 -91.4497,-0.6374 -106.5239,-29.9561 z"
       id="path3525"
       inkscape:connector-curvature="0" />
    <path
       style="color:#000000;display:inline;overflow:visible;visibility:visible;fill:#d5faff;fill-opacity:1;fill-rule:nonzero;stroke:none;stroke-width:1px;marker:none;enable-background:accumulate"
       d="m 2075.1234,2655.3197 c -3.6441,17.7301 -11.4447,39.2898 -14.8162,43.5939 -3.3716,4.3041 -33.9861,21.1325 -35.9893,27.1701 -2.003,6.0374 7.6075,12.7532 5.2221,16.7476 -2.3853,3.9943 -24.325,18.8186 -25.5329,23.5247 -1.208,4.706 5.7751,23.4243 3.5911,26.6343 -2.1838,3.2099 -13.8992,20.5911 -18.5194,36.825 24.0138,-33.5034 32.9004,-38.0978 34.9034,-44.1353 2.0031,-6.0375 -4.8295,-16.5104 -1.0552,-22.3832 3.7742,-5.8728 24.7276,-20.3873 26.3381,-26.6621 1.6106,-6.2747 -4.065,-12.4239 -4.065,-12.4239 7.4977,-2.7159 47.1797,-21.3111 62.1362,-54.8537 14.9567,-33.5427 -32.2129,-14.0374 -32.2129,-14.0374 z"
       id="path5050-4"
       inkscape:connector-curvature="0" />
    <text
       xml:space="preserve"
       style="font-style:normal;font-variant:normal;font-weight:normal;font-stretch:normal;line-height:0%;font-family:Lavi;-inkscape-font-specification:Lavi;text-align:center;letter-spacing:0px;word-spacing:0px;text-anchor:middle;fill:#000000;fill-opacity:1;stroke:none"
       x="2129.0139"
       y="2637.4485"
       id="text4246-4-9"><tspan
         sodipodi:role="line"
         style="font-size:45px;line-height:1.25"
         x="2129.0139"
         y="2637.4485"
         id="tspan4466-9">Aja?</tspan></text>
    <text
       id="text4202"
       y="203.52118"
       x="824.44617"
       style="font-style:normal;font-variant:normal;font-weight:normal;font-stretch:normal;line-height:0%;font-family:Lavi;-inkscape-font-specification:Lavi;text-align:center;letter-spacing:0px;word-spacing:0px;text-anchor:middle;fill:#000000;fill-opacity:1;stroke:none"
       xml:space="preserve"><tspan
         y="203.52118"
         x="824.44617"
         style="font-size:45px;line-height:1.25"
         sodipodi:role="line"
         id="tspan3653">Lepo, da me</tspan><tspan
         y="259.77118"
         x="824.44617"
         style="font-size:45px;line-height:1.25"
         sodipodi:role="line"
         id="tspan91">spomnita.</tspan></text>
    <text
       xml:space="preserve"
       style="font-style:normal;font-variant:normal;font-weight:normal;font-stretch:normal;line-height:0%;font-family:Lavi;-inkscape-font-specification:Lavi;text-align:center;letter-spacing:0px;word-spacing:0px;text-anchor:middle;fill:#000000;fill-opacity:1;stroke:none"
       x="1260.7634"
       y="452.02405"
       id="text4246-41"><tspan
         sodipodi:role="line"
         style="font-size:45px;line-height:1.25"
         x="1260.7634"
         y="452.02405"
         id="tspan4291">… „plehko“?</tspan></text>
    <text
       xml:space="preserve"
       style="font-style:normal;font-variant:normal;font-weight:normal;font-stretch:normal;line-height:0%;font-family:Lavi;-inkscape-font-specification:Lavi;text-align:center;letter-spacing:0px;word-spacing:0px;text-anchor:middle;fill:#000000;fill-opacity:1;stroke:none"
       x="746.23468"
       y="1919.1744"
       id="text4246-4-81"><tspan
         sodipodi:role="line"
         style="font-size:45px;line-height:1.25"
         x="746.23468"
         y="1919.1744"
         id="tspan4466-1">ampak …</tspan></text>
  </g>
</svg>
