<?xml version="1.0" encoding="UTF-8" standalone="no"?>
<!-- Created with Inkscape (http://www.inkscape.org/) -->

<svg
   xmlns:dc="http://purl.org/dc/elements/1.1/"
   xmlns:cc="http://creativecommons.org/ns#"
   xmlns:rdf="http://www.w3.org/1999/02/22-rdf-syntax-ns#"
   xmlns:svg="http://www.w3.org/2000/svg"
   xmlns="http://www.w3.org/2000/svg"
   xmlns:xlink="http://www.w3.org/1999/xlink"
   xmlns:sodipodi="http://sodipodi.sourceforge.net/DTD/sodipodi-0.dtd"
   xmlns:inkscape="http://www.inkscape.org/namespaces/inkscape"
   id="svg2"
   version="1.1"
   inkscape:version="0.91 r"
   width="2481"
   height="3503"
   sodipodi:docname="Pepper-and-Carrot_by-David-Revoy_E12P01.svg">
  <metadata
     id="metadata8">
    <rdf:RDF>
      <cc:Work
         rdf:about="">
        <dc:format>image/svg+xml</dc:format>
        <dc:type
           rdf:resource="http://purl.org/dc/dcmitype/StillImage" />
        <dc:title />
      </cc:Work>
    </rdf:RDF>
  </metadata>
  <defs
     id="defs6">
    <filter
       style="color-interpolation-filters:sRGB"
       id="filter4375-4-1-1-15-1-3"
       inkscape:label="deevad outline effect">
      <feFlood
         id="feFlood4377-7-9-0-4-4-4"
         flood-opacity="1"
         flood-color="rgb(0,0,0)"
         result="flood" />
      <feComposite
         id="feComposite4379-3-8-8-6-0-7"
         in2="SourceGraphic"
         in="flood"
         operator="in"
         result="composite1" />
      <feMorphology
         id="feMorphology4393-1-0-49-8-2-7"
         operator="dilate"
         radius="0.59999999999999998"
         result="result3" />
      <feComposite
         id="feComposite4385-9-5-7-2-1-2"
         in2="result3"
         in="SourceGraphic"
         operator="over"
         result="composite2" />
    </filter>
    <filter
       style="color-interpolation-filters:sRGB"
       id="filter4865"
       inkscape:label="deevad outline effect">
      <feFlood
         id="feFlood4867"
         flood-opacity="1"
         flood-color="rgb(0,0,0)"
         result="flood" />
      <feComposite
         id="feComposite4869"
         in2="SourceGraphic"
         in="flood"
         operator="in"
         result="composite1" />
      <feMorphology
         id="feMorphology4871"
         operator="dilate"
         radius="0.59999999999999998"
         result="result3" />
      <feComposite
         id="feComposite4873"
         in2="result3"
         in="SourceGraphic"
         operator="over"
         result="composite2" />
    </filter>
    <filter
       style="color-interpolation-filters:sRGB"
       id="filter4875"
       inkscape:label="deevad outline effect">
      <feFlood
         id="feFlood4877"
         flood-opacity="1"
         flood-color="rgb(0,0,0)"
         result="flood" />
      <feComposite
         id="feComposite4879"
         in2="SourceGraphic"
         in="flood"
         operator="in"
         result="composite1" />
      <feMorphology
         id="feMorphology4881"
         operator="dilate"
         radius="0.59999999999999998"
         result="result3" />
      <feComposite
         id="feComposite4883"
         in2="result3"
         in="SourceGraphic"
         operator="over"
         result="composite2" />
    </filter>
    <filter
       style="color-interpolation-filters:sRGB"
       id="filter4885"
       inkscape:label="deevad outline effect">
      <feFlood
         id="feFlood4887"
         flood-opacity="1"
         flood-color="rgb(0,0,0)"
         result="flood" />
      <feComposite
         id="feComposite4889"
         in2="SourceGraphic"
         in="flood"
         operator="in"
         result="composite1" />
      <feMorphology
         id="feMorphology4891"
         operator="dilate"
         radius="0.59999999999999998"
         result="result3" />
      <feComposite
         id="feComposite4893"
         in2="result3"
         in="SourceGraphic"
         operator="over"
         result="composite2" />
    </filter>
    <filter
       style="color-interpolation-filters:sRGB"
       id="filter4895"
       inkscape:label="deevad outline effect">
      <feFlood
         id="feFlood4897"
         flood-opacity="1"
         flood-color="rgb(0,0,0)"
         result="flood" />
      <feComposite
         id="feComposite4899"
         in2="SourceGraphic"
         in="flood"
         operator="in"
         result="composite1" />
      <feMorphology
         id="feMorphology4901"
         operator="dilate"
         radius="0.59999999999999998"
         result="result3" />
      <feComposite
         id="feComposite4903"
         in2="result3"
         in="SourceGraphic"
         operator="over"
         result="composite2" />
    </filter>
    <filter
       style="color-interpolation-filters:sRGB"
       id="filter4905"
       inkscape:label="deevad outline effect">
      <feFlood
         id="feFlood4907"
         flood-opacity="1"
         flood-color="rgb(0,0,0)"
         result="flood" />
      <feComposite
         id="feComposite4909"
         in2="SourceGraphic"
         in="flood"
         operator="in"
         result="composite1" />
      <feMorphology
         id="feMorphology4911"
         operator="dilate"
         radius="0.59999999999999998"
         result="result3" />
      <feComposite
         id="feComposite4913"
         in2="result3"
         in="SourceGraphic"
         operator="over"
         result="composite2" />
    </filter>
    <filter
       style="color-interpolation-filters:sRGB"
       id="filter4915"
       inkscape:label="deevad outline effect">
      <feFlood
         id="feFlood4917"
         flood-opacity="1"
         flood-color="rgb(0,0,0)"
         result="flood" />
      <feComposite
         id="feComposite4919"
         in2="SourceGraphic"
         in="flood"
         operator="in"
         result="composite1" />
      <feMorphology
         id="feMorphology4921"
         operator="dilate"
         radius="0.59999999999999998"
         result="result3" />
      <feComposite
         id="feComposite4923"
         in2="result3"
         in="SourceGraphic"
         operator="over"
         result="composite2" />
    </filter>
    <filter
       style="color-interpolation-filters:sRGB"
       id="filter4925"
       inkscape:label="deevad outline effect">
      <feFlood
         id="feFlood4927"
         flood-opacity="1"
         flood-color="rgb(0,0,0)"
         result="flood" />
      <feComposite
         id="feComposite4929"
         in2="SourceGraphic"
         in="flood"
         operator="in"
         result="composite1" />
      <feMorphology
         id="feMorphology4931"
         operator="dilate"
         radius="0.59999999999999998"
         result="result3" />
      <feComposite
         id="feComposite4933"
         in2="result3"
         in="SourceGraphic"
         operator="over"
         result="composite2" />
    </filter>
    <filter
       style="color-interpolation-filters:sRGB"
       id="filter4375-4-1-1-1"
       inkscape:label="deevad outline effect">
      <feFlood
         id="feFlood4377-7-9-0-8"
         flood-opacity="1"
         flood-color="rgb(104,147,162)"
         result="flood" />
      <feComposite
         id="feComposite4379-3-8-8-2"
         in2="SourceGraphic"
         in="flood"
         operator="in"
         result="composite1" />
      <feMorphology
         id="feMorphology4393-1-0-49-8"
         operator="dilate"
         radius="4"
         result="result3" />
      <feComposite
         id="feComposite4385-9-5-7-0"
         in2="result3"
         in="SourceGraphic"
         operator="over"
         result="composite2" />
    </filter>
    <filter
       style="color-interpolation-filters:sRGB"
       id="filter4375-4-1-1-1-6"
       inkscape:label="deevad outline effect">
      <feFlood
         id="feFlood4377-7-9-0-8-3"
         flood-opacity="1"
         flood-color="rgb(104,147,162)"
         result="flood" />
      <feComposite
         id="feComposite4379-3-8-8-2-0"
         in2="SourceGraphic"
         in="flood"
         operator="in"
         result="composite1" />
      <feMorphology
         id="feMorphology4393-1-0-49-8-8"
         operator="dilate"
         radius="4"
         result="result3" />
      <feComposite
         id="feComposite4385-9-5-7-0-0"
         in2="result3"
         in="SourceGraphic"
         operator="over"
         result="composite2" />
    </filter>
    <filter
       style="color-interpolation-filters:sRGB"
       id="filter4375-4-1-1-1-6-4"
       inkscape:label="deevad outline effect">
      <feFlood
         id="feFlood4377-7-9-0-8-3-1"
         flood-opacity="1"
         flood-color="rgb(104,147,162)"
         result="flood" />
      <feComposite
         id="feComposite4379-3-8-8-2-0-7"
         in2="SourceGraphic"
         in="flood"
         operator="in"
         result="composite1" />
      <feMorphology
         id="feMorphology4393-1-0-49-8-8-3"
         operator="dilate"
         radius="4"
         result="result3" />
      <feComposite
         id="feComposite4385-9-5-7-0-0-8"
         in2="result3"
         in="SourceGraphic"
         operator="over"
         result="composite2" />
    </filter>
  </defs>
  <sodipodi:namedview
     pagecolor="#ffffff"
     bordercolor="#666666"
     borderopacity="1"
     objecttolerance="10"
     gridtolerance="10"
     guidetolerance="10"
     inkscape:pageopacity="0"
     inkscape:pageshadow="2"
     inkscape:window-width="1366"
     inkscape:window-height="711"
     id="namedview4"
     showgrid="false"
     inkscape:zoom="0.32526914"
     inkscape:cx="1437.1628"
     inkscape:cy="804.89838"
     inkscape:window-x="0"
     inkscape:window-y="30"
     inkscape:window-maximized="1"
     inkscape:current-layer="layer1"
     showguides="false" />
  <g
     inkscape:groupmode="layer"
     id="layer2"
     inkscape:label="artwork"
     sodipodi:insensitive="true">
    <image
       sodipodi:absref="/home/nightmare/Projects/p_c/peppercarrot_ep12_translation/uk/../gfx_Pepper-and-Carrot_by-David-Revoy_E12P01.png"
       xlink:href="../gfx_Pepper-and-Carrot_by-David-Revoy_E12P01.png"
       width="2481"
       height="3503"
       id="image10"
       x="0"
       y="0" />
  </g>
  <g
     inkscape:groupmode="layer"
     id="layer3"
     inkscape:label="speechbubbles"
     style="display:inline">
    <path
       style="color:#000000;display:inline;overflow:visible;visibility:visible;fill:#ffffff;fill-opacity:1;fill-rule:nonzero;stroke:none;stroke-width:1px;marker:none;enable-background:accumulate"
       d="m 1152.3403,359.6865 c 46.9224,48.193 -72.6261,148.9581 -69.9511,186.808 0.8976,12.701 4.6514,39.1331 13.894,48.482 15.5943,15.774 45.2047,6.6421 10.8388,135.377 -9.0437,28.8541 29.9664,60.646 67.9498,58.4261 14.4699,2.2199 36.9567,21.4779 4.3995,103.602 -25.6503,61.04103 109.1284,134.6241 146.8054,110.0019 -58.641,-4.35093 -123.6032,-50.38687 -131.4964,-83.57488 -3.5061,-14.29406 19.9963,-77.89826 27.2312,-108.97226 7.235,-31.0741 -37.6689,-39.43486 -50.3301,-46.09376 -12.661,-6.659 -34.0709,-5.7061 -37.6883,-23.462 -3.6174,-17.7571 21.0815,-82.2671 17.464,-115.5611 -3.6175,-33.2929 -35.6018,-40.787 -37.4106,-71.8609 -1.8087,-31.074 65.2373,-98.222 76.0523,-131.3221 13.3956,-34.9709 5.6511,-79.607 5.6511,-79.607 z"
       id="path3153"
       inkscape:connector-curvature="0"
       sodipodi:nodetypes="csscccccsscssccc" />
    <path
       style="color:#000000;display:inline;overflow:visible;visibility:visible;fill:#ffffff;fill-opacity:1;fill-rule:nonzero;stroke:none;stroke-width:1px;marker:none;enable-background:accumulate"
       d="m 938.37834,148.49108 c 7.63995,-33.76176 71.72036,-57.304977 233.01906,-47.73217 86.4002,5.12769 190.5407,10.19044 174.4458,58.7921 -15.1597,45.77752 -153.9891,43.57063 -180.8125,45.98587 -29.0849,2.61888 -180.96591,-7.62987 -206.27904,-25.03033 -15.84544,-10.89221 -21.64663,-21.53764 -20.37332,-32.01547 z"
       id="path4546"
       inkscape:connector-curvature="0"
       sodipodi:nodetypes="cssssc" />
    <path
       style="color:#000000;display:inline;overflow:visible;visibility:visible;fill:#ffffff;fill-opacity:1;fill-rule:nonzero;stroke:none;stroke-width:1px;marker:none;enable-background:accumulate"
       d="m 798.60779,240.99883 c 11.75852,-40.51398 110.3843,-68.76576 358.63801,-57.27842 132.9783,6.15321 284.1666,11.17627 268.4885,70.55028 -15.6783,59.37396 -233.2126,54.48438 -278.2874,55.18288 -45.0747,0.69859 -278.52346,-9.15581 -317.48269,-30.03629 -24.38771,-13.07063 -33.31616,-25.84509 -31.35642,-38.41845 z"
       id="path4546-2"
       inkscape:connector-curvature="0"
       sodipodi:nodetypes="cssssc" />
    <path
       style="color:#000000;display:inline;overflow:visible;visibility:visible;fill:#ffffff;fill-opacity:1;fill-rule:nonzero;stroke:none;stroke-width:1px;marker:none;enable-background:accumulate"
       d="m 929.9166,342.33972 c 12.05442,-38.21439 107.0171,-66.24723 361.518,-55.41191 136.3244,5.80393 289.1891,10.28186 275.2449,66.5458 -16.0729,64.85287 -239.0812,54.86539 -285.2903,52.05066 -46.0329,-2.80398 -285.53268,-8.63612 -325.47228,-28.33143 -25.00125,-12.3287 -28.00937,-22.99345 -26.00032,-34.85312 z"
       id="path4546-1"
       inkscape:connector-curvature="0"
       sodipodi:nodetypes="cssssc" />
    <path
       style="color:#000000;display:inline;overflow:visible;visibility:visible;fill:#ffffff;fill-opacity:1;fill-rule:nonzero;stroke:none;stroke-width:1px;marker:none;enable-background:accumulate"
       d="m 831.56917,448.16793 c 9.37652,-45.36622 88.02312,-77.00156 285.98683,-64.13848 106.0399,6.89015 226.6014,12.51481 214.0994,78.99988 -12.502,66.48505 -185.9695,61.0098 -221.9132,61.79197 -35.9439,0.78225 -222.10161,-10.25238 -253.16866,-33.63366 -19.44735,-14.63605 -26.56723,-28.94048 -25.00437,-43.01971 z"
       id="path4546-8"
       inkscape:connector-curvature="0"
       sodipodi:nodetypes="cssssc" />
    <path
       style="color:#000000;display:inline;overflow:visible;visibility:visible;fill:#ffffff;fill-opacity:1;fill-rule:nonzero;stroke:none;stroke-width:1px;marker:none;enable-background:accumulate"
       d="m 945.99461,536.50083 c 7.98293,-41.8837 74.93949,-71.09064 243.47799,-59.21492 90.2783,6.36123 192.9194,11.55412 182.2757,72.93549 -10.6439,61.3813 -158.327,56.32631 -188.9281,57.04852 -30.601,0.72221 -189.08853,-9.46535 -215.53783,-31.05178 -16.55655,-13.51253 -22.61815,-26.71886 -21.28776,-39.71731 z"
       id="path4546-4"
       inkscape:connector-curvature="0"
       sodipodi:nodetypes="cssssc" />
    <path
       style="color:#000000;display:inline;overflow:visible;visibility:visible;fill:#ffffff;fill-opacity:1;fill-rule:nonzero;stroke:none;stroke-width:1px;marker:none;enable-background:accumulate"
       d="m 970.66007,702.7882 c 1.19747,-50.72301 98.19623,-58.10085 183.21973,-55.33413 85.0236,2.76672 238.3055,-16.60031 223.9353,80.23447 -14.3702,96.83479 -286.2061,52.56741 -294.5887,53.48973 -8.3826,0.9222 -129.33165,-17.52251 -112.56633,-78.39007 z"
       id="path5018"
       inkscape:connector-curvature="0" />
    <path
       style="color:#000000;display:inline;overflow:visible;visibility:visible;fill:#ffffff;fill-opacity:1;fill-rule:nonzero;stroke:none;stroke-width:1px;marker:none;enable-background:accumulate"
       d="m 135.67039,2065.6449 c 29.12756,-38.1325 191.90657,-38.7778 246.38507,-23.8405 54.47822,14.937 75.21,42.387 77.93654,52.2367 2.72639,9.8495 -2.60152,55.9401 -30.11003,65.602 -27.50839,9.662 -106.73058,16.0381 -134.4287,16.6918 -27.69798,0.6537 -116.23685,-2.9931 -138.88842,-15.6488 -21.66846,-12.1063 -50.02215,-56.909 -20.89446,-95.0412 z"
       id="path3330"
       inkscape:connector-curvature="0"
       sodipodi:nodetypes="zsssssz" />
    <path
       style="fill:#ffffff;fill-rule:evenodd;stroke:none;stroke-width:1px;stroke-linecap:butt;stroke-linejoin:miter;stroke-opacity:1"
       d="m 262.54879,2244.6832 c -0.3405,-44.0765 9.90078,-34.4411 27.92031,-53.9605 18.44682,-19.9824 13.7546,-32.3236 42.5766,-40.2111 23.86486,-6.5307 38.78494,3.7858 55.86713,-2.1323 17.08219,-5.9178 37.13097,-23.9014 60.83042,-25.1451 23.69946,-1.2439 44.16278,18.3795 59.35482,18.9945 15.19206,0.615 40.27904,-11.2432 52.09509,-10.7649 11.81602,0.4783 34.1953,7.6487 47.69935,8.1953 13.50404,0.5467 18.92093,-13.8416 42.48563,-10.6846 23.5647,3.1571 28.47796,11.3541 43.73739,9.7686 15.25941,-1.5854 54.58989,-14.3697 81.46322,-8.8755 26.87333,5.4941 51.48493,27.4762 61.7477,23.4853 10.2628,-3.9908 27.72187,-20.9714 56.21583,-13.2086 28.49394,7.7629 37.84084,32.438 53.03293,33.0531 15.192,0.6149 33.98808,10.7747 42.37338,25.987 11.17191,20.2681 -4.20185,24.4084 5.27993,46.4798 8.20518,19.0999 21.84078,-0.1294 19.96018,40.4148 -1.4862,32.0477 -30.43056,25.2431 -49.1335,28.8922 -18.70275,3.6493 -38.70206,21.5727 -60.71345,22.8849 -22.01144,1.3121 -33.31169,-15.7001 -56.94375,-16.6567 -23.63208,-0.9566 -46.53234,29.0722 -66.65365,23.8514 -20.12131,-5.2208 -42.0362,-18.2319 -67.08704,-16.5686 -40.45972,2.6864 -43.67815,17.5615 -67.3776,18.8053 -23.69946,1.2439 -42.42607,-20.5248 -60.99414,-21.2765 -18.56806,-0.7516 -36.24836,23.8485 -63.12503,18.3808 -26.77579,-5.4472 -35.13359,-20.9163 -68.00577,-26.3212 -23.43818,-3.8536 -17.98664,18.4588 -44.9947,17.3656 -27.0081,-1.0933 -23.37275,-19.036 -46.3543,-29.447 -23.50809,-10.6493 -46.5343,6.9674 -70.81887,-3.8376 -29.97522,-13.337 -31.17923,-33.2636 -30.43811,-57.4684 z"
       id="path5057"
       inkscape:connector-curvature="0"
       sodipodi:nodetypes="cssssssssssssssssssssssssssssc" />
    <path
       style="fill:#ffffff;stroke:none"
       d="m 1162.3648,2360.625 c -42.0538,4.9419 -45.9017,-3.2585 -49.0908,-13.1712 -3.1892,-9.9127 -4.4324,-19.5987 -12.8612,-21.1767 -8.4287,-1.5779 -21.5851,0.766 -31.4985,3.4876 -9.9134,2.7217 -36.0909,-9.222 -52.9334,-28.1158 -15.9293,-17.8692 -33.52489,-44.7501 -33.52489,-44.7501 0,0 -60.66021,8.1745 -56.97617,16.654 3.68394,8.4796 42.149,39.284 68.33395,55.4028 22.54351,13.8771 41.53791,24.9281 51.76571,24.0319 10.2275,-0.8961 20.9636,-5.6091 29.088,-7.6444 8.1246,-2.0356 17.726,1.6468 22.5569,8.1727 4.8309,6.5261 19.4277,19.1982 36.3188,16.3948 16.8912,-2.8035 28.8216,-9.2856 28.8216,-9.2856 z"
       id="path3023"
       inkscape:connector-curvature="0"
       sodipodi:nodetypes="csssscssssssc" />
    <flowRoot
       xml:space="preserve"
       id="flowRoot2987-7-9-9-7-0-3-4-1"
       style="font-style:normal;font-variant:normal;font-weight:normal;font-stretch:normal;font-size:12px;line-height:125%;font-family:Neucha;-inkscape-font-specification:Neucha;letter-spacing:0px;word-spacing:0px;fill:#000000;fill-opacity:1;stroke:#000000;stroke-width:0.99236238;stroke-miterlimit:4;stroke-dasharray:none;stroke-opacity:1;filter:url(#filter4375-4-1-1-1)"
       transform="matrix(1.0562753,-0.69556782,0.90092392,1.7261279,180.59337,2088.7284)"><flowRegion
         id="flowRegion2989-4-5-8-7-41-7-62-2"
         style="stroke-width:5.40286207"><rect
           id="rect2991-45-1-3-3-8-0-4-6"
           width="319.66232"
           height="56.089447"
           x="120.55251"
           y="265.53046"
           style="font-style:normal;font-variant:normal;font-weight:normal;font-stretch:normal;font-family:Neucha;-inkscape-font-specification:Neucha;fill:#000000;fill-opacity:1;stroke:#000000;stroke-width:0.99236238;stroke-miterlimit:4;stroke-dasharray:none;stroke-opacity:1" /></flowRegion><flowPara
         id="flowPara2995-4-1-5-0-7-2-6-4"
         style="font-style:normal;font-variant:normal;font-weight:normal;font-stretch:normal;font-size:48px;font-family:Neucha;-inkscape-font-specification:Neucha;letter-spacing:7.06853437px;fill:#ffffff;fill-opacity:1;stroke:#ffffff;stroke-width:0.99236238;stroke-linejoin:miter;stroke-miterlimit:4;stroke-dasharray:none;stroke-opacity:1">Цок</flowPara></flowRoot>    <flowRoot
       xml:space="preserve"
       id="flowRoot2987-7-9-9-7-0-3-4-1-7"
       style="font-style:normal;font-variant:normal;font-weight:normal;font-stretch:normal;font-size:12px;line-height:125%;font-family:Neucha;-inkscape-font-specification:Neucha;letter-spacing:0px;word-spacing:0px;display:inline;fill:#000000;fill-opacity:1;stroke:#000000;stroke-width:0.99236238;stroke-miterlimit:4;stroke-dasharray:none;stroke-opacity:1;filter:url(#filter4375-4-1-1-1-6)"
       transform="matrix(0.52340846,-0.97512508,1.5581568,1.1543842,-194.18905,2393.1986)"><flowRegion
         id="flowRegion2989-4-5-8-7-41-7-62-2-5"
         style="stroke-width:5.40286207"><rect
           id="rect2991-45-1-3-3-8-0-4-6-5"
           width="319.66232"
           height="56.089447"
           x="120.55251"
           y="265.53046"
           style="font-style:normal;font-variant:normal;font-weight:normal;font-stretch:normal;font-family:Neucha;-inkscape-font-specification:Neucha;fill:#000000;fill-opacity:1;stroke:#000000;stroke-width:0.99236238;stroke-miterlimit:4;stroke-dasharray:none;stroke-opacity:1" /></flowRegion><flowPara
         id="flowPara2995-4-1-5-0-7-2-6-4-4"
         style="font-style:normal;font-variant:normal;font-weight:normal;font-stretch:normal;font-size:48px;font-family:Neucha;-inkscape-font-specification:Neucha;letter-spacing:7.06853437px;fill:#ffffff;fill-opacity:1;stroke:#ffffff;stroke-width:0.99236238;stroke-linejoin:miter;stroke-miterlimit:4;stroke-dasharray:none;stroke-opacity:1">Цок</flowPara></flowRoot>    <flowRoot
       xml:space="preserve"
       id="flowRoot2987-7-9-9-7-0-3-4-1-7-0"
       style="font-style:normal;font-variant:normal;font-weight:normal;font-stretch:normal;font-size:12px;line-height:125%;font-family:Lavi;-inkscape-font-specification:Lavi;letter-spacing:0px;word-spacing:0px;display:inline;fill:#000000;fill-opacity:1;stroke:#000000;stroke-width:0.99236238;stroke-miterlimit:4;stroke-dasharray:none;stroke-opacity:1;filter:url(#filter4375-4-1-1-1-6-4)"
       transform="matrix(1.0048804,-0.46372464,0.54958142,1.8596817,223.15829,2170.6951)"><flowRegion
         id="flowRegion2989-4-5-8-7-41-7-62-2-5-5"
         style="stroke-width:5.40286207"><rect
           id="rect2991-45-1-3-3-8-0-4-6-5-9"
           width="319.66232"
           height="56.089447"
           x="120.55251"
           y="265.53046"
           style="font-style:normal;font-variant:normal;font-weight:normal;font-stretch:normal;font-family:Lavi;-inkscape-font-specification:Lavi;fill:#000000;fill-opacity:1;stroke:#000000;stroke-width:0.99236238;stroke-miterlimit:4;stroke-dasharray:none;stroke-opacity:1" /></flowRegion><flowPara
         id="flowPara2995-4-1-5-0-7-2-6-4-4-2"
         style="font-style:normal;font-variant:normal;font-weight:normal;font-stretch:normal;font-size:48px;font-family:Neucha;-inkscape-font-specification:Neucha;letter-spacing:7.06853437px;fill:#ffffff;fill-opacity:1;stroke:#ffffff;stroke-width:0.99236238;stroke-linejoin:miter;stroke-miterlimit:4;stroke-dasharray:none;stroke-opacity:1">Цок</flowPara></flowRoot>    <path
       style="color:#000000;display:inline;overflow:visible;visibility:visible;fill:#ffffff;fill-opacity:1;fill-rule:nonzero;stroke:none;stroke-width:1px;marker:none;enable-background:accumulate"
       d="m 1250.7114,2892.3092 c -31.912,-32.749 -16.2239,-123.3029 -7.106,-138.0399 9.1177,-14.737 21.6546,-12.8182 64.9639,-12.8182 43.3095,0 346.6494,-8.8824 391.0985,25.5038 44.4489,34.3864 43.3094,94.1532 4.5589,134.2706 -38.7506,40.1173 -246.1796,31.9302 -246.1796,31.9302 0,0 -158.3277,0.9083 -207.3357,-40.8465 z"
       id="path3992"
       inkscape:connector-curvature="0"
       sodipodi:nodetypes="csssscc" />
    <path
       style="color:#000000;display:inline;overflow:visible;visibility:visible;fill:#ffffff;fill-opacity:1;fill-rule:nonzero;stroke:none;stroke-width:1px;marker:none;enable-background:accumulate"
       d="m 1239.0719,3406.6043 c -30.0321,-60.415 -7.6925,-214.0511 4.5808,-239.921 12.2732,-25.8699 25.6846,-77.7285 92.3648,-79.6108 183.4027,-5.1776 330.2595,-42.6951 428.9056,54.3833 61.2821,60.3083 21.7526,240.7853 -23.4782,288.8117 -44.7791,47.5472 -296.4615,53.0924 -296.4615,53.0924 0,0 -158.4825,0.7402 -205.9115,-76.7556 z"
       id="path3992-8"
       inkscape:connector-curvature="0"
       sodipodi:nodetypes="csssscc" />
    <path
       style="color:#000000;display:inline;overflow:visible;visibility:visible;fill:#ffffff;fill-opacity:1;fill-rule:nonzero;stroke:none;stroke-width:1px;marker:none;enable-background:accumulate"
       d="m 1743.111,3399.432 c 28.3695,-11.9364 96.1162,-61.9685 100.5551,-71.3723 -14.7429,9.4718 -70.735,32.8442 -90.3094,35.7229 -16.6142,2.4434 -10.2457,35.6494 -10.2457,35.6494 z"
       id="path3940"
       inkscape:connector-curvature="0"
       sodipodi:nodetypes="ccsc" />
    <path
       style="color:#000000;display:inline;overflow:visible;visibility:visible;fill:#ffffff;fill-opacity:1;fill-rule:nonzero;stroke:none;stroke-width:1px;marker:none;enable-background:accumulate"
       d="m 1533.5929,2870.5837 c 1.8139,47.1601 45.3463,116.0864 91.5995,107.924 -55.3225,-26.3008 -69.8333,-87.0647 -66.2056,-101.5755 3.6277,-14.5108 -25.3939,-6.3485 -25.3939,-6.3485 z"
       id="path3978"
       inkscape:connector-curvature="0" />
    <path
       style="color:#000000;display:inline;overflow:visible;visibility:visible;fill:#ffffff;fill-opacity:1;fill-rule:nonzero;stroke:none;stroke-width:1px;marker:none;enable-background:accumulate"
       d="m 125.85646,3221.8039 c -22.55843,-47.2817 16.75564,-146.2149 222.85149,-137.4671 206.09568,8.7478 239.60735,58.7358 244.63397,73.7321 5.02679,14.9966 62.34973,96.7597 -99.75849,107.8885 -168.35834,11.558 -317.45968,13.3325 -367.72697,-44.1535 z"
       id="path3525"
       inkscape:connector-curvature="0"
       sodipodi:nodetypes="csssc" />
    <path
       style="color:#000000;display:inline;overflow:visible;visibility:visible;fill:#ffffff;fill-opacity:1;fill-rule:nonzero;stroke:none;stroke-width:1px;marker:none;enable-background:accumulate"
       d="m 666.70509,3209.3439 c -36.07499,-39.8088 -68.97239,-17.312 -80.78972,-13.9589 -11.8173,3.3531 -54.47138,15.8178 -81.70206,-18.4008 -27.23081,-34.2187 -77.24794,-29.5002 -77.24794,-29.5002 l 39.55278,52.0565 c 0,0 45.52013,24.9069 74.86499,22.5829 29.34487,-2.3241 66.48183,-22.9142 81.24019,-21.3162 14.75833,1.5979 30.45036,-1.6253 44.08176,8.5367 z"
       id="path4018"
       inkscape:connector-curvature="0" />
  </g>
  <g
     inkscape:groupmode="layer"
     id="layer1"
     inkscape:label="txt"
     style="display:inline">
    <flowRoot
       xml:space="preserve"
       id="flowRoot2987-4-9-3"
       style="font-style:normal;font-variant:normal;font-weight:normal;font-stretch:normal;font-size:12px;line-height:125%;font-family:Lavi;-inkscape-font-specification:Lavi;text-align:center;letter-spacing:0px;word-spacing:0px;text-anchor:middle;fill:#000000;fill-opacity:1;stroke:none"
       transform="translate(876.21378,-143.43012)"><flowRegion
         id="flowRegion2989-5-4-5"><rect
           id="rect2991-7-9-6"
           width="357.4017"
           height="55.739929"
           x="88.052513"
           y="270.53046"
           style="font-style:normal;font-variant:normal;font-weight:normal;font-stretch:normal;font-family:Lavi;-inkscape-font-specification:Lavi;text-align:center;text-anchor:middle" /></flowRegion><flowPara
         style="font-style:normal;font-variant:normal;font-weight:normal;font-stretch:normal;font-size:50px;font-family:Neucha;-inkscape-font-specification:Neucha;text-align:center;text-anchor:middle"
         id="flowPara3030-8">Зілля-смішинки</flowPara></flowRoot>    <flowRoot
       xml:space="preserve"
       id="flowRoot2987-4-9-3-7"
       style="font-style:normal;font-variant:normal;font-weight:normal;font-stretch:normal;font-size:12px;line-height:125%;font-family:Lavi;-inkscape-font-specification:Lavi;text-align:center;letter-spacing:0px;word-spacing:0px;text-anchor:middle;fill:#000000;fill-opacity:1;stroke:none"
       transform="translate(694.48739,-43.535341)"><flowRegion
         id="flowRegion2989-5-4-5-5"><rect
           id="rect2991-7-9-6-9"
           width="584.10663"
           height="102.27012"
           x="120.55251"
           y="265.53046"
           style="font-style:normal;font-variant:normal;font-weight:normal;font-stretch:normal;font-family:Lavi;-inkscape-font-specification:Lavi;text-align:center;text-anchor:middle" /></flowRegion><flowPara
         style="font-style:normal;font-variant:normal;font-weight:normal;font-stretch:normal;font-size:50px;font-family:Neucha;-inkscape-font-specification:Neucha;text-align:center;text-anchor:middle"
         id="flowPara4172">Зілля швидкого росту волосся</flowPara></flowRoot>    <flowRoot
       xml:space="preserve"
       id="flowRoot2987-4-9-3-7-8"
       style="font-style:normal;font-variant:normal;font-weight:normal;font-stretch:normal;font-size:12px;line-height:125%;font-family:Lavi;-inkscape-font-specification:Lavi;text-align:center;letter-spacing:0px;word-spacing:0px;text-anchor:middle;fill:#000000;fill-opacity:1;stroke:none"
       transform="translate(831.57417,57.517967)"><flowRegion
         id="flowRegion2989-5-4-5-5-1"><rect
           id="rect2991-7-9-6-9-5"
           width="595.61237"
           height="107.46306"
           x="120.55251"
           y="265.53046"
           style="font-style:normal;font-variant:normal;font-weight:normal;font-stretch:normal;font-family:Lavi;-inkscape-font-specification:Lavi;text-align:center;text-anchor:middle" /></flowRegion><flowPara
         style="font-style:normal;font-variant:normal;font-weight:normal;font-stretch:normal;font-size:50px;font-family:Neucha;-inkscape-font-specification:Neucha;text-align:center;text-anchor:middle"
         id="flowPara4217">Зілля смердючих бульбашок</flowPara></flowRoot>    <flowRoot
       xml:space="preserve"
       id="flowRoot2987-4-9-3-7-8-6"
       style="font-style:normal;font-variant:normal;font-weight:normal;font-stretch:normal;font-size:12px;line-height:125%;font-family:Lavi;-inkscape-font-specification:Lavi;text-align:center;letter-spacing:0px;word-spacing:0px;text-anchor:middle;fill:#000000;fill-opacity:1;stroke:none"
       transform="translate(696.99374,155.88661)"><flowRegion
         id="flowRegion2989-5-4-5-5-1-2"><rect
           id="rect2991-7-9-6-9-5-7"
           width="524.90173"
           height="117.24342"
           x="120.55251"
           y="265.53046"
           style="font-style:normal;font-variant:normal;font-weight:normal;font-stretch:normal;font-family:Lavi;-inkscape-font-specification:Lavi;text-align:center;text-anchor:middle" /></flowRegion><flowPara
         style="font-style:normal;font-variant:normal;font-weight:normal;font-stretch:normal;font-size:50px;font-family:Neucha;-inkscape-font-specification:Neucha;text-align:center;text-anchor:middle"
         id="flowPara4217-8">Зілля позитиву</flowPara></flowRoot>    <flowRoot
       xml:space="preserve"
       id="flowRoot2987-4-9-3-7-8-6-6"
       style="font-style:normal;font-variant:normal;font-weight:normal;font-stretch:normal;font-size:12px;line-height:125%;font-family:Lavi;-inkscape-font-specification:Lavi;text-align:center;letter-spacing:0px;word-spacing:0px;text-anchor:middle;fill:#000000;fill-opacity:1;stroke:none"
       transform="translate(771.20152,246.28329)"><flowRegion
         id="flowRegion2989-5-4-5-5-1-2-4"><rect
           id="rect2991-7-9-6-9-5-7-2"
           width="524.90173"
           height="98.239929"
           x="120.55251"
           y="265.53046"
           style="font-style:normal;font-variant:normal;font-weight:normal;font-stretch:normal;font-family:Lavi;-inkscape-font-specification:Lavi;text-align:center;text-anchor:middle" /></flowRegion><flowPara
         style="font-style:normal;font-variant:normal;font-weight:normal;font-stretch:normal;font-size:50px;font-family:Neucha;-inkscape-font-specification:Neucha;text-align:center;text-anchor:middle"
         id="flowPara4217-8-6">Димові зілля...</flowPara></flowRoot>    <flowRoot
       xml:space="preserve"
       id="flowRoot2987-4-9-3-7-8-6-6-6"
       style="font-style:normal;font-variant:normal;font-weight:normal;font-stretch:normal;font-size:12px;line-height:125%;font-family:Lavi;-inkscape-font-specification:Lavi;text-align:center;letter-spacing:0px;word-spacing:0px;text-anchor:middle;fill:#000000;fill-opacity:1;stroke:none"
       transform="translate(794.91534,437.32514)"><flowRegion
         id="flowRegion2989-5-4-5-5-1-2-4-2"><rect
           id="rect2991-7-9-6-9-5-7-2-1"
           width="384.9017"
           height="203.23993"
           x="188.05251"
           y="245.53046"
           style="font-style:normal;font-variant:normal;font-weight:normal;font-stretch:normal;font-family:Lavi;-inkscape-font-specification:Lavi;text-align:center;text-anchor:middle" /></flowRegion><flowPara
         style="font-style:normal;font-variant:normal;font-weight:normal;font-stretch:normal;font-size:50px;font-family:Neucha;-inkscape-font-specification:Neucha;text-align:center;text-anchor:middle"
         id="flowPara3559">... і це ще не всі!</flowPara></flowRoot>    <flowRoot
       xml:space="preserve"
       id="flowRoot2987-4-9-3-7-8-6-6-6-0"
       style="font-style:normal;font-variant:normal;font-weight:normal;font-stretch:normal;font-size:12px;line-height:125%;font-family:Lavi;-inkscape-font-specification:Lavi;text-align:center;letter-spacing:0px;word-spacing:0px;text-anchor:middle;display:inline;fill:#000000;fill-opacity:1;stroke:none"
       transform="translate(-89.870612,1811.1466)"><flowRegion
         id="flowRegion2989-5-4-5-5-1-2-4-2-0"><rect
           id="rect2991-7-9-6-9-5-7-2-1-3"
           width="504.9017"
           height="183.23993"
           x="120.55251"
           y="265.53046"
           style="font-style:normal;font-variant:normal;font-weight:normal;font-stretch:normal;font-family:Lavi;-inkscape-font-specification:Lavi;text-align:center;text-anchor:middle" /></flowRegion><flowPara
         style="font-style:normal;font-variant:normal;font-weight:normal;font-stretch:normal;font-size:50px;font-family:Neucha;-inkscape-font-specification:Neucha;text-align:center;text-anchor:middle"
         id="flowPara4297-3">Я знаю, знаю:</flowPara></flowRoot>    <flowRoot
       xml:space="preserve"
       id="flowRoot2987-4-9-3-7-8-6-6-6-0-7"
       style="font-style:normal;font-variant:normal;font-weight:normal;font-stretch:normal;font-size:12px;line-height:125%;font-family:Lavi;-inkscape-font-specification:Lavi;text-align:center;letter-spacing:0px;word-spacing:0px;text-anchor:middle;display:inline;fill:#000000;fill-opacity:1;stroke:none"
       transform="translate(71.09556,1920.4181)"><flowRegion
         id="flowRegion2989-5-4-5-5-1-2-4-2-0-8"><rect
           id="rect2991-7-9-6-9-5-7-2-1-3-2"
           width="872.77673"
           height="198.86493"
           x="120.55251"
           y="265.53046"
           style="font-style:normal;font-variant:normal;font-weight:normal;font-stretch:normal;font-family:Lavi;-inkscape-font-specification:Lavi;text-align:center;text-anchor:middle" /></flowRegion><flowPara
         style="font-style:normal;font-variant:normal;font-weight:normal;font-stretch:normal;font-size:50px;font-family:Neucha;-inkscape-font-specification:Neucha;text-align:center;text-anchor:middle"
         id="flowPara5032">&quot;Справжня-відьма-Хаосу-не-</flowPara><flowPara
         style="font-style:normal;font-variant:normal;font-weight:normal;font-stretch:normal;font-size:50px;font-family:Neucha;-inkscape-font-specification:Neucha;text-align:center;text-anchor:middle"
         id="flowPara3469">готувала-б-такі-зілля&quot;.</flowPara></flowRoot>    <flowRoot
       xml:space="preserve"
       id="flowRoot2987-4-9-3-7-8-6-6-6-0-70"
       style="font-style:normal;font-variant:normal;font-weight:normal;font-stretch:normal;font-size:12px;line-height:125%;font-family:Lavi;-inkscape-font-specification:Lavi;text-align:center;letter-spacing:0px;word-spacing:0px;text-anchor:middle;display:inline;fill:#000000;fill-opacity:1;stroke:none"
       transform="translate(1109.8475,2521.4522)"><flowRegion
         id="flowRegion2989-5-4-5-5-1-2-4-2-0-87"><rect
           id="rect2991-7-9-6-9-5-7-2-1-3-1"
           width="504.9017"
           height="183.23993"
           x="120.55251"
           y="265.53046"
           style="font-style:normal;font-variant:normal;font-weight:normal;font-stretch:normal;font-family:Lavi;-inkscape-font-specification:Lavi;text-align:center;text-anchor:middle" /></flowRegion><flowPara
         style="font-style:normal;font-variant:normal;font-weight:normal;font-stretch:normal;font-size:50px;font-family:Neucha;-inkscape-font-specification:Neucha;text-align:center;text-anchor:middle"
         id="flowPara4376">Мені треба на базар</flowPara><flowPara
         style="font-style:normal;font-variant:normal;font-weight:normal;font-stretch:normal;font-size:50px;font-family:Neucha;-inkscape-font-specification:Neucha;text-align:center;text-anchor:middle"
         id="flowPara3468">до Комони.</flowPara></flowRoot>    <flowRoot
       xml:space="preserve"
       id="flowRoot2987-4-9-3-7-8-6-6-6-0-70-6"
       style="font-style:normal;font-variant:normal;font-weight:normal;font-stretch:normal;font-size:12px;line-height:125%;font-family:Lavi;-inkscape-font-specification:Lavi;text-align:center;letter-spacing:0px;word-spacing:0px;text-anchor:middle;display:inline;fill:#000000;fill-opacity:1;stroke:none"
       transform="translate(1087.5956,2867.9232)"><flowRegion
         id="flowRegion2989-5-4-5-5-1-2-4-2-0-87-8"><rect
           id="rect2991-7-9-6-9-5-7-2-1-3-1-0"
           width="603.05389"
           height="326.82687"
           x="120.55251"
           y="265.53046"
           style="font-style:normal;font-variant:normal;font-weight:normal;font-stretch:normal;font-family:Lavi;-inkscape-font-specification:Lavi;text-align:center;text-anchor:middle" /></flowRegion><flowPara
         style="font-style:normal;font-variant:normal;font-weight:normal;font-stretch:normal;font-size:45px;font-family:Neucha;-inkscape-font-specification:Neucha;text-align:center;text-anchor:middle"
         id="flowPara3547">Поки мене не буде, позбався цього; малі бешкетники пошкодують, якщо знайдуть</flowPara><flowPara
         style="font-style:normal;font-variant:normal;font-weight:normal;font-stretch:normal;font-size:45px;font-family:Neucha;-inkscape-font-specification:Neucha;text-align:center;text-anchor:middle"
         id="flowPara3474">з чим погратися в цій купі</flowPara></flowRoot>    <flowRoot
       xml:space="preserve"
       id="flowRoot2987-4-9-3-7-8-6-6-6-0-70-60-4"
       style="font-style:normal;font-variant:normal;font-weight:normal;font-stretch:normal;font-size:12px;line-height:125%;font-family:Lavi;-inkscape-font-specification:Lavi;text-align:center;letter-spacing:0px;word-spacing:0px;text-anchor:middle;display:inline;fill:#000000;fill-opacity:1;stroke:none"
       transform="translate(-6.288536,2848.0367)"><flowRegion
         id="flowRegion2989-5-4-5-5-1-2-4-2-0-87-5-8"><rect
           id="rect2991-7-9-6-9-5-7-2-1-3-1-7-0"
           width="504.9017"
           height="183.23993"
           x="120.55251"
           y="265.53046"
           style="font-style:normal;font-variant:normal;font-weight:normal;font-stretch:normal;font-family:Lavi;-inkscape-font-specification:Lavi;text-align:center;text-anchor:middle" /></flowRegion><flowPara
         style="font-style:normal;font-variant:normal;font-weight:normal;font-stretch:normal;font-size:50px;font-family:Neucha;-inkscape-font-specification:Neucha;text-align:center;text-anchor:middle"
         id="flowPara4520">Саме так. </flowPara><flowPara
         style="font-style:normal;font-variant:normal;font-weight:normal;font-stretch:normal;font-size:50px;font-family:Neucha;-inkscape-font-specification:Neucha;text-align:center;text-anchor:middle"
         id="flowPara3570">І щоб надалі так і було.</flowPara></flowRoot>  </g>
</svg>
