<?xml version="1.0" encoding="UTF-8" standalone="no"?>
<!-- Created with Inkscape (http://www.inkscape.org/) -->

<svg
   xmlns:dc="http://purl.org/dc/elements/1.1/"
   xmlns:cc="http://creativecommons.org/ns#"
   xmlns:rdf="http://www.w3.org/1999/02/22-rdf-syntax-ns#"
   xmlns:svg="http://www.w3.org/2000/svg"
   xmlns="http://www.w3.org/2000/svg"
   xmlns:xlink="http://www.w3.org/1999/xlink"
   xmlns:sodipodi="http://sodipodi.sourceforge.net/DTD/sodipodi-0.dtd"
   xmlns:inkscape="http://www.inkscape.org/namespaces/inkscape"
   id="svg2"
   version="1.1"
   inkscape:version="0.92.4 (5da689c313, 2019-01-14)"
   width="2481"
   height="3503"
   sodipodi:docname="E06P08.svg">
  <metadata
     id="metadata8">
    <rdf:RDF>
      <cc:Work
         rdf:about="">
        <dc:format>image/svg+xml</dc:format>
        <dc:type
           rdf:resource="http://purl.org/dc/dcmitype/StillImage" />
        <dc:title />
      </cc:Work>
    </rdf:RDF>
  </metadata>
  <defs
     id="defs6">
    <filter
       color-interpolation-filters="sRGB"
       id="filter4375-4-1-1-15-1-3-3"
       inkscape:label="deevad outline effect">
      <feFlood
         id="feFlood4377-7-9-0-4-4-4-7"
         flood-opacity="1"
         flood-color="rgb(0,0,0)"
         result="flood" />
      <feComposite
         id="feComposite4379-3-8-8-6-0-7-4"
         in2="SourceGraphic"
         in="flood"
         operator="in"
         result="composite1" />
      <feMorphology
         id="feMorphology4393-1-0-49-8-2-7-3"
         operator="dilate"
         radius="0.69999999999999996"
         result="result3" />
      <feComposite
         id="feComposite4385-9-5-7-2-1-2-9"
         in2="result3"
         in="SourceGraphic"
         operator="over"
         result="composite2" />
    </filter>
    <filter
       color-interpolation-filters="sRGB"
       id="filter3639"
       inkscape:label="deevad outline effect">
      <feFlood
         id="feFlood3641"
         flood-opacity="1"
         flood-color="rgb(0,0,0)"
         result="flood" />
      <feComposite
         id="feComposite3643"
         in2="SourceGraphic"
         in="flood"
         operator="in"
         result="composite1" />
      <feMorphology
         id="feMorphology3645"
         operator="dilate"
         radius="0.69999999999999996"
         result="result3" />
      <feComposite
         id="feComposite3647"
         in2="result3"
         in="SourceGraphic"
         operator="over"
         result="composite2" />
    </filter>
    <filter
       color-interpolation-filters="sRGB"
       id="filter3649"
       inkscape:label="deevad outline effect">
      <feFlood
         id="feFlood3651"
         flood-opacity="1"
         flood-color="rgb(0,0,0)"
         result="flood" />
      <feComposite
         id="feComposite3653"
         in2="SourceGraphic"
         in="flood"
         operator="in"
         result="composite1" />
      <feMorphology
         id="feMorphology3655"
         operator="dilate"
         radius="0.69999999999999996"
         result="result3" />
      <feComposite
         id="feComposite3657"
         in2="result3"
         in="SourceGraphic"
         operator="over"
         result="composite2" />
    </filter>
  </defs>
  <sodipodi:namedview
     pagecolor="#ffffff"
     bordercolor="#666666"
     borderopacity="1"
     objecttolerance="10"
     gridtolerance="10"
     guidetolerance="10"
     inkscape:pageopacity="0"
     inkscape:pageshadow="2"
     inkscape:window-width="1366"
     inkscape:window-height="703"
     id="namedview4"
     showgrid="false"
     inkscape:zoom="0.82725316"
     inkscape:cx="2055.5582"
     inkscape:cy="441.56673"
     inkscape:window-x="0"
     inkscape:window-y="0"
     inkscape:window-maximized="1"
     inkscape:current-layer="layer1" />
  <g
     inkscape:groupmode="layer"
     id="layer2"
     inkscape:label="artwork"
     sodipodi:insensitive="true">
    <image
       sodipodi:absref="/felles/omsetting/pepper-carrot/webcomics/ep06_The-Potion-Contest/lang/nn/../gfx_Pepper-and-Carrot_by-David-Revoy_E06P08.png"
       xlink:href="../gfx_Pepper-and-Carrot_by-David-Revoy_E06P08.png"
       width="2481"
       height="3503"
       id="image10"
       x="0"
       y="0" />
  </g>
  <g
     inkscape:groupmode="layer"
     id="layer3"
     inkscape:label="speechbubbles" />
  <g
     inkscape:groupmode="layer"
     id="layer1"
     inkscape:label="txt">
    <path
       style="color:#000000;display:inline;overflow:visible;visibility:visible;fill:#ffffff;fill-opacity:1;fill-rule:nonzero;stroke:none;stroke-width:1px;marker:none;enable-background:accumulate"
       d="m 524.44684,1977.3621 c -14.01377,-46.3951 -40.00882,-95.7772 -45.79925,-144.3988 l -11.44029,45.6542 c -62.91152,-129.7986 -216.9307,-210.2683 -37.93418,5.9274 l 4.61436,-21.5395 c 6.85365,14.1808 24.60331,28.6882 28.47492,44.653 l 15.40082,-17.4241 c 13.28656,38.1411 31.12227,58.0858 46.68362,87.1278 z"
       id="path4032-9"
       inkscape:connector-curvature="0"
       sodipodi:nodetypes="cccccccc" />
    <path
       style="color:#000000;display:inline;overflow:visible;visibility:visible;fill:#ffffff;fill-opacity:1;fill-rule:nonzero;stroke:none;stroke-width:1px;marker:none;enable-background:accumulate"
       d="m 734.33747,2852.147 c 34.68316,-42.7494 111.27433,-68.3456 171.06944,-6.0348 45.90017,-4.9397 81.26643,-4.2641 125.92729,48.6318 -41.84055,-33.4484 -69.35796,-47.6353 -136.48501,-35.9449 -35.82358,-28.4476 -90.54377,-19.0565 -121.82817,39.1849 -31.28451,58.2414 -17.69437,44.59 -17.69437,44.59 l -30.80741,-73.5852 z"
       id="path5074-3-6"
       inkscape:connector-curvature="0"
       sodipodi:nodetypes="ccccsccc" />
    <path
       style="color:#000000;display:inline;overflow:visible;visibility:visible;fill:#ffffff;fill-opacity:1;fill-rule:nonzero;stroke:none;stroke-width:0.92328638px;marker:none;enable-background:accumulate"
       d="m 970.54744,1706.9781 c 31.36536,19.4048 21.73695,55.8955 -14.11976,30.7611 24.92985,37.4098 41.66167,54.1966 28.94926,69.3002 92.60176,-29.8848 32.83516,18.3553 10.11106,47.6022 20.6329,-11.656 53.515,-44.4961 41.1182,0.9715 6.56,-2.0909 14.2789,-8.0789 17.5258,0.9715 8.3584,-6.2497 14.5681,-7.8546 18.1998,-3.8859 8.2149,-11.3733 13.5229,-14.3677 13.4814,-1.9428 7.7665,-9.3696 10.1583,-6.1448 12.1333,-1.9431 13.3291,-20.116 18.3072,-14.4411 23.5923,-9.7147 7.5468,-12.0778 16.3784,-9.3422 26.2887,5.8288 10.1399,-20.5412 21.0357,-19.2916 32.3553,-5.8288 3.3247,-5.0603 6.3441,-13.64 10.7851,-5.8288 4.4939,-2.7019 8.9875,-9.6256 13.4813,-2.9145 47.4298,-26.5905 68.1175,-4.1294 90.3253,15.5435 12.3826,-8.6854 21.3056,-25.4729 42.4663,-13.6004 1.9781,-12.1236 13.3242,-17.0461 33.0294,-15.5436 -20.2113,-14.6311 -21.2511,-22.9604 25.6146,-15.5436 -32.6656,-11.9814 -62.7685,-23.9629 -12.1333,-35.9444 -11.8593,-4.7567 -50.6223,6.4332 -8.0889,-50.5163 -30.2029,12.569 -57.6215,15.8348 -66.0587,-34.9731 -16.2939,13.3617 -34.3349,19.9808 -48.5329,-10.6862 -12.9317,14.3691 -31.0255,10.9192 -40.4441,3.8859 -2.5483,15.7371 -21.7921,39.8719 -47.8588,-3.8859 5.7192,24.8712 1.3904,64.4854 -28.985,-0.9715 -0.6024,11.3866 11.906,73.3093 -72.7994,-0.9715 10.5663,49.8364 -17.5579,20.838 -39.77,3.8858 11.0148,31.2463 -5.5621,33.6626 -41.79231,15.5436 27.94911,29.6687 -0.78902,21.4773 -18.87395,20.401 z"
       id="path3549-2"
       inkscape:connector-curvature="0"
       sodipodi:nodetypes="ccccccccccccccccccccccccccccc" />
    <path
       style="color:#000000;display:inline;overflow:visible;visibility:visible;fill:#ffffff;fill-opacity:1;fill-rule:nonzero;stroke:none;stroke-width:0.92328638px;marker:none;enable-background:accumulate"
       d="m 758.79015,1749.704 c 59.52361,16.0685 120.19308,31.8756 18.88402,84.6243 98.05198,-16.9299 39.12209,12.3866 15.89915,31.1838 121.40745,-22.6181 63.73294,18.592 22.36785,54.8243 38.5327,-15.4595 99.00859,-56.792 78.3714,-2.484 45.46766,-27.7446 116.78213,-77.992 33.44075,-0.4063 70.12642,-47.8069 71.68483,-42.8344 34.40686,-6.1508 45.89622,-32.7185 53.75082,-27.0047 48.52792,-6.8037 28.9026,-42.307 35.2815,-23.4648 44.2958,-13.448 13.5829,-14.8008 30.5812,-12.3768 50.4467,4.5072 17.9682,-24.935 38.8005,1.5418 38.8978,25.3364 14.8461,-35.8486 39.4035,-40.9268 62.3573,-0.9962 0.4485,-23.9006 0.1122,-74.9899 35.4131,-0.08 -9.2371,-68.5212 105.3648,-39.5743 160.6257,3.4627 -32.5259,-50.287 10.5719,-61.832 62.6105,-59.183 2.9745,-14.3639 24.261,-21.1244 61.887,-21.1012 -39.448,-15.3446 -41.9727,-25.0019 47.7659,-20.4482 -62.9935,-11.1468 -121.1064,-22.5192 -25.457,-41.0017 -22.8965,-4.5228 -95.9876,11.9874 -18.7071,-58.4131 -56.6988,17.3709 -108.7029,23.6078 -128.0923,-35.1159 -30.1579,17.0737 -64.0836,26.4096 -93.1276,-8.2335 -23.6887,17.9566 -58.373,15.5123 -76.7702,8.1097 -3.8243,18.6434 -38.8957,48.586 -91.3992,-0.3336 12.5177,28.606 6.8634,75.3528 -55.2642,1.4156 -0.4028,13.38 -28.9479,35.1778 -138.70712,5.2736 23.38089,57.3991 -32.07605,25.9354 -75.48649,8.0502 23.01988,35.6013 -8.3921,39.8893 -78.57552,21.8728 55.16739,32.2637 -0.0988,25.207 -34.61102,25.5398 z"
       id="path3549"
       inkscape:connector-curvature="0"
       sodipodi:nodetypes="ccccccccccccccccccccccccccccc" />
    <path
       style="color:#000000;display:inline;overflow:visible;visibility:visible;fill:#ffffff;fill-opacity:1;fill-rule:nonzero;stroke:none;stroke-width:0.8954733px;marker:none;enable-background:accumulate"
       d="m 511.82035,425.44966 c 25.93335,-37.94681 166.98722,-34.7074 213.91846,-18.26698 46.93104,16.44022 64.39378,44.75411 66.5766,54.80102 2.18273,10.04682 -3.27422,56.6277 -27.28556,65.76129 -24.0112,9.13348 -92.77063,13.70023 -116.78196,13.70023 -24.0112,0 -100.66042,-5.81344 -120.05639,-19.1804 -18.55417,-12.78691 -42.30459,-58.86845 -16.37115,-96.81516 z"
       id="path3330"
       inkscape:connector-curvature="0"
       sodipodi:nodetypes="zsssssz" />
    <path
       style="color:#000000;display:inline;overflow:visible;visibility:visible;fill:#ffffff;fill-opacity:1;fill-rule:nonzero;stroke:none;stroke-width:0.90977925px;marker:none;enable-background:accumulate"
       d="m 508.07596,685.67463 c -9.63087,-56.05698 8.84339,-193.79289 206.2771,-181.53037 197.43356,12.2623 211.2119,48.1709 234.35204,103.35485 7.17179,17.37914 68.359,134.94849 -86.81175,157.10556 -157.05654,22.42635 -341.70302,0.0566 -353.81739,-78.93004 z"
       id="path3525"
       inkscape:connector-curvature="0"
       sodipodi:nodetypes="cscsc" />
    <flowRoot
       xml:space="preserve"
       id="flowRoot2987-4-9-3"
       style="font-style:normal;font-variant:normal;font-weight:normal;font-stretch:normal;line-height:0.01%;font-family:Lavi;-inkscape-font-specification:Lavi;text-align:center;letter-spacing:0px;word-spacing:0px;text-anchor:middle;fill:#000000;fill-opacity:1;stroke:none"
       transform="translate(314.32542,290.88398)"><flowRegion
         id="flowRegion2989-5-4-5"><rect
           id="rect2991-7-9-6"
           width="602.40173"
           height="310.73996"
           x="120.55251"
           y="265.53046"
           style="font-style:normal;font-variant:normal;font-weight:normal;font-stretch:normal;font-family:Lavi;-inkscape-font-specification:Lavi;text-align:center;text-anchor:middle" /></flowRegion><flowPara
         style="font-size:48px;line-height:1.25;text-align:center;text-anchor:middle"
         id="flowPara4658">Som vanleg</flowPara><flowPara
         style="font-size:48px;line-height:1.25;text-align:center;text-anchor:middle"
         id="flowPara3487">dreg alle når det</flowPara><flowPara
         style="font-size:48px;line-height:1.25;text-align:center;text-anchor:middle"
         id="flowPara3489">er vår tur.</flowPara></flowRoot>    <flowRoot
       transform="translate(224.25499,171.43125)"
       style="font-style:normal;font-variant:normal;font-weight:normal;font-stretch:normal;line-height:0.01%;font-family:Lavi;-inkscape-font-specification:Lavi;text-align:center;letter-spacing:0px;word-spacing:0px;text-anchor:middle;fill:#000000;fill-opacity:1;stroke:none"
       id="flowRoot3045"
       xml:space="preserve"><flowRegion
         id="flowRegion3047"><rect
           style="font-style:normal;font-variant:normal;font-weight:normal;font-stretch:normal;font-family:Lavi;-inkscape-font-specification:Lavi;text-align:center;text-anchor:middle"
           y="265.53046"
           x="120.55251"
           height="310.73996"
           width="602.40173"
           id="rect3049" /></flowRegion><flowPara
         id="flowPara3055"
         style="font-size:48px;line-height:1.25;text-align:center;text-anchor:middle">Typisk!</flowPara></flowRoot>    <path
       style="color:#000000;display:inline;overflow:visible;visibility:visible;fill:#ffffff;fill-opacity:1;fill-rule:nonzero;stroke:none;stroke-width:1px;marker:none;enable-background:accumulate"
       d="m 900.08615,716.05926 c 42.51329,20.49356 123.80235,14.32923 138.26235,-30.35733 -49.15569,36.55167 -109.63611,20.90132 -120.75593,10.89767 -11.11981,-10.00366 -17.50642,19.45966 -17.50642,19.45966 z"
       id="path3978"
       inkscape:connector-curvature="0" />
    <path
       style="color:#000000;display:inline;overflow:visible;visibility:visible;fill:#ffffff;fill-opacity:1;fill-rule:nonzero;stroke:none;stroke-width:0.99999994px;marker:none;enable-background:accumulate"
       d="m 1548.61,795.42187 c 46.5939,-93.44304 288.8851,-89.38513 363.818,-48.90103 74.9323,40.48363 88.3812,114.12494 90.8424,138.86522 2.4614,24.74003 -11.6002,139.44424 -51.8731,161.93554 -40.2725,22.491 -153.2178,33.7364 -192.4832,33.7364 -39.2655,0 -169.0138,-12.7478 -199.2576,-45.6637 -28.9309,-31.4874 -57.6407,-146.52961 -11.0465,-239.97243 z"
       id="path3330-3"
       inkscape:connector-curvature="0"
       sodipodi:nodetypes="zsssssz" />
    <path
       style="color:#000000;display:inline;overflow:visible;visibility:visible;fill:#ffffff;fill-opacity:1;fill-rule:nonzero;stroke:none;stroke-width:1px;marker:none;enable-background:accumulate"
       d="m 1441.4333,792.86046 c 1.8123,17.9111 3.4719,36.60072 12.514,52.57918 2.6665,4.48827 5.7379,8.94714 9.7431,12.29849 4.9422,2.55729 10.902,0.92324 14.9972,-2.48609 6.2588,-4.50938 10.9613,-11.84776 18.8831,-13.58596 5.7972,-1.12556 10.4379,3.16953 14.6457,6.42604 10.5623,8.51108 20.0337,18.50261 31.8998,25.28467 12.8634,8.50453 27.0155,16.51979 42.7488,17.47511 6.2316,0.27366 12.7888,-0.31154 18.2031,-3.68195 14.2818,-8.01643 24.173,-24.34511 22.834,-40.90808 -1.8569,-10.48428 -12.9332,-19.03038 -23.5991,-16.39316 -5.6511,1.30784 -9.507,6.21921 -11.5244,11.3814 -5.4816,8.7963 -15.7551,13.86937 -26.0014,13.88113 -8.456,0.14805 -16.8709,-2.36044 -24.0764,-6.73748 -11.3704,-3.36484 -18.2685,-13.64874 -26.3598,-21.52774 -3.7502,-3.54453 -7.9795,-7.06083 -13.0234,-8.42848 -7.6564,-0.23923 -13.3775,5.76673 -17.631,11.40618 -4.5368,5.70318 -9.1549,12.83128 -16.9484,14.04463 -5.2949,1.57023 -8.0628,-4.3141 -11.2198,-7.42808 -8.8564,-11.35341 -14.0534,-25.32791 -16.0433,-39.50562 -0.089,-1.36474 -0.067,-2.72787 -0.042,-4.09419 z"
       id="path4496"
       inkscape:connector-curvature="0"
       inkscape:transform-center-x="-99.717282"
       inkscape:transform-center-y="101.38562" />
    <path
       style="color:#000000;display:inline;overflow:visible;visibility:visible;fill:#ffffff;fill-opacity:1;fill-rule:nonzero;stroke:none;stroke-width:0.9695909px;marker:none;enable-background:accumulate"
       d="m 1752.9419,1101.4328 c 40.7791,-71.6135 264.7388,-70.5918 341.7351,-49.2763 76.2146,21.0992 90.5424,76.7475 93.9749,95.7081 3.4321,18.9605 5.5654,92.796 -34.8698,129.7341 -31.067,28.3799 -148.5565,42.7418 -186.3134,42.7418 -37.7566,0 -158.2843,-10.9711 -188.7837,-36.1974 -29.1758,-24.1317 -66.5224,-111.0969 -25.7431,-182.7103 z"
       id="path3330-7"
       inkscape:connector-curvature="0"
       sodipodi:nodetypes="zsssssz" />
    <flowRoot
       xml:space="preserve"
       id="flowRoot2987-4-9-3-8-9"
       style="font-style:normal;font-variant:normal;font-weight:normal;font-stretch:normal;line-height:0.01%;font-family:Lavi;-inkscape-font-specification:Lavi;text-align:center;letter-spacing:0px;word-spacing:0px;writing-mode:lr-tb;text-anchor:middle;fill:#000000;fill-opacity:1;stroke:none"
       transform="translate(1539.9373,825.36071)"><flowRegion
         id="flowRegion2989-5-4-5-8-6"><rect
           id="rect2991-7-9-6-5-0"
           width="602.40173"
           height="310.73996"
           x="120.55251"
           y="265.53046"
           style="font-style:normal;font-variant:normal;font-weight:normal;font-stretch:normal;line-height:130.99999428%;font-family:Lavi;-inkscape-font-specification:Lavi;text-align:center;writing-mode:lr-tb;text-anchor:middle" /></flowRegion><flowPara
         style="font-size:48px;line-height:130.99999428%;text-align:center;writing-mode:lr-tb;text-anchor:middle"
         id="flowPara3528">... nemleg å få</flowPara><flowPara
         style="font-size:48px;line-height:130.99999428%;text-align:center;writing-mode:lr-tb;text-anchor:middle"
         id="flowPara3524">alt normalt att og</flowPara><flowPara
         style="font-size:48px;line-height:130.99999428%;text-align:center;writing-mode:lr-tb;text-anchor:middle"
         id="flowPara3274">få oss heim!</flowPara></flowRoot>    <path
       style="color:#000000;display:inline;overflow:visible;visibility:visible;fill:#ffffff;fill-opacity:1;fill-rule:nonzero;stroke:none;stroke-width:1px;marker:none;enable-background:accumulate"
       d="m 799.55794,2061.6662 c 41.54476,-24.9583 79.49671,-56.3087 125.21587,-73.8403 l -43.51369,-5.8567 c 12.70794,-14.5474 33.04403,-20.2182 50.79008,-28.9032 l -26.26055,-7.9369 c 30.43962,-33.9774 70.07719,-50.7411 105.26895,-75.8248 l -46.93148,-10.2988 c -32.40962,29.4099 -59.34882,63.5475 -97.91175,87.6396 l 24.81802,10.2865 c -12.06842,10.1205 -24.58698,19.7921 -39.1159,27.4588 l 32.36116,10.2326 z"
       id="path4032"
       inkscape:connector-curvature="0"
       sodipodi:nodetypes="cccccccccccc" />
    <g
       id="g448"
       transform="translate(-6,6)">
      <flowRoot
         transform="translate(746.13659,1456.2787)"
         style="font-style:normal;font-variant:normal;font-weight:normal;font-stretch:normal;line-height:0.01%;font-family:Lavi;-inkscape-font-specification:Lavi;text-align:center;letter-spacing:0px;word-spacing:0px;text-anchor:middle;fill:#000000;fill-opacity:1;stroke:none"
         id="flowRoot2987-4-9-3-8-9-5"
         xml:space="preserve"><flowRegion
           id="flowRegion2989-5-4-5-8-6-3"><rect
             style="font-style:normal;font-variant:normal;font-weight:normal;font-stretch:normal;font-family:Lavi;-inkscape-font-specification:Lavi;text-align:center;text-anchor:middle"
             y="265.53046"
             x="120.55251"
             height="310.73996"
             width="602.40173"
             id="rect2991-7-9-6-5-0-1" /></flowRegion><flowPara
           id="flowPara3211-2"
           style="font-size:48px;line-height:1.25;text-align:center;text-anchor:middle">Du din forvaksne </flowPara></flowRoot>      <flowRoot
         xml:space="preserve"
         id="flowRoot4212-3-7-8-6"
         style="font-style:normal;font-variant:normal;font-weight:normal;font-stretch:normal;line-height:0.01%;font-family:Lavi;-inkscape-font-specification:Lavi;text-align:center;letter-spacing:0px;word-spacing:0px;text-anchor:middle;fill:#000000;fill-opacity:1;stroke:#000000;stroke-width:2.71217394;stroke-miterlimit:4;stroke-dasharray:none;stroke-opacity:1"
         transform="matrix(0.93080411,0,-0.09044116,1.21695,692.06542,1428.3539)"><flowRegion
           id="flowRegion4214-6-7-8-3"><rect
             id="rect4216-4-0-26-5"
             width="914.18988"
             height="333.9072"
             x="84.744102"
             y="284.74136"
             style="font-style:normal;font-variant:normal;font-weight:normal;font-stretch:normal;font-family:Lavi;-inkscape-font-specification:Lavi;text-align:center;text-anchor:middle;stroke:#000000;stroke-width:2.71217394;stroke-miterlimit:4;stroke-dasharray:none;stroke-opacity:1" /></flowRegion><flowPara
           id="flowPara3048"
           style="font-size:48px;line-height:1.25;text-align:center;letter-spacing:5.20896292px;text-anchor:middle;stroke:#000000;stroke-width:2.71217394;stroke-miterlimit:4;stroke-dasharray:none;stroke-opacity:1">snobbe-zombie-pippip!</flowPara></flowRoot>    </g>
    <path
       style="fill:#ffffff;fill-opacity:1;stroke:none;stroke-width:1.0350982"
       d="m 826.84882,2906.6733 c -25.90382,-8.1794 -35.87829,-15.7832 -31.24476,-20.469 -10.62466,-2.3352 -14.76455,-63.2109 -4.83856,-74.3388 0.66068,-1.1714 5.2971,-4.6863 3.30458,-5.2704 -1.99239,-0.5843 -13.93365,1.1789 -15.93068,-1.1611 -1.99704,-2.3405 17.82609,-35.7183 15.16849,-36.8876 -2.65782,-1.1689 -43.84421,-6.0423 -52.48526,-11.3054 -8.64121,-5.2632 -23.84277,8.4247 -26.49891,7.8408 3.13462,-16.97 -27.20221,2.9433 -30.52207,2.36 -3.31963,-0.5836 -9.33802,-18.1408 -12.65779,-18.7242 -3.31986,-0.5834 -18.56269,7.6208 -21.21885,7.0372 -2.65615,-0.5838 -1.36666,-15.2189 -4.68652,-15.8019 -3.31978,-0.5836 -17.88678,12.3032 -19.87927,11.7192 -1.99245,-0.5843 -9.36868,-29.8484 -12.69146,-31.6025 -3.32286,-1.7539 -24.47168,32.2101 -26.46121,32.7967 -1.98934,0.5866 -14.70352,-39.7963 -17.35977,-40.3802 -2.65613,-0.5837 -15.85625,27.5222 -17.84879,26.938 -1.99249,-0.5842 -14.64441,-16.9671 -17.30199,-18.1361 -2.65768,-1.169 -19.81557,36.3046 -22.47012,36.3064 -2.65471,0 -25.25987,-15.7898 -27.2585,-18.7153 -1.99857,-2.9257 -3.94235,15.2219 -6.59699,15.2235 -2.65464,0 -33.21001,-10.5167 -33.87226,-9.931 -0.66207,0.5859 4.67604,11.7047 2.6851,11.706 -1.99095,0 -33.22067,-14.6146 -34.54053,-11.6868 -1.31957,2.9277 -67.73063,-14.5933 -72.37014,-12.2492 -4.63952,2.3444 29.98899,47.9823 26.67995,51.4964 -3.30918,3.5142 -15.26579,-0.5761 -15.92484,1.1804 -0.65904,1.7566 7.32454,9.3614 5.33981,11.7042 -1.98504,2.3425 -24.525,11.7222 -26.50828,14.6499 -1.98343,2.9283 9.9821,10.5309 7.33213,12.2887 -2.65018,1.7576 -41.77705,12.9032 -42.43305,15.8306 -0.65601,2.9271 19.95365,16.9633 17.30973,21.0625 -2.64399,4.0993 -9.93966,5.8597 -9.26838,8.7861 0.67126,2.9267 13.28986,6.4313 12.63377,9.3584 -0.65616,2.9275 -7.25466,17.5655 -9.23954,19.9082 -1.98489,2.3426 13.93979,1.1623 13.94586,3.5036 0.006,2.3416 10.53701,16.9452 -25.37637,52.2426 55.17352,-27.2758 59.3564,-0.7504 81.26904,3.9193 21.91288,4.6698 13.36116,33.9433 16.68394,35.6975 3.32288,1.7542 27.84779,-9.9681 31.17673,-5.8726 3.32887,4.0958 4.67586,11.7046 7.33059,11.7031 2.65449,0 24.67593,-11.9491 27.9956,-11.3658 27.46873,-8.3023 37.94693,18.1274 32.42577,22.4514 4.64702,0.5824 22.53837,-9.965 26.51883,-10.5527 3.9804,-0.5877 7.33658,14.0444 10.65185,12.8718 3.31528,-1.1726 24.52485,-11.7224 27.84602,-10.5535 3.32137,1.1688 5.98814,5.8502 8.63983,4.6776 2.65141,-1.1721 14.58516,-5.8623 14.58516,-5.8623 0,0 8.63659,3.5069 12.61852,3.5046 3.98191,0 18.95431,-14.8425 22.26957,-16.0154 3.31525,-1.1726 34.00205,5.1536 48.26987,41.2425 -8.07553,-42.5416 23.64478,-46.357 28.28582,-48.1159 4.64098,-1.7589 18.59151,3.501 19.91407,1.7439 1.32282,-1.757 5.28043,-11.1249 9.26094,-11.7129 3.98041,-0.5877 13.26544,-2.9346 13.26544,-2.9346 l -1.33634,-3.5115 c 0,0 27.8977,9.349 31.22514,12.8592 3.32734,3.5103 -2.03049,-15.2182 -4.03361,-19.9 11.95781,4.676 47.15741,14.6059 49.81954,17.5311 2.66224,2.9252 -4.67274,-10.534 -8.66538,-14.6291 5.31376,1.7531 9.96088,2.3358 9.96088,2.3358 l -15.3005,-14.0398 4.64262,-1.1736 c 0,0 -9.9715,-6.4332 -9.97912,-9.3601 -0.007,-2.9266 25.86571,-6.4545 25.86571,-6.4545 0,0 -10.63218,-5.2619 -7.98517,-8.1902 2.64722,-2.9287 9.27911,-4.6887 9.27911,-4.6887 l 1.30754,-7.6104 z"
       id="path5888"
       inkscape:connector-curvature="0"
       sodipodi:nodetypes="ccccccccccsccccsccccccsccsccscsccccscccscccccscccccsccccscccccccccccc" />
    <flowRoot
       xml:space="preserve"
       id="flowRoot2987-4-9-3-0"
       style="font-style:normal;font-variant:normal;font-weight:normal;font-stretch:normal;line-height:0.01%;font-family:Lavi;-inkscape-font-specification:Lavi;text-align:center;letter-spacing:0px;word-spacing:0px;text-anchor:middle;fill:#000000;fill-opacity:1;stroke:none"
       transform="translate(136.51463,2556.0856)"><flowRegion
         id="flowRegion2989-5-4-5-1"><rect
           id="rect2991-7-9-6-4"
           width="602.40173"
           height="310.73996"
           x="120.55251"
           y="265.53046"
           style="font-style:normal;font-variant:normal;font-weight:normal;font-stretch:normal;font-family:Lavi;-inkscape-font-specification:Lavi;text-align:center;text-anchor:middle" /></flowRegion><flowPara
         style="font-size:48px;line-height:1.25;text-align:center;letter-spacing:1.5px;text-anchor:middle;stroke:#000000;stroke-width:1.10000002;stroke-miterlimit:4;stroke-dasharray:none;stroke-opacity:1"
         id="flowPara3560">Vil du smaka eit </flowPara><flowPara
         style="font-size:48px;line-height:1.25;text-align:center;letter-spacing:1.5px;text-anchor:middle;stroke:#000000;stroke-width:1.10000002;stroke-miterlimit:4;stroke-dasharray:none;stroke-opacity:1"
         id="flowPara3288">siste brygg?</flowPara></flowRoot>    <path
       style="fill:#ffffff;fill-opacity:1;stroke:none;stroke-width:0.87998927"
       d="m 1797.6547,3230.5768 c 55.1549,9.2637 36.6005,-26.8468 33.0871,-31.3229 13.4329,7.5114 36.3204,-0.7531 12.5129,-26.898 33.8263,10.4945 17.2683,5.5458 -2.4136,-22.5972 29.795,14.3105 48.5837,5.2586 27.4197,-14.5811 30.4003,25.5105 41.1133,17.3663 21.7243,-14.3114 38.2301,32.8114 31.0763,20.4541 21.7598,4.2511 31.8374,29.5737 8.1772,-14.436 10.6116,-14.6743 2.4343,-0.2385 12.7353,7.7457 14.6926,7.4574 1.9571,-0.2883 2.2089,-12.5942 4.6433,-12.8325 2.4344,-0.2385 11.872,11.6016 13.352,11.2634 5.7418,4.1554 11.7879,-21.4113 11.6732,-25.4156 -2.4474,3.4727 11.5712,31.9332 16.3872,29.3396 1.3833,0.6379 17.6847,-32.7702 15.7378,-32.3895 -3.6314,0.7097 7.3588,24.4725 10.6654,23.808 2.6293,4.4022 13.4878,-6.5043 13.904,-13.8366 -1.0227,2.0747 8.0022,34.8982 13.2342,31.9693 2.3614,6.1564 19.8319,-6.0925 21.1107,-13.5753 1.6731,-2.2913 1.6089,12.9939 3.5177,13.1937 -3.3683,7.5324 21.1856,-1.3642 25.1593,-5.7521 0.429,0.5382 -2.3686,8.0051 -2.874,9.565 -2.7238,8.4067 19.7243,0.9106 25.7813,-7.167 -23.3593,40.3095 44.8265,0.8253 53.0319,-4.8076 3.1476,2.3029 -25.4325,37.7873 -23.336,40.9665 2.0967,3.1794 11.025,0.6609 11.3572,2.1763 0.3325,1.5147 -6.0217,7.2623 -4.7832,9.3651 1.2389,2.1027 16.6927,11.6133 17.8831,14.2042 1.1905,2.5912 -8.0272,8.039 -6.263,9.7036 1.7643,1.6647 29.0042,13.8886 29.24,16.3796 0.2361,2.4911 -15.7162,12.6601 -14.145,16.2776 1.5712,3.6175 6.6759,5.6317 5.9575,8.023 -0.7186,2.3912 -10.0756,4.3714 -9.8397,6.8626 0.2361,2.4912 3.8019,15.1967 5.0406,17.2993 1.2386,2.1029 -10.1184,-0.073 -10.3113,1.8804 -0.1974,1.9525 -30.5377,8.9442 16.4761,45.6571 -51.063,-23.4457 -45.0616,-5.2401 -61.1963,-2.9829 -16.135,2.2573 -12.3436,27.3186 -14.8746,28.5336 -2.5308,1.2148 -19.2234,-10.3983 -21.9474,-7.2305 -2.7241,3.1678 -4.3058,9.4151 -6.2149,9.2152 -1.9087,-0.1985 -16.7828,-11.8138 -19.217,-11.5755 -19.0854,-8.98 -28.7501,12.2855 -25.1279,16.3057 -3.3889,0.1386 -15.4058,-9.9987 -18.2209,-10.7866 -2.8151,-0.788 -6.4078,11.1681 -8.6974,9.9419 -2.2897,-1.2261 -16.6925,-11.6133 -19.175,-10.8865 -2.483,0.7267 -4.7779,4.4329 -6.5903,3.2562 -1.8124,-1.176 -10.0166,-5.9812 -10.0166,-5.9812 0,0 -6.4936,2.28 -9.357,1.9802 -2.8636,-0.2977 -20.8375,-18.4597 -23.1271,-19.686 -2.2897,-1.2263 -42.3754,24.318 -41.2331,27.3974 1.1421,3.0795 -1.6699,-32.382 -4.8657,-34.1965 -3.1959,-1.8144 -13.6522,1.5306 -14.4617,-0.034 -0.8099,-1.5646 -2.9012,-9.6759 -5.7164,-10.464 -2.8152,-0.788 -9.3034,-3.4402 -9.3034,-3.4402 l 1.244,-2.8298 c 0,0 -20.8159,5.7137 -23.4916,8.3933 -2.6758,2.6795 2.6864,-12.5442 4.5042,-16.3004 -8.9761,3.0069 -35.0902,8.659 -37.2402,10.9004 -2.1503,2.2412 4.209,-8.4387 7.4103,-11.5566 -3.9626,1.0652 -7.3515,1.2037 -7.3515,1.2037 l 12.1345,-10.5686 -3.2443,-1.3261 c 0,0 7.6895,-4.6215 7.9307,-7.0627 0.2443,-2.4407 -18.0813,-7.3189 -18.0813,-7.3189 55.9942,1.3539 15.3852,-16.6427 -6.4668,-22.3822 z"
       id="path5888-2"
       inkscape:connector-curvature="0"
       sodipodi:nodetypes="ccccccccsccccsccccccsccsccscsccccscccscccccscccccsccccsccccccccc" />
    <path
       style="color:#000000;display:inline;overflow:visible;visibility:visible;fill:#ffffff;fill-opacity:1;fill-rule:nonzero;stroke:none;stroke-width:1px;marker:none;enable-background:accumulate"
       d="m 1949.2127,3186.2754 c -39.3897,38.4564 -118.4251,55.0326 -170.6211,-13.769 -46.1636,-0.3962 -81.2149,-5.1531 -119.4658,-62.8545 37.6962,38.0583 63.3903,55.3293 131.4185,51.4723 32.2972,32.3957 87.7359,29.3893 125.5394,-24.8478 37.8036,-54.2372 22.7273,-42.2473 22.7273,-42.2473 l 22.0999,76.6516 z"
       id="path5074-3"
       inkscape:connector-curvature="0"
       sodipodi:nodetypes="ccccsccc" />
    <flowRoot
       xml:space="preserve"
       id="flowRoot2987-4-9-3-0-3"
       style="font-style:normal;font-variant:normal;font-weight:normal;font-stretch:normal;line-height:0.01%;font-family:Lavi;-inkscape-font-specification:Lavi;text-align:center;letter-spacing:0px;word-spacing:0px;text-anchor:middle;fill:#000000;fill-opacity:1;stroke:none"
       transform="translate(1587.1228,2911.2096)"><flowRegion
         id="flowRegion2989-5-4-5-1-6"><rect
           id="rect2991-7-9-6-4-7"
           width="602.40173"
           height="310.73996"
           x="120.55251"
           y="265.53046"
           style="font-style:normal;font-variant:normal;font-weight:normal;font-stretch:normal;font-family:Lavi;-inkscape-font-specification:Lavi;text-align:center;text-anchor:middle" /></flowRegion><flowPara
         style="font-size:48px;line-height:1.25;text-align:center;letter-spacing:1.5px;text-anchor:middle;stroke:#000000;stroke-width:1.10000002;stroke-miterlimit:4;stroke-dasharray:none;stroke-opacity:1"
         id="flowPara3296">Ikkje det,</flowPara><flowPara
         style="font-size:48px;line-height:1.25;text-align:center;letter-spacing:1.5px;text-anchor:middle;stroke:#000000;stroke-width:1.10000002;stroke-miterlimit:4;stroke-dasharray:none;stroke-opacity:1"
         id="flowPara454">nei?</flowPara></flowRoot>    <path
       style="color:#000000;display:inline;overflow:visible;visibility:visible;fill:#ffffff;fill-opacity:1;fill-rule:nonzero;stroke:none;stroke-width:1px;marker:none;enable-background:accumulate"
       d="m 432.9877,1582.757 c -4.62527,14.1556 -29.80658,59.4538 -38.06244,16.2093 -42.3877,66.8706 -90.94164,55.4388 -139.14497,48.4577 -9.52731,19.5362 -7.09875,46.1647 -46.96241,47.7053 7.95498,15.9183 -3.45476,30.2003 -32.14335,43.0229 40.98017,2.4517 49.77676,11.6093 -21.84737,37.5242 55.93525,-9.943 108.31222,-17.9855 48.57741,33.848 20.66662,-3.1249 64.61473,-45.2102 55.82445,54.2176 30.8443,-37.3814 66.03449,-61.6079 122.59982,-7.3014 10.83096,-28.0111 30.03942,-49.2804 76.82521,-23.2543 5.27288,-26.7184 55.3579,-38.7619 74.64488,-37.3629 -41.4714,-20.5081 -42.72921,-38.0996 7.62637,-50.843 -92.48457,-33.4472 -21.82215,-39.6374 -9.97409,-55.1095 -69.36813,-4.1008 -42.62685,-31.5667 -33.87821,-55.3999 -76.91874,14.4742 -56.82784,-24.9365 -64.0853,-51.714 z"
       id="path3549-3"
       inkscape:connector-curvature="0"
       sodipodi:nodetypes="ccccccccccccccc" />
    <flowRoot
       transform="matrix(1.8217115,0,-0.17700578,1.8738433,-535.05413,1190.8474)"
       style="font-style:normal;font-variant:normal;font-weight:normal;font-stretch:normal;line-height:0.01%;font-family:Lavi;-inkscape-font-specification:Lavi;text-align:center;letter-spacing:0px;word-spacing:0px;text-anchor:middle;fill:#000000;fill-opacity:1;stroke:#000000;stroke-width:2.71217394;stroke-miterlimit:4;stroke-dasharray:none;stroke-opacity:1"
       id="flowRoot4212-3-7-8-6-5"
       xml:space="preserve"><flowRegion
         id="flowRegion4214-6-7-8-3-6"><rect
           style="font-style:normal;font-variant:normal;font-weight:normal;font-stretch:normal;font-family:Lavi;-inkscape-font-specification:Lavi;text-align:center;text-anchor:middle;stroke:#000000;stroke-width:2.71217394;stroke-miterlimit:4;stroke-dasharray:none;stroke-opacity:1"
           y="265.53046"
           x="120.55251"
           height="355.03918"
           width="798.1947"
           id="rect4216-4-0-26-5-2" /></flowRegion><flowPara
         style="font-size:48px;line-height:1.25;text-align:center;letter-spacing:1.45219982px;text-anchor:middle;stroke:#000000;stroke-width:2.71217394;stroke-miterlimit:4;stroke-dasharray:none;stroke-opacity:1"
         id="flowPara4358-7-1-6">HEI!</flowPara></flowRoot>    <flowRoot
       xml:space="preserve"
       id="flowRoot4133-6-9-4-8-5-3"
       style="color:#000000;font-style:normal;font-variant:normal;font-weight:normal;font-stretch:normal;line-height:0.01%;font-family:Arial;-inkscape-font-specification:Arial;letter-spacing:0.00204969px;word-spacing:0px;display:inline;overflow:visible;visibility:visible;fill:#ffffff;fill-opacity:1;fill-rule:nonzero;stroke:#ffffff;stroke-width:0.0836072;stroke-linecap:butt;stroke-linejoin:miter;stroke-miterlimit:4;stroke-dasharray:none;stroke-dashoffset:0;stroke-opacity:1;marker:none;filter:url(#filter4375-4-1-1-15-1-3-3);enable-background:accumulate"
       transform="matrix(8.3099216,-5.4900388,-0.26452567,16.18078,-7093.1327,-9087.3999)"><flowRegion
         id="flowRegion4135-2-9-3-5-2-6"
         style="stroke-width:0.86646658"><rect
           id="rect4137-1-7-1-2-1-4"
           width="200.00224"
           height="39.051064"
           x="1125.3193"
           y="1078.5308"
           style="color:#000000;letter-spacing:0.00204969px;display:inline;overflow:visible;visibility:visible;fill:#ffffff;fill-opacity:1;fill-rule:nonzero;stroke:#ffffff;stroke-width:0.0836072;stroke-linecap:butt;stroke-linejoin:miter;stroke-miterlimit:4;stroke-dasharray:none;stroke-dashoffset:0;stroke-opacity:1;marker:none;filter:url(#filter4375-4-1-1-15-1-3-3);enable-background:accumulate" /></flowRegion><flowPara
         id="flowPara4139-2-8-6-8-6-3"
         style="color:#000000;font-style:normal;font-variant:normal;font-weight:normal;font-stretch:normal;font-size:17.85409164px;line-height:125%;font-family:Lavi;-inkscape-font-specification:Lavi;letter-spacing:0.00204969px;word-spacing:0.00204969px;display:inline;overflow:visible;visibility:visible;fill:#ffffff;fill-opacity:1;fill-rule:nonzero;stroke:#ffffff;stroke-width:0.0836072;stroke-linecap:butt;stroke-linejoin:miter;stroke-miterlimit:4;stroke-dasharray:none;stroke-dashoffset:0;stroke-opacity:1;marker:none;filter:url(#filter4375-4-1-1-15-1-3-3);enable-background:accumulate"><flowSpan
           id="flowSpan3548"
           style="font-size:17.77516937px">K</flowSpan><flowSpan
           id="flowSpan3552"
           style="font-size:13.00622177px">N</flowSpan><flowSpan
           id="flowSpan3122"
           style="font-size:8.7063818px">U</flowSpan><flowSpan
           id="flowSpan3556"
           style="font-size:8.23727322px">S</flowSpan><flowSpan
           id="flowSpan3126"
           style="font-size:7.83930063px">!</flowSpan></flowPara></flowRoot>    <flowRoot
       xml:space="preserve"
       id="flowRoot2987-4-9-3-8"
       style="font-style:normal;font-variant:normal;font-weight:normal;font-stretch:normal;line-height:0.01%;font-family:Lavi;-inkscape-font-specification:Lavi;text-align:center;letter-spacing:0px;word-spacing:0px;text-anchor:middle;fill:#000000;fill-opacity:1;stroke:none"
       transform="translate(1344.4356,505.81224)"><flowRegion
         id="flowRegion2989-5-4-5-8"><rect
           id="rect2991-7-9-6-5"
           width="597.69885"
           height="300.55035"
           x="120.55251"
           y="265.53046"
           style="font-style:normal;font-variant:normal;font-weight:normal;font-stretch:normal;line-height:137.99999952%;font-family:Lavi;-inkscape-font-specification:Lavi;text-align:center;text-anchor:middle" /></flowRegion><flowPara
         style="font-size:48px;line-height:137.99999952%;text-align:center;text-anchor:middle"
         id="flowPara3140">Iallfall veit eg</flowPara><flowPara
         style="font-size:48px;line-height:137.99999952%;text-align:center;text-anchor:middle"
         id="flowPara3515">kva me kan gjera</flowPara><flowPara
         style="font-size:48px;line-height:137.99999952%;text-align:center;text-anchor:middle"
         id="flowPara3246">med «brygget» </flowPara><flowPara
         style="font-size:48px;line-height:137.99999952%;text-align:center;text-anchor:middle"
         id="flowPara3505">ditt, Gulrot ...</flowPara></flowRoot>  </g>
</svg>
