<?xml version="1.0" encoding="UTF-8" standalone="no"?>
<!-- Created with Inkscape (http://www.inkscape.org/) -->

<svg
   xmlns:dc="http://purl.org/dc/elements/1.1/"
   xmlns:cc="http://creativecommons.org/ns#"
   xmlns:rdf="http://www.w3.org/1999/02/22-rdf-syntax-ns#"
   xmlns:svg="http://www.w3.org/2000/svg"
   xmlns="http://www.w3.org/2000/svg"
   xmlns:xlink="http://www.w3.org/1999/xlink"
   xmlns:sodipodi="http://sodipodi.sourceforge.net/DTD/sodipodi-0.dtd"
   xmlns:inkscape="http://www.inkscape.org/namespaces/inkscape"
   id="svg2"
   version="1.1"
   inkscape:version="0.92.5 (2060ec1f9f, 2020-04-08)"
   width="2481"
   height="3503"
   sodipodi:docname="E24P01.svg">
  <metadata
     id="metadata8">
    <rdf:RDF>
      <cc:Work
         rdf:about="">
        <dc:format>image/svg+xml</dc:format>
        <dc:type
           rdf:resource="http://purl.org/dc/dcmitype/StillImage" />
        <dc:title />
      </cc:Work>
    </rdf:RDF>
  </metadata>
  <defs
     id="defs6">
    <filter
       style="color-interpolation-filters:sRGB"
       id="filter4375-4-1-1-1-9"
       inkscape:label="deevad outline effect">
      <feFlood
         id="feFlood4377-7-9-0-8-1"
         flood-opacity="1"
         flood-color="rgb(0,0,0)"
         result="flood" />
      <feComposite
         id="feComposite4379-3-8-8-2-77"
         in2="SourceGraphic"
         in="flood"
         operator="in"
         result="composite1" />
      <feMorphology
         id="feMorphology4393-1-0-49-8-9"
         operator="dilate"
         radius="4"
         result="result3" />
      <feComposite
         id="feComposite4385-9-5-7-0-8"
         in2="result3"
         in="SourceGraphic"
         operator="over"
         result="composite2" />
    </filter>
  </defs>
  <sodipodi:namedview
     pagecolor="#ffffff"
     bordercolor="#666666"
     borderopacity="1"
     objecttolerance="10"
     gridtolerance="10"
     guidetolerance="10"
     inkscape:pageopacity="0"
     inkscape:pageshadow="2"
     inkscape:window-width="1866"
     inkscape:window-height="1016"
     id="namedview4"
     showgrid="false"
     inkscape:zoom="0.34782609"
     inkscape:cx="745.8734"
     inkscape:cy="972.8407"
     inkscape:window-x="54"
     inkscape:window-y="27"
     inkscape:window-maximized="1"
     inkscape:current-layer="layer1"
     inkscape:snap-global="false" />
  <g
     inkscape:groupmode="layer"
     id="layer2"
     inkscape:label="artwork"
     sodipodi:insensitive="true">
    <image
       sodipodi:absref="/home/user/lojban/webcomics/ep24_The-Unity-Tree/lang/jb/../gfx_Pepper-and-Carrot_by-David-Revoy_E24P01.png"
       xlink:href="../gfx_Pepper-and-Carrot_by-David-Revoy_E24P01.png"
       y="0"
       x="0"
       id="image10"
       height="3503"
       width="2481" />
  </g>
  <g
     inkscape:groupmode="layer"
     id="layer3"
     inkscape:label="speechbubbles">
    <path
       style="fill:#ffffff;fill-rule:evenodd;stroke:none;stroke-width:1.31957293px;stroke-linecap:butt;stroke-linejoin:miter;stroke-opacity:1"
       d="m 380.09683,444.82799 c 53.70394,10.3778 102.24853,16.82994 85.74434,-26.21365 95.05943,58.4381 81.42318,18.41593 96.46239,4.3689 56.51628,41.28048 105.14397,35.39772 147.37308,-8.73782 23.87274,63.66343 73.82873,32.81806 117.89839,23.30101 -0.10865,17.90316 -12.14024,38.4323 117.89855,27.67002 -37.18146,16.16964 -51.05032,30.84858 32.15413,39.32057 -57.79758,13.00092 -89.539,26.83488 -26.79519,43.68959 -33.33216,24.55329 -11.03831,39.14523 34.8337,49.51474 -107.40546,1.43599 -121.35319,3.82078 -104.12188,16.5467 -91.4442,-26.16442 -64.42474,-4.56586 -56.64875,15.49224 -42.56197,-11.5063 -74.02081,-38.70257 -150.05251,-2.91255 -22.61273,-11.87815 -43.4567,-26.88035 -93.78293,10.19418 -3.55015,-32.33917 -40.34487,-31.12261 -93.7829,-13.10682 -14.0946,-30.32815 -67.02017,-14.92955 -123.25752,4.369 45.90251,-29.60091 49.22882,-54.33009 -40.19265,-68.44696 86.65688,-16.93386 70.87742,-30.59285 37.51315,-43.68949 32.96283,-12.31548 54.45498,-25.73102 -32.15411,-49.51483 50.63821,3.69751 104.5561,8.46458 50.91071,-21.84483 z"
       id="path4582"
       inkscape:connector-curvature="0"
       sodipodi:nodetypes="ccccccccccccccccccc" />
    <path
       style="color:#000000;display:inline;overflow:visible;visibility:visible;fill:#ffffff;fill-opacity:1;fill-rule:nonzero;stroke:none;stroke-width:0.99999994px;marker:none;enable-background:accumulate"
       d="m 1120.4405,700.1743 c -32.2265,-17.97546 -75.6905,-29.21797 -94.8601,-55.01638 l -18.7309,38.20697 c -21.19647,-1.31166 -26.2338,-14.07539 -36.75813,-22.95055 l -18.52445,25.72405 C 902.21848,682.47077 878.08971,666.613 844.32571,653.77368 l -19.93547,22.60875 c 41.44339,8.00317 86.22663,23.6167 121.36515,31.70826 l 22.07602,-17.34663 c 14.0695,3.48337 27.30829,7.5971 36.83679,14.52656 l 23.5694,-31.97386 z"
       id="path4032"
       inkscape:connector-curvature="0"
       sodipodi:nodetypes="cccccccccccc" />
    <path
       style="color:#000000;display:inline;overflow:visible;visibility:visible;fill:#ffffff;fill-opacity:1;fill-rule:nonzero;stroke:none;stroke-width:1.28445804px;marker:none;enable-background:accumulate"
       d="m 1282.1509,1868.2437 c 11.0293,-9.6035 58.695,-37.7572 51.684,-2.86 76.5811,-40.2666 129.9991,-19.5262 184.7334,-2.2535 18.9686,-12.4731 26.4507,-33.3022 74.5654,-24.5731 -3.2787,-14.0664 15.8862,-22.0812 55.0773,-24.6967 -47.8897,-12.0387 -54.806,-21.179 40.6631,-23.0767 -70.5452,-6.3379 -136.1086,-13.2357 -44.711,-37.773 -25.8507,-2.7585 -94.6332,18.2946 -45.4108,-55.0444 -51.3311,20.7342 -102.7156,30.3971 -148.9749,-24.8989 -23.8253,18.5866 -55.0084,29.9721 -100.6317,-1.4146 -16.6966,18.985 -81.0872,15.6954 -103.5307,9.8432 41.4392,25.8757 36.0834,39.5499 -28.9025,36.7247 97.2011,48.3718 10.5646,35.5263 -9.5866,44.3362 81.0833,20.3406 38.5069,34.5624 18.7923,50.4926 97.3215,8.1069 58.017,33.0527 56.2327,55.1942 z"
       id="path3549-3"
       inkscape:connector-curvature="0"
       sodipodi:nodetypes="ccccccccccccccc" />
    <path
       style="color:#000000;display:inline;overflow:visible;visibility:visible;fill:#ffffff;fill-opacity:1;fill-rule:nonzero;stroke:none;stroke-width:1.07305753px;marker:none;enable-background:accumulate"
       d="m 1263.8153,1948.0036 c 5.8922,-75.8195 97.9207,-136.0769 303.8117,-119.3503 110.2866,8.9596 249.6968,11.5576 242.344,122.6433 -7.3525,111.0853 -201.4864,109.9946 -238.6075,112.1526 -37.1215,2.1584 -239.5231,-2.3501 -273.6274,-40.5729 -21.3494,-23.9266 -34.3556,-51.3744 -33.9208,-74.8727 z"
       id="path4546-6"
       inkscape:connector-curvature="0"
       sodipodi:nodetypes="cssssc" />
    <path
       style="color:#000000;display:inline;overflow:visible;visibility:visible;fill:#ffffff;fill-opacity:1;fill-rule:nonzero;stroke:none;stroke-width:1px;marker:none;enable-background:accumulate"
       d="m 1725.1844,1861.3342 c 6.612,11.2759 86.9477,-29.2003 85.8796,-32.4046 0,0 27.5174,7.7754 31.5141,6.9248 1.9994,-6.4636 4.2729,-17.2204 4.2729,-17.2204 l 43.1705,1.271 -34.6999,8.0734 0.1804,21.2585 -36.6531,-7.0896 c -19.044,13.242 -51.208,25.1719 -50.7716,40.3619 z"
       id="path4448"
       inkscape:connector-curvature="0"
       sodipodi:nodetypes="cccccccccc" />
    <path
       style="color:#000000;display:inline;overflow:visible;visibility:visible;fill:#ffffff;fill-opacity:1;fill-rule:nonzero;stroke:none;stroke-width:0.99999994px;marker:none;enable-background:accumulate"
       d="m 27.722148,3129.3252 c 52.384913,9.5518 47.973777,44.4522 33.713736,56.5004 58.617166,-43.0392 95.886066,-29.5332 66.043356,13.7398 101.94047,-59.3986 84.29295,-9.6025 76.81515,17.058 48.55606,-56.6224 81.74616,-36.2518 101.62566,-1.3511 0.48689,-36.2154 62.22952,-38.2335 81.94425,-13.0714 25.57884,-62.4997 52.13877,-43.2211 101.01126,-27.7551 -37.11865,-23.4952 -65.19483,-44.112 34.51549,-74.1768 -53.44149,8.7063 -75.06607,-13.2354 16.80638,-37.5362 -91.08906,-1.1681 -97.49384,-35.1465 -0.76696,-51.053 -93.95011,0.1161 -91.73798,-22.7804 -48.86151,-52.0878 -65.94726,8.1812 -82.37224,-18.7952 -20.79269,-61.9865 -103.20171,38.8577 -108.30047,14.8638 -101.41122,-35.1869 -58.22536,54.8036 -53.42082,29.2696 -65.07513,-22.6566 -12.28009,38.1747 -43.87005,66.7007 -109.11159,22.1355 10.05196,24.8099 10.56966,51.9294 -78.55198,23.6201 47.69221,29.8318 16.58788,69.0032 -122.357939,68.3374 64.829499,19.7124 142.306329,61.445 53.383347,67.5984 35.558225,6.4836 44.875886,24.6287 42.76073,39.3984 -16.015675,4.7498 -37.290447,9.3478 -64.761199,13.8126 51.797329,13.4153 84.665751,30.6605 3.070859,54.6608 z"
       id="path3549-3-7"
       inkscape:connector-curvature="0"
       sodipodi:nodetypes="ccccccccccccccccccccc" />
    <path
       style="fill:#ffffff;stroke:none;stroke-width:1"
       d="m 1312.0471,2636.6402 c 24.8572,-23.3618 23.0898,-34.098 20.1693,-46.0928 -2.9204,-11.9949 -6.7783,-22.4564 -2.996,-29.6912 3.7822,-7.2345 11.9314,-13.7504 18.5182,-17.7105 6.5867,-3.9602 0.6895,-11.8462 0.1992,-20.4782 -0.4905,-8.632 11.6694,-54.4912 11.6694,-54.4912 0,0 15.4128,29.8223 17.3984,40.7257 1.9857,10.9032 2.7616,14.8752 2.4762,19.5352 -0.2855,4.6599 -2.4809,16.1126 -8.3834,22.0982 -5.9026,5.9855 -13.8607,8.5198 -19.1677,11.9592 -5.307,3.4394 -4.2207,13.2301 -3.7625,22.963 0.4583,9.7331 -0.6146,16.9839 -10.2491,30.0137 -8.2583,11.169 -25.872,21.1689 -25.872,21.1689 z"
       id="path3023-2"
       inkscape:connector-curvature="0"
       sodipodi:nodetypes="csssscssssssc" />
    <path
       style="color:#000000;display:inline;overflow:visible;visibility:visible;fill:#ffffff;fill-opacity:1;fill-rule:nonzero;stroke:none;stroke-width:0.99999994px;marker:none;enable-background:accumulate"
       d="m 1316.0029,3034.7179 c 5.2109,-36.069 14.5234,-83.1655 -40.179,-91.5576 2.7742,1.4246 74.681,-16.1526 71.113,92.3401 -3.568,108.4926 -13.868,120.9339 -13.868,120.9339 z"
       id="path4064"
       inkscape:connector-curvature="0"
       sodipodi:nodetypes="ccscc" />
    <path
       style="color:#000000;display:inline;overflow:visible;visibility:visible;fill:#ffffff;fill-opacity:1;fill-rule:nonzero;stroke:none;stroke-width:1px;marker:none;enable-background:accumulate"
       d="m 1077.2562,3295.7847 c -1.1856,-61.9807 37.6091,-99.5237 45.0474,-104.6787 67.1345,-46.525 276.2566,-29.3302 312.9622,2.7546 30.822,26.1698 37.9349,44.0753 34.3784,67.4904 -3.5564,23.4149 -22.5239,85.3957 -66.386,103.3013 -43.8619,17.9055 -145.8117,26.1697 -199.1577,12.3961 -53.3458,-13.7735 -131.5863,-27.5469 -126.8443,-81.2637 z"
       id="path3517"
       inkscape:connector-curvature="0"
       sodipodi:nodetypes="cscsccc" />
    <path
       style="color:#000000;display:inline;overflow:visible;visibility:visible;fill:#ffffff;fill-opacity:1;fill-rule:nonzero;stroke:none;stroke-width:1px;marker:none;enable-background:accumulate"
       d="m 1146.2027,3115.7233 c -1.1746,-31.62 21.3289,-64.5566 33.0747,-74.6749 11.7461,-10.1185 83.0232,-20.0204 110.0387,-20.0204 27.0155,0 141.3233,5.6137 161.2914,28.3802 19.9679,22.7664 43.087,39.919 30.1666,77.863 -12.9206,37.9439 -93.9671,56.916 -111.586,60.7103 -17.6188,3.7944 -68.1262,6.324 -84.5704,5.0593 -16.4443,-1.2649 -141.9387,-25.4606 -138.415,-77.3175 z"
       id="path3357"
       inkscape:connector-curvature="0"
       inkscape:transform-center-x="-251.35553"
       inkscape:transform-center-y="-147.27939"
       sodipodi:nodetypes="ccsscccc" />
    <path
       style="fill:#ffffff;fill-rule:evenodd;stroke:none;stroke-width:0.99999988px;stroke-linecap:butt;stroke-linejoin:miter;stroke-opacity:1"
       d="m 1146.2648,2478.7083 c 8.9148,-23.8569 32.9214,-41.9579 59.049,-54.0414 12.4339,-5.8338 26.6461,-10.1089 41.1894,-8.9844 14.448,0.6719 28.5601,4.6835 43.1678,3.2901 17.7627,-0.4602 35.8372,-2.4681 53.3959,0.401 15.609,3.1306 31.6907,4.752 47.7982,4.846 11.3633,-1.9871 21.7614,3.3092 31.9096,6.4769 9.1104,3.4218 18.4159,7.0119 26.0681,12.3048 7.05,7.4302 15.4914,13.8943 22.6237,21.2583 4.6669,4.0258 4.2185,9.5866 4.0035,14.7331 -0.6061,10.5387 -1.6325,21.2437 -5.4423,31.3969 -2.2798,6.4459 -10.7065,8.5792 -17.1814,11.5412 -15.3207,6.2528 -31.5892,10.9944 -46.2109,18.3527 -14.4858,3.7677 -29.8803,2.0054 -44.7362,1.436 -12.4483,-1.1215 -24.9706,-2.6855 -37.5258,-1.3813 -15.9798,0.9544 -31.9111,3.4258 -47.9482,3.1093 -20.0899,-2.1722 -39.3306,-7.5207 -58.7995,-11.8111 -17.4671,-3.7817 -33.387,-10.8926 -48.6624,-18.4995 -8.1596,-4.3197 -16.7975,-9.3407 -19.6772,-17.3014 -2.3606,-5.4816 -2.9168,-11.3511 -3.0213,-17.1272 z"
       id="path4365"
       inkscape:connector-curvature="0" />
    <path
       style="color:#000000;display:inline;overflow:visible;visibility:visible;fill:#ffffff;fill-opacity:1;fill-rule:nonzero;stroke:none;stroke-width:0.91212744px;marker:none;enable-background:accumulate"
       d="m 2429.703,2353.6077 c -220.1352,4.7123 -413.2002,-1.5491 -539.2741,-2.6112 1.0192,24.4032 -26.0808,18.5804 -51.7366,6.4215 20.4254,48.5822 -13.4471,52.3723 -64.7579,29.24 51.7894,48.4601 -0.1666,41.4633 -63.8949,10.5346 61.4504,48.2823 109.2539,93.3794 -11.3243,64.118 71.4494,31.9698 103.3644,47.3544 37.9144,63.5083 63.6894,18.7106 51.8703,42.0301 -11.7295,45.3636 114.0819,28.9803 33.6148,42.7104 -12.9668,52.2872 128.697,15.829 43.7671,36.5751 -25.9405,75.8283 80.6205,-12.0624 157.8233,-26.867 76.1624,25.2293 146.2793,-30.3579 102.5458,-5.7643 21.562,44.6408 46.251,-15.2072 167.4874,-39.6025 131.8189,0.1781 59.0357,-25.1483 34.4732,9.1422 30.1039,29.2889 7.7287,-6.6097 33.0062,-46.162 41.2679,-19.3755 15.0605,-19.3331 27.7659,-15.5712 26.1596,11.7835 12.9899,-15.8942 43.5943,-32.8032 32.5402,0.6307 19.2424,-33.4538 23.966,-6.1148 14.7559,20.6484 48.107,-52.0075 55.0606,-54.5731 59.4626,3.5735 20.0793,-32.7397 44.13,-66.1564 83.378,-10.2733 0.051,-18.5773 6.8899,-50.061 71.0099,7.0367 -25.8163,-58.7568 37.4288,-47.3494 64.2122,9.116 -32.6871,-71.9687 9.4928,-105.2235 62.5885,-29.9795 5.2205,-98.793 30.1008,-354.5069 28.6882,-437.1879 z"
       id="path4024"
       inkscape:connector-curvature="0"
       sodipodi:nodetypes="cccccccccccccccccccccccc" />
    <path
       style="fill:#ffffff;fill-rule:evenodd;stroke:none;stroke-width:0.99999994px;stroke-linecap:butt;stroke-linejoin:miter;stroke-opacity:1"
       d="m 2320.0189,2966.9466 -102.8737,31.1414 30.781,-65.8394 -54.3109,13.511 73.467,-174.0894 -83.4186,10.4305 -22.2012,199.1888 46.5569,-15.7553 -28.3923,68.2411 z"
       id="path5002"
       inkscape:connector-curvature="0"
       sodipodi:nodetypes="cccccccccc" />
    <text
       xml:space="preserve"
       style="font-style:normal;font-variant:normal;font-weight:normal;font-stretch:normal;line-height:0%;font-family:Lavi;-inkscape-font-specification:Lavi;letter-spacing:0px;word-spacing:0px;fill:#ffffff;fill-opacity:1;stroke:#000000;stroke-width:0.57625628;stroke-miterlimit:4;stroke-dasharray:none;stroke-opacity:1;filter:url(#filter4375-4-1-1-1-9)"
       x="787.65729"
       y="1584.5073"
       id="text4580"
       transform="matrix(0.47590856,-0.23101257,-0.08785973,0.61214035,2051.4196,1281.2253)"><tspan
         sodipodi:role="line"
         id="tspan4582"
         x="787.65729"
         y="1584.5073"
         style="font-size:70px;line-height:1.25;letter-spacing:5.62810278px;fill:#ffffff;stroke-width:0.57625628;stroke-miterlimit:4;stroke-dasharray:none"><tspan
           style="font-size:61.46733856px"
           id="tspan896">PAF</tspan><tspan
           style="font-size:80.40014648px;letter-spacing:5.62810278px;fill:#ffffff;stroke-width:0.57625628;stroke-miterlimit:4;stroke-dasharray:none"
           id="tspan4617">!</tspan></tspan></text>
    <path
       style="fill:#ffffff;fill-rule:evenodd;stroke:none;stroke-width:1.1360141px;stroke-linecap:butt;stroke-linejoin:miter;stroke-opacity:1"
       d="m 517.51938,688.13568 c 69.40375,-14.71022 59.7767,20.21656 53.33286,53.14407 48.78834,-43.59903 71.32383,-29.85149 79.99934,14.17175 43.39432,-62.22579 76.47272,-30.90893 110.76827,-10.62881 1.32069,-30.58118 21.63241,-46.25269 100.51197,-15.94322 -41.54372,-44.20554 -36.98677,-71.76224 51.28159,-69.08729 -79.83223,-15.97494 -78.76979,-42.11142 -28.71769,-74.4017 -58.55583,26.89223 -96.2129,30.92349 -84.10185,-19.48617 -58.85522,49.76939 -67.35161,18.77197 -77.94805,-8.85734 -24.47147,57.85359 -58.15371,40.93556 -94.35816,3.54293 0.97566,36.0549 -13.16624,57.18925 -77.94805,28.34351 11.09441,26.18958 43.55047,62.31265 -32.82023,47.82967 40.91621,15.40054 55.56766,31.90752 0,51.3726 z"
       id="path907"
       inkscape:connector-curvature="0"
       sodipodi:nodetypes="ccccccccccccc" />
  </g>
  <g
     inkscape:groupmode="layer"
     id="layer1"
     inkscape:label="txt"
     style="display:inline">
    <path
       style="color:#000000;display:inline;overflow:visible;visibility:visible;fill:#ffffff;fill-opacity:1;fill-rule:nonzero;stroke:none;stroke-width:1px;marker:none;enable-background:accumulate"
       d="m 643.30092,3062.9957 c -16.45129,42.7371 -57.34368,52.6864 -79.08413,59.0603 -3.49561,-4.6209 -10.29733,-21.207 -10.29733,-21.207 0,0 -73.99284,20.9972 -91.7304,22.9324 -17.73755,1.9353 -27.60488,-25.996 -27.60488,-25.996 -1.49889,4.9963 104.15858,-3.83 127.4154,-18.4787 8.90084,13.0355 10.12822,16.304 14.99068,21.2359 13.47897,-4.7946 53.36319,-19.1261 66.31066,-37.5469 z"
       id="path4456"
       inkscape:connector-curvature="0"
       sodipodi:nodetypes="cccscccc" />
    <text
       xml:space="preserve"
       style="font-style:normal;font-variant:normal;font-weight:normal;font-stretch:normal;line-height:0%;font-family:Lavi;-inkscape-font-specification:Lavi;text-align:center;letter-spacing:0px;word-spacing:0px;text-anchor:middle;fill:#000000;fill-opacity:1;stroke:none"
       x="650.86694"
       y="514.9978"
       id="text4246"><tspan
         sodipodi:role="line"
         style="font-size:45px;line-height:1.25"
         x="650.86694"
         y="514.9978"
         id="tspan74">.i do djica tu'a</tspan><tspan
         sodipodi:role="line"
         style="font-size:45px;line-height:1.25"
         x="650.86694"
         y="571.2478"
         id="tspan76">lo tricu be la nu kansa</tspan></text>
    <text
       xml:space="preserve"
       style="font-style:normal;font-variant:normal;font-weight:normal;font-stretch:normal;line-height:0%;font-family:Lavi;-inkscape-font-specification:Lavi;text-align:center;letter-spacing:0px;word-spacing:0px;text-anchor:middle;fill:#000000;fill-opacity:1;stroke:none"
       x="1519.9264"
       y="1893.9833"
       id="text4246-7"><tspan
         sodipodi:role="line"
         style="font-size:45px;line-height:1.25"
         x="1519.9264"
         y="1893.9833"
         id="tspan85">.i mi'o noi me</tspan><tspan
         sodipodi:role="line"
         style="font-size:45px;line-height:1.25"
         x="1519.9264"
         y="1950.2333"
         id="tspan91">le te makfa pe la kalsa</tspan><tspan
         sodipodi:role="line"
         style="font-size:45px;line-height:1.25"
         x="1519.9264"
         y="2006.4833"
         id="tspan87">ba'e na zukte lo simsa</tspan></text>
    <text
       xml:space="preserve"
       style="font-style:normal;font-variant:normal;font-weight:normal;font-stretch:normal;line-height:0%;font-family:Lavi;-inkscape-font-specification:Lavi;text-align:center;letter-spacing:0px;word-spacing:0px;text-anchor:middle;fill:#000000;fill-opacity:1;stroke:none"
       x="283.52304"
       y="2969"
       id="text4246-7-6"><tspan
         sodipodi:role="line"
         style="font-size:45px;line-height:1.25"
         x="283.52304"
         y="2969"
         id="tspan1069">.i .e'u do</tspan><tspan
         sodipodi:role="line"
         style="font-size:45px;line-height:1.25"
         x="283.52304"
         y="3025.25"
         id="tspan104">jundi tadni</tspan><tspan
         sodipodi:role="line"
         style="font-size:45px;line-height:1.25"
         x="283.52304"
         y="3081.5"
         id="tspan102">le valsi be</tspan><tspan
         sodipodi:role="line"
         style="font-size:45px;line-height:1.25"
         x="283.52304"
         y="3137.75"
         id="tspan106">la nu daspo</tspan></text>
    <text
       xml:space="preserve"
       style="font-style:normal;font-variant:normal;font-weight:normal;font-stretch:normal;line-height:0%;font-family:Lavi;-inkscape-font-specification:Lavi;text-align:center;letter-spacing:0px;word-spacing:0px;text-anchor:middle;fill:#000000;fill-opacity:1;stroke:none"
       x="1309.3973"
       y="2493.7979"
       id="text4246-7-6-2"><tspan
         sodipodi:role="line"
         style="font-size:45px;line-height:1.25"
         x="1309.3973"
         y="2493.7979"
         id="tspan1069-6">la xu nu daspo</tspan></text>
    <text
       xml:space="preserve"
       style="font-style:normal;font-variant:normal;font-weight:normal;font-stretch:normal;line-height:0%;font-family:Lavi;-inkscape-font-specification:Lavi;text-align:center;letter-spacing:0px;word-spacing:0px;text-anchor:middle;fill:#000000;fill-opacity:1;stroke:none"
       x="1313.0408"
       y="3082.3787"
       id="text4246-7-6-2-0"><tspan
         sodipodi:role="line"
         style="font-size:45px;line-height:1.25"
         x="1313.0408"
         y="3082.3787"
         id="tspan4434">ca</tspan><tspan
         sodipodi:role="line"
         style="font-size:45px;line-height:1.25"
         x="1313.0408"
         y="3138.6287"
         id="tspan110">le nau citsi</tspan></text>
    <text
       xml:space="preserve"
       style="font-style:normal;font-variant:normal;font-weight:normal;font-stretch:normal;line-height:0%;font-family:Lavi;-inkscape-font-specification:Lavi;text-align:center;letter-spacing:0px;word-spacing:0px;text-anchor:middle;fill:#000000;fill-opacity:1;stroke:none"
       x="1268.27"
       y="3233.5964"
       id="text4246-7-6-2-0-5"><tspan
         sodipodi:role="line"
         style="font-size:45px;line-height:1.25"
         x="1268.27"
         y="3233.5964"
         id="tspan4447">.i pei se ba'i ku</tspan><tspan
         sodipodi:role="line"
         style="font-size:45px;line-height:1.25"
         x="1268.27"
         y="3289.8464"
         id="tspan117">tadni lo valsi be</tspan><tspan
         sodipodi:role="line"
         style="font-size:45px;line-height:1.25"
         x="1268.27"
         y="3346.0964"
         id="tspan119">la nu zbasu</tspan></text>
    <text
       xml:space="preserve"
       style="font-style:normal;font-variant:normal;font-weight:normal;font-stretch:normal;line-height:0%;font-family:Lavi;-inkscape-font-specification:Lavi;text-align:center;letter-spacing:0px;word-spacing:0px;text-anchor:middle;fill:#000000;fill-opacity:1;stroke:none;stroke-width:1.60000002;stroke-miterlimit:4;stroke-dasharray:none"
       x="2103.9304"
       y="2421.3547"
       id="text4246-7-6-2-04"><tspan
         sodipodi:role="line"
         style="font-size:45px;line-height:1.25;stroke:none;stroke-width:1.60000002;stroke-miterlimit:4;stroke-dasharray:none"
         x="2103.9304"
         y="2421.3547"
         id="tspan5000">.i pu'o penmi</tspan><tspan
         sodipodi:role="line"
         style="font-size:45px;line-height:1.25;stroke:none;stroke-width:1.60000002;stroke-miterlimit:4;stroke-dasharray:none"
         x="2103.9304"
         y="2477.6047"
         id="tspan114">lu'a le kamni be do'e le ci lunra</tspan><tspan
         sodipodi:role="line"
         style="font-size:45px;line-height:1.25;stroke:none;stroke-width:1.60000002;stroke-miterlimit:4;stroke-dasharray:none"
         x="2103.9304"
         y="2533.8547"
         id="tspan116">.i se ni'i bo pu'o cipra fi do</tspan><tspan
         sodipodi:role="line"
         style="font-size:45px;line-height:1.25;stroke:none;stroke-width:1.60000002;stroke-miterlimit:4;stroke-dasharray:none;stroke-opacity:1"
         x="2103.9304"
         y="2590.1047"
         id="tspan4456"> .i ko tadni gi'e ba'e <tspan
   style="font-weight:bold"
   id="tspan86">tadni</tspan></tspan><tspan
         sodipodi:role="line"
         style="font-size:45px;line-height:1.25;stroke:none;stroke-width:1.60000002;stroke-miterlimit:4;stroke-dasharray:none;stroke-opacity:1"
         x="2103.9304"
         y="2646.3547"
         id="tspan112">.i ko co'u pensi</tspan><tspan
         sodipodi:role="line"
         style="font-size:45px;line-height:1.25;stroke:none;stroke-width:1.60000002;stroke-miterlimit:4;stroke-dasharray:none;stroke-opacity:1"
         x="2103.9304"
         y="2702.6047"
         id="tspan118">lo jai se bebna sidbo</tspan></text>
    <flowRoot
       xml:space="preserve"
       id="flowRoot862"
       style="font-style:normal;font-variant:normal;font-weight:normal;font-stretch:normal;font-size:0.66666669px;line-height:318.00000668%;font-family:Neuropolitical;-inkscape-font-specification:Neuropolitical;text-align:center;letter-spacing:0px;word-spacing:0px;writing-mode:lr-tb;text-anchor:middle;fill:#000000;fill-opacity:1;stroke:none;stroke-width:1px;stroke-linecap:butt;stroke-linejoin:miter;stroke-opacity:1"><flowRegion
         id="flowRegion864"><rect
           id="rect866"
           width="103.5"
           height="5.75"
           x="1181.625"
           y="3275.875" /></flowRegion><flowPara
         id="flowPara868" /></flowRoot>    <text
       xml:space="preserve"
       style="font-style:normal;font-variant:normal;font-weight:normal;font-stretch:normal;font-size:14.71681118px;line-height:0%;font-family:Lavi;-inkscape-font-specification:Lavi;text-align:center;letter-spacing:0px;word-spacing:0px;text-anchor:middle;fill:#000000;fill-opacity:1;stroke:none;stroke-width:1"
       x="818.75085"
       y="676.29504"
       id="text4246-36"
       transform="skewX(-9.9961078)"><tspan
         sodipodi:role="line"
         style="font-size:55.18804169px;line-height:1.25;stroke-width:1"
         x="818.75085"
         y="676.29504"
         id="tspan837-3">bu'u ti .oi</tspan></text>
    <text
       xml:space="preserve"
       style="font-style:normal;font-variant:normal;font-weight:normal;font-stretch:normal;font-size:19.04891968px;line-height:0%;font-family:Lavi;-inkscape-font-specification:Lavi;text-align:center;letter-spacing:0px;word-spacing:0px;text-anchor:middle;fill:#000000;fill-opacity:1;stroke:none;stroke-width:1.99999988;stroke-miterlimit:4;stroke-dasharray:none"
       x="1673.5795"
       y="1822.5054"
       id="text4246-3"
       transform="matrix(1.0148714,0,-0.1559129,0.98534652,0,0)"><tspan
         sodipodi:role="line"
         style="font-size:71.43344879px;line-height:1.25;stroke:#000000;stroke-width:1.99999988;stroke-miterlimit:4;stroke-dasharray:none;stroke-opacity:1"
         x="1673.5795"
         y="1822.5054"
         id="tspan4252-6">.e'anaisai</tspan></text>
  </g>
</svg>
