<?xml version="1.0" encoding="UTF-8" standalone="no"?>
<!-- Created with Inkscape (http://www.inkscape.org/) -->

<svg
   id="svg2"
   version="1.1"
   inkscape:version="1.2.2 (732a01da63, 2022-12-09)"
   width="2481"
   height="3503"
   sodipodi:docname="E16P01.svg"
   xmlns:inkscape="http://www.inkscape.org/namespaces/inkscape"
   xmlns:sodipodi="http://sodipodi.sourceforge.net/DTD/sodipodi-0.dtd"
   xmlns:xlink="http://www.w3.org/1999/xlink"
   xmlns="http://www.w3.org/2000/svg"
   xmlns:svg="http://www.w3.org/2000/svg"
   xmlns:rdf="http://www.w3.org/1999/02/22-rdf-syntax-ns#"
   xmlns:cc="http://creativecommons.org/ns#"
   xmlns:dc="http://purl.org/dc/elements/1.1/">
  <sodipodi:namedview
     pagecolor="#ffffff"
     bordercolor="#666666"
     inkscape:pageopacity="0"
     inkscape:pageshadow="2"
     inkscape:window-width="1813"
     inkscape:window-height="955"
     id="namedview70"
     showgrid="false"
     inkscape:zoom="3.2"
     inkscape:cx="1179.8438"
     inkscape:cy="2117.5"
     inkscape:current-layer="layer1"
     borderopacity="0.25"
     inkscape:showpageshadow="2"
     inkscape:pagecheckerboard="0"
     inkscape:deskcolor="#d1d1d1"
     inkscape:window-x="0"
     inkscape:window-y="0"
     inkscape:window-maximized="0" />
  <metadata
     id="metadata8">
    <rdf:RDF>
      <cc:Work
         rdf:about="">
        <dc:format>image/svg+xml</dc:format>
        <dc:type
           rdf:resource="http://purl.org/dc/dcmitype/StillImage" />
        <dc:title />
      </cc:Work>
    </rdf:RDF>
  </metadata>
  <defs
     id="defs6">
    <filter
       inkscape:collect="always"
       style="color-interpolation-filters:sRGB"
       id="filter5236"
       x="-0.012723276"
       width="1.0254466"
       y="-0.048335256"
       height="1.0966705">
      <feGaussianBlur
         inkscape:collect="always"
         stdDeviation="0.49168068"
         id="feGaussianBlur5238" />
    </filter>
    <filter
       inkscape:collect="always"
       style="color-interpolation-filters:sRGB"
       id="filter5236-4"
       x="-0.0077708152"
       width="1.0155416"
       y="-0.042476365"
       height="1.0849527">
      <feGaussianBlur
         inkscape:collect="always"
         stdDeviation="0.49168068"
         id="feGaussianBlur5238-0" />
    </filter>
    <filter
       inkscape:collect="always"
       style="color-interpolation-filters:sRGB"
       id="filter5236-4-1"
       x="-0.010035914"
       width="1.0200718"
       y="-0.034066863"
       height="1.0681337">
      <feGaussianBlur
         inkscape:collect="always"
         stdDeviation="0.49168068"
         id="feGaussianBlur5238-0-6" />
    </filter>
    <filter
       inkscape:collect="always"
       style="color-interpolation-filters:sRGB"
       id="filter5236-4-16"
       x="-0.006103617"
       width="1.0122072"
       y="-0.039061544"
       height="1.0781231">
      <feGaussianBlur
         inkscape:collect="always"
         stdDeviation="0.49168068"
         id="feGaussianBlur5238-0-4" />
    </filter>
    <filter
       inkscape:collect="always"
       style="color-interpolation-filters:sRGB"
       id="filter5236-4-16-8"
       x="-0.033988907"
       width="1.0679778"
       y="-0.040499392"
       height="1.0809988">
      <feGaussianBlur
         inkscape:collect="always"
         stdDeviation="0.49168068"
         id="feGaussianBlur5238-0-4-7" />
    </filter>
    <filter
       inkscape:collect="always"
       style="color-interpolation-filters:sRGB"
       id="filter5236-4-16-8-7"
       x="-0.035491403"
       width="1.0709828"
       y="-0.039372173"
       height="1.0787443">
      <feGaussianBlur
         inkscape:collect="always"
         stdDeviation="0.49168068"
         id="feGaussianBlur5238-0-4-7-6" />
    </filter>
    <filter
       inkscape:collect="always"
       style="color-interpolation-filters:sRGB"
       id="filter5236-4-6"
       x="-0.011828113"
       width="1.0236562"
       y="-0.014666159"
       height="1.0293323">
      <feGaussianBlur
         inkscape:collect="always"
         stdDeviation="0.49168068"
         id="feGaussianBlur5238-0-3" />
    </filter>
    <filter
       inkscape:collect="always"
       style="color-interpolation-filters:sRGB"
       id="filter4226"
       x="-0.016022249"
       width="1.0320445"
       y="-0.095504084"
       height="1.1910082">
      <feGaussianBlur
         inkscape:collect="always"
         stdDeviation="1.3681179"
         id="feGaussianBlur4228" />
    </filter>
  </defs>
  <sodipodi:namedview
     pagecolor="#ffffff"
     bordercolor="#666666"
     borderopacity="1"
     objecttolerance="10"
     gridtolerance="10"
     guidetolerance="10"
     inkscape:pageopacity="0"
     inkscape:pageshadow="2"
     inkscape:window-width="1920"
     inkscape:window-height="1025"
     id="namedview4"
     showgrid="false"
     inkscape:zoom="0.52304284"
     inkscape:cx="1213.0598"
     inkscape:cy="1417.2262"
     inkscape:window-x="0"
     inkscape:window-y="26"
     inkscape:window-maximized="1"
     inkscape:current-layer="layer1" />
  <g
     inkscape:groupmode="layer"
     id="layer2"
     inkscape:label="artwork"
     sodipodi:insensitive="true">
    <image
       xlink:href="../gfx_Pepper-and-Carrot_by-David-Revoy_E16P01.png"
       y="0"
       x="0"
       id="image10"
       height="3503"
       width="2481" />
  </g>
  <g
     inkscape:groupmode="layer"
     id="layer3"
     inkscape:label="speechbubbles">
    <path
       style="color:#000000;display:inline;overflow:visible;visibility:visible;fill:#ffffff;fill-opacity:1;fill-rule:nonzero;stroke:none;stroke-width:1px;marker:none;enable-background:accumulate"
       d="m 1897.7423,3047.2054 c -8.7769,-34.3834 14.6283,-125.7139 194.5576,-118.1926 179.9292,7.5213 209.186,50.5004 213.5745,63.3941 4.3886,12.8939 42.4223,85.9582 -98.01,105.299 -140.4329,19.3406 -266.237,-1.0746 -310.1221,-50.5005 z"
       id="path3525"
       inkscape:connector-curvature="0" />
    <path
       style="color:#000000;display:inline;overflow:visible;visibility:visible;fill:#ffffff;fill-opacity:1;fill-rule:nonzero;stroke:none;stroke-width:1px;marker:none;enable-background:accumulate"
       d="m 2130.3658,2846.6079 c 28.5102,33.6367 36.4742,46.9076 9.045,87.7472 -27.4293,40.8396 -9.0198,49.5027 -9.0198,49.5027 l 33.6166,-14.4462 c 0,0 51.2289,-90.6926 -33.6418,-122.8037 z"
       id="path3072"
       inkscape:connector-curvature="0" />
  </g>
  <g
     inkscape:groupmode="layer"
     id="layer1"
     inkscape:label="txt">
    <text
       xml:space="preserve"
       style="font-style:normal;font-variant:normal;font-weight:normal;font-stretch:normal;line-height:0%;font-family:Lavi;-inkscape-font-specification:Lavi;text-align:center;letter-spacing:0px;word-spacing:0px;text-anchor:middle;fill:#000000;fill-opacity:1;stroke:none"
       x="2105.5322"
       y="2997.8386"
       id="text4246"><tspan
         sodipodi:role="line"
         style="font-size:45px;line-height:1.25"
         x="2105.5322"
         y="2997.8386"
         id="tspan4144">Ne, ne, ne ir dar </tspan><tspan
         sodipodi:role="line"
         style="font-size:45px;line-height:1.25"
         x="2105.5322"
         y="3054.0886"
         id="tspan315">kartą ne, Pipire.</tspan></text>
    <text
       id="text4178-6-5-9-0-7"
       style="font-style:normal;font-variant:normal;font-weight:normal;font-stretch:normal;line-height:0%;font-family:Lavi;-inkscape-font-specification:Lavi;text-align:center;letter-spacing:0px;word-spacing:0px;text-anchor:middle;fill:#ffffff;fill-opacity:1;stroke:none;filter:url(#filter5236)"
       xml:space="preserve"
       y="3129.8394"
       x="1318.7137"
       transform="matrix(1.3362123,0.18005316,-0.73459751,1.3198391,1707.2227,-2233.4863)"><tspan
         y="3129.8394"
         x="1318.7137"
         style="font-style:normal;font-variant:normal;font-weight:normal;font-stretch:normal;font-size:28.8012px;line-height:1.25;font-family:Fondamento;-inkscape-font-specification:Fondamento;fill:#ffffff;fill-opacity:1"
         sodipodi:role="line"
         id="tspan4293-1-6-3-5">Šafronos</tspan></text>
    <text
       id="text4178-6-5-9-0-7-0"
       style="font-style:normal;font-variant:normal;font-weight:normal;font-stretch:normal;line-height:0%;font-family:Lavi;-inkscape-font-specification:Lavi;text-align:center;letter-spacing:0px;word-spacing:0px;text-anchor:middle;fill:#ffffff;fill-opacity:1;stroke:none;filter:url(#filter5236-4)"
       xml:space="preserve"
       y="3129.8394"
       x="1318.7137"
       transform="matrix(0.81623748,0.12293687,-0.45973616,0.91852476,1672.1783,-882.86153)"><tspan
         y="3129.8394"
         x="1318.7137"
         style="font-style:normal;font-variant:normal;font-weight:normal;font-stretch:normal;font-size:32.108px;line-height:1.25;font-family:Fondamento;-inkscape-font-specification:Fondamento;fill:#ffffff;fill-opacity:1"
         sodipodi:role="line"
         id="tspan4293-1-6-3-5-0">raganystės</tspan></text>
    <text
       id="text4178-6-5-9-0-7-0-9"
       style="font-style:normal;font-variant:normal;font-weight:normal;font-stretch:normal;line-height:0%;font-family:Lavi;-inkscape-font-specification:Lavi;text-align:center;letter-spacing:0px;word-spacing:0px;text-anchor:middle;opacity:1;fill:#ffffff;fill-opacity:1;stroke:none;filter:url(#filter5236-4-1)"
       xml:space="preserve"
       y="3129.8394"
       x="1318.7137"
       transform="matrix(0.43093962,0.06628576,-0.0640462,0.48957923,873.19984,498.81267)"><tspan
         y="3129.8394"
         x="1318.7137"
         style="font-style:normal;font-variant:normal;font-weight:normal;font-stretch:normal;font-size:40.6767px;line-height:1.25;font-family:Fondamento;-inkscape-font-specification:Fondamento;fill:#ffffff;fill-opacity:1"
         sodipodi:role="line"
         id="tspan4293-1-6-3-5-0-0">★★★</tspan></text>
    <text
       id="text4178-6-5-9-0-7-0-4"
       style="font-style:normal;font-variant:normal;font-weight:normal;font-stretch:normal;line-height:0%;font-family:Lavi;-inkscape-font-specification:Lavi;text-align:center;letter-spacing:0px;word-spacing:0px;text-anchor:middle;opacity:0.419;fill:#ffffff;fill-opacity:1;stroke:none;filter:url(#filter5236-4-16)"
       xml:space="preserve"
       y="3129.8394"
       x="1318.7137"
       transform="matrix(0.69640517,0.04333294,-0.30841015,0.85135761,229.90065,-350.87618)"><tspan
         y="3129.8394"
         x="1318.7137"
         style="font-style:normal;font-variant:normal;font-weight:normal;font-stretch:normal;font-size:40.6767px;line-height:1.25;font-family:Fondamento;-inkscape-font-specification:Fondamento;fill:#ffffff;fill-opacity:1"
         sodipodi:role="line"
         id="tspan4293-1-6-3-5-0-2">MĖSININKA</tspan></text>
    <text
       id="text4178-6-5-9-0-7-0-4-2"
       style="font-style:normal;font-variant:normal;font-weight:normal;font-stretch:normal;line-height:0%;font-family:Lavi;-inkscape-font-specification:Lavi;text-align:center;letter-spacing:0px;word-spacing:0px;text-anchor:middle;opacity:0.363;fill:#ffffff;fill-opacity:1;stroke:none;filter:url(#filter5236-4-16-8)"
       xml:space="preserve"
       y="3129.8394"
       x="1318.7137"
       transform="matrix(0.57056707,-0.00137851,-0.20641725,0.71364546,835.32043,261.3424)"><tspan
         y="3129.8394"
         x="1318.7137"
         style="font-style:normal;font-variant:normal;font-weight:normal;font-stretch:normal;font-size:40.6767px;line-height:1.25;font-family:Fondamento;-inkscape-font-specification:Fondamento;fill:#ffffff;fill-opacity:1"
         sodipodi:role="line"
         id="tspan4293-1-6-3-5-0-2-6">15</tspan></text>
    <text
       id="text4178-6-5-9-0-7-0-4-2-2"
       style="font-style:normal;font-variant:normal;font-weight:normal;font-stretch:normal;line-height:0%;font-family:Lavi;-inkscape-font-specification:Lavi;text-align:center;letter-spacing:0px;word-spacing:0px;text-anchor:middle;opacity:0.625;fill:#ffffff;fill-opacity:1;stroke:none;filter:url(#filter5236-4-16-8-7)"
       xml:space="preserve"
       y="3129.8394"
       x="1318.7137"
       transform="matrix(0.46040874,-0.00115287,-0.16656465,0.59683314,1208.0045,393.49946)"><tspan
         y="3129.8394"
         x="1318.7137"
         style="font-style:normal;font-variant:normal;font-weight:normal;font-stretch:normal;font-size:40.6767px;line-height:1.25;font-family:Fondamento;-inkscape-font-specification:Fondamento;fill:#ffffff;fill-opacity:1"
         sodipodi:role="line"
         id="tspan4293-1-6-3-5-0-2-6-9">13</tspan></text>
    <text
       id="text4178-6-5-9-0-7-0-6"
       style="font-style:normal;font-variant:normal;font-weight:normal;font-stretch:normal;font-size:30.8236px;line-height:0%;font-family:Lavi;-inkscape-font-specification:Lavi;text-align:center;letter-spacing:0px;word-spacing:0px;text-anchor:middle;opacity:0.589;fill:#ffffff;fill-opacity:1;stroke:none;filter:url(#filter5236-4-6)"
       xml:space="preserve"
       y="3129.8394"
       x="1318.7137"
       transform="matrix(0.63378659,-0.29184325,0.1318435,0.89584814,980.62946,-699.00122)"><tspan
         y="3129.8394"
         x="1318.7137"
         style="font-style:normal;font-variant:normal;font-weight:normal;font-stretch:normal;font-size:30.8236px;line-height:1.25;font-family:Fondamento;-inkscape-font-specification:Fondamento;fill:#ffffff;fill-opacity:1"
         sodipodi:role="line"
         id="tspan317">Žvaigždžių</tspan><tspan
         y="3168.3689"
         x="1318.7137"
         style="font-style:normal;font-variant:normal;font-weight:normal;font-stretch:normal;font-size:30.8236px;line-height:1.25;font-family:Fondamento;-inkscape-font-specification:Fondamento;fill:#ffffff;fill-opacity:1"
         sodipodi:role="line"
         id="tspan3033">gatvė</tspan></text>
    <text
       id="text4178-6-5-9-0-7-0-7"
       style="font-style:normal;font-variant:normal;font-weight:normal;font-stretch:normal;line-height:0%;font-family:Lavi;-inkscape-font-specification:Lavi;text-align:center;letter-spacing:0px;word-spacing:0px;text-anchor:middle;fill:#ffffff;fill-opacity:1;stroke:none;filter:url(#filter4226)"
       xml:space="preserve"
       y="3129.8394"
       x="1318.7137"
       transform="matrix(0.44203334,-0.07585417,-0.09311426,0.67440584,1649.4395,334.01482)"><tspan
         y="3129.8394"
         x="1318.7137"
         style="font-style:normal;font-variant:normal;font-weight:normal;font-stretch:normal;font-size:40.6767px;line-height:1.25;font-family:Fondamento;-inkscape-font-specification:Fondamento;fill:#ffffff;fill-opacity:1"
         sodipodi:role="line"
         id="tspan4293-1-6-3-5-0-6">Kirpėjas</tspan></text>
    <text
       xml:space="preserve"
       style="color:#000000;font-style:normal;font-variant:normal;font-weight:normal;font-stretch:normal;line-height:0%;font-family:Arial;-inkscape-font-specification:Arial;letter-spacing:0px;word-spacing:0px;display:inline;overflow:visible;visibility:visible;fill:#e69d76;fill-opacity:1;fill-rule:nonzero;stroke:#e99f77;stroke-width:2.93978;stroke-miterlimit:4;stroke-dasharray:none;stroke-opacity:1;marker:none;enable-background:accumulate"
       x="1516.1473"
       y="3050.0027"
       id="text4190"
       transform="matrix(0.7803437,-0.49445046,0,1.2814866,0,0)"><tspan
         sodipodi:role="line"
         id="tspan4192"
         x="1516.1473"
         y="3050.0027"
         style="font-style:normal;font-variant:normal;font-weight:normal;font-stretch:normal;font-size:38.7393px;line-height:1.25;font-family:Lavi;-inkscape-font-specification:Lavi;text-align:center;text-anchor:middle;stroke-width:2.93978;stroke-miterlimit:4;stroke-dasharray:none">Kliust</tspan></text>
    <text
       xml:space="preserve"
       style="color:#000000;font-style:normal;font-variant:normal;font-weight:normal;font-stretch:normal;line-height:0%;font-family:Arial;-inkscape-font-specification:Arial;letter-spacing:0px;word-spacing:0px;display:inline;overflow:visible;visibility:visible;fill:#e69d76;fill-opacity:1;fill-rule:nonzero;stroke:#e99f77;stroke-width:3.134;stroke-miterlimit:4;stroke-dasharray:none;stroke-opacity:1;marker:none;enable-background:accumulate"
       x="1561.5464"
       y="2922.8894"
       id="text4190-8"
       transform="matrix(0.74331779,-0.51907988,0,1.3453196,0,0)"><tspan
         sodipodi:role="line"
         id="tspan4192-5"
         x="1561.5464"
         y="2922.8894"
         style="font-style:normal;font-variant:normal;font-weight:normal;font-stretch:normal;font-size:50.3629px;line-height:1.25;font-family:Lavi;-inkscape-font-specification:Lavi;text-align:center;text-anchor:middle;stroke-width:3.134;stroke-miterlimit:4;stroke-dasharray:none">Kliust</tspan></text>
  </g>
</svg>
